{
  "OnInitSequece": [],
  "OnStartSequece": [
    {
      "TaskList": [
        {
          "$type": "RPG.GameCore.WaitCustomString",
          "CustomString": {
            "Value": "RobotGamePlay_Remove_02"
          }
        },
        {
          "$type": "RPG.GameCore.AnimSetParameter",
          "TargetType": {
            "$type": "RPG.GameCore.TargetAlias",
            "Alias": "Caster"
          },
          "AnimatorPath": "Chap01_Prop_Robot_M301_01/Chap01_Prop_Robot_M301_01",
          "ParameterName": "OutOFBattle",
          "ParameterType": "Bool",
          "Value": 1
        }
      ]
    }
  ],
  "ValueSource": {
    "Values": []
  }
}