{
  "MainMissionID": 4040213,
  "StartSubMissionList": [
    404021302
  ],
  "FinishSubMissionList": [
    404021303
  ],
  "SubMissionList": [
    {
      "MainMissionID": 4040213,
      "TakeType": "Auto",
      "TakeParamIntList": [],
      "ID": 404021301,
      "FinishType": "Talk",
      "ParamType": "Equal",
      "ParamStr1": "Mission_404021301",
      "ParamItemList": [],
      "Progress": 1
    },
    {
      "MainMissionID": 4040213,
      "MissionJsonPath": "Config/Level/Mission/4040213/Mission_404021302.json",
      "TakeType": "Auto",
      "TakeParamIntList": [],
      "ID": 404021302,
      "FinishType": "Talk",
      "ParamType": "Equal",
      "ParamStr1": "Mission_404021302",
      "ParamItemList": [],
      "Progress": 1
    },
    {
      "MainMissionID": 4040213,
      "MissionJsonPath": "Config/Level/Mission/4040213/Mission_404021303.json",
      "TakeType": "AnySequence",
      "TakeParamIntList": [
        404021302
      ],
      "ID": 404021303,
      "FinishType": "Talk",
      "ParamType": "Equal",
      "ParamStr1": "Mission_404021303",
      "ParamItemList": [],
      "Progress": 1
    }
  ]
}