{
  "MainMissionID": 4015203,
  "StartSubMissionList": [
    401520301
  ],
  "FinishSubMissionList": [
    401520312
  ],
  "SubMissionList": [
    {
      "MainMissionID": 4015203,
      "MissionJsonPath": "Config/Level/Mission/4015203/Mission_401520301.json",
      "TakeType": "Auto",
      "TakeParamIntList": [],
      "ID": 401520301,
      "FinishType": "Talk",
      "ParamType": "Equal",
      "ParamStr1": "Mission_401520301",
      "Progress": 1
    },
    {
      "MainMissionID": 4015203,
      "MissionJsonPath": "Config/Level/Mission/4015203/Mission_401520302.json",
      "TakeType": "AnySequence",
      "TakeParamIntList": [
        401520313
      ],
      "ID": 401520302,
      "MazePlaneID": 20222,
      "MazeFloorID": 20222001,
      "FinishType": "PropState",
      "ParamType": "Equal",
      "ParamInt1": 144,
      "ParamInt2": 300001,
      "ParamInt3": 1,
      "Progress": 1
    },
    {
      "MainMissionID": 4015203,
      "MissionJsonPath": "Config/Level/Mission/4015203/Mission_401520303.json",
      "TakeType": "AnySequence",
      "TakeParamIntList": [
        401520302
      ],
      "ID": 401520303,
      "FinishType": "Talk",
      "ParamType": "Equal",
      "ParamStr1": "Mission_401520303",
      "Progress": 1
    },
    {
      "MainMissionID": 4015203,
      "MissionJsonPath": "Config/Level/Mission/4015203/Mission_401520304.json",
      "TakeType": "AnySequence",
      "TakeParamIntList": [
        401520303
      ],
      "ID": 401520304,
      "MazePlaneID": 20222,
      "MazeFloorID": 20222001,
      "FinishType": "PropState",
      "ParamType": "Equal",
      "ParamInt1": 141,
      "ParamInt2": 300004,
      "ParamInt3": 13,
      "Progress": 1
    },
    {
      "MainMissionID": 4015203,
      "MissionJsonPath": "Config/Level/Mission/4015203/Mission_401520305.json",
      "TakeType": "AnySequence",
      "TakeParamIntList": [
        401520304
      ],
      "ID": 401520305,
      "FinishType": "Talk",
      "ParamType": "Equal",
      "ParamStr1": "Mission_401520305",
      "Progress": 1
    },
    {
      "MainMissionID": 4015203,
      "MissionJsonPath": "Config/Level/Mission/4015203/Mission_401520306.json",
      "TakeType": "AnySequence",
      "TakeParamIntList": [
        401520314
      ],
      "ID": 401520306,
      "MazePlaneID": 20222,
      "MazeFloorID": 20222001,
      "FinishType": "PropState",
      "ParamType": "Equal",
      "ParamInt1": 145,
      "ParamInt2": 300001,
      "ParamInt3": 1,
      "Progress": 1
    },
    {
      "MainMissionID": 4015203,
      "MissionJsonPath": "Config/Level/Mission/4015203/Mission_401520307.json",
      "TakeType": "AnySequence",
      "TakeParamIntList": [
        401520306
      ],
      "ID": 401520307,
      "FinishType": "Talk",
      "ParamType": "Equal",
      "ParamStr1": "Mission_401520307",
      "Progress": 1
    },
    {
      "MainMissionID": 4015203,
      "MissionJsonPath": "Config/Level/Mission/4015203/Mission_401520308.json",
      "TakeType": "AnySequence",
      "TakeParamIntList": [
        401520307
      ],
      "ID": 401520308,
      "MazePlaneID": 20222,
      "MazeFloorID": 20222001,
      "FinishType": "PropState",
      "ParamType": "Equal",
      "ParamInt1": 141,
      "ParamInt2": 300005,
      "ParamInt3": 13,
      "Progress": 1
    },
    {
      "MainMissionID": 4015203,
      "MissionJsonPath": "Config/Level/Mission/4015203/Mission_401520309.json",
      "TakeType": "AnySequence",
      "TakeParamIntList": [
        401520308
      ],
      "ID": 401520309,
      "FinishType": "Talk",
      "ParamType": "Equal",
      "ParamStr1": "Mission_401520309",
      "Progress": 1
    },
    {
      "MainMissionID": 4015203,
      "MissionJsonPath": "Config/Level/Mission/4015203/Mission_401520310.json",
      "TakeType": "AnySequence",
      "TakeParamIntList": [
        401520315
      ],
      "ID": 401520310,
      "MazePlaneID": 20222,
      "MazeFloorID": 20222001,
      "FinishType": "PropState",
      "ParamType": "Equal",
      "ParamInt1": 146,
      "ParamInt2": 300001,
      "ParamInt3": 1,
      "Progress": 1
    },
    {
      "MainMissionID": 4015203,
      "MissionJsonPath": "Config/Level/Mission/4015203/Mission_401520311.json",
      "TakeType": "AnySequence",
      "TakeParamIntList": [
        401520310
      ],
      "ID": 401520311,
      "FinishType": "Talk",
      "ParamType": "Equal",
      "ParamStr1": "Mission_401520311",
      "Progress": 1
    },
    {
      "MainMissionID": 4015203,
      "MissionJsonPath": "Config/Level/Mission/4015203/Mission_401520312.json",
      "TakeType": "AnySequence",
      "TakeParamIntList": [
        401520311
      ],
      "ID": 401520312,
      "MazePlaneID": 20222,
      "MazeFloorID": 20222001,
      "FinishType": "PropState",
      "ParamType": "Equal",
      "ParamInt1": 141,
      "ParamInt2": 300006,
      "ParamInt3": 13,
      "Progress": 1
    },
    {
      "MainMissionID": 4015203,
      "MissionJsonPath": "Config/Level/Mission/4015203/Mission_401520313.json",
      "TakeType": "AnySequence",
      "TakeParamIntList": [
        401520301
      ],
      "ID": 401520313,
      "FinishType": "Talk",
      "ParamType": "Equal",
      "ParamStr1": "Mission_401520313",
      "Progress": 1
    },
    {
      "MainMissionID": 4015203,
      "MissionJsonPath": "Config/Level/Mission/4015203/Mission_401520314.json",
      "TakeType": "AnySequence",
      "TakeParamIntList": [
        401520305
      ],
      "ID": 401520314,
      "FinishType": "Talk",
      "ParamType": "Equal",
      "ParamStr1": "Mission_401520314",
      "Progress": 1
    },
    {
      "MainMissionID": 4015203,
      "MissionJsonPath": "Config/Level/Mission/4015203/Mission_401520315.json",
      "TakeType": "AnySequence",
      "TakeParamIntList": [
        401520309
      ],
      "ID": 401520315,
      "FinishType": "Talk",
      "ParamType": "Equal",
      "ParamStr1": "Mission_401520315",
      "Progress": 1
    }
  ]
}