{
  "OnInitSequece": [],
  "OnStartSequece": [
    {
      "TaskList": [
        {
          "$type": "RPG.GameCore.CaptureNPCToCharacter",
          "GroupID": {
            "IsDynamic": false,
            "FixedValue": {
              "Value": 15
            }
          },
          "GroupNpcID": {
            "IsDynamic": false,
            "FixedValue": {
              "Value": 400010
            }
          },
          "CharacterUniqueName": {
            "Value": "Manya"
          }
        }
      ]
    },
    {
      "IsLoop": true,
      "TaskList": [
        {
          "$type": "RPG.GameCore.WaitCustomString",
          "CustomString": {
            "Value": "ManyaTalk1"
          }
        },
        {
          "$type": "RPG.GameCore.CharacterTriggerFreeStyle",
          "CharacterUniqueName": "Manya",
          "StoryAvatarID": "NPC_Lady",
          "StartMotion": "Talk01",
          "StoryMotionID": 100102020
        }
      ]
    },
    {
      "IsLoop": true,
      "TaskList": [
        {
          "$type": "RPG.GameCore.WaitCustomString",
          "CustomString": {
            "Value": "ManyaHoldHead"
          }
        },
        {
          "$type": "RPG.GameCore.CharacterTriggerFreeStyle",
          "CharacterUniqueName": "Manya",
          "StoryAvatarID": "NPC_Lady",
          "StartMotion": "HoldHead01BS",
          "StoryMotionID": 100102034
        }
      ]
    },
    {
      "TaskList": [
        {
          "$type": "RPG.GameCore.LevelPerformanceInitialize",
          "PerformanceType": "E",
          "LockCamera": false,
          "CreateCharacterList": [],
          "EntityVisiableList": [],
          "HideMunicipalCrowd": false,
          "HideMunicipalPedestrian": false,
          "StreamingCentersInBlackMask": [],
          "StreamingCentersAfterBlackMask": [],
          "MarkStreamingItems": []
        },
        {
          "$type": "RPG.GameCore.AdvNpcFaceToPlayer",
          "FinishImmadiate": true
        },
        {
          "$type": "RPG.GameCore.PlaySimpleTalk",
          "SimpleTalkList": [
            {
              "TalkSentenceID": 301120512,
              "ProtectTime": 0.3
            }
          ]
        },
        {
          "$type": "RPG.GameCore.WaitSimpleTalkFinish"
        },
        {
          "$type": "RPG.GameCore.PlayOptionTalk",
          "OptionList": [
            {
              "TalkSentenceID": 301120513,
              "OptionIconType": "ChatContinueIcon",
              "TriggerCustomString": "TalkSentence_301120514"
            }
          ]
        }
      ]
    },
    {
      "TaskList": [
        {
          "$type": "RPG.GameCore.WaitCustomString",
          "CustomString": {
            "Value": "TalkSentence_301120514"
          }
        },
        {
          "$type": "RPG.GameCore.TriggerCustomString",
          "CustomString": {
            "Value": "ManyaTalk1"
          }
        },
        {
          "$type": "RPG.GameCore.PlaySimpleTalk",
          "SimpleTalkList": [
            {
              "TalkSentenceID": 301120514,
              "ProtectTime": 0.3
            },
            {
              "TalkSentenceID": 301120515,
              "ProtectTime": 0.3
            }
          ]
        },
        {
          "$type": "RPG.GameCore.WaitSimpleTalkFinish"
        },
        {
          "$type": "RPG.GameCore.PlayOptionTalk",
          "OptionList": [
            {
              "TalkSentenceID": 301120516,
              "OptionIconType": "ChatContinueIcon",
              "TriggerCustomString": "TalkSentence_301120518"
            },
            {
              "TalkSentenceID": 301120517,
              "OptionIconType": "ChatContinueIcon",
              "TriggerCustomString": "TalkSentence_301120518"
            }
          ]
        }
      ]
    },
    {
      "TaskList": [
        {
          "$type": "RPG.GameCore.WaitCustomString",
          "CustomString": {
            "Value": "TalkSentence_301120518"
          }
        },
        {
          "$type": "RPG.GameCore.TriggerCustomString",
          "CustomString": {
            "Value": "ManyaHoldHead"
          }
        },
        {
          "$type": "RPG.GameCore.PlaySimpleTalk",
          "SimpleTalkList": [
            {
              "TalkSentenceID": 301120518,
              "ProtectTime": 0.3
            },
            {
              "TalkSentenceID": 301120519,
              "ProtectTime": 0.3
            },
            {
              "TalkSentenceID": 301120520,
              "ProtectTime": 0.3
            },
            {
              "TalkSentenceID": 301120521,
              "ProtectTime": 0.3
            }
          ]
        },
        {
          "$type": "RPG.GameCore.WaitSimpleTalkFinish"
        },
        {
          "$type": "RPG.GameCore.EndPerformance"
        }
      ]
    },
    {
      "TaskList": [
        {
          "$type": "RPG.GameCore.WaitPerformanceEnd"
        },
        {
          "$type": "RPG.GameCore.FinishLevelGraph"
        }
      ]
    }
  ]
}