{
  "RootModelPath": "Characters/CharacterPrefabsTemp/NPC/Monster/XP_Minion01_01/NPC_Monster_XP_Minion01_01_Logic.prefab",
  "LodModelConfig": {
    "Art": {
      "RuntimeName": "NPC_Monster_XP_Minion01_01",
      "LodPath": [
        "Characters/CharacterPrefabsTemp/NPC/Monster/XP_Minion01_01/NPC_Monster_XP_Minion01_01_Render.prefab"
      ]
    }
  }
}