{
  "States": [
    {
      "AnimName": "Closed"
    },
    {
      "State": "Open",
      "AnimName": "Opened"
    }
  ],
  "DisableAnimEventLayers": [
    "Dissolve Layer"
  ],
  "AnimatorStateGroupEvents": [
    {
      "States": [
        {
          "Name": "Closed"
        }
      ],
      "OnEnter": [
        {
          "$type": "RPG.GameCore.PropEnableCollider",
          "TargetType": {
            "$type": "RPG.GameCore.TargetFetchAdvPropEx"
          }
        },
        {
          "$type": "RPG.GameCore.PropSetVisibility",
          "TargetType": {
            "$type": "RPG.GameCore.TargetFetchAdvPropEx"
          }
        }
      ]
    },
    {
      "States": [
        {
          "Name": "Open"
        }
      ],
      "OnEnter": [
        {
          "$type": "RPG.GameCore.PropSetVisibility",
          "Visible": true,
          "TargetType": {
            "$type": "RPG.GameCore.TargetFetchAdvPropEx"
          }
        },
        {
          "$type": "RPG.GameCore.TriggerSound",
          "SoundName": "Ev_sfx_hertaspacestation_pad_completepuzzle"
        },
        {
          "$type": "RPG.GameCore.PropEnableCollider",
          "Enabled": true,
          "TargetType": {
            "$type": "RPG.GameCore.TargetFetchAdvPropEx"
          }
        }
      ]
    },
    {
      "States": [
        {
          "Name": "Opened"
        }
      ],
      "OnEnter": [
        {
          "$type": "RPG.GameCore.PropEnableCollider",
          "Enabled": true,
          "TargetType": {
            "$type": "RPG.GameCore.TargetFetchAdvPropEx"
          }
        }
      ]
    }
  ]
}