{
  "MainMissionID": 4040051,
  "StartSubMissionList": [
    404000803
  ],
  "FinishSubMissionList": [
    404000804
  ],
  "SubMissionList": [
    {
      "MainMissionID": 4040051,
      "TakeType": "Auto",
      "ID": 404000803,
      "FinishType": "EnterFloor",
      "ParamType": "Equal",
      "ParamInt1": 20003,
      "ParamInt2": 20003001,
      "ParamItemList": [],
      "Progress": 1
    },
    {
      "MainMissionID": 4040051,
      "MissionJsonPath": "Config/Level/Mission/4040008/Mission_404000804.json",
      "TakeType": "AnySequence",
      "TakeParamIntList": [
        404000803
      ],
      "ID": 404000804,
      "FinishType": "Talk",
      "ParamType": "Equal",
      "ParamStr1": "Mission_404000804",
      "ParamItemList": [],
      "Progress": 1
    }
  ]
}