{
  "CharacterHUDOffset": {
    "X": 0.2,
    "Y": 1.5,
    "Z": 1
  },
  "BuffPanelOffset": {
    "X": 0,
    "Y": 1,
    "Z": 0
  },
  "HitBoxOffset": {
    "X": -0.5,
    "Y": -0.2,
    "Z": 0
  },
  "HitBoxWidth": 1.1,
  "HitBoxHeight": 0.2,
  "Location": {},
  "VisualRadius": 2.2,
  "AnimEventConfigList": [
    "Config/ConfigAnimEvents/Monster/Designer/Monster_AML_Boss_00_Designer_AnimEvent.json"
  ],
  "SkillList": [
    {
      "Name": "Skill07",
      "UseType": "SelectEntity",
      "TargetInfo": {
        "TargetType": "Caster"
      },
      "ReadyAnimState": "StandBy",
      "EntryAbility": "Monster_AML_Boss_00_Part2_Skill07_Phase01"
    },
    {
      "Name": "Skill08",
      "UseType": "SelectEntity",
      "TargetInfo": {
        "TargetType": "Caster"
      },
      "ReadyAnimState": "StandBy",
      "EntryAbility": "Monster_AML_Boss_00_Part2_Skill08_Phase01"
    },
    {
      "Name": "Skill09",
      "UseType": "SelectEntity",
      "TargetInfo": {
        "TargetType": "Caster"
      },
      "ReadyAnimState": "StandBy",
      "EntryAbility": "Monster_AML_Boss_00_Part2_Skill09_Phase01"
    },
    {
      "Name": "Skill10",
      "UseType": "SelectEntity",
      "TargetInfo": {
        "TargetType": "EnemySelect"
      },
      "ReadyAnimState": "StandBy",
      "EntryAbility": "Monster_AML_Boss_00_Part2_Skill10_Phase01"
    },
    {
      "Name": "Skill11",
      "UseType": "SelectEntity",
      "TargetInfo": {
        "TargetType": "EnemySelect"
      },
      "ReadyAnimState": "StandBy",
      "EntryAbility": "Monster_AML_Boss_00_Part2_Skill11_Phase01"
    },
    {
      "Name": "Skill12",
      "UseType": "SelectEntity",
      "TargetInfo": {
        "TargetType": "AllEnemy"
      },
      "ReadyAnimState": "StandBy",
      "EntryAbility": "Monster_AML_Boss_00_Part2_Skill12_Phase01"
    },
    {
      "Name": "PassiveSkill01",
      "SkillType": "Passive",
      "UseType": "Passive",
      "TargetInfo": {
        "TargetType": "Caster"
      },
      "EntryAbility": "Monster_Common_PassiveSkill_StanceBreak_Action"
    },
    {
      "Name": "PassiveSkill02",
      "SkillType": "Passive",
      "UseType": "Passive",
      "TargetInfo": {
        "TargetType": "Caster"
      },
      "EntryAbility": "Monster_Common_MuteHitFly"
    },
    {
      "Name": "PassiveSkill03",
      "SkillType": "Passive",
      "UseType": "Passive",
      "TargetInfo": {
        "TargetType": "Caster"
      },
      "EntryAbility": "WMonster_W0_Boss_00_Part2_PassiveSkill03"
    },
    {
      "Name": "PassiveSkill04",
      "SkillType": "Passive",
      "UseType": "Passive",
      "TargetInfo": {
        "TargetType": "Caster"
      },
      "EntryAbility": "Monster_AML_Boss_00_Part2_HitEffect"
    }
  ],
  "AbilityList": [
    "Monster_Common_PassiveSkill_StanceBreak_Action",
    "Monster_Common_MuteHitFly",
    "Monster_AML_Boss_00_Part2_HitEffect"
  ],
  "SkillAbilityList": [
    {
      "Skill": "Skill07",
      "AbilityList": [
        "Monster_AML_Boss_00_Part2_Skill07_Phase01",
        "Monster_AML_Boss_00_Part2_Skill07_Phase02",
        "Monster_AML_Boss_00_Part2_Skill07_Camera"
      ]
    },
    {
      "Skill": "Skill08",
      "AbilityList": [
        "Monster_AML_Boss_00_Part2_Skill08_Phase01",
        "Monster_AML_Boss_00_Part2_Skill08_Phase02",
        "Monster_AML_Boss_00_Part2_Skill08_Camera"
      ]
    },
    {
      "Skill": "Skill09",
      "AbilityList": [
        "Monster_AML_Boss_00_Part2_Skill09_Phase01",
        "Monster_AML_Boss_00_Part2_Skill09_Phase02",
        "Monster_AML_Boss_00_Part2_Skill09_Camera"
      ]
    },
    {
      "Skill": "Skill10",
      "AbilityList": [
        "Monster_AML_Boss_00_Part2_Skill10_Phase01",
        "Monster_AML_Boss_00_Part2_Skill10_Phase02",
        "Monster_AML_Boss_00_Part2_Skill10_Camera"
      ]
    },
    {
      "Skill": "Skill11",
      "AbilityList": [
        "Monster_AML_Boss_00_Part2_Skill11_Phase01",
        "Monster_AML_Boss_00_Part2_Skill11_Phase02",
        "Monster_AML_Boss_00_Part2_Skill11_Camera"
      ]
    },
    {
      "Skill": "Skill12",
      "AbilityList": [
        "Monster_AML_Boss_00_Part2_Skill12_Phase01",
        "Monster_AML_Boss_00_Part2_Skill12_Phase02",
        "Monster_AML_Boss_00_Part2_Skill12_Camera"
      ]
    },
    {
      "Skill": "PassiveSkill03",
      "AbilityList": [
        "WMonster_W0_Boss_00_Part2_PassiveSkill03"
      ]
    }
  ],
  "DynamicValues": {
    "Values": {
      "1092127185": {
        "ReadInfo": {
          "Type": "None",
          "Str": "Skill07"
        }
      },
      "-1495385914": {
        "ReadInfo": {
          "Type": "SkillTreeParam",
          "Str": "Skill07"
        }
      },
      "-626641222": {
        "ReadInfo": {
          "Type": "None",
          "Str": "Skill08"
        }
      },
      "-790768061": {
        "ReadInfo": {
          "Type": "SkillTreeParam",
          "Str": "Skill08"
        }
      },
      "-521597857": {
        "ReadInfo": {
          "Type": "None",
          "Str": "Skill09"
        }
      },
      "2045873256": {
        "ReadInfo": {
          "Type": "SkillTreeParam",
          "Str": "Skill09"
        }
      },
      "-1787455043": {
        "ReadInfo": {
          "Type": "None",
          "Str": "Skill10"
        }
      },
      "1676648456": {
        "ReadInfo": {
          "Type": "None",
          "Str": "Skill11"
        }
      },
      "890061327": {
        "ReadInfo": {
          "Type": "SkillTreeParam",
          "Str": "Skill11"
        }
      },
      "1575268359": {
        "ReadInfo": {
          "Type": "None",
          "Str": "Skill12"
        }
      },
      "-1384713919": {
        "ReadInfo": {
          "Type": "None",
          "Str": "PassiveSkill03"
        }
      }
    }
  },
  "CustomValues": {
    "AIFlag": 1
  },
  "WeaponType": "WP_Scythe",
  "ArmorType": "Armor_Metal",
  "DisableAnimEventLayers": [
    "Riboon Layer"
  ],
  "MainPartID": 8015010
}