{
  "OnInitSequece": [],
  "OnStartSequece": [
    {
      "TaskList": [
        {
          "$type": "RPG.GameCore.LevelPerformanceInitialize",
          "PerformanceType": "C",
          "AreaPrefabPath": "Story/Mission/1010101/Story101010102.prefab",
          "CreateCharacterList": [
            {
              "CharacterUniqueName": "Mar_7th_00_C00",
              "AvatarID": "NPC_Avatar_Maid_Mar_7th_00"
            },
            {
              "CharacterUniqueName": "DanHeng_00_C00",
              "AvatarID": "NPC_Avatar_Lad_DanHeng_00"
            },
            {
              "CharacterUniqueName": "PlayerBoy_00_C00",
              "AvatarID": "NPC_Avatar_Lad_PlayerBoy_00"
            },
            {
              "CharacterUniqueName": "PlayerGirl_00_C00",
              "AvatarID": "NPC_Avatar_Miss_PlayerGirl_00"
            }
          ],
          "EntityVisiableList": [],
          "HideProp": true,
          "HideLocalPlayer": true,
          "EnableRootMotion": false,
          "StreamingCentersInBlackMask": [],
          "StreamingCentersAfterBlackMask": []
        },
        {
          "$type": "RPG.GameCore.PlayTimeline",
          "TimelineName": "Story/Mission/1010101/Story10101010201.playable",
          "Type": "Story",
          "Parameters": []
        },
        {
          "$type": "RPG.GameCore.EndPerformance"
        }
      ]
    },
    {
      "TaskList": [
        {
          "$type": "RPG.GameCore.WaitPerformanceEnd"
        },
        {
          "$type": "RPG.GameCore.FinishLevelGraph"
        }
      ]
    }
  ]
}