{
  "OnInitSequece": [],
  "OnStartSequece": [
    {
      "TaskList": [
        {
          "$type": "RPG.GameCore.LevelPerformanceInitialize",
          "PerformanceType": "E",
          "CreateCharacterList": [],
          "EntityVisiableList": [],
          "HideMunicipalCrowd": false,
          "HideMunicipalPedestrian": false,
          "PropVisiableList": [],
          "StreamingCentersInBlackMask": [],
          "StreamingCentersAfterBlackMask": [],
          "MarkStreamingItems": []
        },
        {
          "$type": "RPG.GameCore.AdvNpcFaceToPlayer",
          "GroupID": 34,
          "GroupNpcID": 400001,
          "FinishImmadiate": true
        },
        {
          "$type": "RPG.GameCore.PlaySimpleTalk",
          "SimpleTalkList": [
            {
              "TalkSentenceID": 401010637,
              "ProtectTime": 0.3
            },
            {
              "TalkSentenceID": 401010638
            }
          ]
        },
        {
          "$type": "RPG.GameCore.WaitSimpleTalkFinish"
        },
        {
          "$type": "RPG.GameCore.TriggerCustomString",
          "CustomString": {
            "Value": "4010105_truth_followtalk"
          }
        }
      ]
    },
    {
      "TaskList": [
        {
          "$type": "RPG.GameCore.WaitCustomString",
          "CustomString": {
            "Value": "4010105_truth_followtalk"
          }
        },
        {
          "$type": "RPG.GameCore.PlayOptionTalk",
          "OptionList": [
            {
              "TalkSentenceID": 401010639,
              "OptionIconType": "ChatContinueIcon",
              "TriggerCustomString": "4010105_truth_followtalk1"
            },
            {
              "TalkSentenceID": 401010640,
              "OptionIconType": "ChatContinueIcon",
              "TriggerCustomString": "4010105_truth_followtalk1"
            },
            {
              "TalkSentenceID": 401010641,
              "OptionIconType": "ChatContinueIcon",
              "TriggerCustomString": "4010105_truth_followtalk1"
            }
          ]
        }
      ]
    },
    {
      "TaskList": [
        {
          "$type": "RPG.GameCore.WaitCustomString",
          "CustomString": {
            "Value": "4010105_truth_followtalk1"
          }
        },
        {
          "$type": "RPG.GameCore.PlaySimpleTalk",
          "SimpleTalkList": [
            {
              "TalkSentenceID": 401010642,
              "ProtectTime": 0.3
            },
            {
              "TalkSentenceID": 401010643
            },
            {
              "TalkSentenceID": 401010644
            }
          ]
        },
        {
          "$type": "RPG.GameCore.WaitSimpleTalkFinish"
        },
        {
          "$type": "RPG.GameCore.TriggerCustomString",
          "CustomString": {
            "Value": "4010105_truth_followtalk2"
          }
        }
      ]
    },
    {
      "TaskList": [
        {
          "$type": "RPG.GameCore.WaitCustomString",
          "CustomString": {
            "Value": "4010105_truth_followtalk2"
          }
        },
        {
          "$type": "RPG.GameCore.PlaySimpleTalk",
          "SimpleTalkList": [
            {
              "TalkSentenceID": 401010646,
              "ProtectTime": 0.3
            }
          ]
        },
        {
          "$type": "RPG.GameCore.WaitSimpleTalkFinish"
        },
        {
          "$type": "RPG.GameCore.TriggerCustomString",
          "CustomString": {
            "Value": "Wait_Option_401010567_10"
          }
        }
      ]
    },
    {
      "IsLoop": true,
      "TaskList": [
        {
          "$type": "RPG.GameCore.WaitCustomString",
          "CustomString": {
            "Value": "Wait_Option_401010567_10"
          }
        },
        {
          "$type": "RPG.GameCore.PlayOptionTalk",
          "OptionList": [
            {
              "TalkSentenceID": 401010701,
              "OptionIconType": "ChatContinueIcon",
              "TriggerCustomString": "4010105_enter"
            },
            {
              "TalkSentenceID": 401010702,
              "OptionIconType": "ShopIcon",
              "TriggerCustomString": "4010105_entershop"
            },
            {
              "TalkSentenceID": 401010648,
              "OptionIconType": "ChatLoopIcon",
              "TriggerCustomString": "TalkSentence_401010649"
            },
            {
              "TalkSentenceID": 401010696,
              "OptionIconType": "ChatOutIcon",
              "TriggerCustomString": "ALL_TALK_END"
            }
          ]
        }
      ]
    },
    {
      "IsLoop": true,
      "TaskList": [
        {
          "$type": "RPG.GameCore.WaitCustomString",
          "CustomString": {
            "Value": "Wait_Option_quit"
          }
        },
        {
          "$type": "RPG.GameCore.PlaySimpleTalk",
          "SimpleTalkList": [
            {
              "TalkSentenceID": 401010646,
              "ProtectTime": 0.3
            }
          ]
        },
        {
          "$type": "RPG.GameCore.PlayOptionTalk",
          "OptionList": [
            {
              "TalkSentenceID": 401010701,
              "OptionIconType": "ChatContinueIcon",
              "TriggerCustomString": "4010105_enter"
            },
            {
              "TalkSentenceID": 401010702,
              "OptionIconType": "ShopIcon",
              "TriggerCustomString": "4010105_entershop"
            },
            {
              "TalkSentenceID": 401010648,
              "OptionIconType": "ChatLoopIcon",
              "TriggerCustomString": "TalkSentence_401010649"
            },
            {
              "TalkSentenceID": 401010696,
              "OptionIconType": "ChatOutIcon",
              "TriggerCustomString": "ALL_TALK_END"
            }
          ]
        }
      ]
    },
    {
      "TaskList": [
        {
          "$type": "RPG.GameCore.WaitCustomString",
          "CustomString": {
            "Value": "4010105_enter"
          }
        },
        {
          "$type": "RPG.GameCore.ShowGroupChallengeSelectPage"
        },
        {
          "$type": "RPG.GameCore.EndPerformance"
        }
      ]
    },
    {
      "TaskList": [
        {
          "$type": "RPG.GameCore.WaitCustomString",
          "CustomString": {
            "Value": "4010105_entershop"
          }
        },
        {
          "$type": "RPG.GameCore.ShowShop",
          "ShopType": 17,
          "TaskID": []
        },
        {
          "$type": "RPG.GameCore.EndPerformance"
        }
      ]
    },
    {
      "IsLoop": true,
      "TaskList": [
        {
          "$type": "RPG.GameCore.WaitCustomString",
          "CustomString": {
            "Value": "TalkSentence_401010649"
          }
        },
        {
          "$type": "RPG.GameCore.PlaySimpleTalk",
          "SimpleTalkList": [
            {
              "TalkSentenceID": 401010649,
              "ProtectTime": 0.3
            }
          ]
        },
        {
          "$type": "RPG.GameCore.WaitSimpleTalkFinish"
        },
        {
          "$type": "RPG.GameCore.TriggerCustomString",
          "CustomString": {
            "Value": "Wait_Option_401010567_14"
          }
        }
      ]
    },
    {
      "IsLoop": true,
      "TaskList": [
        {
          "$type": "RPG.GameCore.WaitCustomString",
          "CustomString": {
            "Value": "Wait_Option_401010567_14"
          }
        },
        {
          "$type": "RPG.GameCore.PlayOptionTalk",
          "OptionList": [
            {
              "TalkSentenceID": 401010650,
              "OptionIconType": "ChatLoopIcon",
              "TriggerCustomString": "TalkSentence_401010651"
            },
            {
              "TalkSentenceID": 401010667,
              "OptionIconType": "ChatLoopIcon",
              "TriggerCustomString": "TalkSentence_401010668"
            },
            {
              "TalkSentenceID": 401010683,
              "OptionIconType": "ChatLoopIcon",
              "TriggerCustomString": "TalkSentence_401010684"
            },
            {
              "TalkSentenceID": 401010695,
              "OptionIconType": "ChatBackIcon",
              "TriggerCustomString": "Wait_Option_quit"
            }
          ],
          "HideSelected": true
        }
      ]
    },
    {
      "IsLoop": true,
      "TaskList": [
        {
          "$type": "RPG.GameCore.WaitCustomString",
          "CustomString": {
            "Value": "TalkSentence_401010651"
          }
        },
        {
          "$type": "RPG.GameCore.PlaySimpleTalk",
          "SimpleTalkList": [
            {
              "TalkSentenceID": 401010651,
              "ProtectTime": 0.3
            }
          ]
        },
        {
          "$type": "RPG.GameCore.WaitSimpleTalkFinish"
        },
        {
          "$type": "RPG.GameCore.TriggerCustomString",
          "CustomString": {
            "Value": "Wait_Option_401010567_17"
          }
        }
      ]
    },
    {
      "IsLoop": true,
      "TaskList": [
        {
          "$type": "RPG.GameCore.WaitCustomString",
          "CustomString": {
            "Value": "Wait_Option_401010567_17"
          }
        },
        {
          "$type": "RPG.GameCore.PlayOptionTalk",
          "OptionList": [
            {
              "TalkSentenceID": 401010652,
              "OptionIconType": "ChatLoopIcon",
              "TriggerCustomString": "TalkSentence_401010653"
            },
            {
              "TalkSentenceID": 401010657,
              "OptionIconType": "ChatLoopIcon",
              "TriggerCustomString": "TalkSentence_401010658"
            },
            {
              "TalkSentenceID": 401010662,
              "OptionIconType": "ChatLoopIcon",
              "TriggerCustomString": "TalkSentence_401010663"
            },
            {
              "TalkSentenceID": 401010666,
              "OptionIconType": "ChatBackIcon",
              "TriggerCustomString": "Wait_Option_401010567_14"
            }
          ],
          "HideSelected": true
        }
      ]
    },
    {
      "IsLoop": true,
      "TaskList": [
        {
          "$type": "RPG.GameCore.WaitCustomString",
          "CustomString": {
            "Value": "TalkSentence_401010653"
          }
        },
        {
          "$type": "RPG.GameCore.PlaySimpleTalk",
          "SimpleTalkList": [
            {
              "TalkSentenceID": 401010653,
              "ProtectTime": 0.3
            },
            {
              "TalkSentenceID": 401010654,
              "ProtectTime": 0.3
            },
            {
              "TalkSentenceID": 401010655,
              "ProtectTime": 0.3
            },
            {
              "TalkSentenceID": 401010656,
              "ProtectTime": 0.3
            }
          ]
        },
        {
          "$type": "RPG.GameCore.WaitSimpleTalkFinish"
        },
        {
          "$type": "RPG.GameCore.TriggerCustomString",
          "CustomString": {
            "Value": "Wait_Option_401010567_17"
          }
        }
      ]
    },
    {
      "IsLoop": true,
      "TaskList": [
        {
          "$type": "RPG.GameCore.WaitCustomString",
          "CustomString": {
            "Value": "TalkSentence_401010658"
          }
        },
        {
          "$type": "RPG.GameCore.PlaySimpleTalk",
          "SimpleTalkList": [
            {
              "TalkSentenceID": 401010658,
              "ProtectTime": 0.3
            },
            {
              "TalkSentenceID": 401010659,
              "ProtectTime": 0.3
            },
            {
              "TalkSentenceID": 401010660,
              "ProtectTime": 0.3
            },
            {
              "TalkSentenceID": 401010661,
              "ProtectTime": 0.3
            }
          ]
        },
        {
          "$type": "RPG.GameCore.WaitSimpleTalkFinish"
        },
        {
          "$type": "RPG.GameCore.TriggerCustomString",
          "CustomString": {
            "Value": "Wait_Option_401010567_17"
          }
        }
      ]
    },
    {
      "IsLoop": true,
      "TaskList": [
        {
          "$type": "RPG.GameCore.WaitCustomString",
          "CustomString": {
            "Value": "TalkSentence_401010663"
          }
        },
        {
          "$type": "RPG.GameCore.PlaySimpleTalk",
          "SimpleTalkList": [
            {
              "TalkSentenceID": 401010663,
              "ProtectTime": 0.3
            },
            {
              "TalkSentenceID": 401010664,
              "ProtectTime": 0.3
            },
            {
              "TalkSentenceID": 401010665,
              "ProtectTime": 0.3
            }
          ]
        },
        {
          "$type": "RPG.GameCore.WaitSimpleTalkFinish"
        },
        {
          "$type": "RPG.GameCore.TriggerCustomString",
          "CustomString": {
            "Value": "Wait_Option_401010567_17"
          }
        }
      ]
    },
    {
      "IsLoop": true,
      "TaskList": [
        {
          "$type": "RPG.GameCore.WaitCustomString",
          "CustomString": {
            "Value": "TalkSentence_401010668"
          }
        },
        {
          "$type": "RPG.GameCore.PlaySimpleTalk",
          "SimpleTalkList": [
            {
              "TalkSentenceID": 401010668,
              "ProtectTime": 0.3
            }
          ]
        },
        {
          "$type": "RPG.GameCore.WaitSimpleTalkFinish"
        },
        {
          "$type": "RPG.GameCore.TriggerCustomString",
          "CustomString": {
            "Value": "Wait_Option_401010567_36"
          }
        }
      ]
    },
    {
      "IsLoop": true,
      "TaskList": [
        {
          "$type": "RPG.GameCore.WaitCustomString",
          "CustomString": {
            "Value": "Wait_Option_401010567_36"
          }
        },
        {
          "$type": "RPG.GameCore.PlayOptionTalk",
          "OptionList": [
            {
              "TalkSentenceID": 401010669,
              "OptionIconType": "ChatLoopIcon",
              "TriggerCustomString": "TalkSentence_401010670"
            },
            {
              "TalkSentenceID": 401010676,
              "OptionIconType": "ChatLoopIcon",
              "TriggerCustomString": "TalkSentence_401010677"
            },
            {
              "TalkSentenceID": 401010680,
              "OptionIconType": "ChatLoopIcon",
              "TriggerCustomString": "TalkSentence_401010681"
            },
            {
              "TalkSentenceID": 401010682,
              "OptionIconType": "ChatBackIcon",
              "TriggerCustomString": "Wait_Option_401010567_14"
            }
          ],
          "HideSelected": true
        }
      ]
    },
    {
      "IsLoop": true,
      "TaskList": [
        {
          "$type": "RPG.GameCore.WaitCustomString",
          "CustomString": {
            "Value": "TalkSentence_401010670"
          }
        },
        {
          "$type": "RPG.GameCore.PlaySimpleTalk",
          "SimpleTalkList": [
            {
              "TalkSentenceID": 401010670,
              "ProtectTime": 0.3
            },
            {
              "TalkSentenceID": 401010671,
              "ProtectTime": 0.3
            },
            {
              "TalkSentenceID": 401010672,
              "ProtectTime": 0.3
            },
            {
              "TalkSentenceID": 401010673,
              "ProtectTime": 0.3
            },
            {
              "TalkSentenceID": 401010674,
              "ProtectTime": 0.3
            },
            {
              "TalkSentenceID": 401010675,
              "ProtectTime": 0.3
            }
          ]
        },
        {
          "$type": "RPG.GameCore.WaitSimpleTalkFinish"
        },
        {
          "$type": "RPG.GameCore.TriggerCustomString",
          "CustomString": {
            "Value": "Wait_Option_401010567_36"
          }
        }
      ]
    },
    {
      "IsLoop": true,
      "TaskList": [
        {
          "$type": "RPG.GameCore.WaitCustomString",
          "CustomString": {
            "Value": "TalkSentence_401010677"
          }
        },
        {
          "$type": "RPG.GameCore.PlaySimpleTalk",
          "SimpleTalkList": [
            {
              "TalkSentenceID": 401010677,
              "ProtectTime": 0.3
            },
            {
              "TalkSentenceID": 401010678,
              "ProtectTime": 0.3
            },
            {
              "TalkSentenceID": 401010679,
              "ProtectTime": 0.3
            }
          ]
        },
        {
          "$type": "RPG.GameCore.WaitSimpleTalkFinish"
        },
        {
          "$type": "RPG.GameCore.TriggerCustomString",
          "CustomString": {
            "Value": "Wait_Option_401010567_36"
          }
        }
      ]
    },
    {
      "IsLoop": true,
      "TaskList": [
        {
          "$type": "RPG.GameCore.WaitCustomString",
          "CustomString": {
            "Value": "TalkSentence_401010681"
          }
        },
        {
          "$type": "RPG.GameCore.PlaySimpleTalk",
          "SimpleTalkList": [
            {
              "TalkSentenceID": 401010681,
              "ProtectTime": 0.3
            }
          ]
        },
        {
          "$type": "RPG.GameCore.WaitSimpleTalkFinish"
        },
        {
          "$type": "RPG.GameCore.TriggerCustomString",
          "CustomString": {
            "Value": "Wait_Option_401010567_36"
          }
        }
      ]
    },
    {
      "IsLoop": true,
      "TaskList": [
        {
          "$type": "RPG.GameCore.WaitCustomString",
          "CustomString": {
            "Value": "TalkSentence_401010684"
          }
        },
        {
          "$type": "RPG.GameCore.PlaySimpleTalk",
          "SimpleTalkList": [
            {
              "TalkSentenceID": 401010684,
              "ProtectTime": 0.3
            }
          ]
        },
        {
          "$type": "RPG.GameCore.WaitSimpleTalkFinish"
        },
        {
          "$type": "RPG.GameCore.TriggerCustomString",
          "CustomString": {
            "Value": "Wait_Option_401010567_54"
          }
        }
      ]
    },
    {
      "IsLoop": true,
      "TaskList": [
        {
          "$type": "RPG.GameCore.WaitCustomString",
          "CustomString": {
            "Value": "Wait_Option_401010567_54"
          }
        },
        {
          "$type": "RPG.GameCore.PlayOptionTalk",
          "OptionList": [
            {
              "TalkSentenceID": 401010685,
              "OptionIconType": "ChatLoopIcon",
              "TriggerCustomString": "TalkSentence_401010686"
            },
            {
              "TalkSentenceID": 401010688,
              "OptionIconType": "ChatLoopIcon",
              "TriggerCustomString": "TalkSentence_401010689"
            },
            {
              "TalkSentenceID": 401010691,
              "OptionIconType": "ChatLoopIcon",
              "TriggerCustomString": "TalkSentence_401010692"
            },
            {
              "TalkSentenceID": 401010694,
              "OptionIconType": "ChatBackIcon",
              "TriggerCustomString": "Wait_Option_401010567_14"
            }
          ],
          "HideSelected": true
        }
      ]
    },
    {
      "IsLoop": true,
      "TaskList": [
        {
          "$type": "RPG.GameCore.WaitCustomString",
          "CustomString": {
            "Value": "TalkSentence_401010686"
          }
        },
        {
          "$type": "RPG.GameCore.PlaySimpleTalk",
          "SimpleTalkList": [
            {
              "TalkSentenceID": 401010686,
              "ProtectTime": 0.3
            },
            {
              "TalkSentenceID": 401010687,
              "ProtectTime": 0.3
            }
          ]
        },
        {
          "$type": "RPG.GameCore.WaitSimpleTalkFinish"
        },
        {
          "$type": "RPG.GameCore.TriggerCustomString",
          "CustomString": {
            "Value": "Wait_Option_401010567_54"
          }
        }
      ]
    },
    {
      "IsLoop": true,
      "TaskList": [
        {
          "$type": "RPG.GameCore.WaitCustomString",
          "CustomString": {
            "Value": "TalkSentence_401010689"
          }
        },
        {
          "$type": "RPG.GameCore.PlaySimpleTalk",
          "SimpleTalkList": [
            {
              "TalkSentenceID": 401010689,
              "ProtectTime": 0.3
            },
            {
              "TalkSentenceID": 401010690,
              "ProtectTime": 0.3
            }
          ]
        },
        {
          "$type": "RPG.GameCore.WaitSimpleTalkFinish"
        },
        {
          "$type": "RPG.GameCore.TriggerCustomString",
          "CustomString": {
            "Value": "Wait_Option_401010567_54"
          }
        }
      ]
    },
    {
      "IsLoop": true,
      "TaskList": [
        {
          "$type": "RPG.GameCore.WaitCustomString",
          "CustomString": {
            "Value": "TalkSentence_401010692"
          }
        },
        {
          "$type": "RPG.GameCore.PlaySimpleTalk",
          "SimpleTalkList": [
            {
              "TalkSentenceID": 401010692,
              "ProtectTime": 0.3
            },
            {
              "TalkSentenceID": 401010693,
              "ProtectTime": 0.3
            }
          ]
        },
        {
          "$type": "RPG.GameCore.WaitSimpleTalkFinish"
        },
        {
          "$type": "RPG.GameCore.TriggerCustomString",
          "CustomString": {
            "Value": "Wait_Option_401010567_54"
          }
        }
      ]
    },
    {
      "TaskList": [
        {
          "$type": "RPG.GameCore.WaitCustomString",
          "CustomString": {
            "Value": "ALL_TALK_END"
          }
        },
        {
          "$type": "RPG.GameCore.EndPerformance"
        }
      ]
    },
    {
      "TaskList": [
        {
          "$type": "RPG.GameCore.WaitPerformanceEnd"
        },
        {
          "$type": "RPG.GameCore.FinishLevelGraph"
        }
      ]
    }
  ]
}