{
  "OnInitSequece": [],
  "OnStartSequece": [
    {
      "TaskList": [
        {
          "$type": "RPG.GameCore.LevelPerformanceInitialize",
          "LockCamera": false,
          "CreateCharacterList": [
            {
              "CharacterUniqueName": "NPC_Monster_W1_Soldier01_00",
              "AvatarID": "NPC_Monster_W1_Soldier01_00",
              "AreaName": "LevelArea_P10101_F10101001_G41",
              "AnchorName": "Anchor1"
            }
          ],
          "EntityVisiableList": [],
          "StreamingCentersAfterBlackMask": []
        },
        {
          "$type": "RPG.GameCore.PlaySimpleTalk",
          "SimpleTalkList": [
            {
              "TalkSentenceID": 901021706,
              "ProtectTime": 0.3
            },
            {
              "TalkSentenceID": 901021707,
              "ProtectTime": 0.3
            },
            {
              "TalkSentenceID": 901021708,
              "ProtectTime": 0.3
            },
            {
              "TalkSentenceID": 901021709,
              "ProtectTime": 0.3
            },
            {
              "TalkSentenceID": 901021710,
              "ProtectTime": 0.3
            }
          ]
        },
        {
          "$type": "RPG.GameCore.WaitSimpleTalkFinish"
        },
        {
          "$type": "RPG.GameCore.PlayOptionTalk",
          "OptionList": [
            {
              "TalkSentenceID": 901021711,
              "OptionIconType": "ChatIcon",
              "TriggerCustomString": "TalkSentence_901021711"
            }
          ],
          "HideSelected": true
        }
      ]
    },
    {
      "TaskList": [
        {
          "$type": "RPG.GameCore.WaitCustomString",
          "CustomString": {
            "Value": "TalkSentence_901021711"
          }
        },
        {
          "$type": "RPG.GameCore.PlaySimpleTalk",
          "SimpleTalkList": [
            {
              "TalkSentenceID": 901021712,
              "ProtectTime": 0.3
            }
          ]
        },
        {
          "$type": "RPG.GameCore.WaitSimpleTalkFinish"
        },
        {
          "$type": "RPG.GameCore.PlayOptionTalk",
          "OptionList": [
            {
              "TalkSentenceID": 901021713,
              "OptionIconType": "ChatIcon",
              "TriggerCustomString": "TalkSentence_901021713"
            }
          ],
          "HideSelected": true
        }
      ]
    },
    {
      "TaskList": [
        {
          "$type": "RPG.GameCore.WaitCustomString",
          "CustomString": {
            "Value": "TalkSentence_901021713"
          }
        },
        {
          "$type": "RPG.GameCore.EndPerformance"
        }
      ]
    },
    {
      "TaskList": [
        {
          "$type": "RPG.GameCore.WaitPerformanceEnd"
        },
        {
          "$type": "RPG.GameCore.FinishLevelGraph"
        }
      ]
    }
  ]
}