{
  "MainMissionID": 3000211,
  "StartSubMissionList": [
    300021101
  ],
  "FinishSubMissionList": [
    300021104
  ],
  "SubMissionList": [
    {
      "MainMissionID": 3000211,
      "MissionJsonPath": "Config/Level/Mission/3000201/Mission_300021101.json",
      "TakeType": "Auto",
      "ID": 300021101,
      "FinishType": "Talk",
      "ParamType": "Equal",
      "ParamStr1": "Mission_300021101",
      "ParamItemList": [],
      "Progress": 1
    },
    {
      "MainMissionID": 3000211,
      "MissionJsonPath": "Config/Level/Mission/3000201/Mission_300021102.json",
      "TakeType": "AnySequence",
      "TakeParamIntList": [
        300021101
      ],
      "ID": 300021102,
      "MazePlaneID": 20002,
      "MazeFloorID": 20002001,
      "FinishType": "KillMonster",
      "ParamType": "Equal",
      "ParamInt1": 78,
      "ParamInt2": 200001,
      "ParamItemList": [],
      "Progress": 1,
      "IsBackTrack": true
    },
    {
      "MainMissionID": 3000211,
      "MissionJsonPath": "Config/Level/Mission/3000201/Mission_300021103.json",
      "TakeType": "AnySequence",
      "TakeParamIntList": [
        300021102
      ],
      "ID": 300021103,
      "FinishType": "Talk",
      "ParamType": "Equal",
      "ParamStr1": "Mission_300021103",
      "ParamItemList": [],
      "Progress": 1
    },
    {
      "MainMissionID": 3000211,
      "MissionJsonPath": "Config/Level/Mission/3000201/Mission_300021104.json",
      "TakeType": "AnySequence",
      "TakeParamIntList": [
        300021103
      ],
      "ID": 300021104,
      "FinishType": "Talk",
      "ParamType": "Equal",
      "ParamStr1": "Mission_300021104",
      "ParamItemList": [],
      "Progress": 1
    }
  ]
}