{
  "MainMissionID": 90003,
  "StartSubMissionList": [
    909010301
  ],
  "FinishSubMissionList": [
    909010301
  ],
  "SubMissionList": [
    {
      "MainMissionID": 90003,
      "MissionJsonPath": "Config/Level/Mission/9090103/Mission_909010301.json",
      "TakeType": "Auto",
      "ID": 909010301,
      "FinishType": "EnterFloor",
      "ParamType": "Equal",
      "ParamInt1": 10101,
      "ParamInt2": 10101001,
      "ParamItemList": [],
      "Progress": 1
    }
  ]
}