{
  "ActionIconPath": "SpriteOutput/AvatarIcon/1006.png",
  "HaveActionDelay": false,
  "DamageType": "Quantum",
  "IsPlayerControlled": true,
  "AIPath": "Config/ConfigAI/Avatar_ComplexSkilll_AutoFight_AI.json",
  "MaxSP": 100,
  "SomatoType": "MiddleAvatar",
  "BuffPanelOffset": {
    "X": 0,
    "Y": 0.8,
    "Z": 0
  },
  "HitBoxWidth": 0.3,
  "HitBoxHeight": 1.5,
  "Location": {
    "Width": 0.8,
    "DisableEnemyFaceTo": true
  },
  "SaveModelWhenDead": true,
  "AnimEventConfigList": [
    "Config/ConfigAnimEvents/Avatar/Designer/Avatar_Bronya_00_Designer_AnimEvent.json",
    "Config/ConfigAnimEvents/WhiteBox/Avatar/Effect/W_A_SummonMonster_BE_Effect_AnimEvent.json",
    "Config/ConfigAnimEvents/Avatar/Audio/Avatar_Bronya_00_Audio_AnimEvent.json"
  ],
  "SkillList": [
    {
      "Name": "Skill03",
      "SkillType": "Ultra",
      "UseType": "SelectEntity",
      "TargetInfo": {
        "TargetType": "EnemySelect"
      },
      "SkillNameHUD": false,
      "ReadyAnimState": "Skill03_Ready",
      "PrepareAbility": "W_BattleEvent_Activity_Summon3Monster_00_Skill03_EnterReady",
      "ComplexSkillAI": {
        "SkillBasicPower": {
          "Value": 90
        },
        "Groups": [
          {
            "GroupName": "Ultra_Common_ImmediateRelease"
          }
        ]
      },
      "ChildSkillList": [
        "Skill0301"
      ]
    },
    {
      "Name": "SkillP01",
      "SkillType": "Passive",
      "UseType": "Passive",
      "ActivateAfterRevive": false,
      "TargetInfo": {
        "TargetType": "Caster"
      },
      "SkillNameHUD": false,
      "EntryAbility": "W_BattleEvent_Activity_Summon3Monster_00_PassiveSkill01"
    },
    {
      "Name": "Skill0301",
      "SkillType": "Ultra",
      "UseType": "SelectEntity",
      "TargetInfo": {
        "TargetType": "AllTeamMember"
      },
      "SkillNameHUD": false,
      "ReadyAnimState": "Skill03_Ready",
      "CameraConfig": {
        "NormalConfig": {
          "CameraState": "SelectLightTeamEntity",
          "AnchorTargetType": {
            "$type": "RPG.GameCore.TargetAlias",
            "Alias": "Caster"
          },
          "AnchorOffset": {
            "X": 0,
            "Y": 1,
            "Z": 0.5
          },
          "AimTargetType": {
            "$type": "RPG.GameCore.TargetAlias",
            "Alias": "SkillTargetEntityList"
          },
          "FollowDamp": 0.65,
          "NeedCutBlending": true
        },
        "CloseupShotConfig": {},
        "ShowEntityConfig": {
          "ShowTargetType": {
            "$type": "RPG.GameCore.TargetAlias",
            "Alias": "AllLightTeam"
          },
          "IsAliveOnly": false
        }
      },
      "EntryAbility": "W_BattleEvent_Activity_Summon3Monster_00_Skill0301_Phase01",
      "ComplexSkillAI": {
        "SkillBasicPower": {
          "Value": 90
        },
        "Groups": [
          {
            "GroupName": "Ultra_Common_ImmediateRelease"
          }
        ]
      },
      "UsableCondition": {
        "$type": "RPG.GameCore.ByAnd",
        "PredicateList": [
          {
            "$type": "RPG.GameCore.ByCompareBP",
            "CompareType": "Greater",
            "CompareValue": {
              "IsDynamic": false,
              "FixedValue": {
                "Value": 3.5000000004656613
              }
            }
          }
        ]
      }
    },
    {
      "Name": "Skill0302",
      "SkillType": "Ultra",
      "UseType": "SelectEntity",
      "TargetInfo": {
        "TargetType": "AllTeamMember"
      },
      "SkillNameHUD": false,
      "ReadyAnimState": "Skill03_Ready",
      "CameraConfig": {
        "NormalConfig": {
          "CameraState": "SelectLightTeamEntity",
          "AnchorTargetType": {
            "$type": "RPG.GameCore.TargetAlias",
            "Alias": "Caster"
          },
          "AnchorOffset": {
            "X": 0,
            "Y": 1,
            "Z": 0.5
          },
          "AimTargetType": {
            "$type": "RPG.GameCore.TargetAlias",
            "Alias": "SkillTargetEntityList"
          },
          "FollowDamp": 0.65,
          "NeedCutBlending": true
        },
        "CloseupShotConfig": {},
        "ShowEntityConfig": {
          "ShowTargetType": {
            "$type": "RPG.GameCore.TargetAlias",
            "Alias": "AllLightTeam"
          },
          "IsAliveOnly": false
        }
      },
      "EntryAbility": "W_BattleEvent_Activity_Summon3Monster_00_Skill0302_Phase01",
      "ComplexSkillAI": {
        "SkillBasicPower": {
          "Value": 90
        },
        "Groups": [
          {
            "GroupName": "Ultra_Common_ImmediateRelease"
          }
        ]
      },
      "UsableCondition": {
        "$type": "RPG.GameCore.ByAnd",
        "PredicateList": [
          {
            "$type": "RPG.GameCore.ByCompareBP",
            "CompareType": "Greater",
            "CompareValue": {
              "IsDynamic": false,
              "FixedValue": {
                "Value": 1115
              }
            }
          },
          {
            "$type": "RPG.GameCore.ByCompareDynamicValue",
            "TargetType": {
              "$type": "RPG.GameCore.TargetAlias",
              "Alias": "Caster"
            },
            "DynamicKey": "_C_TeamID",
            "CompareType": "NotEqual",
            "CompareValue": {
              "IsDynamic": false,
              "FixedValue": {
                "Value": 2
              }
            }
          }
        ]
      }
    },
    {
      "Name": "Skill0303",
      "SkillType": "Ultra",
      "UseType": "SelectEntity",
      "TargetInfo": {
        "TargetType": "AllTeamMember"
      },
      "SkillNameHUD": false,
      "ReadyAnimState": "Skill03_Ready",
      "CameraConfig": {
        "NormalConfig": {
          "CameraState": "SelectLightTeamEntity",
          "AnchorTargetType": {
            "$type": "RPG.GameCore.TargetAlias",
            "Alias": "Caster"
          },
          "AnchorOffset": {
            "X": 0,
            "Y": 1,
            "Z": 0.5
          },
          "AimTargetType": {
            "$type": "RPG.GameCore.TargetAlias",
            "Alias": "SkillTargetEntityList"
          },
          "FollowDamp": 0.65,
          "NeedCutBlending": true
        },
        "CloseupShotConfig": {},
        "ShowEntityConfig": {
          "ShowTargetType": {
            "$type": "RPG.GameCore.TargetAlias",
            "Alias": "AllLightTeam"
          },
          "IsAliveOnly": false
        }
      },
      "EntryAbility": "W_BattleEvent_Activity_Summon3Monster_00_Skill0303_Phase01",
      "ComplexSkillAI": {
        "SkillBasicPower": {
          "Value": 90
        },
        "Groups": [
          {
            "GroupName": "Ultra_Common_ImmediateRelease"
          }
        ]
      },
      "UsableCondition": {
        "$type": "RPG.GameCore.ByAnd",
        "PredicateList": [
          {
            "$type": "RPG.GameCore.ByCompareBP",
            "CompareType": "Greater",
            "CompareValue": {
              "IsDynamic": false,
              "FixedValue": {
                "Value": 115
              }
            }
          },
          {
            "$type": "RPG.GameCore.ByCompareDynamicValue",
            "TargetType": {
              "$type": "RPG.GameCore.TargetAlias",
              "Alias": "Caster"
            },
            "DynamicKey": "_C_TeamID",
            "CompareType": "NotEqual",
            "CompareValue": {
              "IsDynamic": false,
              "FixedValue": {
                "Value": 3
              }
            }
          }
        ]
      }
    }
  ],
  "AbilityList": [],
  "SkillAbilityList": [
    {
      "Skill": "Skill03",
      "AbilityList": [
        "W_BattleEvent_Activity_Summon3Monster_00_Skill03_EnterReady",
        "W_BattleEvent_Activity_Summon3Monster_00_Skill0301_Phase01",
        "W_BattleEvent_Activity_Summon3Monster_00_Skill0301_Phase02",
        "W_BattleEvent_Activity_Summon3Monster_00_Skill0302_Phase01",
        "W_BattleEvent_Activity_Summon3Monster_00_Skill0302_Phase02",
        "W_BattleEvent_Activity_Summon3Monster_00_Skill0303_Phase01",
        "W_BattleEvent_Activity_Summon3Monster_00_Skill0303_Phase02",
        "W_BattleEvent_Activity_Summon3Monster_00_Skill03_Extra_Camera"
      ]
    },
    {
      "Skill": "SkillP01",
      "AbilityList": [
        "W_BattleEvent_Activity_Summon3Monster_00_PassiveSkill01",
        "W_BattleEvent_Activity_Summon3Monster_00_MonsterLeave",
        "W_BattleEvent_Activity_Summon3Monster_00_MonsterLeaveDeath"
      ]
    }
  ],
  "DynamicValues": {
    "Values": {
      "-916091735": {},
      "824399755": {},
      "-1653587924": {},
      "-87503983": {},
      "1478579958": {},
      "-1374605811": {},
      "1354277544": {},
      "-211806397": {},
      "-106198537": {},
      "464099540": {
        "ReadInfo": {
          "Type": "None",
          "Str": "SkillP01"
        }
      },
      "2116906935": {
        "ReadInfo": {
          "Type": "SkillTreeParam",
          "Str": "SkillP01"
        }
      },
      "214873266": {},
      "-2017731871": {},
      "-1812840144": {}
    }
  },
  "WeaponType": "WP_Bullet",
  "DisableAnimEventLayers": [
    "Riboon Layer"
  ]
}