{
  "OnInitSequece": [],
  "OnStartSequece": [
    {
      "TaskList": [
        {
          "$type": "RPG.GameCore.LevelPerformanceInitialize",
          "PerformanceType": "E",
          "HideMunicipalCrowd": false,
          "HideMunicipalPedestrian": false
        },
        {
          "$type": "RPG.GameCore.AdvNpcFaceToPlayer",
          "FinishImmadiate": true
        },
        {
          "$type": "RPG.GameCore.PlaySimpleTalk",
          "SimpleTalkList": [
            {
              "TalkSentenceID": 501029101,
              "ProtectTime": 0.3
            },
            {
              "TalkSentenceID": 501029102,
              "ProtectTime": 0.3
            },
            {
              "TalkSentenceID": 501029103,
              "ProtectTime": 0.3
            }
          ]
        },
        {
          "$type": "RPG.GameCore.WaitSimpleTalkFinish"
        },
        {
          "$type": "RPG.GameCore.TriggerCustomString",
          "CustomString": {
            "Value": "Wait_Option_501029101_12"
          }
        }
      ]
    },
    {
      "TaskList": [
        {
          "$type": "RPG.GameCore.WaitCustomString",
          "CustomString": {
            "Value": "Wait_Option_501029101_12"
          }
        },
        {
          "$type": "RPG.GameCore.PlayOptionTalk",
          "OptionList": [
            {
              "TalkSentenceID": 501029104,
              "OptionIconType": "ChatContinueIcon",
              "TriggerCustomString": "TalkSentence_501029105"
            }
          ]
        }
      ]
    },
    {
      "TaskList": [
        {
          "$type": "RPG.GameCore.WaitCustomString",
          "CustomString": {
            "Value": "TalkSentence_501029105"
          }
        },
        {
          "$type": "RPG.GameCore.PlaySimpleTalk",
          "SimpleTalkList": [
            {
              "TalkSentenceID": 501029105,
              "ProtectTime": 0.3
            }
          ]
        },
        {
          "$type": "RPG.GameCore.WaitSimpleTalkFinish"
        },
        {
          "$type": "RPG.GameCore.TriggerCustomString",
          "CustomString": {
            "Value": "Wait_Option_501029101_15"
          }
        }
      ]
    },
    {
      "IsLoop": true,
      "TaskList": [
        {
          "$type": "RPG.GameCore.WaitCustomString",
          "CustomString": {
            "Value": "Wait_Option_501029101_15"
          }
        },
        {
          "$type": "RPG.GameCore.PlayOptionTalk",
          "OptionList": [
            {
              "TalkSentenceID": 501029106,
              "OptionIconType": "ChatLoopIcon",
              "TriggerCustomString": "TalkSentence_501029107"
            },
            {
              "TalkSentenceID": 501029111,
              "OptionIconType": "ChatLoopIcon",
              "TriggerCustomString": "TalkSentence_501029112"
            },
            {
              "TalkSentenceID": 501029117,
              "OptionIconType": "ChatLoopIcon",
              "TriggerCustomString": "TalkSentence_501029118"
            },
            {
              "TalkSentenceID": 501029122,
              "OptionIconType": "ChatLoopIcon",
              "TriggerCustomString": "TalkSentence_501029123"
            },
            {
              "TalkSentenceID": 501029126,
              "OptionIconType": "ChatBackIcon",
              "TriggerCustomString": "Wait_Option_501029101_12"
            },
            {
              "TalkSentenceID": 501029127,
              "OptionIconType": "ChatOutIcon",
              "TriggerCustomString": "TalkSentence_501029128"
            }
          ],
          "HideSelected": true
        }
      ]
    },
    {
      "IsLoop": true,
      "TaskList": [
        {
          "$type": "RPG.GameCore.WaitCustomString",
          "CustomString": {
            "Value": "TalkSentence_501029107"
          }
        },
        {
          "$type": "RPG.GameCore.PlaySimpleTalk",
          "SimpleTalkList": [
            {
              "TalkSentenceID": 501029107,
              "ProtectTime": 0.3
            },
            {
              "TalkSentenceID": 501029108,
              "ProtectTime": 0.3
            },
            {
              "TalkSentenceID": 501029109,
              "ProtectTime": 0.3
            },
            {
              "TalkSentenceID": 501029110,
              "ProtectTime": 0.3
            }
          ]
        },
        {
          "$type": "RPG.GameCore.WaitSimpleTalkFinish"
        },
        {
          "$type": "RPG.GameCore.TriggerCustomString",
          "CustomString": {
            "Value": "Wait_Option_501029101_15"
          }
        }
      ]
    },
    {
      "IsLoop": true,
      "TaskList": [
        {
          "$type": "RPG.GameCore.WaitCustomString",
          "CustomString": {
            "Value": "TalkSentence_501029112"
          }
        },
        {
          "$type": "RPG.GameCore.PlaySimpleTalk",
          "SimpleTalkList": [
            {
              "TalkSentenceID": 501029112,
              "ProtectTime": 0.3
            },
            {
              "TalkSentenceID": 501029113,
              "ProtectTime": 0.3
            },
            {
              "TalkSentenceID": 501029114,
              "ProtectTime": 0.3
            },
            {
              "TalkSentenceID": 501029115,
              "ProtectTime": 0.3
            },
            {
              "TalkSentenceID": 501029116,
              "ProtectTime": 0.3
            }
          ]
        },
        {
          "$type": "RPG.GameCore.WaitSimpleTalkFinish"
        },
        {
          "$type": "RPG.GameCore.TriggerCustomString",
          "CustomString": {
            "Value": "Wait_Option_501029101_15"
          }
        }
      ]
    },
    {
      "IsLoop": true,
      "TaskList": [
        {
          "$type": "RPG.GameCore.WaitCustomString",
          "CustomString": {
            "Value": "TalkSentence_501029118"
          }
        },
        {
          "$type": "RPG.GameCore.PlaySimpleTalk",
          "SimpleTalkList": [
            {
              "TalkSentenceID": 501029118,
              "ProtectTime": 0.3
            },
            {
              "TalkSentenceID": 501029119,
              "ProtectTime": 0.3
            },
            {
              "TalkSentenceID": 501029120,
              "ProtectTime": 0.3
            },
            {
              "TalkSentenceID": 501029121,
              "ProtectTime": 0.3
            }
          ]
        },
        {
          "$type": "RPG.GameCore.WaitSimpleTalkFinish"
        },
        {
          "$type": "RPG.GameCore.TriggerCustomString",
          "CustomString": {
            "Value": "Wait_Option_501029101_15"
          }
        }
      ]
    },
    {
      "IsLoop": true,
      "TaskList": [
        {
          "$type": "RPG.GameCore.WaitCustomString",
          "CustomString": {
            "Value": "TalkSentence_501029123"
          }
        },
        {
          "$type": "RPG.GameCore.PlaySimpleTalk",
          "SimpleTalkList": [
            {
              "TalkSentenceID": 501029123,
              "ProtectTime": 0.3
            },
            {
              "TalkSentenceID": 501029124,
              "ProtectTime": 0.3
            },
            {
              "TalkSentenceID": 501029125,
              "ProtectTime": 0.3
            }
          ]
        },
        {
          "$type": "RPG.GameCore.WaitSimpleTalkFinish"
        },
        {
          "$type": "RPG.GameCore.TriggerCustomString",
          "CustomString": {
            "Value": "Wait_Option_501029101_15"
          }
        }
      ]
    },
    {
      "IsLoop": true,
      "TaskList": [
        {
          "$type": "RPG.GameCore.WaitCustomString",
          "CustomString": {
            "Value": "TalkSentence_501029128"
          }
        },
        {
          "$type": "RPG.GameCore.PlaySimpleTalk",
          "SimpleTalkList": [
            {
              "TalkSentenceID": 501029128,
              "ProtectTime": 0.3
            }
          ]
        },
        {
          "$type": "RPG.GameCore.WaitSimpleTalkFinish"
        },
        {
          "$type": "RPG.GameCore.EndPerformance"
        }
      ]
    },
    {
      "TaskList": [
        {
          "$type": "RPG.GameCore.WaitPerformanceEnd"
        },
        {
          "$type": "RPG.GameCore.FinishLevelGraph"
        }
      ]
    }
  ]
}