{
  "OnInitSequece": [],
  "OnStartSequece": [
    {
      "TaskList": [
        {
          "$type": "RPG.GameCore.LevelPerformanceInitialize",
          "PerformanceType": "E",
          "LockCamera": false,
          "CreateCharacterList": [],
          "EntityVisiableList": [],
          "StreamingCentersInBlackMask": [],
          "StreamingCentersAfterBlackMask": [],
          "MarkStreamingItems": []
        },
        {
          "$type": "RPG.GameCore.AdvNpcFaceToPlayer",
          "FinishImmadiate": true
        },
        {
          "$type": "RPG.GameCore.PlaySimpleTalk",
          "UseBackground": true,
          "Backgrounds": [
            {
              "ImagePath": "SpriteOutput/HoshinoKami/HoshinoKami_000.png"
            }
          ],
          "SimpleTalkList": [
            {
              "TalkSentenceID": 999999997,
              "ProtectTime": 0.3
            }
          ]
        },
        {
          "$type": "RPG.GameCore.WaitSimpleTalkFinish"
        },
        {
          "$type": "RPG.GameCore.PlayOptionTalk",
          "OptionList": [
            {
              "TalkSentenceID": 999999996,
              "OptionIconType": "ShopIcon",
              "TriggerCustomString": "TalkSentence_999999996"
            },
            {
              "TalkSentenceID": 999999995,
              "OptionIconType": "ChatOutIcon",
              "TriggerCustomString": "TalkSentence_999999995"
            }
          ]
        }
      ]
    },
    {
      "TaskList": [
        {
          "$type": "RPG.GameCore.WaitCustomString",
          "CustomString": {
            "Value": "TalkSentence_999999996"
          }
        },
        {
          "$type": "RPG.GameCore.ShowUI",
          "Name": "Ui.Rogue.Buff.RogueEnhanceBuffPage",
          "WaitForExit": true,
          "OnUIExitImmediately": [
            {
              "$type": "RPG.GameCore.EndPerformance"
            }
          ]
        }
      ]
    },
    {
      "TaskList": [
        {
          "$type": "RPG.GameCore.WaitCustomString",
          "CustomString": {
            "Value": "TalkSentence_999999995"
          }
        },
        {
          "$type": "RPG.GameCore.EndPerformance"
        },
        {
          "$type": "RPG.GameCore.FinishLevelGraph"
        }
      ]
    },
    {
      "TaskList": [
        {
          "$type": "RPG.GameCore.WaitPerformanceEnd"
        },
        {
          "$type": "RPG.GameCore.FinishLevelGraph"
        }
      ]
    }
  ]
}