{
  "MainMissionID": 2020316,
  "StartSubMissionList": [
    202031601,
    202031602
  ],
  "FinishSubMissionList": [
    202031601
  ],
  "SubMissionList": [
    {
      "MainMissionID": 2020316,
      "TakeType": "Auto",
      "TakeParamIntList": [],
      "ID": 202031601,
      "FinishType": "MessageSectionFinish",
      "ParamType": "Equal",
      "ParamInt1": 1211700,
      "ParamItemList": [],
      "Progress": 1
    },
    {
      "MainMissionID": 2020316,
      "TakeType": "Auto",
      "TakeParamIntList": [],
      "ID": 202031602,
      "FinishType": "FinishMission",
      "ParamType": "ListContain",
      "ParamIntList": [
        2020317
      ],
      "ParamItemList": [],
      "Progress": 1,
      "IsBackTrack": true
    }
  ]
}