{
  "MainMissionID": 3000523,
  "StartSubMissionList": [
    300052301
  ],
  "FinishSubMissionList": [
    300052303
  ],
  "SubMissionList": [
    {
      "MainMissionID": 3000523,
      "MissionJsonPath": "Config/Level/Mission/3000523/Mission_300052301.json",
      "TakeType": "Auto",
      "ID": 300052301,
      "FinishType": "Talk",
      "ParamType": "Equal",
      "ParamStr1": "Mission_300052301",
      "ParamItemList": [],
      "Progress": 1
    },
    {
      "MainMissionID": 3000523,
      "MissionJsonPath": "Config/Level/Mission/3000523/Mission_300052302.json",
      "TakeType": "AnySequence",
      "TakeParamIntList": [
        300052301
      ],
      "ID": 300052302,
      "FinishType": "Talk",
      "ParamType": "Equal",
      "ParamStr1": "Mission_300052302",
      "ParamItemList": [],
      "Progress": 1
    },
    {
      "MainMissionID": 3000523,
      "MissionJsonPath": "Config/Level/Mission/3000523/Mission_300052303.json",
      "TakeType": "AnySequence",
      "TakeParamIntList": [
        300052302
      ],
      "ID": 300052303,
      "FinishType": "Talk",
      "ParamType": "Equal",
      "ParamStr1": "Mission_300052303",
      "ParamItemList": [],
      "Progress": 1
    }
  ]
}