{
  "MainMissionID": 4040174,
  "StartSubMissionList": [
    404017401
  ],
  "FinishSubMissionList": [
    404017401
  ],
  "SubMissionList": [
    {
      "MainMissionID": 4040174,
      "TakeType": "Auto",
      "TakeParamIntList": [],
      "ID": 404017401,
      "MazePlaneID": 10202,
      "MazeFloorID": 10202003,
      "FinishType": "PropState",
      "ParamType": "Equal",
      "ParamInt1": 13,
      "ParamInt2": 300001,
      "ParamInt3": 19,
      "ParamIntList": [],
      "ParamItemList": [],
      "Progress": 1
    }
  ]
}