{
  "CharacterBodySize": "Maid",
  "AnimEventConfigList": [
    "Config/ConfigAnimEvents/LocalPlayer/Effect/LocalPlayer_Bronya_00_Effect_AnimEvent.json",
    "Config/ConfigAnimEvents/LocalPlayer/Audio/LocalPlayer_Bronya_00_Audio_AnimEvent.json",
    "Config/ConfigAnimEvents/Manikin/Designer/Manikin_Bronya_00_Designer_AnimEvent.json"
  ]
}