{
  "CharacterBodySize": "Maid",
  "AnimEventConfigList": [
    "Config/ConfigAnimEvents/LocalPlayer/Effect/LocalPlayer_Mar_7th_00_Effect_AnimEvent.json",
    "Config/ConfigAnimEvents/LocalPlayer/Audio/LocalPlayer_Mar_7th_00_Audio_AnimEvent.json",
    "Config/ConfigAnimEvents/LocalPlayer/Designer/LocalPlayer_Mar_7th_00_Designer_AnimEvent.json"
  ],
  "EidolonPosition": {
    "X": -0.05,
    "Y": -0.2,
    "Z": 0
  }
}