{
  "CharacterBodySize": "Girl",
  "AnimEventConfigList": [
    "Config/ConfigAnimEvents/Manikin/Designer/Manikin_Silwolf_00_Designer_AnimEvent.json",
    "Config/ConfigAnimEvents/Manikin/Effect/Manikin_Silwolf_00_Effect_AnimEvent.json",
    "Config/ConfigAnimEvents/Manikin/Audio/Manikin_Silwolf_00_Audio_AnimEvent.json"
  ],
  "RotationsByIndex": {
    "1": {
      "X": 0,
      "Y": 17.29,
      "Z": 0
    },
    "2": {
      "X": 0,
      "Y": 13.7,
      "Z": 0
    }
  }
}