{
  "MainMissionID": 2020401,
  "StartSubMissionList": [
    202040101
  ],
  "FinishSubMissionList": [
    202040123
  ],
  "SubMissionList": [
    {
      "MainMissionID": 2020401,
      "TakeType": "Auto",
      "ID": 202040101,
      "FinishType": "MessageSectionFinish",
      "ParamType": "Equal",
      "ParamInt1": 1211600,
      "ParamItemList": [],
      "Progress": 1
    },
    {
      "MainMissionID": 2020401,
      "MissionJsonPath": "Config/Level/Mission/2020401/Mission_202040102.json",
      "TakeType": "AnySequence",
      "TakeParamIntList": [
        202040101
      ],
      "ID": 202040102,
      "FinishType": "Talk",
      "ParamType": "Equal",
      "ParamStr1": "Mission_202040102",
      "ParamItemList": [],
      "Progress": 1
    },
    {
      "MainMissionID": 2020401,
      "MissionJsonPath": "Config/Level/Mission/2020401/Mission_202040103.json",
      "TakeType": "AnySequence",
      "TakeParamIntList": [
        202040102
      ],
      "ID": 202040103,
      "FinishType": "Talk",
      "ParamType": "Equal",
      "ParamStr1": "Mission_202040103",
      "ParamItemList": [],
      "Progress": 1
    },
    {
      "MainMissionID": 2020401,
      "MissionJsonPath": "Config/Level/Mission/2020401/Mission_202040104.json",
      "TakeType": "AnySequence",
      "TakeParamIntList": [
        202040103
      ],
      "ID": 202040104,
      "FinishType": "Talk",
      "ParamType": "Equal",
      "ParamStr1": "Mission_202040104",
      "ParamItemList": [],
      "Progress": 1
    },
    {
      "MainMissionID": 2020401,
      "MissionJsonPath": "Config/Level/Mission/2020401/Mission_202040105.json",
      "TakeType": "AnySequence",
      "TakeParamIntList": [
        202040104
      ],
      "ID": 202040105,
      "FinishType": "StageWin",
      "ParamType": "Equal",
      "ParamInt1": 20222201,
      "ParamItemList": [],
      "Progress": 1
    },
    {
      "MainMissionID": 2020401,
      "MissionJsonPath": "Config/Level/Mission/2020401/Mission_202040107.json",
      "TakeType": "AnySequence",
      "TakeParamIntList": [
        202040105
      ],
      "ID": 202040107,
      "FinishType": "Talk",
      "ParamType": "Equal",
      "ParamStr1": "Mission_202040107",
      "ParamItemList": [],
      "Progress": 1
    },
    {
      "MainMissionID": 2020401,
      "MissionJsonPath": "Config/Level/Mission/2020401/Mission_202040108.json",
      "TakeType": "AnySequence",
      "TakeParamIntList": [
        202040107
      ],
      "ID": 202040108,
      "FinishType": "Talk",
      "ParamType": "Equal",
      "ParamStr1": "Mission_202040108",
      "ParamItemList": [],
      "Progress": 1
    },
    {
      "MainMissionID": 2020401,
      "MissionJsonPath": "Config/Level/Mission/2020401/Mission_202040109.json",
      "TakeType": "AnySequence",
      "TakeParamIntList": [
        202040108
      ],
      "ID": 202040109,
      "FinishType": "Talk",
      "ParamType": "Equal",
      "ParamStr1": "Mission_202040109",
      "ParamItemList": [],
      "Progress": 1
    },
    {
      "MainMissionID": 2020401,
      "MissionJsonPath": "Config/Level/Mission/2020401/Mission_202040110.json",
      "TakeType": "AnySequence",
      "TakeParamIntList": [
        202040109
      ],
      "ID": 202040110,
      "FinishType": "Talk",
      "ParamType": "Equal",
      "ParamStr1": "Mission_202040110",
      "ParamItemList": [],
      "Progress": 1
    },
    {
      "MainMissionID": 2020401,
      "MissionJsonPath": "Config/Level/Mission/2020401/Mission_202040111.json",
      "TakeType": "AnySequence",
      "TakeParamIntList": [
        202040110
      ],
      "ID": 202040111,
      "FinishType": "ConsumeMissionItem",
      "ParamType": "Equal",
      "ParamItemList": [
        {
          "ItemID": 140175,
          "ItemNum": 1
        }
      ],
      "Progress": 1
    },
    {
      "MainMissionID": 2020401,
      "MissionJsonPath": "Config/Level/Mission/2020401/Mission_202040113.json",
      "TakeType": "AnySequence",
      "TakeParamIntList": [
        202040111
      ],
      "ID": 202040113,
      "FinishType": "Talk",
      "ParamType": "Equal",
      "ParamStr1": "Mission_202040113",
      "ParamItemList": [],
      "Progress": 1
    },
    {
      "MainMissionID": 2020401,
      "MissionJsonPath": "Config/Level/Mission/2020401/Mission_202040114.json",
      "TakeType": "AnySequence",
      "TakeParamIntList": [
        202040113
      ],
      "ID": 202040114,
      "FinishType": "Talk",
      "ParamType": "Equal",
      "ParamStr1": "Mission_202040114",
      "ParamItemList": [],
      "Progress": 1
    },
    {
      "MainMissionID": 2020401,
      "MissionJsonPath": "Config/Level/Mission/2020401/Mission_202040115.json",
      "TakeType": "AnySequence",
      "TakeParamIntList": [
        202040114
      ],
      "ID": 202040115,
      "FinishType": "Talk",
      "ParamType": "Equal",
      "ParamStr1": "Mission_202040115",
      "ParamItemList": [],
      "Progress": 1
    },
    {
      "MainMissionID": 2020401,
      "MissionJsonPath": "Config/Level/Mission/2020401/Mission_202040116.json",
      "TakeType": "AnySequence",
      "TakeParamIntList": [
        202040115
      ],
      "ID": 202040116,
      "FinishType": "Talk",
      "ParamType": "Equal",
      "ParamStr1": "Mission_202040116",
      "ParamItemList": [],
      "Progress": 1
    },
    {
      "MainMissionID": 2020401,
      "MissionJsonPath": "Config/Level/Mission/2020401/Mission_202040117.json",
      "TakeType": "AnySequence",
      "TakeParamIntList": [
        202040116
      ],
      "ID": 202040117,
      "FinishType": "Talk",
      "ParamType": "Equal",
      "ParamStr1": "Mission_202040117",
      "ParamItemList": [],
      "Progress": 1
    },
    {
      "MainMissionID": 2020401,
      "MissionJsonPath": "Config/Level/Mission/2020401/Mission_202040118.json",
      "TakeType": "AnySequence",
      "TakeParamIntList": [
        202040124
      ],
      "ID": 202040118,
      "FinishType": "StageWin",
      "ParamType": "Equal",
      "ParamInt1": 20222202,
      "ParamItemList": [],
      "Progress": 1
    },
    {
      "MainMissionID": 2020401,
      "MissionJsonPath": "Config/Level/Mission/2020401/Mission_202040119.json",
      "TakeType": "AnySequence",
      "TakeParamIntList": [
        202040118
      ],
      "ID": 202040119,
      "FinishType": "Talk",
      "ParamType": "Equal",
      "ParamStr1": "Mission_202040119",
      "ParamItemList": [],
      "Progress": 1
    },
    {
      "MainMissionID": 2020401,
      "MissionJsonPath": "Config/Level/Mission/2020401/Mission_202040120.json",
      "TakeType": "AnySequence",
      "TakeParamIntList": [
        202040119
      ],
      "ID": 202040120,
      "FinishType": "Talk",
      "ParamType": "Equal",
      "ParamStr1": "Mission_202040120",
      "ParamItemList": [],
      "Progress": 1
    },
    {
      "MainMissionID": 2020401,
      "MissionJsonPath": "Config/Level/Mission/2020401/Mission_202040121.json",
      "TakeType": "AnySequence",
      "TakeParamIntList": [
        202040120
      ],
      "ID": 202040121,
      "FinishType": "Talk",
      "ParamType": "Equal",
      "ParamStr1": "Mission_202040121",
      "ParamItemList": [],
      "Progress": 1
    },
    {
      "MainMissionID": 2020401,
      "MissionJsonPath": "Config/Level/Mission/2020401/Mission_202040122.json",
      "TakeType": "AnySequence",
      "TakeParamIntList": [
        202040121
      ],
      "ID": 202040122,
      "FinishType": "Talk",
      "ParamType": "Equal",
      "ParamStr1": "Mission_202040122",
      "ParamItemList": [],
      "Progress": 1
    },
    {
      "MainMissionID": 2020401,
      "MissionJsonPath": "Config/Level/Mission/2020401/Mission_202040123.json",
      "TakeType": "AnySequence",
      "TakeParamIntList": [
        202040122
      ],
      "ID": 202040123,
      "FinishType": "Talk",
      "ParamType": "Equal",
      "ParamStr1": "Mission_202040123",
      "ParamItemList": [],
      "Progress": 1
    },
    {
      "MainMissionID": 2020401,
      "MissionJsonPath": "Config/Level/Mission/2020401/Mission_202040124.json",
      "TakeType": "AnySequence",
      "TakeParamIntList": [
        202040117
      ],
      "ID": 202040124,
      "FinishType": "Talk",
      "ParamType": "Equal",
      "ParamStr1": "Mission_202040124",
      "ParamItemList": [],
      "Progress": 1
    }
  ]
}