{
  "OnInitSequece": [],
  "OnStartSequece": [
    {
      "TaskList": [
        {
          "$type": "RPG.GameCore.LevelPerformanceInitialize",
          "LockCamera": false,
          "CreateCharacterList": [],
          "EntityVisiableList": []
        },
        {
          "$type": "RPG.GameCore.AdvNpcFaceToPlayer",
          "GroupID": 16,
          "GroupNpcID": 400001
        },
        {
          "$type": "RPG.GameCore.PlaySimpleTalk",
          "SimpleTalkList": [
            {
              "TalkSentenceID": 201223925,
              "ProtectTime": 0.3
            },
            {
              "TalkSentenceID": 201223926,
              "ProtectTime": 0.3
            },
            {
              "TalkSentenceID": 201223927,
              "ProtectTime": 0.3
            },
            {
              "TalkSentenceID": 201223928,
              "ProtectTime": 0.3
            },
            {
              "TalkSentenceID": 201223929,
              "ProtectTime": 0.3
            },
            {
              "TalkSentenceID": 201223930,
              "ProtectTime": 0.3
            },
            {
              "TalkSentenceID": 201223931,
              "ProtectTime": 0.3
            },
            {
              "TalkSentenceID": 201223932,
              "ProtectTime": 0.3
            },
            {
              "TalkSentenceID": 201223933,
              "ProtectTime": 0.3
            },
            {
              "TalkSentenceID": 201223934,
              "ProtectTime": 0.3
            },
            {
              "TalkSentenceID": 201223935,
              "ProtectTime": 0.3
            },
            {
              "TalkSentenceID": 201223936,
              "ProtectTime": 0.3
            }
          ]
        },
        {
          "$type": "RPG.GameCore.WaitSimpleTalkFinish"
        },
        {
          "$type": "RPG.GameCore.EndPerformance"
        }
      ]
    },
    {
      "TaskList": [
        {
          "$type": "RPG.GameCore.WaitPerformanceEnd"
        },
        {
          "$type": "RPG.GameCore.FinishLevelGraph"
        }
      ]
    }
  ]
}