{
  "OnInitSequece": [],
  "OnStartSequece": [
    {
      "TaskList": [
        {
          "$type": "RPG.GameCore.LevelPerformanceInitialize",
          "LockCamera": false,
          "CreateCharacterList": [],
          "EntityVisiableList": []
        },
        {
          "$type": "RPG.GameCore.AdvNpcFaceToPlayer",
          "GroupID": 3,
          "GroupNpcID": 400006
        },
        {
          "$type": "RPG.GameCore.PlaySimpleTalk",
          "SimpleTalkList": [
            {
              "TalkSentenceID": 201223939,
              "ProtectTime": 0.3
            },
            {
              "TalkSentenceID": 201223940,
              "ProtectTime": 0.3
            },
            {
              "TalkSentenceID": 201223941,
              "ProtectTime": 0.3
            },
            {
              "TalkSentenceID": 201223942,
              "ProtectTime": 0.3
            },
            {
              "TalkSentenceID": 201223943,
              "ProtectTime": 0.3
            },
            {
              "TalkSentenceID": 201223944,
              "ProtectTime": 0.3
            },
            {
              "TalkSentenceID": 201223945,
              "ProtectTime": 0.3
            },
            {
              "TalkSentenceID": 201223946,
              "ProtectTime": 0.3
            },
            {
              "TalkSentenceID": 201223947,
              "ProtectTime": 0.3
            },
            {
              "TalkSentenceID": 201223948,
              "ProtectTime": 0.3
            },
            {
              "TalkSentenceID": 201223949,
              "ProtectTime": 0.3
            },
            {
              "TalkSentenceID": 201223950,
              "ProtectTime": 0.3
            }
          ]
        },
        {
          "$type": "RPG.GameCore.WaitSimpleTalkFinish"
        },
        {
          "$type": "RPG.GameCore.EndPerformance"
        }
      ]
    },
    {
      "TaskList": [
        {
          "$type": "RPG.GameCore.WaitPerformanceEnd"
        },
        {
          "$type": "RPG.GameCore.FinishLevelGraph"
        }
      ]
    }
  ]
}