{
  "MainMissionID": 4020105,
  "StartSubMissionList": [
    402010501
  ],
  "FinishSubMissionList": [
    402010501
  ],
  "SubMissionList": [
    {
      "MainMissionID": 4020105,
      "TakeType": "Auto",
      "ID": 402010501,
      "FinishType": "FinishMission",
      "ParamType": "ListContain",
      "ParamIntList": [
        4020112
      ],
      "ParamItemList": [],
      "Progress": 1,
      "IsBackTrack": true
    }
  ]
}