{
  "OnInitSequece": [],
  "OnStartSequece": [
    {
      "TaskList": [
        {
          "$type": "RPG.GameCore.CollectDataConditions",
          "TaskIDList": [
            201090701,
            201090801
          ],
          "PerformanceIDList": [
            501030305,
            501030306
          ]
        },
        {
          "$type": "RPG.GameCore.PredicateTaskList",
          "Predicate": {
            "$type": "RPG.GameCore.ByCompareSubMissionState",
            "SubMissionID": 201090701,
            "SubMissionState": "Finish"
          },
          "SuccessTaskList": [
            {
              "$type": "RPG.GameCore.PredicateTaskList",
              "Predicate": {
                "$type": "RPG.GameCore.ByComparePerformance",
                "PerformanceID": 501030305
              },
              "SuccessTaskList": [
                {
                  "$type": "RPG.GameCore.AddMenuItem",
                  "MenuItemID": 501030305,
                  "MenuIconType": "ChatIcon",
                  "DialoguePath": "Config/Level/NPCDialogue/P20123/F20123001_G78/DialogueItem501030305_F20123001_G78_N400002.json",
                  "ExtraInfo": 2
                }
              ]
            }
          ]
        },
        {
          "$type": "RPG.GameCore.PredicateTaskList",
          "Predicate": {
            "$type": "RPG.GameCore.ByCompareSubMissionState",
            "SubMissionID": 201090801,
            "SubMissionState": "Finish"
          },
          "SuccessTaskList": [
            {
              "$type": "RPG.GameCore.PredicateTaskList",
              "Predicate": {
                "$type": "RPG.GameCore.ByComparePerformance",
                "PerformanceID": 501030306
              },
              "SuccessTaskList": [
                {
                  "$type": "RPG.GameCore.AddMenuItem",
                  "MenuItemID": 501030306,
                  "MenuIconType": "ChatIcon",
                  "DialoguePath": "Config/Level/NPCDialogue/P20123/F20123001_G78/DialogueItem501030306_F20123001_G78_N400002.json",
                  "ExtraInfo": 2
                }
              ]
            }
          ]
        }
      ]
    }
  ]
}