{
  "OnInitSequece": [],
  "OnStartSequece": [
    {
      "TaskList": [
        {
          "$type": "RPG.GameCore.CollectDataConditions",
          "TaskIDList": [
            201090601,
            201090512
          ],
          "PerformanceIDList": []
        },
        {
          "$type": "RPG.GameCore.PredicateTaskList",
          "Predicate": {
            "$type": "RPG.GameCore.ByCompareSubMissionState",
            "SubMissionID": 201090512,
            "SubMissionState": "Finish"
          },
          "SuccessTaskList": [
            {
              "$type": "RPG.GameCore.PredicateTaskList",
              "Predicate": {
                "$type": "RPG.GameCore.ByCompareSubMissionState",
                "SubMissionID": 201090601,
                "SubMissionState": "Finish"
              },
              "FailedTaskList": [
                {
                  "$type": "RPG.GameCore.PredicateTaskList",
                  "Predicate": {
                    "$type": "RPG.GameCore.ByComparePerformance",
                    "PerformanceID": 501030205
                  },
                  "SuccessTaskList": [
                    {
                      "$type": "RPG.GameCore.AddMenuItem",
                      "MenuItemID": 501030205,
                      "MenuIconType": "ChatIcon",
                      "DialoguePath": "Config/Level/NPCDialogue/P20123/F20123001_G78/DialogueItem501030205_F20123001_G78_N400003.json"
                    }
                  ]
                }
              ]
            }
          ]
        }
      ]
    }
  ]
}