{
  "MainMissionID": 4040012,
  "StartSubMissionList": [
    404001201
  ],
  "FinishSubMissionList": [
    404001201
  ],
  "SubMissionList": [
    {
      "MainMissionID": 4040012,
      "MissionJsonPath": "Config/Level/Mission/4040012/Mission_404001201.json",
      "TakeType": "Auto",
      "ID": 404001201,
      "FinishType": "Talk",
      "ParamType": "Equal",
      "ParamStr1": "Mission_404001201",
      "ParamItemList": [],
      "Progress": 1
    }
  ]
}