{
  "MainMissionID": 4071312,
  "StartSubMissionList": [
    407131201,
    407131205,
    407131206,
    407131210,
    407131212
  ],
  "FinishSubMissionList": [
    407131207
  ],
  "SubMissionList": [
    {
      "MainMissionID": 4071312,
      "MissionJsonPath": "Config/Level/Mission/4071312/Mission_407131201.json",
      "TakeType": "Auto",
      "TakeParamIntList": [],
      "ID": 407131201,
      "FinishType": "Talk",
      "ParamType": "Equal",
      "ParamStr1": "Mission_407131201",
      "ParamIntList": [],
      "ParamItemList": [],
      "Progress": 1
    },
    {
      "MainMissionID": 4071312,
      "MissionJsonPath": "Config/Level/Mission/4071312/Mission_407131202.json",
      "TakeType": "AnySequence",
      "TakeParamIntList": [
        407131201
      ],
      "ID": 407131202,
      "FinishType": "Talk",
      "ParamType": "Equal",
      "ParamStr1": "Mission_407131202",
      "ParamIntList": [],
      "ParamItemList": [],
      "Progress": 1
    },
    {
      "MainMissionID": 4071312,
      "MissionJsonPath": "Config/Level/Mission/4071312/Mission_407131203.json",
      "TakeType": "AnySequence",
      "TakeParamIntList": [
        407131202
      ],
      "ID": 407131203,
      "FinishType": "Talk",
      "ParamType": "Equal",
      "ParamStr1": "Mission_407131203",
      "ParamIntList": [],
      "ParamItemList": [],
      "Progress": 1
    },
    {
      "MainMissionID": 4071312,
      "MissionJsonPath": "Config/Level/Mission/4071312/Mission_407131204.json",
      "TakeType": "AnySequence",
      "TakeParamIntList": [
        407131203
      ],
      "ID": 407131204,
      "FinishType": "StageWin",
      "ParamType": "Equal",
      "ParamInt1": 40131018,
      "ParamIntList": [],
      "ParamItemList": [],
      "Progress": 1
    },
    {
      "MainMissionID": 4071312,
      "TakeType": "Auto",
      "TakeParamIntList": [],
      "ID": 407131205,
      "MazePlaneID": 40131,
      "MazeFloorID": 40131002,
      "FinishType": "KillMonster",
      "ParamType": "Equal",
      "ParamInt1": 7,
      "ParamInt2": 200001,
      "ParamIntList": [],
      "ParamItemList": [],
      "Progress": 1,
      "IsBackTrack": true
    },
    {
      "MainMissionID": 4071312,
      "TakeType": "Auto",
      "TakeParamIntList": [],
      "ID": 407131206,
      "MazePlaneID": 40131,
      "MazeFloorID": 40131002,
      "FinishType": "KillMonster",
      "ParamType": "Equal",
      "ParamInt1": 2,
      "ParamInt2": 200001,
      "ParamIntList": [],
      "ParamItemList": [],
      "Progress": 1,
      "IsBackTrack": true
    },
    {
      "MainMissionID": 4071312,
      "MissionJsonPath": "Config/Level/Mission/4071312/Mission_407131207.json",
      "TakeType": "AnySequence",
      "TakeParamIntList": [
        407131204
      ],
      "ID": 407131207,
      "FinishType": "Talk",
      "ParamType": "Equal",
      "ParamStr1": "Mission_407131207",
      "ParamIntList": [],
      "ParamItemList": [],
      "Progress": 1
    },
    {
      "MainMissionID": 4071312,
      "TakeType": "Auto",
      "ID": 407131208,
      "FinishType": "Talk",
      "ParamType": "Equal",
      "ParamStr1": "Mission_407131202",
      "ParamItemList": [],
      "Progress": 1
    },
    {
      "MainMissionID": 4071312,
      "TakeType": "Auto",
      "ID": 407131209,
      "FinishType": "Talk",
      "ParamType": "Equal",
      "ParamStr1": "Mission_407131203",
      "ParamItemList": [],
      "Progress": 1
    },
    {
      "MainMissionID": 4071312,
      "MissionJsonPath": "Config/Level/Mission/4071312/Mission_407131210.json",
      "CustomValueReward": [],
      "TakeParamIntList": [],
      "ID": 407131210,
      "FinishType": "Talk",
      "ParamType": "Equal",
      "ParamStr1": "Mission_407131210",
      "ParamIntList": [],
      "ParamItemList": [],
      "Progress": 1
    },
    {
      "MainMissionID": 4071312,
      "MissionJsonPath": "Config/Level/Mission/4071312/Mission_407131211.json",
      "CustomValueReward": [],
      "TakeType": "AnySequence",
      "TakeParamIntList": [
        407131210
      ],
      "ID": 407131211,
      "FinishType": "Talk",
      "ParamType": "Equal",
      "ParamStr1": "Mission_407131211",
      "ParamIntList": [],
      "ParamItemList": [],
      "Progress": 1
    },
    {
      "MainMissionID": 4071312,
      "MissionJsonPath": "Config/Level/Mission/4071312/Mission_407131212.json",
      "TakeType": "Auto",
      "TakeParamIntList": [],
      "ID": 407131212,
      "MazePlaneID": 40131,
      "MazeFloorID": 40131002,
      "FinishType": "KillMonster",
      "ParamType": "Equal",
      "ParamInt1": 13,
      "ParamInt2": 200001,
      "ParamIntList": [],
      "ParamItemList": [],
      "Progress": 1,
      "IsBackTrack": true
    }
  ]
}