{
  "OnInitSequece": [],
  "OnStartSequece": [
    {
      "TaskList": [
        {
          "$type": "RPG.GameCore.LevelPerformanceInitialize",
          "PerformanceType": "C",
          "AreaPrefabPath": "Story/Mission/1011401/Story101140101.prefab",
          "CreateCharacterList": [
            {
              "CharacterUniqueName": "PlayerBoy_00",
              "AvatarID": "NPC_Avatar_Lad_PlayerBoy_00",
              "AreaName": "Story101140101.prefab"
            },
            {
              "CharacterUniqueName": "PlayerGirl_00",
              "AvatarID": "NPC_Avatar_Miss_PlayerGirl_00",
              "AreaName": "Story101140101.prefab"
            },
            {
              "CharacterUniqueName": "Mar_7th_00",
              "AvatarID": "NPC_Avatar_Maid_Mar_7th_00",
              "AreaName": "Story101140101.prefab"
            },
            {
              "CharacterUniqueName": "DanHeng_00",
              "AvatarID": "NPC_Avatar_Lad_DanHeng_00",
              "AreaName": "Story101140101.prefab"
            },
            {
              "CharacterUniqueName": "Seele_00",
              "AvatarID": "NPC_Avatar_Maid_Seele_00",
              "AreaName": "Story101140101.prefab"
            },
            {
              "CharacterUniqueName": "Cocolia_00",
              "AvatarID": "NPC_Special_Cocolia_00",
              "AreaName": "Story101140101.prefab"
            },
            {
              "CharacterUniqueName": "Bronya_00",
              "AvatarID": "NPC_Avatar_Maid_Bronya_00",
              "AreaName": "Story101140101.prefab"
            }
          ],
          "EntityVisiableList": [],
          "HideProp": true,
          "HideLocalPlayer": true,
          "EnableRootMotion": false,
          "StreamingCentersInBlackMask": [
            {
              "CenterName": "cam07",
              "AreaName": "Story101140101",
              "AnchorName": "center01"
            },
            {
              "CenterName": "cam07b",
              "AreaName": "Story101140101",
              "AnchorName": "center02"
            }
          ],
          "StreamingCentersAfterBlackMask": [],
          "MarkStreamingItems": []
        },
        {
          "$type": "RPG.GameCore.PlayTimeline",
          "TimelineName": "Story/Mission/1011401/Story10114010101.playable",
          "Type": "Story",
          "Parameters": []
        },
        {
          "$type": "RPG.GameCore.PlayOptionTalk",
          "OptionList": [
            {
              "TalkSentenceID": 201331016,
              "OptionIconType": "ChatContinueIcon",
              "TriggerCustomString": "Story101140101"
            },
            {
              "TalkSentenceID": 201331017,
              "OptionIconType": "ChatContinueIcon",
              "TriggerCustomString": "Story101140101"
            }
          ]
        }
      ]
    },
    {
      "TaskList": [
        {
          "$type": "RPG.GameCore.WaitCustomString",
          "CustomString": {
            "Value": "Story101140101"
          }
        },
        {
          "$type": "RPG.GameCore.PlayTimeline",
          "TimelineName": "Story/Mission/1011401/Story10114010102.playable",
          "Type": "Story",
          "Parameters": []
        },
        {
          "$type": "RPG.GameCore.EndPerformance"
        }
      ]
    },
    {
      "TaskList": [
        {
          "$type": "RPG.GameCore.WaitPerformanceEnd"
        },
        {
          "$type": "RPG.GameCore.FinishLevelGraph"
        }
      ]
    }
  ]
}