{
  "OnInitSequece": [
    {
      "TaskList": [
        {
          "$type": "RPG.GameCore.CreateLevelAreas",
          "AssetPath": {
            "Value": "Level/Common_Adventure/LookatMessage.prefab"
          }
        }
      ]
    }
  ],
  "OnStartSequece": [
    {
      "TaskList": [
        {
          "$type": "RPG.GameCore.BlockInputController",
          "Enable": true,
          "ActionNameList": [],
          "TaskEnabled": false
        },
        {
          "$type": "RPG.GameCore.ShowMazeUI",
          "TaskEnabled": false
        },
        {
          "$type": "RPG.GameCore.ClearTalkUI",
          "SuccessWithoutTalk": true
        },
        {
          "$type": "RPG.GameCore.ShowUI",
          "Name": "Ui.PhoneMessage.PhoneMessageNoticeHintPage",
          "WaitForExit": true
        },
        {
          "$type": "RPG.GameCore.TriggerCustomString",
          "CustomString": {
            "Value": "PhoneMessage_Notice"
          }
        }
      ]
    },
    {
      "TaskList": [
        {
          "$type": "RPG.GameCore.WaitCustomString",
          "CustomString": {
            "Value": "PhoneMessage_Notice"
          }
        },
        {
          "$type": "RPG.GameCore.SetCharacterMaterialEffectEnable",
          "TargetType": {
            "$type": "RPG.GameCore.TargetFetchAdvLocalPlayer"
          },
          "IsEnable": false
        },
        {
          "$type": "RPG.GameCore.EnableNPCMonsterAI",
          "GroupMonsterIDs": [],
          "UniqueNames": []
        },
        {
          "$type": "RPG.GameCore.EnablePerformanceMode",
          "Enable": true
        },
        {
          "$type": "RPG.GameCore.CaptureLocalPlayer",
          "CharacterUniqueName": "LocalPlayer"
        },
        {
          "$type": "RPG.GameCore.CharacterTriggerFreeStyle",
          "CharacterUniqueName": "LocalPlayer",
          "StoryAvatarID": "NPC_Monster_XP_Minion01_00",
          "StartMotion": "LookAtPhoneBS"
        },
        {
          "$type": "RPG.GameCore.CharacterDisableLookAt",
          "CharacterUniqueName": "LocalPlayer"
        },
        {
          "$type": "RPG.GameCore.CreatePhoneOnCharacter"
        },
        {
          "$type": "RPG.GameCore.ActiveVirtualCamera",
          "AreaName": "LookatMessage",
          "AnchorName": "LookatPhone_Camera2",
          "FollowTargetUniqueName": "LocalPlayer",
          "LookAtTargetUniqueName": "LocalPlayer",
          "WaitBlendFinish": true,
          "BlendConfig": {
            "ExportToJson": true,
            "BlendType": "Cut",
            "CustomCurveName": "BlendCut_08to1"
          },
          "VCameraDitherNPCOn": true,
          "VCameraDitherMaxDistance": 3
        },
        {
          "$type": "RPG.GameCore.WaitFrame"
        },
        {
          "$type": "RPG.GameCore.ActiveVirtualCamera",
          "AreaName": "LookatMessage",
          "AnchorName": "LookatPhone_Camera",
          "FollowTargetUniqueName": "LocalPlayer",
          "LookAtTargetUniqueName": "LocalPlayer",
          "WaitBlendFinish": true,
          "BlendConfig": {
            "ExportToJson": true,
            "BlendType": "EaseOut",
            "CustomCurveName": "BlendCut_08to1",
            "BlendTime": 0.5
          },
          "VCameraDitherNPCOn": true,
          "VCameraDitherMaxDistance": 3
        },
        {
          "$type": "RPG.GameCore.ReleaseCharacter",
          "CharacterUniqueName": "LocalPlayer"
        },
        {
          "$type": "RPG.GameCore.WaitSecond",
          "WaitTime": 0.1
        },
        {
          "$type": "RPG.GameCore.BlockInputController",
          "ActionNameList": [],
          "TaskEnabled": false
        }
      ]
    },
    {
      "TaskList": [
        {
          "$type": "RPG.GameCore.WaitCustomString",
          "CustomString": {
            "Value": "PhoneMessage_Notice"
          }
        },
        {
          "$type": "RPG.GameCore.WaitSecond",
          "WaitTime": 0.2
        },
        {
          "$type": "RPG.GameCore.ShowUI",
          "Name": "Ui.PhoneMessage.MessageActReplyPage",
          "WaitForExit": true
        },
        {
          "$type": "RPG.GameCore.BlockInputController",
          "Enable": true,
          "ActionNameList": [],
          "TaskEnabled": false
        },
        {
          "$type": "RPG.GameCore.ShowMazeUI",
          "IsShow": true,
          "TaskEnabled": false
        },
        {
          "$type": "RPG.GameCore.CaptureLocalPlayer",
          "CharacterUniqueName": "LocalPlayer"
        },
        {
          "$type": "RPG.GameCore.SetCharacterMaterialEffectEnable",
          "TargetType": {
            "$type": "RPG.GameCore.TargetFetchAdvLocalPlayer"
          }
        },
        {
          "$type": "RPG.GameCore.ActiveVirtualCamera",
          "AreaName": "LookatMessage",
          "AnchorName": "LookatPhone_Camera",
          "IsActive": false,
          "FollowTargetUniqueName": "LocalPlayer",
          "LookAtTargetUniqueName": "LocalPlayer",
          "BlendConfig": {
            "ExportToJson": true,
            "BlendType": "Custom",
            "CustomCurveName": "BlendCut_07to1_Short",
            "BlendTime": 1
          }
        },
        {
          "$type": "RPG.GameCore.CharacterTriggerFreeStyle",
          "CharacterUniqueName": "LocalPlayer",
          "StoryAvatarID": "NPC_Monster_XP_Minion01_00",
          "StartMotion": "LookAtPhoneAS"
        },
        {
          "$type": "RPG.GameCore.CharacterDisableLookAt",
          "CharacterUniqueName": "LocalPlayer",
          "Disable": false
        },
        {
          "$type": "RPG.GameCore.CreatePhoneOnCharacter",
          "IsDestroy": true
        },
        {
          "$type": "RPG.GameCore.WaitSecond",
          "WaitTime": 0.4
        },
        {
          "$type": "RPG.GameCore.CharacterStopFreeStyle",
          "CharacterUniqueName": "LocalPlayer"
        },
        {
          "$type": "RPG.GameCore.ReleaseCharacter",
          "CharacterUniqueName": "LocalPlayer"
        },
        {
          "$type": "RPG.GameCore.EnableNPCMonsterAI",
          "Enable": true,
          "GroupMonsterIDs": [],
          "UniqueNames": []
        },
        {
          "$type": "RPG.GameCore.EnablePerformanceMode"
        },
        {
          "$type": "RPG.GameCore.TriggerCustomString",
          "CustomString": {
            "Value": "LookatMessage"
          }
        }
      ]
    },
    {
      "TaskList": [
        {
          "$type": "RPG.GameCore.WaitCustomString",
          "CustomString": {
            "Value": "LookatMessage"
          }
        },
        {
          "$type": "RPG.GameCore.RemoveLevelAreas",
          "AreaName": {
            "Value": "LookatMessage"
          }
        },
        {
          "$type": "RPG.GameCore.BlockInputController",
          "ActionNameList": [],
          "TaskEnabled": false
        },
        {
          "$type": "RPG.GameCore.FinishLevelGraph",
          "MakeOwnerEntityDie": true
        }
      ]
    }
  ]
}