{
  "MainMissionID": 9099914,
  "StartSubMissionList": [
    909991401
  ],
  "FinishSubMissionList": [
    909991403
  ],
  "SubMissionList": [
    {
      "MainMissionID": 9099914,
      "TakeType": "Auto",
      "ID": 909991401,
      "FinishType": "MessagePerformSectionFinish",
      "ParamType": "Equal",
      "ParamInt1": 9010501,
      "ParamItemList": [],
      "Progress": 1
    },
    {
      "MainMissionID": 9099914,
      "TakeType": "AnySequence",
      "TakeParamIntList": [
        909991401
      ],
      "ID": 909991402,
      "FinishType": "GetItem",
      "ParamType": "Equal",
      "ParamInt1": 221,
      "ParamItemList": [],
      "Progress": 1
    },
    {
      "MainMissionID": 9099914,
      "TakeType": "AnySequence",
      "TakeParamIntList": [
        909991402
      ],
      "ID": 909991403,
      "FinishType": "GetItem",
      "ParamType": "Equal",
      "ParamInt1": 222,
      "ParamItemList": [],
      "Progress": 1
    }
  ]
}