{
  "OnInitSequece": [],
  "OnStartSequece": [
    {
      "TaskList": [
        {
          "$type": "RPG.GameCore.LevelPerformanceInitialize",
          "PerformanceType": "E",
          "HideMunicipalCrowd": false,
          "HideMunicipalPedestrian": false
        },
        {
          "$type": "RPG.GameCore.PerformanceTransition",
          "SwitchKeepTime": 1,
          "CreateNpcList": [
            {
              "GroupID": {
                "IsDynamic": false,
                "FixedValue": {
                  "Value": 94
                }
              },
              "GroupNpcID": {
                "IsDynamic": false,
                "FixedValue": {
                  "Value": 400003
                }
              }
            }
          ],
          "CaptureNpcList": [],
          "DestroyNpcList": [
            {
              "GroupID": 94,
              "GroupNpcID": 400002
            }
          ],
          "ActiveVirtualCamera": {
            "TaskEnabled": false
          },
          "SwitchCharacterAnchor": {
            "IsLocalPlayer": true,
            "CharacterUniqueName": "LocalPlayer",
            "AreaName": {
              "Value": "LevelArea_P10201_F10201001_G94"
            },
            "AnchorName": {
              "Value": "Anchor1"
            }
          }
        },
        {
          "$type": "RPG.GameCore.AdvNpcFaceToPlayer",
          "GroupID": 94,
          "GroupNpcID": 400003,
          "FinishImmadiate": true
        },
        {
          "$type": "RPG.GameCore.PlaySimpleTalk",
          "SimpleTalkList": [
            {
              "TalkSentenceID": 404020733,
              "ProtectTime": 0.3
            }
          ]
        },
        {
          "$type": "RPG.GameCore.WaitSimpleTalkFinish"
        },
        {
          "$type": "RPG.GameCore.PlayOptionTalk",
          "OptionList": [
            {
              "TalkSentenceID": 404020734,
              "OptionIconType": "ChatContinueIcon",
              "TriggerCustomString": "TalkSentence_404020735"
            },
            {
              "TalkSentenceID": 404020736,
              "OptionIconType": "ChatContinueIcon",
              "TriggerCustomString": "TalkSentence_404020737"
            }
          ]
        }
      ]
    },
    {
      "TaskList": [
        {
          "$type": "RPG.GameCore.WaitCustomString",
          "CustomString": {
            "Value": "TalkSentence_404020735"
          }
        },
        {
          "$type": "RPG.GameCore.PlaySimpleTalk",
          "SimpleTalkList": [
            {
              "TalkSentenceID": 404020735,
              "ProtectTime": 0.3
            }
          ]
        },
        {
          "$type": "RPG.GameCore.WaitSimpleTalkFinish"
        },
        {
          "$type": "RPG.GameCore.TriggerCustomString",
          "CustomString": {
            "Value": "TalkSentence_404020739"
          }
        }
      ]
    },
    {
      "TaskList": [
        {
          "$type": "RPG.GameCore.WaitCustomString",
          "CustomString": {
            "Value": "TalkSentence_404020737"
          }
        },
        {
          "$type": "RPG.GameCore.PlaySimpleTalk",
          "SimpleTalkList": [
            {
              "TalkSentenceID": 404020737,
              "ProtectTime": 0.3
            },
            {
              "TalkSentenceID": 404020738,
              "ProtectTime": 0.3
            }
          ]
        },
        {
          "$type": "RPG.GameCore.WaitSimpleTalkFinish"
        },
        {
          "$type": "RPG.GameCore.TriggerCustomString",
          "CustomString": {
            "Value": "TalkSentence_404020739"
          }
        }
      ]
    },
    {
      "TaskList": [
        {
          "$type": "RPG.GameCore.WaitCustomString",
          "CustomString": {
            "Value": "TalkSentence_404020739"
          }
        },
        {
          "$type": "RPG.GameCore.PlaySimpleTalk",
          "SimpleTalkList": [
            {
              "TalkSentenceID": 404020739,
              "ProtectTime": 0.3
            },
            {
              "TalkSentenceID": 404020740,
              "ProtectTime": 0.3
            }
          ]
        },
        {
          "$type": "RPG.GameCore.WaitSimpleTalkFinish"
        },
        {
          "$type": "RPG.GameCore.PlayOptionTalk",
          "OptionList": [
            {
              "TalkSentenceID": 404020741,
              "OptionIconType": "ChatContinueIcon",
              "TriggerCustomString": "TalkSentence_404020742"
            },
            {
              "TalkSentenceID": 404020743,
              "OptionIconType": "ChatContinueIcon",
              "TriggerCustomString": "TalkSentence_404020744"
            }
          ]
        }
      ]
    },
    {
      "TaskList": [
        {
          "$type": "RPG.GameCore.WaitCustomString",
          "CustomString": {
            "Value": "TalkSentence_404020742"
          }
        },
        {
          "$type": "RPG.GameCore.PlaySimpleTalk",
          "SimpleTalkList": [
            {
              "TalkSentenceID": 404020742,
              "ProtectTime": 0.3
            }
          ]
        },
        {
          "$type": "RPG.GameCore.WaitSimpleTalkFinish"
        },
        {
          "$type": "RPG.GameCore.TriggerCustomString",
          "CustomString": {
            "Value": "TalkSentence_404020745"
          }
        }
      ]
    },
    {
      "TaskList": [
        {
          "$type": "RPG.GameCore.WaitCustomString",
          "CustomString": {
            "Value": "TalkSentence_404020744"
          }
        },
        {
          "$type": "RPG.GameCore.PlaySimpleTalk",
          "SimpleTalkList": [
            {
              "TalkSentenceID": 404020744,
              "ProtectTime": 0.3
            }
          ]
        },
        {
          "$type": "RPG.GameCore.WaitSimpleTalkFinish"
        },
        {
          "$type": "RPG.GameCore.TriggerCustomString",
          "CustomString": {
            "Value": "TalkSentence_404020745"
          }
        }
      ]
    },
    {
      "TaskList": [
        {
          "$type": "RPG.GameCore.WaitCustomString",
          "CustomString": {
            "Value": "TalkSentence_404020745"
          }
        },
        {
          "$type": "RPG.GameCore.PlaySimpleTalk",
          "SimpleTalkList": [
            {
              "TalkSentenceID": 404020745,
              "ProtectTime": 0.3
            },
            {
              "TalkSentenceID": 404020746,
              "ProtectTime": 0.3
            }
          ]
        },
        {
          "$type": "RPG.GameCore.WaitSimpleTalkFinish"
        },
        {
          "$type": "RPG.GameCore.PerformanceTransition",
          "SwitchKeepTime": 1,
          "CreateNpcList": [],
          "CaptureNpcList": [],
          "DestroyNpcList": [
            {
              "GroupID": 94,
              "GroupNpcID": 400003
            }
          ],
          "ActiveVirtualCamera": {
            "TaskEnabled": false
          },
          "SwitchCharacterAnchor": {
            "TaskEnabled": false
          }
        },
        {
          "$type": "RPG.GameCore.EndPerformance"
        }
      ]
    },
    {
      "TaskList": [
        {
          "$type": "RPG.GameCore.WaitPerformanceEnd"
        },
        {
          "$type": "RPG.GameCore.FinishLevelGraph"
        }
      ]
    }
  ]
}