{
  "OnInitSequece": [],
  "OnStartSequece": [
    {
      "TaskList": [
        {
          "$type": "RPG.GameCore.WaitSecond",
          "WaitTime": 3
        },
        {
          "$type": "RPG.GameCore.TriggerCustomString",
          "CustomString": {
            "Value": "200020107_Act"
          }
        }
      ]
    },
    {
      "TaskList": [
        {
          "$type": "RPG.GameCore.CreateNPC",
          "GroupID": {
            "IsDynamic": false,
            "FixedValue": {
              "Value": 39
            }
          },
          "GroupNpcID": {
            "IsDynamic": false,
            "FixedValue": {
              "Value": 400007
            }
          }
        }
      ]
    },
    {
      "TaskList": [
        {
          "$type": "RPG.GameCore.PhotoGraphAimTarget",
          "AimTargetType": {
            "$type": "RPG.GameCore.TargetFetchAdvNPC",
            "MultiGroupFetch": [
              {
                "GroupID": 39,
                "GroupNpcID": 400007
              }
            ]
          },
          "IsAim": true,
          "AimIdentifyType": "Manual",
          "AimTagExtraOffset": 0.37
        },
        {
          "$type": "RPG.GameCore.PhotoGraphWaitIdentifyFinish",
          "WaitTargetType": {
            "$type": "RPG.GameCore.TargetFetchAdvNPC",
            "MultiGroupFetch": [
              {
                "GroupID": 39,
                "GroupNpcID": 400007
              }
            ]
          },
          "OnIdentifyFinish": [],
          "OnIdentifyFailed": [],
          "OnPreviewFinish": [
            {
              "$type": "RPG.GameCore.PhotoGraphAimTarget",
              "AimTargetType": {
                "$type": "RPG.GameCore.TargetFetchAdvNPC",
                "MultiGroupFetch": [
                  {
                    "GroupID": 39,
                    "GroupNpcID": 400007
                  }
                ]
              },
              "AimIdentifyType": "Manual"
            },
            {
              "$type": "RPG.GameCore.SwitchPhotoGraphMode"
            },
            {
              "$type": "RPG.GameCore.TriggerCustomString",
              "CustomString": {
                "Value": "200020107_Finish"
              }
            }
          ]
        }
      ]
    },
    {
      "TaskList": [
        {
          "$type": "RPG.GameCore.WaitCustomString",
          "CustomString": {
            "Value": "200020107_Finish"
          }
        },
        {
          "$type": "RPG.GameCore.FinishPerformanceMission",
          "Key": "Mission_200020107"
        }
      ]
    },
    {
      "TaskList": [
        {
          "$type": "RPG.GameCore.WaitCustomString",
          "CustomString": {
            "Value": "200020107_Act"
          }
        },
        {
          "$type": "RPG.GameCore.CaptureNPCToCharacter",
          "GroupID": {
            "IsDynamic": false,
            "FixedValue": {
              "Value": 39
            }
          },
          "GroupNpcID": {
            "IsDynamic": false,
            "FixedValue": {
              "Value": 400007
            }
          },
          "CharacterUniqueName": {
            "Value": "200020107_Jz"
          }
        },
        {
          "$type": "RPG.GameCore.WaitSecond",
          "WaitTime": 6
        },
        {
          "$type": "RPG.GameCore.CharacterTriggerFreeStyle",
          "CharacterUniqueName": "200020107_Jz",
          "StoryAvatarID": "NPC_Avatar_Lady_Himeko_00",
          "StartMotion": "HoldArm01BS",
          "StoryMotionID": 1003050
        },
        {
          "$type": "RPG.GameCore.WaitSecond",
          "WaitTime": 5
        },
        {
          "$type": "RPG.GameCore.CharacterTriggerFreeStyle",
          "CharacterUniqueName": "200020107_Jz",
          "StoryAvatarID": "NPC_Avatar_Lady_Himeko_00",
          "StartMotion": "HoldArm01AS",
          "StoryMotionID": 1003052
        },
        {
          "$type": "RPG.GameCore.WaitSecond",
          "WaitTime": 3
        },
        {
          "$type": "RPG.GameCore.CharacterTriggerFreeStyle",
          "CharacterUniqueName": "200020107_Jz",
          "StoryAvatarID": "NPC_Avatar_Lady_Himeko_00",
          "StartMotion": "Bye01",
          "StoryMotionID": 1003068
        },
        {
          "$type": "RPG.GameCore.WaitSecond",
          "WaitTime": 3
        },
        {
          "$type": "RPG.GameCore.CharacterTriggerFreeStyle",
          "CharacterUniqueName": "200020107_Jz",
          "StoryAvatarID": "NPC_Avatar_Lady_Himeko_00",
          "StartMotion": "Think01BS",
          "StoryMotionID": 1003041
        }
      ]
    }
  ]
}