{
  "MainMissionID": 3011402,
  "StartSubMissionList": [
    301140201
  ],
  "FinishSubMissionList": [
    301140203
  ],
  "SubMissionList": [
    {
      "MainMissionID": 3011402,
      "MissionJsonPath": "Config/Level/Mission/3011402/Mission_301140201.json",
      "TakeType": "Auto",
      "ID": 301140201,
      "FinishType": "Talk",
      "ParamType": "Equal",
      "ParamStr1": "Mission_301140201",
      "ParamItemList": [],
      "Progress": 1
    },
    {
      "MainMissionID": 3011402,
      "MissionJsonPath": "Config/Level/Mission/3011402/Mission_301140202.json",
      "TakeType": "AnySequence",
      "TakeParamIntList": [
        301140201
      ],
      "ID": 301140202,
      "FinishType": "Talk",
      "ParamType": "Equal",
      "ParamStr1": "Mission_301140202",
      "ParamItemList": [],
      "Progress": 1
    },
    {
      "MainMissionID": 3011402,
      "MissionJsonPath": "Config/Level/Mission/3011402/Mission_301140203.json",
      "TakeType": "AnySequence",
      "TakeParamIntList": [
        301140202
      ],
      "ID": 301140203,
      "FinishType": "Talk",
      "ParamType": "Equal",
      "ParamStr1": "Mission_301140203",
      "ParamItemList": [],
      "Progress": 1
    }
  ]
}