{
  "OnInitSequece": [],
  "OnStartSequece": [
    {
      "TaskList": [
        {
          "$type": "RPG.GameCore.CreateProp",
          "GroupID": 155,
          "GroupPropID": 300001
        }
      ]
    },
    {
      "TaskList": [
        {
          "$type": "RPG.GameCore.CreateNPC",
          "GroupID": {
            "IsDynamic": false,
            "FixedValue": {
              "Value": 155
            }
          },
          "GroupNpcID": {
            "IsDynamic": false,
            "FixedValue": {
              "Value": 400001
            }
          },
          "CreateList": []
        },
        {
          "$type": "RPG.GameCore.CreateNPC",
          "GroupID": {
            "IsDynamic": false,
            "FixedValue": {
              "Value": 155
            }
          },
          "GroupNpcID": {
            "IsDynamic": false,
            "FixedValue": {
              "Value": 400002
            }
          },
          "CreateList": []
        },
        {
          "$type": "RPG.GameCore.CreateNPC",
          "GroupID": {
            "IsDynamic": false,
            "FixedValue": {
              "Value": 155
            }
          },
          "GroupNpcID": {
            "IsDynamic": false,
            "FixedValue": {
              "Value": 400003
            }
          },
          "CreateList": []
        },
        {
          "$type": "RPG.GameCore.CreateNPC",
          "GroupID": {
            "IsDynamic": false,
            "FixedValue": {
              "Value": 155
            }
          },
          "GroupNpcID": {
            "IsDynamic": false,
            "FixedValue": {
              "Value": 400004
            }
          },
          "CreateList": []
        }
      ]
    },
    {
      "TaskList": [
        {
          "$type": "RPG.GameCore.PhotoGraphAimTarget",
          "AimTargetType": {
            "$type": "RPG.GameCore.TargetConcat",
            "Targets": [
              {
                "$type": "RPG.GameCore.TargetFetchAdvProp",
                "MultiGroupFetch": [
                  {
                    "GroupID": {
                      "IsDynamic": false,
                      "FixedValue": {
                        "Value": 155
                      }
                    },
                    "ID": {
                      "IsDynamic": false,
                      "FixedValue": {
                        "Value": 300001
                      }
                    }
                  }
                ]
              }
            ]
          },
          "IsAim": true,
          "AimIdentifyType": "Manual"
        },
        {
          "$type": "RPG.GameCore.PhotoGraphWaitIdentifyFinish",
          "WaitTargetType": {
            "$type": "RPG.GameCore.TargetConcat",
            "Targets": [
              {
                "$type": "RPG.GameCore.TargetFetchAdvProp",
                "MultiGroupFetch": [
                  {
                    "GroupID": {
                      "IsDynamic": false,
                      "FixedValue": {
                        "Value": 155
                      }
                    },
                    "ID": {
                      "IsDynamic": false,
                      "FixedValue": {
                        "Value": 300001
                      }
                    }
                  }
                ]
              }
            ]
          },
          "WaitAll": true,
          "OnIdentifyFailed": [
            {
              "$type": "RPG.GameCore.TriggerCustomString",
              "CustomString": {
                "Value": "301020210_fail"
              }
            }
          ],
          "OnPreviewFinish": [
            {
              "$type": "RPG.GameCore.PhotoGraphAimTarget",
              "AimTargetType": {
                "$type": "RPG.GameCore.TargetConcat",
                "Targets": [
                  {
                    "$type": "RPG.GameCore.TargetFetchAdvProp",
                    "MultiGroupFetch": [
                      {
                        "GroupID": {
                          "IsDynamic": false,
                          "FixedValue": {
                            "Value": 155
                          }
                        },
                        "ID": {
                          "IsDynamic": false,
                          "FixedValue": {
                            "Value": 300001
                          }
                        }
                      }
                    ]
                  }
                ]
              }
            },
            {
              "$type": "RPG.GameCore.SwitchPhotoGraphMode"
            },
            {
              "$type": "RPG.GameCore.TriggerCustomString",
              "CustomString": {
                "Value": "Mission_301020210"
              }
            }
          ]
        }
      ]
    },
    {
      "IsLoop": true,
      "Order": 1,
      "TaskList": [
        {
          "$type": "RPG.GameCore.WaitCustomString",
          "CustomString": {
            "Value": "301020210_fail"
          }
        },
        {
          "$type": "RPG.GameCore.ToastPile",
          "ImgPath": "SpriteOutput/UI/MobilePhone/TextPanel.png",
          "DescTextID": {
            "Hash": 1553609823
          }
        }
      ]
    },
    {
      "TaskList": [
        {
          "$type": "RPG.GameCore.WaitCustomString",
          "CustomString": {
            "Value": "Mission_301020210"
          }
        },
        {
          "$type": "RPG.GameCore.FinishPerformanceMission",
          "Key": "Mission_301020210"
        }
      ]
    }
  ]
}