{
  "OnInitSequece": [],
  "OnStartSequece": [
    {
      "TaskList": [
        {
          "$type": "RPG.GameCore.PropSetupUITrigger",
          "ButtonIcon": "SpriteOutput/TalkIcon/CheckIcon.png",
          "IconType": "CheckIcon",
          "ButtonText": {
            "Hash": 1320086032
          },
          "ButtonCallback": [
            {
              "$type": "RPG.GameCore.PredicateTaskList",
              "Predicate": {
                "$type": "RPG.GameCore.ByCompareServerSubMissionState",
                "SubMissionID": 404024001,
                "SubMissionState": "Started"
              },
              "SuccessTaskList": [
                {
                  "$type": "RPG.GameCore.TriggerPerformance",
                  "ValueSource": {},
                  "PerformanceType": "E",
                  "PerformanceID": 502560401
                }
              ],
              "FailedTaskList": [
                {
                  "$type": "RPG.GameCore.RandomConfig",
                  "OddsList": [
                    {
                      "Value": 0.14299999992363155
                    },
                    {
                      "Value": 0.14299999992363155
                    },
                    {
                      "Value": 0.14299999992363155
                    },
                    {
                      "Value": 0.14299999992363155
                    },
                    {
                      "Value": 0.14299999992363155
                    },
                    {
                      "Value": 0.14299999992363155
                    },
                    {
                      "Value": 0.14299999992363155
                    }
                  ],
                  "TaskList": [
                    {
                      "$type": "RPG.GameCore.PlayMissionTalk",
                      "SimpleTalkList": [
                        {
                          "TalkSentenceID": 502551502,
                          "ProtectTime": 9
                        }
                      ]
                    },
                    {
                      "$type": "RPG.GameCore.PlayMissionTalk",
                      "SimpleTalkList": [
                        {
                          "TalkSentenceID": 502551503,
                          "ProtectTime": 4.25
                        }
                      ]
                    },
                    {
                      "$type": "RPG.GameCore.PlayMissionTalk",
                      "SimpleTalkList": [
                        {
                          "TalkSentenceID": 502551504,
                          "ProtectTime": 5
                        }
                      ]
                    },
                    {
                      "$type": "RPG.GameCore.PlayMissionTalk",
                      "SimpleTalkList": [
                        {
                          "TalkSentenceID": 502551505,
                          "ProtectTime": 7.5
                        }
                      ]
                    },
                    {
                      "$type": "RPG.GameCore.PlayMissionTalk",
                      "SimpleTalkList": [
                        {
                          "TalkSentenceID": 502551506,
                          "ProtectTime": 14.5
                        }
                      ]
                    },
                    {
                      "$type": "RPG.GameCore.PlayMissionTalk",
                      "SimpleTalkList": [
                        {
                          "TalkSentenceID": 502551507,
                          "ProtectTime": 11
                        }
                      ]
                    },
                    {
                      "$type": "RPG.GameCore.PlayMissionTalk",
                      "SimpleTalkList": [
                        {
                          "TalkSentenceID": 502551508,
                          "ProtectTime": 13.75
                        }
                      ]
                    }
                  ]
                }
              ]
            }
          ],
          "OverrideTargetTypes": [],
          "TargetType": {
            "$type": "RPG.GameCore.TargetFetchAdvPropEx"
          }
        }
      ]
    }
  ]
}