{
  "AbilityList": [
    {
      "Name": "LocalPlayer_Natasha_NormalAtk01",
      "TargetInfo": {
        "TargetType": "SkillPointEntityOrNone"
      },
      "OnStart": [
        {
          "$type": "RPG.GameCore.VCameraConfigChange",
          "CameraConfig": {
            "Freelook3rdConfig": {
              "DampChangeParam": {
                "TargetValue": {
                  "X": 1,
                  "Y": 1,
                  "Z": 1
                },
                "ChangeCurvePath": "Camera/BlendCurve/AttackDampCurve.asset",
                "RecoveryTime": 0.25,
                "RecoveryCurvePath": "Camera/BlendCurve/AttackDampRecoverCurve.asset"
              }
            }
          }
        },
        {
          "$type": "RPG.GameCore.PredicateTaskList",
          "Predicate": {
            "$type": "RPG.GameCore.ByHaveAbilityTarget"
          },
          "SuccessTaskList": [
            {
              "$type": "RPG.GameCore.LookAt",
              "PerformerType": {
                "$type": "RPG.GameCore.TargetAlias",
                "Alias": "Caster"
              },
              "TargetType": "AbilityTargetEntity",
              "Duration": 0.25
            },
            {
              "$type": "RPG.GameCore.AdventureTriggerAnimStateWithMove",
              "TargetType": {
                "$type": "RPG.GameCore.TargetAlias",
                "Alias": "AdvLocalPlayer"
              },
              "AnimLogicState": "NormalAtk",
              "AnimStateName": "Attack_1"
            },
            {
              "$type": "RPG.GameCore.WaitAnimState",
              "TargetType": {
                "$type": "RPG.GameCore.TargetAlias",
                "Alias": "Caster"
              },
              "AnimStateName": "Attack_1",
              "NormalizedTimeEnd": {
                "IsDynamic": false,
                "FixedValue": {
                  "Value": 0.02000000001862645
                }
              }
            },
            {
              "$type": "RPG.GameCore.VCameraConfigChange",
              "CameraConfig": {
                "ShakeTemplateName": "LocalPlayer_Natasha_NormalAttack_Fire"
              }
            },
            {
              "$type": "RPG.GameCore.PredicateTaskList",
              "Predicate": {
                "$type": "RPG.GameCore.ByDistance",
                "From": {
                  "$type": "RPG.GameCore.TargetAlias",
                  "Alias": "Caster"
                },
                "To": {
                  "$type": "RPG.GameCore.TargetAlias",
                  "Alias": "SkillPointEntity"
                },
                "CompareType": "LessEqual",
                "CompareValue": {
                  "IsDynamic": false,
                  "FixedValue": {
                    "Value": 7.500000000465661
                  }
                }
              },
              "SuccessTaskList": [
                {
                  "$type": "RPG.GameCore.AdventureFireProjectile",
                  "TargetType": {
                    "$type": "RPG.GameCore.TargetAlias",
                    "Alias": "SkillPointEntity"
                  },
                  "Projectile": {
                    "ColliderTemplate": "CapsuleZ_MazeCommonBullet",
                    "Behavior": "LinearWithHitDetect",
                    "FlySpeed": 17,
                    "EnableRayCast": true,
                    "Gravity": -25,
                    "MaxLifeTime": 3,
                    "AttachPoint": "Gun",
                    "AttachOffset": {
                      "X": 0,
                      "Y": 0.2,
                      "Z": 0.08
                    },
                    "FlyEffect": "Effects/Eff_Prefab/Eff_Avatar/Eff_Natasha/Eff_Avatar_Natasha_00_MazeAttack_Bullet.prefab",
                    "HitEffect": "Effects/Eff_Prefab/Eff_Avatar/Eff_Natasha/Eff_Avatar_Natasha_00_MazeAttack_Hit.prefab",
                    "LinearPitchAngle": {
                      "IsDynamic": false,
                      "FixedValue": {
                        "Value": 23
                      }
                    }
                  },
                  "OnProjectileHit": [
                    {
                      "$type": "RPG.GameCore.AdventureTriggerAttack",
                      "AttackTargetType": {
                        "$type": "RPG.GameCore.TargetAlias",
                        "Alias": "AllEnemy"
                      },
                      "AttackRootTargetType": {
                        "$type": "RPG.GameCore.TargetAlias",
                        "Alias": "ProjectileHitEntity"
                      },
                      "TriggerBattleDelay": 0.2,
                      "AttackDetectConfig": {
                        "$type": "RPG.GameCore.AdventureAttackDetectCircleConfig",
                        "MaxRadius": 1,
                        "FanAngle": 360,
                        "Hight": 2,
                        "Offset": {
                          "X": 0,
                          "Y": -1,
                          "Z": 0
                        }
                      },
                      "HitConfig": {
                        "HitAnimation": "Hit"
                      }
                    },
                    {
                      "$type": "RPG.GameCore.VCameraConfigChange",
                      "CameraConfig": {
                        "ShakeTemplateName": "LocalPlayer_Natasha_NormalAttack_Hit"
                      }
                    }
                  ]
                }
              ],
              "FailedTaskList": [
                {
                  "$type": "RPG.GameCore.AdventureFireProjectile",
                  "TargetType": {
                    "$type": "RPG.GameCore.TargetAlias",
                    "Alias": "SkillPointEntity"
                  },
                  "Projectile": {
                    "ColliderTemplate": "CapsuleZ_MazeCommonBullet",
                    "Behavior": "LinearWithHitDetect",
                    "FlySpeed": 17,
                    "EnableRayCast": true,
                    "Gravity": -25,
                    "MaxLifeTime": 3,
                    "AttachPoint": "Gun",
                    "AttachOffset": {
                      "X": 0,
                      "Y": 0.2,
                      "Z": 0.08
                    },
                    "FlyEffect": "Effects/Eff_Prefab/Eff_Avatar/Eff_Natasha/Eff_Avatar_Natasha_00_MazeAttack_Bullet.prefab",
                    "HitEffect": "Effects/Eff_Prefab/Eff_Avatar/Eff_Natasha/Eff_Avatar_Natasha_00_MazeAttack_Hit.prefab",
                    "LinearPitchAngle": {
                      "IsDynamic": false,
                      "FixedValue": {
                        "Value": 30
                      }
                    }
                  },
                  "OnProjectileHit": [
                    {
                      "$type": "RPG.GameCore.AdventureTriggerAttack",
                      "AttackTargetType": {
                        "$type": "RPG.GameCore.TargetAlias",
                        "Alias": "AllEnemy"
                      },
                      "AttackRootTargetType": {
                        "$type": "RPG.GameCore.TargetAlias",
                        "Alias": "ProjectileHitEntity"
                      },
                      "TriggerBattleDelay": 0.2,
                      "AttackDetectConfig": {
                        "$type": "RPG.GameCore.AdventureAttackDetectCircleConfig",
                        "MaxRadius": 1,
                        "FanAngle": 360,
                        "Hight": 2,
                        "Offset": {
                          "X": 0,
                          "Y": -1,
                          "Z": 0
                        }
                      },
                      "HitConfig": {
                        "HitAnimation": "Hit"
                      }
                    },
                    {
                      "$type": "RPG.GameCore.VCameraConfigChange",
                      "CameraConfig": {
                        "ShakeTemplateName": "LocalPlayer_Natasha_NormalAttack_Hit"
                      }
                    }
                  ]
                }
              ]
            },
            {
              "$type": "RPG.GameCore.RadialBlurEffect",
              "TargetType": {
                "$type": "RPG.GameCore.TargetAlias",
                "Alias": "Caster"
              },
              "Duration": 0.08,
              "BlurY": 0.4,
              "BlurRadius": 1,
              "Iteration": 4,
              "BlurStart": 0.1,
              "BlurFeather": 0.2
            }
          ],
          "FailedTaskList": [
            {
              "$type": "RPG.GameCore.AdventureTriggerAnimStateWithMove",
              "TargetType": {
                "$type": "RPG.GameCore.TargetAlias",
                "Alias": "Caster"
              },
              "AnimLogicState": "NormalAtk",
              "AnimStateName": "Attack_1"
            },
            {
              "$type": "RPG.GameCore.WaitAnimState",
              "TargetType": {
                "$type": "RPG.GameCore.TargetAlias",
                "Alias": "Caster"
              },
              "AnimStateName": "Attack_1",
              "NormalizedTimeEnd": {
                "IsDynamic": false,
                "FixedValue": {
                  "Value": 0.02000000001862645
                }
              }
            },
            {
              "$type": "RPG.GameCore.VCameraConfigChange",
              "CameraConfig": {
                "ShakeTemplateName": "LocalPlayer_Natasha_NormalAttack_Fire"
              }
            },
            {
              "$type": "RPG.GameCore.AdventureFireProjectile",
              "TargetType": {
                "$type": "RPG.GameCore.TargetAlias",
                "Alias": "None"
              },
              "Projectile": {
                "ColliderTemplate": "CapsuleZ_MazeCommonBullet",
                "Behavior": "LinearWithHitDetect",
                "FlySpeed": 12,
                "EnableRayCast": true,
                "Gravity": -27,
                "MaxLifeTime": 3,
                "AttachPoint": "Gun",
                "AttachOffset": {
                  "X": 0,
                  "Y": 0.2,
                  "Z": 0.08
                },
                "FlyEffect": "Effects/Eff_Prefab/Eff_Avatar/Eff_Natasha/Eff_Avatar_Natasha_00_MazeAttack_Bullet.prefab",
                "HitEffect": "Effects/Eff_Prefab/Eff_Avatar/Eff_Natasha/Eff_Avatar_Natasha_00_MazeAttack_Hit.prefab",
                "LinearPitchAngle": {
                  "IsDynamic": false,
                  "FixedValue": {
                    "Value": 30
                  }
                }
              },
              "OnProjectileHit": [
                {
                  "$type": "RPG.GameCore.AdventureTriggerAttack",
                  "AttackTargetType": {
                    "$type": "RPG.GameCore.TargetAlias",
                    "Alias": "AllEnemy"
                  },
                  "AttackRootTargetType": {
                    "$type": "RPG.GameCore.TargetAlias",
                    "Alias": "ProjectileHitEntity"
                  },
                  "TriggerBattleDelay": 0.2,
                  "AttackDetectConfig": {
                    "$type": "RPG.GameCore.AdventureAttackDetectCircleConfig",
                    "MaxRadius": 1,
                    "FanAngle": 360,
                    "Hight": 2,
                    "Offset": {
                      "X": 0,
                      "Y": -1,
                      "Z": 0
                    }
                  },
                  "HitConfig": {
                    "HitAnimation": "Hit"
                  }
                },
                {
                  "$type": "RPG.GameCore.VCameraConfigChange",
                  "CameraConfig": {
                    "ShakeTemplateName": "LocalPlayer_Natasha_NormalAttack_Hit"
                  }
                }
              ]
            },
            {
              "$type": "RPG.GameCore.RadialBlurEffect",
              "TargetType": {
                "$type": "RPG.GameCore.TargetAlias",
                "Alias": "Caster"
              },
              "Duration": 0.08,
              "BlurY": 0.4,
              "BlurRadius": 1,
              "Iteration": 4,
              "BlurStart": 0.1,
              "BlurFeather": 0.2
            },
            {
              "$type": "RPG.GameCore.WaitAnimState",
              "TargetType": {
                "$type": "RPG.GameCore.TargetAlias",
                "Alias": "Caster"
              },
              "AnimStateName": "Attack_1",
              "NormalizedTimeEnd": {
                "IsDynamic": false,
                "FixedValue": {
                  "Value": 0.07499999972060323
                }
              }
            }
          ]
        }
      ]
    },
    {
      "Name": "LocalPlayer_Natasha_MazeSkill",
      "TargetInfo": {
        "TargetType": "SkillPointEntityOrNone"
      },
      "OnStart": [
        {
          "$type": "RPG.GameCore.PredicateTaskList",
          "Predicate": {
            "$type": "RPG.GameCore.ByHaveAbilityTarget"
          },
          "SuccessTaskList": [
            {
              "$type": "RPG.GameCore.LookAt",
              "PerformerType": {
                "$type": "RPG.GameCore.TargetAlias",
                "Alias": "Caster"
              },
              "TargetType": "AbilityTargetEntity"
            },
            {
              "$type": "RPG.GameCore.AdventureTriggerAnimStateWithMove",
              "TargetType": {
                "$type": "RPG.GameCore.TargetAlias",
                "Alias": "AdvLocalPlayer"
              },
              "AnimLogicState": "MazeSkill",
              "AnimStateName": "MazeSkill"
            },
            {
              "$type": "RPG.GameCore.VCameraConfigChange",
              "CameraConfig": {
                "Freelook3rdConfig": {
                  "ZoomChangeParam": {
                    "TargetValue": -0.6,
                    "Time": 0.15,
                    "ChangeCurvePath": "Camera/BlendCurve/Blend_MazeSkill.asset",
                    "RecoveryCurvePath": "Camera/BlendCurve/BlendCut06.asset"
                  }
                }
              }
            },
            {
              "$type": "RPG.GameCore.WaitAnimState",
              "TargetType": {
                "$type": "RPG.GameCore.TargetAlias",
                "Alias": "Caster"
              },
              "AnimStateName": "MazeSkill",
              "NormalizedTimeEnd": {
                "IsDynamic": false,
                "FixedValue": {
                  "Value": 0.1319999999832362
                }
              }
            },
            {
              "$type": "RPG.GameCore.VCameraConfigChange",
              "CameraConfig": {
                "Freelook3rdConfig": {
                  "ZoomChangeParam": {
                    "TargetValue": -0.3,
                    "ChangeCurvePath": "Camera/BlendCurve/BlendCut06.asset",
                    "RecoveryCurvePath": "Camera/BlendCurve/BlendCut06.asset"
                  }
                }
              }
            },
            {
              "$type": "RPG.GameCore.VCameraConfigChange",
              "CameraConfig": {
                "ShakeTemplateName": "LocalPlayer_Natasha_NormalAttack_Fire"
              }
            },
            {
              "$type": "RPG.GameCore.AdventureFireProjectile",
              "TargetType": {
                "$type": "RPG.GameCore.TargetAlias",
                "Alias": "SkillPointEntity"
              },
              "Projectile": {
                "ColliderTemplate": "CapsuleZ_MazeCommonBullet",
                "Behavior": "LinearWithHitDetect",
                "FlySpeed": 26,
                "EnableRayCast": true,
                "MaxLifeTime": 0.5,
                "AttachPoint": "Gun",
                "AttachOffset": {
                  "X": 0,
                  "Y": -0.05,
                  "Z": 0
                },
                "TargetAttachPoint": "Root",
                "FlyEffect": "Effects/Eff_Prefab/Eff_Avatar/Eff_Natasha/Eff_Avatar_Natasha_00_MazeAttack_Bullet.prefab",
                "HitEffect": "Effects/Eff_Prefab/Eff_Avatar/Eff_Natasha/Eff_Avatar_Natasha_00_MazeSkill_Hit.prefab",
                "LinearPitchAngle": {
                  "IsDynamic": false,
                  "FixedValue": {
                    "Value": 5
                  }
                }
              },
              "OnProjectileHit": [
                {
                  "$type": "RPG.GameCore.AdventureTriggerAttack",
                  "AttackTargetType": {
                    "$type": "RPG.GameCore.TargetAlias",
                    "Alias": "AllEnemy"
                  },
                  "AttackRootTargetType": {
                    "$type": "RPG.GameCore.TargetAlias",
                    "Alias": "ProjectileHitEntity"
                  },
                  "TriggerBattleDelay": 0.2,
                  "AttackDetectConfig": {
                    "$type": "RPG.GameCore.AdventureAttackDetectCircleConfig",
                    "MaxRadius": 1,
                    "FanAngle": 360,
                    "Offset": {
                      "X": 0,
                      "Y": -1,
                      "Z": 0
                    }
                  },
                  "HitConfig": {
                    "HitAnimation": "Hit"
                  },
                  "OnAttack": [
                    {
                      "$type": "RPG.GameCore.AddMazeBuff",
                      "TargetType": {
                        "$type": "RPG.GameCore.TargetAlias",
                        "Alias": "SkillPointEntity"
                      },
                      "ID": 110501
                    }
                  ]
                },
                {
                  "$type": "RPG.GameCore.VCameraConfigChange",
                  "CameraConfig": {
                    "ShakeTemplateName": "LocalPlayer_Natasha_NormalAttack_Hit"
                  }
                }
              ],
              "OnProjectileLifetimeFinish": [
                {
                  "$type": "RPG.GameCore.AdventureTriggerAttack",
                  "AttackTargetType": {
                    "$type": "RPG.GameCore.TargetAlias",
                    "Alias": "AllEnemy"
                  },
                  "AttackRootTargetType": {
                    "$type": "RPG.GameCore.TargetAlias",
                    "Alias": "ProjectileHitEntity"
                  },
                  "TriggerBattleDelay": 0.2,
                  "AttackDetectConfig": {
                    "$type": "RPG.GameCore.AdventureAttackDetectCircleConfig",
                    "MaxRadius": 99,
                    "FanAngle": 360,
                    "Offset": {
                      "X": 0,
                      "Y": -1,
                      "Z": 0
                    }
                  },
                  "HitConfig": {
                    "HitAnimation": "Hit"
                  },
                  "OnAttack": [
                    {
                      "$type": "RPG.GameCore.AddMazeBuff",
                      "TargetType": {
                        "$type": "RPG.GameCore.TargetAlias",
                        "Alias": "ParamEntity"
                      },
                      "ID": 110501
                    }
                  ]
                },
                {
                  "$type": "RPG.GameCore.VCameraConfigChange",
                  "CameraConfig": {
                    "ShakeTemplateName": "LocalPlayer_Natasha_NormalAttack_Hit"
                  }
                }
              ]
            }
          ],
          "FailedTaskList": [
            {
              "$type": "RPG.GameCore.AdventureTriggerAnimStateWithMove",
              "TargetType": {
                "$type": "RPG.GameCore.TargetAlias",
                "Alias": "AdvLocalPlayer"
              },
              "AnimLogicState": "MazeSkill",
              "AnimStateName": "MazeSkill"
            },
            {
              "$type": "RPG.GameCore.VCameraConfigChange",
              "CameraConfig": {
                "Freelook3rdConfig": {
                  "ZoomChangeParam": {
                    "TargetValue": -0.6,
                    "Time": 0.15,
                    "ChangeCurvePath": "Camera/BlendCurve/Blend_MazeSkill.asset",
                    "RecoveryCurvePath": "Camera/BlendCurve/BlendCut06.asset"
                  }
                }
              }
            },
            {
              "$type": "RPG.GameCore.WaitAnimState",
              "TargetType": {
                "$type": "RPG.GameCore.TargetAlias",
                "Alias": "Caster"
              },
              "AnimStateName": "MazeSkill",
              "NormalizedTimeEnd": {
                "IsDynamic": false,
                "FixedValue": {
                  "Value": 0.1319999999832362
                }
              }
            },
            {
              "$type": "RPG.GameCore.VCameraConfigChange",
              "CameraConfig": {
                "Freelook3rdConfig": {
                  "ZoomChangeParam": {
                    "TargetValue": -0.3,
                    "ChangeCurvePath": "Camera/BlendCurve/BlendCut06.asset",
                    "RecoveryCurvePath": "Camera/BlendCurve/BlendCut06.asset"
                  }
                }
              }
            },
            {
              "$type": "RPG.GameCore.VCameraConfigChange",
              "CameraConfig": {
                "ShakeTemplateName": "LocalPlayer_Natasha_NormalAttack_Fire"
              }
            },
            {
              "$type": "RPG.GameCore.AdventureFireProjectile",
              "TargetType": {
                "$type": "RPG.GameCore.TargetAlias",
                "Alias": "AbilityTargetEntity"
              },
              "Projectile": {
                "ColliderTemplate": "CapsuleZ_MazeCommonBullet",
                "Behavior": "LinearWithHitDetect",
                "FlySpeed": 26,
                "EnableRayCast": true,
                "Gravity": -27,
                "MaxLifeTime": 0.35,
                "AttachPoint": "Gun",
                "AttachOffset": {
                  "X": 0,
                  "Y": -0.05,
                  "Z": 0
                },
                "TargetAttachPoint": "Root",
                "FlyEffect": "Effects/Eff_Prefab/Eff_Avatar/Eff_Natasha/Eff_Avatar_Natasha_00_MazeAttack_Bullet.prefab",
                "HitEffect": "Effects/Eff_Prefab/Eff_Avatar/Eff_Natasha/Eff_Avatar_Natasha_00_MazeSkill_Hit.prefab",
                "LinearPitchAngle": {
                  "IsDynamic": false,
                  "FixedValue": {
                    "Value": 5
                  }
                }
              },
              "OnProjectileHit": [
                {
                  "$type": "RPG.GameCore.AdventureTriggerAttack",
                  "AttackTargetType": {
                    "$type": "RPG.GameCore.TargetAlias",
                    "Alias": "AllEnemy"
                  },
                  "AttackRootTargetType": {
                    "$type": "RPG.GameCore.TargetAlias",
                    "Alias": "ProjectileHitEntity"
                  },
                  "TriggerBattleDelay": 0.2,
                  "AttackDetectConfig": {
                    "$type": "RPG.GameCore.AdventureAttackDetectCircleConfig",
                    "MaxRadius": 1,
                    "FanAngle": 360,
                    "Offset": {
                      "X": 0,
                      "Y": -1,
                      "Z": 0
                    }
                  },
                  "HitConfig": {
                    "HitAnimation": "Hit"
                  },
                  "OnAttack": [
                    {
                      "$type": "RPG.GameCore.AddMazeBuff",
                      "TargetType": {
                        "$type": "RPG.GameCore.TargetAlias",
                        "Alias": "ParamEntity"
                      },
                      "ID": 110501
                    }
                  ]
                },
                {
                  "$type": "RPG.GameCore.VCameraConfigChange",
                  "CameraConfig": {
                    "ShakeTemplateName": "LocalPlayer_Natasha_NormalAttack_Hit"
                  }
                }
              ],
              "OnProjectileLifetimeFinish": [
                {
                  "$type": "RPG.GameCore.AdventureTriggerAttack",
                  "AttackTargetType": {
                    "$type": "RPG.GameCore.TargetAlias",
                    "Alias": "AllEnemy"
                  },
                  "AttackRootTargetType": {
                    "$type": "RPG.GameCore.TargetAlias",
                    "Alias": "ProjectileHitEntity"
                  },
                  "TriggerBattleDelay": 0.2,
                  "AttackDetectConfig": {
                    "$type": "RPG.GameCore.AdventureAttackDetectCircleConfig",
                    "MaxRadius": 1,
                    "FanAngle": 360,
                    "Offset": {
                      "X": 0,
                      "Y": -1,
                      "Z": 0
                    }
                  },
                  "HitConfig": {
                    "HitAnimation": "Hit"
                  },
                  "OnAttack": [
                    {
                      "$type": "RPG.GameCore.AddMazeBuff",
                      "TargetType": {
                        "$type": "RPG.GameCore.TargetAlias",
                        "Alias": "ParamEntity"
                      },
                      "ID": 110501
                    }
                  ]
                },
                {
                  "$type": "RPG.GameCore.VCameraConfigChange",
                  "CameraConfig": {
                    "ShakeTemplateName": "LocalPlayer_Natasha_NormalAttack_Hit"
                  }
                }
              ]
            }
          ]
        }
      ]
    }
  ]
}