{
  "AbilityList": [
    {
      "Name": "LocalPlayer_QA1_NormalAtk01",
      "TargetInfo": {
        "TargetType": "SkillPointEntityOrNone"
      },
      "OnStart": [
        {
          "$type": "RPG.GameCore.VCameraConfigChange",
          "CameraConfig": {
            "Freelook3rdConfig": {
              "DampChangeParam": {
                "TargetValue": {
                  "X": 1,
                  "Y": 1,
                  "Z": 1
                },
                "ChangeCurvePath": "Camera/BlendCurve/AttackDampCurve.asset",
                "RecoveryTime": 0.25,
                "RecoveryCurvePath": "Camera/BlendCurve/AttackDampRecoverCurve.asset"
              }
            }
          }
        },
        {
          "$type": "RPG.GameCore.PredicateTaskList",
          "Predicate": {
            "$type": "RPG.GameCore.ByHaveAbilityTarget"
          },
          "SuccessTaskList": [
            {
              "$type": "RPG.GameCore.LookAt",
              "PerformerType": {
                "$type": "RPG.GameCore.TargetAlias",
                "Alias": "Caster"
              },
              "TargetType": "AbilityTargetEntity",
              "Duration": 0.1
            },
            {
              "$type": "RPG.GameCore.AdventureTriggerAnimStateWithMove",
              "TargetType": {
                "$type": "RPG.GameCore.TargetAlias",
                "Alias": "AdvLocalPlayer"
              },
              "AnimLogicState": "NormalAtk",
              "AnimStateName": "Attack_1",
              "TransitionDuration": 0.1,
              "MovingRangeList": [
                {
                  "TargetType": {
                    "$type": "RPG.GameCore.TargetAlias",
                    "Alias": "AbilityTargetEntity"
                  },
                  "OffsetTargetDistance": {
                    "IsDynamic": false,
                    "FixedValue": {
                      "Value": 2
                    }
                  },
                  "NormalizedTimeStart": {
                    "IsDynamic": false,
                    "FixedValue": {
                      "Value": 0.054999999701976776
                    }
                  },
                  "NormalizedTimeEnd": {
                    "IsDynamic": false,
                    "FixedValue": {
                      "Value": 0.07299999985843897
                    }
                  },
                  "MaxMoveDistance": {
                    "IsDynamic": false,
                    "FixedValue": {
                      "Value": 4
                    }
                  },
                  "MaxSpeed": {
                    "IsDynamic": false,
                    "FixedValue": {
                      "Value": 300
                    }
                  },
                  "SteerNormalizedTimeStart": {
                    "IsDynamic": false,
                    "FixedValue": {
                      "Value": 0.054999999701976776
                    }
                  },
                  "SteerNormalizedTimeEnd": {
                    "IsDynamic": false,
                    "FixedValue": {
                      "Value": 0.07299999985843897
                    }
                  }
                }
              ]
            },
            {
              "$type": "RPG.GameCore.WaitAnimState",
              "TargetType": {
                "$type": "RPG.GameCore.TargetAlias",
                "Alias": "Caster"
              },
              "AnimStateName": "Attack_1",
              "NormalizedTimeEnd": {
                "IsDynamic": false,
                "FixedValue": {
                  "Value": 0.07299999985843897
                }
              }
            },
            {
              "$type": "RPG.GameCore.AdventureTriggerAttack",
              "AttackTargetType": {
                "$type": "RPG.GameCore.TargetAlias",
                "Alias": "AllEnemy"
              },
              "AttackRootTargetType": {
                "$type": "RPG.GameCore.TargetAlias",
                "Alias": "Caster"
              },
              "AttackDetectConfig": {
                "$type": "RPG.GameCore.AdventureAttackDetectBoxConfig",
                "Size": {
                  "X": 0.4,
                  "Y": 0.4,
                  "Z": 1.35
                },
                "Offset": {
                  "X": 0,
                  "Y": 0.7,
                  "Z": 1.6
                }
              },
              "HitConfig": {
                "HitAnimation": "Hit",
                "HitEffect": "Effects/Eff_Prefab/Eff_Avatar/Eff_DanHeng/Eff_Avatar_DanHeng_00_MazeAttack_Hit01.prefab",
                "HitEffectHeight": 1
              }
            },
            {
              "$type": "RPG.GameCore.VCameraConfigChange",
              "CameraConfig": {
                "ShakeTemplateName": "LocalPlayer_DanHeng_NormalAttack_OnTarget"
              }
            }
          ],
          "FailedTaskList": [
            {
              "$type": "RPG.GameCore.AdventureTriggerAnimStateWithMove",
              "TargetType": {
                "$type": "RPG.GameCore.TargetAlias",
                "Alias": "AdvLocalPlayer"
              },
              "AnimLogicState": "NormalAtk",
              "AnimStateName": "Attack_1",
              "TransitionDuration": 0.1,
              "MovingRangeList": [
                {
                  "OffsetTargetDistance": {
                    "IsDynamic": false,
                    "FixedValue": {
                      "Value": 1.2000000001862645
                    }
                  },
                  "NormalizedTimeStart": {
                    "IsDynamic": false,
                    "FixedValue": {
                      "Value": 0.054999999701976776
                    }
                  },
                  "NormalizedTimeEnd": {
                    "IsDynamic": false,
                    "FixedValue": {
                      "Value": 0.07299999985843897
                    }
                  },
                  "DefaultMoveDistance": {
                    "IsDynamic": false,
                    "FixedValue": {
                      "Value": 2
                    }
                  }
                }
              ]
            },
            {
              "$type": "RPG.GameCore.WaitAnimState",
              "TargetType": {
                "$type": "RPG.GameCore.TargetAlias",
                "Alias": "Caster"
              },
              "AnimStateName": "Attack_1",
              "NormalizedTimeEnd": {
                "IsDynamic": false,
                "FixedValue": {
                  "Value": 0.07299999985843897
                }
              }
            },
            {
              "$type": "RPG.GameCore.RadialBlurEffect",
              "TargetType": {
                "$type": "RPG.GameCore.TargetAlias",
                "Alias": "Caster"
              },
              "Duration": 0.05,
              "BlurY": 0.4,
              "BlurRadius": 1,
              "Iteration": 4,
              "BlurStart": 0.005,
              "BlurFeather": 0.01
            },
            {
              "$type": "RPG.GameCore.AdventureTriggerAttack",
              "AttackTargetType": {
                "$type": "RPG.GameCore.TargetAlias",
                "Alias": "AllEnemy"
              },
              "AttackRootTargetType": {
                "$type": "RPG.GameCore.TargetAlias",
                "Alias": "Caster"
              },
              "AttackDetectConfig": {
                "$type": "RPG.GameCore.AdventureAttackDetectBoxConfig",
                "Size": {
                  "X": 0.4,
                  "Y": 0.4,
                  "Z": 1.3
                },
                "Offset": {
                  "X": 0,
                  "Y": 0.7,
                  "Z": 1.2
                }
              },
              "HitConfig": {
                "HitAnimation": "Hit",
                "HitEffect": "Effects/Eff_Prefab/Eff_Avatar/Eff_DanHeng/Eff_Avatar_DanHeng_00_MazeAttack_Hit01.prefab",
                "HitEffectHeight": 1
              }
            }
          ]
        }
      ]
    },
    {
      "Name": "LocalPlayer_QA1_MazeSkill",
      "TargetInfo": {
        "TargetType": "Caster"
      },
      "OnStart": [
        {
          "$type": "RPG.GameCore.AdventureTriggerAnimStateWithMove",
          "TargetType": {
            "$type": "RPG.GameCore.TargetAlias",
            "Alias": "AdvLocalPlayer"
          },
          "AnimLogicState": "MazeSkill",
          "AnimStateName": "MazeSkill"
        },
        {
          "$type": "RPG.GameCore.VCameraConfigChange",
          "CameraConfig": {
            "Freelook3rdConfig": {
              "ZoomChangeParam": {
                "TargetValue": -0.6,
                "Time": 0.15,
                "ChangeCurvePath": "Camera/BlendCurve/Blend_MazeSkill.asset",
                "RecoveryCurvePath": "Camera/BlendCurve/BlendCut06.asset"
              }
            }
          }
        },
        {
          "$type": "RPG.GameCore.WaitAnimState",
          "TargetType": {
            "$type": "RPG.GameCore.TargetAlias",
            "Alias": "Caster"
          },
          "AnimStateName": "MazeSkill",
          "NormalizedTimeEnd": {
            "IsDynamic": false,
            "FixedValue": {
              "Value": 0.12199999997392297
            }
          }
        },
        {
          "$type": "RPG.GameCore.VCameraConfigChange",
          "CameraConfig": {
            "Freelook3rdConfig": {
              "ZoomChangeParam": {
                "TargetValue": -0.4,
                "ChangeCurvePath": "Camera/BlendCurve/BlendCut06.asset",
                "RecoveryCurvePath": "Camera/BlendCurve/BlendCut06.asset"
              }
            }
          }
        },
        {
          "$type": "RPG.GameCore.WaitAnimState",
          "TargetType": {
            "$type": "RPG.GameCore.TargetAlias",
            "Alias": "Caster"
          },
          "AnimStateName": "MazeSkill",
          "NormalizedTimeEnd": {
            "IsDynamic": false,
            "FixedValue": {
              "Value": 0.16499999980442226
            }
          }
        },
        {
          "$type": "RPG.GameCore.AddMazeBuff",
          "TargetType": {
            "$type": "RPG.GameCore.TargetAlias",
            "Alias": "Caster"
          },
          "ID": 100201,
          "LifeTime": {
            "IsDynamic": false,
            "FixedValue": {
              "Value": -1
            }
          }
        },
        {
          "$type": "RPG.GameCore.AdventureSubmitSkill",
          "Caster": {
            "$type": "RPG.GameCore.TargetAlias",
            "Alias": "Caster"
          }
        }
      ]
    }
  ]
}