{
  "AbilityList": [
    {
      "Name": "LocalPlayer_Sushang_NormalAtk01",
      "TargetInfo": {
        "TargetType": "SkillPointEntityOrNone"
      },
      "OnStart": [
        {
          "$type": "RPG.GameCore.VCameraConfigChange",
          "CameraConfig": {
            "Freelook3rdConfig": {
              "DampChangeParam": {
                "TargetValue": {
                  "X": 1,
                  "Y": 1,
                  "Z": 1
                },
                "ChangeCurvePath": "Camera/BlendCurve/AttackDampCurve.asset",
                "RecoveryTime": 0.25,
                "RecoveryCurvePath": "Camera/BlendCurve/AttackDampRecoverCurve.asset"
              }
            }
          }
        },
        {
          "$type": "RPG.GameCore.PredicateTaskList",
          "Predicate": {
            "$type": "RPG.GameCore.ByHaveAbilityTarget"
          },
          "SuccessTaskList": [
            {
              "$type": "RPG.GameCore.LookAt",
              "PerformerType": {
                "$type": "RPG.GameCore.TargetAlias",
                "Alias": "Caster"
              },
              "TargetType": "AbilityTargetEntity",
              "Duration": 0.153
            },
            {
              "$type": "RPG.GameCore.AdventureTriggerAnimStateWithMove",
              "TargetType": {
                "$type": "RPG.GameCore.TargetAlias",
                "Alias": "AdvLocalPlayer"
              },
              "AnimLogicState": "NormalAtk",
              "AnimStateName": "Attack_1",
              "MovingRangeList": [
                {
                  "TargetType": {
                    "$type": "RPG.GameCore.TargetAlias",
                    "Alias": "AbilityTargetEntity"
                  },
                  "OffsetTargetDistance": {
                    "IsDynamic": false,
                    "FixedValue": {
                      "Value": 1.5000000004656613
                    }
                  },
                  "NormalizedTimeStart": {
                    "IsDynamic": false,
                    "FixedValue": {
                      "Value": 0
                    }
                  },
                  "NormalizedTimeEnd": {
                    "IsDynamic": false,
                    "FixedValue": {
                      "Value": 0.04499999969266355
                    }
                  },
                  "MaxMoveDistance": {
                    "IsDynamic": false,
                    "FixedValue": {
                      "Value": 2.2000000001862645
                    }
                  },
                  "MaxSpeed": {
                    "IsDynamic": false,
                    "FixedValue": {
                      "Value": 300
                    }
                  },
                  "SteerNormalizedTimeStart": {
                    "IsDynamic": false,
                    "FixedValue": {
                      "Value": 0
                    }
                  },
                  "SteerNormalizedTimeEnd": {
                    "IsDynamic": false,
                    "FixedValue": {
                      "Value": 0.04499999969266355
                    }
                  }
                }
              ]
            },
            {
              "$type": "RPG.GameCore.WaitAnimState",
              "TargetType": {
                "$type": "RPG.GameCore.TargetAlias",
                "Alias": "Caster"
              },
              "AnimStateName": "Attack_1",
              "NormalizedTimeEnd": {
                "IsDynamic": false,
                "FixedValue": {
                  "Value": 0.05000000004656613
                }
              }
            },
            {
              "$type": "RPG.GameCore.AdventureTriggerAttack",
              "AttackTargetType": {
                "$type": "RPG.GameCore.TargetAlias",
                "Alias": "AbilityTargetEntity"
              },
              "AttackRootTargetType": {
                "$type": "RPG.GameCore.TargetAlias",
                "Alias": "Caster"
              },
              "TriggerBattleDelay": 0.1,
              "AttackDetectConfig": {
                "$type": "RPG.GameCore.AdventureAttackDetectCircleConfig",
                "MaxRadius": 3,
                "FanAngle": 220,
                "Offset": {
                  "X": 0,
                  "Y": 0,
                  "Z": -0.1
                }
              },
              "HitConfig": {
                "HitAnimation": "Hit",
                "HitEffect": "Effects/Eff_Prefab/Eff_Avatar/Eff_Sushang/Eff_Avatar_Sushang_00_MazeAttack_Hit.prefab",
                "HitSoundEvent": "Ev_sfx_avatar_atk_cast_hit_sushang",
                "HitEffectHeight": 1
              }
            }
          ],
          "FailedTaskList": [
            {
              "$type": "RPG.GameCore.PredicateTaskList",
              "Predicate": {
                "$type": "RPG.GameCore.AdventureByInMotionState",
                "MotionFlag": "FastRun"
              },
              "SuccessTaskList": [
                {
                  "$type": "RPG.GameCore.AdventureTriggerAnimStateWithMove",
                  "TargetType": {
                    "$type": "RPG.GameCore.TargetAlias",
                    "Alias": "AdvLocalPlayer"
                  },
                  "AnimLogicState": "NormalAtk",
                  "AnimStateName": "Attack_1",
                  "MovingRangeList": [
                    {
                      "OffsetTargetDistance": {
                        "IsDynamic": false,
                        "FixedValue": {
                          "Value": 1.5000000004656613
                        }
                      },
                      "NormalizedTimeStart": {
                        "IsDynamic": false,
                        "FixedValue": {
                          "Value": 0
                        }
                      },
                      "NormalizedTimeEnd": {
                        "IsDynamic": false,
                        "FixedValue": {
                          "Value": 0.04499999969266355
                        }
                      },
                      "DefaultMoveDistance": {
                        "IsDynamic": false,
                        "FixedValue": {
                          "Value": 2.400000000372529
                        }
                      }
                    }
                  ]
                },
                {
                  "$type": "RPG.GameCore.WaitAnimState",
                  "TargetType": {
                    "$type": "RPG.GameCore.TargetAlias",
                    "Alias": "Caster"
                  },
                  "AnimStateName": "Attack_1",
                  "NormalizedTimeEnd": {
                    "IsDynamic": false,
                    "FixedValue": {
                      "Value": 0.05000000004656613
                    }
                  }
                },
                {
                  "$type": "RPG.GameCore.RadialBlurEffect",
                  "TargetType": {
                    "$type": "RPG.GameCore.TargetAlias",
                    "Alias": "Caster"
                  },
                  "Duration": 0.05,
                  "BlurX": 0.3,
                  "BlurY": 0.2,
                  "BlurRadius": 1,
                  "Iteration": 4,
                  "BlurStart": 0.005,
                  "BlurFeather": 0.01
                },
                {
                  "$type": "RPG.GameCore.AdventureTriggerAttack",
                  "AttackTargetType": {
                    "$type": "RPG.GameCore.TargetAlias",
                    "Alias": "AbilityTargetEntity"
                  },
                  "AttackRootTargetType": {
                    "$type": "RPG.GameCore.TargetAlias",
                    "Alias": "Caster"
                  },
                  "TriggerBattleDelay": 0.1,
                  "AttackDetectConfig": {
                    "$type": "RPG.GameCore.AdventureAttackDetectCircleConfig",
                    "MaxRadius": 3,
                    "FanAngle": 220,
                    "Offset": {
                      "X": 0,
                      "Y": 0,
                      "Z": -0.1
                    }
                  },
                  "HitConfig": {
                    "HitAnimation": "Hit",
                    "HitEffect": "Effects/Eff_Prefab/Eff_Avatar/Eff_Sushang/Eff_Avatar_Sushang_00_MazeAttack_Hit.prefab",
                    "HitSoundEvent": "Ev_sfx_avatar_atk_cast_hit_sushang",
                    "HitEffectHeight": 1
                  }
                }
              ],
              "FailedTaskList": [
                {
                  "$type": "RPG.GameCore.PredicateTaskList",
                  "Predicate": {
                    "$type": "RPG.GameCore.AdventureByInMotionState",
                    "MotionFlag": "Run"
                  },
                  "SuccessTaskList": [
                    {
                      "$type": "RPG.GameCore.AdventureTriggerAnimStateWithMove",
                      "TargetType": {
                        "$type": "RPG.GameCore.TargetAlias",
                        "Alias": "AdvLocalPlayer"
                      },
                      "AnimLogicState": "NormalAtk",
                      "AnimStateName": "Attack_1",
                      "MovingRangeList": [
                        {
                          "OffsetTargetDistance": {
                            "IsDynamic": false,
                            "FixedValue": {
                              "Value": 1.3000000002793968
                            }
                          },
                          "NormalizedTimeStart": {
                            "IsDynamic": false,
                            "FixedValue": {
                              "Value": 0
                            }
                          },
                          "NormalizedTimeEnd": {
                            "IsDynamic": false,
                            "FixedValue": {
                              "Value": 0.04499999969266355
                            }
                          },
                          "DefaultMoveDistance": {
                            "IsDynamic": false,
                            "FixedValue": {
                              "Value": 1.5000000004656613
                            }
                          }
                        }
                      ]
                    },
                    {
                      "$type": "RPG.GameCore.WaitAnimState",
                      "TargetType": {
                        "$type": "RPG.GameCore.TargetAlias",
                        "Alias": "Caster"
                      },
                      "AnimStateName": "Attack_1",
                      "NormalizedTimeEnd": {
                        "IsDynamic": false,
                        "FixedValue": {
                          "Value": 0.05000000004656613
                        }
                      }
                    },
                    {
                      "$type": "RPG.GameCore.RadialBlurEffect",
                      "TargetType": {
                        "$type": "RPG.GameCore.TargetAlias",
                        "Alias": "Caster"
                      },
                      "Duration": 0.05,
                      "BlurX": 0.3,
                      "BlurY": 0.2,
                      "BlurRadius": 1,
                      "Iteration": 4,
                      "BlurStart": 0.005,
                      "BlurFeather": 0.01
                    },
                    {
                      "$type": "RPG.GameCore.AdventureTriggerAttack",
                      "AttackTargetType": {
                        "$type": "RPG.GameCore.TargetAlias",
                        "Alias": "AbilityTargetEntity"
                      },
                      "AttackRootTargetType": {
                        "$type": "RPG.GameCore.TargetAlias",
                        "Alias": "Caster"
                      },
                      "TriggerBattleDelay": 0.1,
                      "AttackDetectConfig": {
                        "$type": "RPG.GameCore.AdventureAttackDetectCircleConfig",
                        "MaxRadius": 3,
                        "FanAngle": 220,
                        "Offset": {
                          "X": 0,
                          "Y": 0,
                          "Z": -0.1
                        }
                      },
                      "HitConfig": {
                        "HitAnimation": "Hit",
                        "HitEffect": "Effects/Eff_Prefab/Eff_Avatar/Eff_Sushang/Eff_Avatar_Sushang_00_MazeAttack_Hit.prefab",
                        "HitSoundEvent": "Ev_sfx_avatar_atk_cast_hit_sushang",
                        "HitEffectHeight": 1
                      }
                    }
                  ],
                  "FailedTaskList": [
                    {
                      "$type": "RPG.GameCore.AdventureTriggerAnimStateWithMove",
                      "TargetType": {
                        "$type": "RPG.GameCore.TargetAlias",
                        "Alias": "AdvLocalPlayer"
                      },
                      "AnimLogicState": "NormalAtk",
                      "AnimStateName": "Attack_1",
                      "MovingRangeList": [
                        {
                          "OffsetTargetDistance": {
                            "IsDynamic": false,
                            "FixedValue": {
                              "Value": 1.5000000004656613
                            }
                          },
                          "DefaultMoveDistance": {
                            "IsDynamic": false,
                            "FixedValue": {
                              "Value": 1.1500000001396984
                            }
                          }
                        }
                      ]
                    },
                    {
                      "$type": "RPG.GameCore.WaitAnimState",
                      "TargetType": {
                        "$type": "RPG.GameCore.TargetAlias",
                        "Alias": "Caster"
                      },
                      "AnimStateName": "Attack_1",
                      "NormalizedTimeEnd": {
                        "IsDynamic": false,
                        "FixedValue": {
                          "Value": 0.05299999983981252
                        }
                      }
                    },
                    {
                      "$type": "RPG.GameCore.RadialBlurEffect",
                      "TargetType": {
                        "$type": "RPG.GameCore.TargetAlias",
                        "Alias": "Caster"
                      },
                      "Duration": 0.05,
                      "BlurX": 0.3,
                      "BlurY": 0.2,
                      "BlurRadius": 1,
                      "Iteration": 4,
                      "BlurStart": 0.005,
                      "BlurFeather": 0.01
                    },
                    {
                      "$type": "RPG.GameCore.AdventureTriggerAttack",
                      "AttackTargetType": {
                        "$type": "RPG.GameCore.TargetAlias",
                        "Alias": "AbilityTargetEntity"
                      },
                      "AttackRootTargetType": {
                        "$type": "RPG.GameCore.TargetAlias",
                        "Alias": "Caster"
                      },
                      "TriggerBattleDelay": 0.1,
                      "AttackDetectConfig": {
                        "$type": "RPG.GameCore.AdventureAttackDetectCircleConfig",
                        "MaxRadius": 3,
                        "FanAngle": 180,
                        "Offset": {
                          "X": 0,
                          "Y": 0,
                          "Z": 0.5
                        }
                      },
                      "HitConfig": {
                        "HitAnimation": "Hit",
                        "HitEffect": "Effects/Eff_Prefab/Eff_Avatar/Eff_Sushang/Eff_Avatar_Sushang_00_MazeAttack_Hit.prefab",
                        "HitSoundEvent": "Ev_sfx_avatar_atk_cast_hit_sushang",
                        "HitEffectHeight": 1
                      }
                    }
                  ]
                }
              ]
            }
          ]
        }
      ]
    },
    {
      "Name": "LocalPlayer_Sushang_MazeSkill",
      "TargetInfo": {
        "TargetType": "SkillPointEntityOrNone"
      },
      "OnStart": [
        {
          "$type": "RPG.GameCore.VCameraConfigChange",
          "CameraConfig": {
            "Freelook3rdConfig": {
              "DampChangeParam": {
                "TargetValue": {
                  "X": 1,
                  "Y": 1,
                  "Z": 1
                },
                "Time": 0.25,
                "ChangeCurvePath": "Camera/BlendCurve/AttackDampCurve.asset",
                "RecoveryTime": 0.5,
                "RecoveryCurvePath": "Camera/BlendCurve/AttackDampRecoverCurve.asset"
              }
            }
          }
        },
        {
          "$type": "RPG.GameCore.PredicateTaskList",
          "Predicate": {
            "$type": "RPG.GameCore.ByHaveAbilityTarget"
          },
          "SuccessTaskList": [
            {
              "$type": "RPG.GameCore.LookAt",
              "PerformerType": {
                "$type": "RPG.GameCore.TargetAlias",
                "Alias": "Caster"
              },
              "TargetType": "AbilityTargetEntity",
              "Duration": 0.25
            },
            {
              "$type": "RPG.GameCore.AdventureTriggerAnimStateWithMove",
              "TargetType": {
                "$type": "RPG.GameCore.TargetAlias",
                "Alias": "AdvLocalPlayer"
              },
              "AnimLogicState": "MazeSkill",
              "AnimStateName": "MazeSkill",
              "MovingRangeList": [
                {
                  "TargetType": {
                    "$type": "RPG.GameCore.TargetAlias",
                    "Alias": "AbilityTargetEntity"
                  },
                  "OffsetTargetDistance": {
                    "IsDynamic": false,
                    "FixedValue": {
                      "Value": 2.5000000004656613
                    }
                  },
                  "NormalizedTimeStart": {
                    "IsDynamic": false,
                    "FixedValue": {
                      "Value": 0.034999999683350325
                    }
                  },
                  "NormalizedTimeEnd": {
                    "IsDynamic": false,
                    "FixedValue": {
                      "Value": 0.1479999995790422
                    }
                  },
                  "MaxMoveDistance": {
                    "IsDynamic": false,
                    "FixedValue": {
                      "Value": 2.5000000004656613
                    }
                  },
                  "MaxSpeed": {
                    "IsDynamic": false,
                    "FixedValue": {
                      "Value": 300
                    }
                  },
                  "SteerNormalizedTimeStart": {
                    "IsDynamic": false,
                    "FixedValue": {
                      "Value": 0.034999999683350325
                    }
                  },
                  "SteerNormalizedTimeEnd": {
                    "IsDynamic": false,
                    "FixedValue": {
                      "Value": 0.1479999995790422
                    }
                  }
                }
              ]
            },
            {
              "$type": "RPG.GameCore.WaitAnimState",
              "TargetType": {
                "$type": "RPG.GameCore.TargetAlias",
                "Alias": "Caster"
              },
              "AnimStateName": "MazeSkill",
              "NormalizedTimeEnd": {
                "IsDynamic": false,
                "FixedValue": {
                  "Value": 0.14000000013038516
                }
              }
            },
            {
              "$type": "RPG.GameCore.VCameraConfigChange",
              "CameraConfig": {
                "Freelook3rdConfig": {
                  "ZoomChangeParam": {
                    "TargetValue": -0.3,
                    "ChangeCurvePath": "Camera/BlendCurve/BlendCut06.asset",
                    "RecoveryCurvePath": "Camera/BlendCurve/BlendCut06.asset"
                  }
                }
              }
            },
            {
              "$type": "RPG.GameCore.WaitAnimState",
              "TargetType": {
                "$type": "RPG.GameCore.TargetAlias",
                "Alias": "Caster"
              },
              "AnimStateName": "MazeSkill",
              "NormalizedTimeEnd": {
                "IsDynamic": false,
                "FixedValue": {
                  "Value": 0.14299999992363155
                }
              }
            },
            {
              "$type": "RPG.GameCore.AdventureTriggerAttack",
              "AttackTargetType": {
                "$type": "RPG.GameCore.TargetAlias",
                "Alias": "AbilityTargetEntity"
              },
              "AttackRootTargetType": {
                "$type": "RPG.GameCore.TargetAlias",
                "Alias": "Caster"
              },
              "TriggerBattleDelay": 0.1,
              "AttackDetectConfig": {
                "$type": "RPG.GameCore.AdventureAttackDetectCircleConfig",
                "MaxRadius": 2.7,
                "FanAngle": 360
              },
              "HitConfig": {
                "HitAnimation": "Hit",
                "HitEffect": "Effects/Eff_Prefab/Eff_Avatar/Eff_Sushang/Eff_Avatar_Sushang_00_MazeSkillHit.prefab",
                "HitSoundEvent": "Ev_sfx_avatar_skill_cast_hit_02_sushang",
                "HitEffectHeight": 1
              },
              "OnAttack": [
                {
                  "$type": "RPG.GameCore.AddMazeBuff",
                  "TargetType": {
                    "$type": "RPG.GameCore.TargetAlias",
                    "Alias": "ParamEntity"
                  },
                  "ID": 120601
                }
              ]
            }
          ],
          "FailedTaskList": [
            {
              "$type": "RPG.GameCore.AdventureTriggerAnimStateWithMove",
              "TargetType": {
                "$type": "RPG.GameCore.TargetAlias",
                "Alias": "AdvLocalPlayer"
              },
              "AnimLogicState": "MazeSkill",
              "AnimStateName": "MazeSkill",
              "MovingRangeList": [
                {
                  "OffsetTargetDistance": {
                    "IsDynamic": false,
                    "FixedValue": {
                      "Value": 2.5000000004656613
                    }
                  },
                  "NormalizedTimeStart": {
                    "IsDynamic": false,
                    "FixedValue": {
                      "Value": 0
                    }
                  },
                  "NormalizedTimeEnd": {
                    "IsDynamic": false,
                    "FixedValue": {
                      "Value": 0.1479999995790422
                    }
                  },
                  "DefaultMoveDistance": {
                    "IsDynamic": false,
                    "FixedValue": {
                      "Value": 2
                    }
                  }
                }
              ]
            },
            {
              "$type": "RPG.GameCore.WaitAnimState",
              "TargetType": {
                "$type": "RPG.GameCore.TargetAlias",
                "Alias": "Caster"
              },
              "AnimStateName": "MazeSkill",
              "NormalizedTimeEnd": {
                "IsDynamic": false,
                "FixedValue": {
                  "Value": 0.14000000013038516
                }
              }
            },
            {
              "$type": "RPG.GameCore.VCameraConfigChange",
              "CameraConfig": {
                "Freelook3rdConfig": {
                  "ZoomChangeParam": {
                    "TargetValue": -0.3,
                    "ChangeCurvePath": "Camera/BlendCurve/BlendCut06.asset",
                    "RecoveryCurvePath": "Camera/BlendCurve/BlendCut06.asset"
                  }
                }
              }
            },
            {
              "$type": "RPG.GameCore.WaitAnimState",
              "TargetType": {
                "$type": "RPG.GameCore.TargetAlias",
                "Alias": "Caster"
              },
              "AnimStateName": "MazeSkill",
              "NormalizedTimeEnd": {
                "IsDynamic": false,
                "FixedValue": {
                  "Value": 0.14000000013038516
                }
              }
            },
            {
              "$type": "RPG.GameCore.RadialBlurEffect",
              "TargetType": {
                "$type": "RPG.GameCore.TargetAlias",
                "Alias": "Caster"
              },
              "Duration": 0.05,
              "BlurY": 0.4,
              "BlurRadius": 1,
              "Iteration": 4,
              "BlurStart": 0.005,
              "BlurFeather": 0.01
            },
            {
              "$type": "RPG.GameCore.WaitAnimState",
              "TargetType": {
                "$type": "RPG.GameCore.TargetAlias",
                "Alias": "Caster"
              },
              "AnimStateName": "MazeSkill",
              "NormalizedTimeEnd": {
                "IsDynamic": false,
                "FixedValue": {
                  "Value": 0.14299999992363155
                }
              }
            },
            {
              "$type": "RPG.GameCore.AdventureTriggerAttack",
              "AttackTargetType": {
                "$type": "RPG.GameCore.TargetAlias",
                "Alias": "AllEnemy"
              },
              "AttackRootTargetType": {
                "$type": "RPG.GameCore.TargetAlias",
                "Alias": "Caster"
              },
              "TriggerBattleDelay": 0.1,
              "AttackDetectConfig": {
                "$type": "RPG.GameCore.AdventureAttackDetectCircleConfig",
                "MaxRadius": 2.7,
                "FanAngle": 360
              },
              "HitConfig": {
                "HitAnimation": "Hit",
                "HitEffect": "Effects/Eff_Prefab/Eff_Avatar/Eff_Sushang/Eff_Avatar_Sushang_00_MazeSkillHit.prefab",
                "HitSoundEvent": "Ev_sfx_avatar_skill_cast_hit_02_sushang",
                "HitEffectHeight": 1
              },
              "OnAttack": [
                {
                  "$type": "RPG.GameCore.AddMazeBuff",
                  "TargetType": {
                    "$type": "RPG.GameCore.TargetAlias",
                    "Alias": "ParamEntity"
                  },
                  "ID": 120601
                }
              ]
            }
          ]
        }
      ]
    }
  ]
}