{
  "AbilityList": [
    {
      "Name": "LocalPlayer_PlayerGirl_NormalAtk01",
      "TargetInfo": {
        "TargetType": "SkillPointEntityOrNone"
      },
      "OnStart": [
        {
          "$type": "RPG.GameCore.PredicateTaskList",
          "Predicate": {
            "$type": "RPG.GameCore.ByHaveAbilityTarget"
          },
          "SuccessTaskList": [
            {
              "$type": "RPG.GameCore.LookAt",
              "PerformerType": {
                "$type": "RPG.GameCore.TargetAlias",
                "Alias": "Caster"
              },
              "TargetType": "AbilityTargetEntity",
              "Duration": 0
            },
            {
              "$type": "RPG.GameCore.AdventureTriggerAnimStateWithMove",
              "TargetType": {
                "$type": "RPG.GameCore.TargetAlias",
                "Alias": "AdvLocalPlayer"
              },
              "AnimLogicState": "NormalAtk",
              "AnimStateName": "Attack_1",
              "NormalizedTimeStart": 0.02,
              "MovingRangeList": [
                {
                  "TargetType": {
                    "$type": "RPG.GameCore.TargetAlias",
                    "Alias": "AbilityTargetEntity"
                  },
                  "OffsetTargetDistance": {
                    "IsDynamic": false,
                    "FixedValue": {
                      "Value": 1.5000000004656613
                    }
                  },
                  "NormalizedTimeStart": {
                    "IsDynamic": false,
                    "FixedValue": {
                      "Value": 0.010000000009313226
                    }
                  },
                  "NormalizedTimeEnd": {
                    "IsDynamic": false,
                    "FixedValue": {
                      "Value": 0.054999999701976776
                    }
                  },
                  "MaxMoveDistance": {
                    "IsDynamic": false,
                    "FixedValue": {
                      "Value": 4
                    }
                  },
                  "MaxSpeed": {
                    "IsDynamic": false,
                    "FixedValue": {
                      "Value": 300
                    }
                  },
                  "SteerNormalizedTimeStart": {
                    "IsDynamic": false,
                    "FixedValue": {
                      "Value": 0.010000000009313226
                    }
                  },
                  "SteerNormalizedTimeEnd": {
                    "IsDynamic": false,
                    "FixedValue": {
                      "Value": 0.0800000000745058
                    }
                  }
                }
              ]
            },
            {
              "$type": "RPG.GameCore.WaitAnimState",
              "TargetType": {
                "$type": "RPG.GameCore.TargetAlias",
                "Alias": "Caster"
              },
              "AnimStateName": "Attack_1",
              "NormalizedTimeEnd": {
                "IsDynamic": false,
                "FixedValue": {
                  "Value": 0.05000000004656613
                }
              }
            },
            {
              "$type": "RPG.GameCore.RadialBlurEffect",
              "TargetType": {
                "$type": "RPG.GameCore.TargetAlias",
                "Alias": "Caster"
              },
              "Duration": 0.05,
              "BlurY": 0.4,
              "BlurRadius": 1,
              "Iteration": 4,
              "BlurStart": 0.005,
              "BlurFeather": 0.01
            },
            {
              "$type": "RPG.GameCore.WaitAnimState",
              "TargetType": {
                "$type": "RPG.GameCore.TargetAlias",
                "Alias": "Caster"
              },
              "AnimStateName": "Attack_1",
              "NormalizedTimeEnd": {
                "IsDynamic": false,
                "FixedValue": {
                  "Value": 0.058999999426305294
                }
              }
            },
            {
              "$type": "RPG.GameCore.AdventureTriggerAttack",
              "AttackTargetType": {
                "$type": "RPG.GameCore.TargetAlias",
                "Alias": "AbilityTargetEntity"
              },
              "AttackRootTargetType": {
                "$type": "RPG.GameCore.TargetAlias",
                "Alias": "Caster"
              },
              "TriggerBattleDelay": 0.1,
              "AttackDetectConfig": {
                "$type": "RPG.GameCore.AdventureAttackDetectCircleConfig",
                "MaxRadius": 3,
                "FanAngle": 180,
                "Offset": {
                  "X": 0,
                  "Y": 0,
                  "Z": -0.5
                }
              },
              "HitConfig": {
                "HitAnimation": "Hit",
                "HitEffect": "Effects/Eff_Prefab/Eff_Avatar/Eff_PlayerBoy/Eff_Avatar_PlayerBoy_00_MazeAttack_Hit.prefab",
                "HitSoundEvent": "Ev_sfx_avatar_atk_cast_hit_playergirl",
                "HitEffectHeight": 1
              }
            }
          ],
          "FailedTaskList": [
            {
              "$type": "RPG.GameCore.PredicateTaskList",
              "Predicate": {
                "$type": "RPG.GameCore.AdventureByInMotionState",
                "MotionFlag": "FastRun"
              },
              "SuccessTaskList": [
                {
                  "$type": "RPG.GameCore.AdventureTriggerAnimStateWithMove",
                  "TargetType": {
                    "$type": "RPG.GameCore.TargetAlias",
                    "Alias": "AdvLocalPlayer"
                  },
                  "AnimLogicState": "NormalAtk",
                  "AnimStateName": "Attack_1",
                  "MovingRangeList": [
                    {
                      "OffsetTargetDistance": {
                        "IsDynamic": false,
                        "FixedValue": {
                          "Value": 1.2000000001862645
                        }
                      },
                      "NormalizedTimeStart": {
                        "IsDynamic": false,
                        "FixedValue": {
                          "Value": 0.010000000009313226
                        }
                      },
                      "NormalizedTimeEnd": {
                        "IsDynamic": false,
                        "FixedValue": {
                          "Value": 0.0800000000745058
                        }
                      },
                      "DefaultMoveDistance": {
                        "IsDynamic": false,
                        "FixedValue": {
                          "Value": 2.5000000004656613
                        }
                      }
                    }
                  ]
                },
                {
                  "$type": "RPG.GameCore.WaitAnimState",
                  "TargetType": {
                    "$type": "RPG.GameCore.TargetAlias",
                    "Alias": "Caster"
                  },
                  "AnimStateName": "Attack_1",
                  "NormalizedTimeEnd": {
                    "IsDynamic": false,
                    "FixedValue": {
                      "Value": 0.05000000004656613
                    }
                  }
                },
                {
                  "$type": "RPG.GameCore.RadialBlurEffect",
                  "TargetType": {
                    "$type": "RPG.GameCore.TargetAlias",
                    "Alias": "Caster"
                  },
                  "Duration": 0.05,
                  "BlurY": 0.4,
                  "BlurRadius": 1,
                  "Iteration": 4,
                  "BlurStart": 0.005,
                  "BlurFeather": 0.01
                },
                {
                  "$type": "RPG.GameCore.AdventureTriggerAttack",
                  "AttackTargetType": {
                    "$type": "RPG.GameCore.TargetAlias",
                    "Alias": "AllEnemy"
                  },
                  "AttackRootTargetType": {
                    "$type": "RPG.GameCore.TargetAlias",
                    "Alias": "Caster"
                  },
                  "TriggerBattleDelay": 0.1,
                  "AttackDetectConfig": {
                    "$type": "RPG.GameCore.AdventureAttackDetectCircleConfig",
                    "MaxRadius": 2.5,
                    "FanAngle": 180,
                    "Offset": {
                      "X": 0,
                      "Y": 0,
                      "Z": -0.5
                    }
                  },
                  "HitConfig": {
                    "HitAnimation": "Hit",
                    "HitEffect": "Effects/Eff_Prefab/Eff_Avatar/Eff_PlayerBoy/Eff_Avatar_PlayerBoy_00_MazeAttack_Hit.prefab",
                    "HitSoundEvent": "Ev_sfx_avatar_atk_cast_hit_playergirl",
                    "HitEffectHeight": 1
                  }
                }
              ],
              "FailedTaskList": [
                {
                  "$type": "RPG.GameCore.PredicateTaskList",
                  "Predicate": {
                    "$type": "RPG.GameCore.AdventureByInMotionState",
                    "MotionFlag": "Run"
                  },
                  "SuccessTaskList": [
                    {
                      "$type": "RPG.GameCore.AdventureTriggerAnimStateWithMove",
                      "TargetType": {
                        "$type": "RPG.GameCore.TargetAlias",
                        "Alias": "AdvLocalPlayer"
                      },
                      "AnimLogicState": "NormalAtk",
                      "AnimStateName": "Attack_1",
                      "MovingRangeList": [
                        {
                          "OffsetTargetDistance": {
                            "IsDynamic": false,
                            "FixedValue": {
                              "Value": 1.2000000001862645
                            }
                          },
                          "NormalizedTimeStart": {
                            "IsDynamic": false,
                            "FixedValue": {
                              "Value": 0.010000000009313226
                            }
                          },
                          "NormalizedTimeEnd": {
                            "IsDynamic": false,
                            "FixedValue": {
                              "Value": 0.0800000000745058
                            }
                          },
                          "DefaultMoveDistance": {
                            "IsDynamic": false,
                            "FixedValue": {
                              "Value": 2
                            }
                          }
                        }
                      ]
                    },
                    {
                      "$type": "RPG.GameCore.WaitAnimState",
                      "TargetType": {
                        "$type": "RPG.GameCore.TargetAlias",
                        "Alias": "Caster"
                      },
                      "AnimStateName": "Attack_1",
                      "NormalizedTimeEnd": {
                        "IsDynamic": false,
                        "FixedValue": {
                          "Value": 0.05000000004656613
                        }
                      }
                    },
                    {
                      "$type": "RPG.GameCore.RadialBlurEffect",
                      "TargetType": {
                        "$type": "RPG.GameCore.TargetAlias",
                        "Alias": "Caster"
                      },
                      "Duration": 0.05,
                      "BlurY": 0.4,
                      "BlurRadius": 1,
                      "Iteration": 4,
                      "BlurStart": 0.005,
                      "BlurFeather": 0.01
                    },
                    {
                      "$type": "RPG.GameCore.AdventureTriggerAttack",
                      "AttackTargetType": {
                        "$type": "RPG.GameCore.TargetAlias",
                        "Alias": "AllEnemy"
                      },
                      "AttackRootTargetType": {
                        "$type": "RPG.GameCore.TargetAlias",
                        "Alias": "Caster"
                      },
                      "TriggerBattleDelay": 0.1,
                      "AttackDetectConfig": {
                        "$type": "RPG.GameCore.AdventureAttackDetectCircleConfig",
                        "MaxRadius": 2.5,
                        "FanAngle": 180,
                        "Offset": {
                          "X": 0,
                          "Y": 0,
                          "Z": -0.5
                        }
                      },
                      "HitConfig": {
                        "HitAnimation": "Hit",
                        "HitEffect": "Effects/Eff_Prefab/Eff_Avatar/Eff_PlayerBoy/Eff_Avatar_PlayerBoy_00_MazeAttack_Hit.prefab",
                        "HitSoundEvent": "Ev_sfx_avatar_atk_cast_hit_playergirl",
                        "HitEffectHeight": 1
                      }
                    }
                  ],
                  "FailedTaskList": [
                    {
                      "$type": "RPG.GameCore.AdventureTriggerAnimStateWithMove",
                      "TargetType": {
                        "$type": "RPG.GameCore.TargetAlias",
                        "Alias": "AdvLocalPlayer"
                      },
                      "AnimLogicState": "NormalAtk",
                      "AnimStateName": "Attack_1"
                    },
                    {
                      "$type": "RPG.GameCore.WaitAnimState",
                      "TargetType": {
                        "$type": "RPG.GameCore.TargetAlias",
                        "Alias": "Caster"
                      },
                      "AnimStateName": "Attack_1",
                      "NormalizedTimeEnd": {
                        "IsDynamic": false,
                        "FixedValue": {
                          "Value": 0.05000000004656613
                        }
                      }
                    },
                    {
                      "$type": "RPG.GameCore.RadialBlurEffect",
                      "TargetType": {
                        "$type": "RPG.GameCore.TargetAlias",
                        "Alias": "Caster"
                      },
                      "Duration": 0.05,
                      "BlurY": 0.4,
                      "BlurRadius": 1,
                      "Iteration": 4,
                      "BlurStart": 0.005,
                      "BlurFeather": 0.01
                    },
                    {
                      "$type": "RPG.GameCore.AdventureTriggerAttack",
                      "AttackTargetType": {
                        "$type": "RPG.GameCore.TargetAlias",
                        "Alias": "AllEnemy"
                      },
                      "AttackRootTargetType": {
                        "$type": "RPG.GameCore.TargetAlias",
                        "Alias": "Caster"
                      },
                      "TriggerBattleDelay": 0.1,
                      "AttackDetectConfig": {
                        "$type": "RPG.GameCore.AdventureAttackDetectCircleConfig",
                        "MaxRadius": 2.5,
                        "FanAngle": 180,
                        "Offset": {
                          "X": 0,
                          "Y": 0,
                          "Z": -0.5
                        }
                      },
                      "HitConfig": {
                        "HitAnimation": "Hit",
                        "HitEffect": "Effects/Eff_Prefab/Eff_Avatar/Eff_PlayerBoy/Eff_Avatar_PlayerBoy_00_MazeAttack_Hit.prefab",
                        "HitSoundEvent": "Ev_sfx_avatar_atk_cast_hit_playergirl",
                        "HitEffectHeight": 1
                      }
                    }
                  ]
                }
              ]
            }
          ]
        }
      ]
    },
    {
      "Name": "LocalPlayer_PlayerGirl_MazeSkill",
      "TargetInfo": {
        "TargetType": "Caster"
      },
      "OnStart": [
        {
          "$type": "RPG.GameCore.AdventureTriggerAnimStateWithMove",
          "TargetType": {
            "$type": "RPG.GameCore.TargetAlias",
            "Alias": "AdvLocalPlayer"
          },
          "AnimLogicState": "MazeSkill",
          "AnimStateName": "MazeSkill"
        },
        {
          "$type": "RPG.GameCore.VCameraConfigChange",
          "CameraConfig": {
            "Freelook3rdConfig": {
              "ZoomChangeParam": {
                "TargetValue": -0.6,
                "Time": 0.29,
                "ChangeCurvePath": "Camera/BlendCurve/BlendCut_MazeEnterBattle.asset",
                "RecoveryCurvePath": "Camera/BlendCurve/BlendCut06.asset"
              }
            }
          }
        },
        {
          "$type": "RPG.GameCore.WaitAnimState",
          "TargetType": {
            "$type": "RPG.GameCore.TargetAlias",
            "Alias": "Caster"
          },
          "AnimStateName": "MazeSkill",
          "NormalizedTimeEnd": {
            "IsDynamic": false,
            "FixedValue": {
              "Value": 0.12199999997392297
            }
          }
        },
        {
          "$type": "RPG.GameCore.VCameraConfigChange",
          "CameraConfig": {
            "Freelook3rdConfig": {
              "ZoomChangeParam": {
                "TargetValue": -0.4,
                "Time": 0.2,
                "ChangeCurvePath": "Camera/BlendCurve/BlendCut06.asset",
                "RecoveryCurvePath": "Camera/BlendCurve/BlendCut06.asset"
              }
            }
          }
        },
        {
          "$type": "RPG.GameCore.WaitAnimState",
          "TargetType": {
            "$type": "RPG.GameCore.TargetAlias",
            "Alias": "Caster"
          },
          "AnimStateName": "MazeSkill",
          "NormalizedTimeEnd": {
            "IsDynamic": false,
            "FixedValue": {
              "Value": 0.1500000001396984
            }
          }
        },
        {
          "$type": "RPG.GameCore.AdventureModifyTeamPlayerHP",
          "AddRatio": {
            "IsDynamic": true,
            "Expressions": [
              {
                "Type": "DynamicNumber",
                "DynamicHash": -850066311
              }
            ]
          },
          "TriggerCommonEffect": false
        },
        {
          "$type": "RPG.GameCore.AdventureSubmitSkill",
          "Caster": {
            "$type": "RPG.GameCore.TargetAlias",
            "Alias": "Caster"
          }
        }
      ]
    }
  ]
}