{
  "AbilityList": [
    {
      "Name": "LocalPlayer_Himeko_NormalAtk01",
      "TargetInfo": {
        "TargetType": "SkillPointEntityOrNone"
      },
      "OnStart": [
        {
          "$type": "RPG.GameCore.VCameraConfigChange",
          "CameraConfig": {
            "Freelook3rdConfig": {
              "DampChangeParam": {
                "TargetValue": {
                  "X": 1,
                  "Y": 1,
                  "Z": 1
                },
                "ChangeCurvePath": "Camera/BlendCurve/AttackDampCurve.asset",
                "RecoveryTime": 0.25,
                "RecoveryCurvePath": "Camera/BlendCurve/AttackDampRecoverCurve.asset"
              }
            }
          }
        },
        {
          "$type": "RPG.GameCore.PredicateTaskList",
          "Predicate": {
            "$type": "RPG.GameCore.ByHaveAbilityTarget"
          },
          "SuccessTaskList": [
            {
              "$type": "RPG.GameCore.LookAt",
              "PerformerType": {
                "$type": "RPG.GameCore.TargetAlias",
                "Alias": "Caster"
              },
              "TargetType": "AbilityTargetEntity",
              "Duration": 0.25
            },
            {
              "$type": "RPG.GameCore.AdventureTriggerAnimStateWithMove",
              "TargetType": {
                "$type": "RPG.GameCore.TargetAlias",
                "Alias": "Caster"
              },
              "AnimLogicState": "NormalAtk",
              "AnimStateName": "Attack_1",
              "MovingRangeList": [
                {
                  "TargetType": {
                    "$type": "RPG.GameCore.TargetAlias",
                    "Alias": "AbilityTargetEntity"
                  },
                  "OffsetTargetDistance": {
                    "IsDynamic": false,
                    "FixedValue": {
                      "Value": 2.5000000004656613
                    }
                  },
                  "NormalizedTimeStart": {
                    "IsDynamic": false,
                    "FixedValue": {
                      "Value": 0.012999999802559614
                    }
                  },
                  "NormalizedTimeEnd": {
                    "IsDynamic": false,
                    "FixedValue": {
                      "Value": 0.060000000055879354
                    }
                  },
                  "MaxMoveDistance": {
                    "IsDynamic": false,
                    "FixedValue": {
                      "Value": 3.5000000004656613
                    }
                  },
                  "MaxSpeed": {
                    "IsDynamic": false,
                    "FixedValue": {
                      "Value": 300
                    }
                  },
                  "SteerNormalizedTimeStart": {
                    "IsDynamic": false,
                    "FixedValue": {
                      "Value": 0.031999999890103936
                    }
                  },
                  "SteerNormalizedTimeEnd": {
                    "IsDynamic": false,
                    "FixedValue": {
                      "Value": 0.060000000055879354
                    }
                  }
                }
              ]
            },
            {
              "$type": "RPG.GameCore.WaitAnimState",
              "TargetType": {
                "$type": "RPG.GameCore.TargetAlias",
                "Alias": "Caster"
              },
              "AnimStateName": "Attack_1",
              "NormalizedTimeEnd": {
                "IsDynamic": false,
                "FixedValue": {
                  "Value": 0.060000000055879354
                }
              }
            },
            {
              "$type": "RPG.GameCore.AdventureTriggerAttack",
              "AttackTargetType": {
                "$type": "RPG.GameCore.TargetAlias",
                "Alias": "AbilityTargetEntity"
              },
              "AttackRootTargetType": {
                "$type": "RPG.GameCore.TargetAlias",
                "Alias": "Caster"
              },
              "TriggerBattleDelay": 0.1,
              "AttackDetectConfig": {
                "$type": "RPG.GameCore.AdventureAttackDetectCircleConfig",
                "MaxRadius": 3.5,
                "FanAngle": 180,
                "Offset": {
                  "X": 0,
                  "Y": 0,
                  "Z": -0.5
                }
              },
              "HitConfig": {
                "HitAnimation": "Hit",
                "HitEffect": "Effects/Eff_Prefab/Eff_Avatar/Eff_Himeko/Eff_Avatar_Himeko_00_MazeAttack_Hit01.prefab",
                "HitSoundEvent": "Ev_sfx_avatar_atk_maze_hit_himeko"
              }
            },
            {
              "$type": "RPG.GameCore.VCameraConfigChange",
              "CameraConfig": {
                "ShakeTemplateName": "LocalPlayer_Himeko_NormalAttack_OnTarget"
              }
            },
            {
              "$type": "RPG.GameCore.WaitAnimState",
              "TargetType": {
                "$type": "RPG.GameCore.TargetAlias",
                "Alias": "Caster"
              },
              "AnimStateName": "Attack_1",
              "NormalizedTimeEnd": {
                "IsDynamic": false,
                "FixedValue": {
                  "Value": 0.10000000009313226
                }
              }
            }
          ],
          "FailedTaskList": [
            {
              "$type": "RPG.GameCore.PredicateTaskList",
              "Predicate": {
                "$type": "RPG.GameCore.AdventureByInMotionState",
                "MotionFlag": "FastRun"
              },
              "SuccessTaskList": [
                {
                  "$type": "RPG.GameCore.AdventureTriggerAnimStateWithMove",
                  "TargetType": {
                    "$type": "RPG.GameCore.TargetAlias",
                    "Alias": "Caster"
                  },
                  "AnimLogicState": "NormalAtk",
                  "AnimStateName": "Attack_1",
                  "MovingRangeList": [
                    {
                      "OffsetTargetDistance": {
                        "IsDynamic": false,
                        "FixedValue": {
                          "Value": 1.2000000001862645
                        }
                      },
                      "NormalizedTimeStart": {
                        "IsDynamic": false,
                        "FixedValue": {
                          "Value": 0.012999999802559614
                        }
                      },
                      "NormalizedTimeEnd": {
                        "IsDynamic": false,
                        "FixedValue": {
                          "Value": 0.09000000008381903
                        }
                      },
                      "DefaultMoveDistance": {
                        "IsDynamic": false,
                        "FixedValue": {
                          "Value": 2.2000000001862645
                        }
                      }
                    }
                  ]
                },
                {
                  "$type": "RPG.GameCore.WaitAnimState",
                  "TargetType": {
                    "$type": "RPG.GameCore.TargetAlias",
                    "Alias": "Caster"
                  },
                  "AnimStateName": "Attack_1",
                  "NormalizedTimeEnd": {
                    "IsDynamic": false,
                    "FixedValue": {
                      "Value": 0.060000000055879354
                    }
                  }
                },
                {
                  "$type": "RPG.GameCore.RadialBlurEffect",
                  "TargetType": {
                    "$type": "RPG.GameCore.TargetAlias",
                    "Alias": "Caster"
                  },
                  "Duration": 0.05,
                  "BlurY": 0.4,
                  "BlurRadius": 1,
                  "Iteration": 4,
                  "BlurStart": 0.005,
                  "BlurFeather": 0.01
                },
                {
                  "$type": "RPG.GameCore.AdventureTriggerAttack",
                  "AttackTargetType": {
                    "$type": "RPG.GameCore.TargetAlias",
                    "Alias": "AllEnemy"
                  },
                  "AttackRootTargetType": {
                    "$type": "RPG.GameCore.TargetAlias",
                    "Alias": "Caster"
                  },
                  "TriggerBattleDelay": 0.1,
                  "AttackDetectConfig": {
                    "$type": "RPG.GameCore.AdventureAttackDetectCircleConfig",
                    "MaxRadius": 3,
                    "FanAngle": 180,
                    "Offset": {
                      "X": 0,
                      "Y": 0,
                      "Z": -0.5
                    }
                  },
                  "HitConfig": {
                    "HitAnimation": "Hit",
                    "HitEffect": "Effects/Eff_Prefab/Eff_Avatar/Eff_Himeko/Eff_Avatar_Himeko_00_MazeAttack_Hit01.prefab"
                  }
                },
                {
                  "$type": "RPG.GameCore.WaitAnimState",
                  "TargetType": {
                    "$type": "RPG.GameCore.TargetAlias",
                    "Alias": "Caster"
                  },
                  "AnimStateName": "Attack_1",
                  "NormalizedTimeEnd": {
                    "IsDynamic": false,
                    "FixedValue": {
                      "Value": 0.10000000009313226
                    }
                  }
                }
              ],
              "FailedTaskList": [
                {
                  "$type": "RPG.GameCore.PredicateTaskList",
                  "Predicate": {
                    "$type": "RPG.GameCore.AdventureByInMotionState",
                    "MotionFlag": "Run"
                  },
                  "SuccessTaskList": [
                    {
                      "$type": "RPG.GameCore.AdventureTriggerAnimStateWithMove",
                      "TargetType": {
                        "$type": "RPG.GameCore.TargetAlias",
                        "Alias": "Caster"
                      },
                      "AnimLogicState": "NormalAtk",
                      "AnimStateName": "Attack_1",
                      "MovingRangeList": [
                        {
                          "OffsetTargetDistance": {
                            "IsDynamic": false,
                            "FixedValue": {
                              "Value": 1.2000000001862645
                            }
                          },
                          "NormalizedTimeStart": {
                            "IsDynamic": false,
                            "FixedValue": {
                              "Value": 0.012999999802559614
                            }
                          },
                          "NormalizedTimeEnd": {
                            "IsDynamic": false,
                            "FixedValue": {
                              "Value": 0.09000000008381903
                            }
                          },
                          "DefaultMoveDistance": {
                            "IsDynamic": false,
                            "FixedValue": {
                              "Value": 1.5000000004656613
                            }
                          }
                        }
                      ]
                    },
                    {
                      "$type": "RPG.GameCore.WaitAnimState",
                      "TargetType": {
                        "$type": "RPG.GameCore.TargetAlias",
                        "Alias": "Caster"
                      },
                      "AnimStateName": "Attack_1",
                      "NormalizedTimeEnd": {
                        "IsDynamic": false,
                        "FixedValue": {
                          "Value": 0.060000000055879354
                        }
                      }
                    },
                    {
                      "$type": "RPG.GameCore.RadialBlurEffect",
                      "TargetType": {
                        "$type": "RPG.GameCore.TargetAlias",
                        "Alias": "Caster"
                      },
                      "Duration": 0.05,
                      "BlurY": 0.4,
                      "BlurRadius": 1,
                      "Iteration": 4,
                      "BlurStart": 0.005,
                      "BlurFeather": 0.01
                    },
                    {
                      "$type": "RPG.GameCore.AdventureTriggerAttack",
                      "AttackTargetType": {
                        "$type": "RPG.GameCore.TargetAlias",
                        "Alias": "AllEnemy"
                      },
                      "AttackRootTargetType": {
                        "$type": "RPG.GameCore.TargetAlias",
                        "Alias": "Caster"
                      },
                      "TriggerBattleDelay": 0.1,
                      "AttackDetectConfig": {
                        "$type": "RPG.GameCore.AdventureAttackDetectCircleConfig",
                        "MaxRadius": 3,
                        "FanAngle": 180,
                        "Offset": {
                          "X": 0,
                          "Y": 0,
                          "Z": -0.5
                        }
                      },
                      "HitConfig": {
                        "HitAnimation": "Hit",
                        "HitEffect": "Effects/Eff_Prefab/Eff_Avatar/Eff_Himeko/Eff_Avatar_Himeko_00_MazeAttack_Hit01.prefab"
                      }
                    },
                    {
                      "$type": "RPG.GameCore.WaitAnimState",
                      "TargetType": {
                        "$type": "RPG.GameCore.TargetAlias",
                        "Alias": "Caster"
                      },
                      "AnimStateName": "Attack_1",
                      "NormalizedTimeEnd": {
                        "IsDynamic": false,
                        "FixedValue": {
                          "Value": 0.10000000009313226
                        }
                      }
                    }
                  ],
                  "FailedTaskList": [
                    {
                      "$type": "RPG.GameCore.AdventureTriggerAnimStateWithMove",
                      "TargetType": {
                        "$type": "RPG.GameCore.TargetAlias",
                        "Alias": "Caster"
                      },
                      "AnimLogicState": "NormalAtk",
                      "AnimStateName": "Attack_1",
                      "MovingRangeList": [
                        {
                          "OffsetTargetDistance": {
                            "IsDynamic": false,
                            "FixedValue": {
                              "Value": 1.2000000001862645
                            }
                          },
                          "DefaultMoveDistance": {
                            "IsDynamic": false,
                            "FixedValue": {
                              "Value": 1.8500000007916242
                            }
                          }
                        }
                      ]
                    },
                    {
                      "$type": "RPG.GameCore.WaitAnimState",
                      "TargetType": {
                        "$type": "RPG.GameCore.TargetAlias",
                        "Alias": "Caster"
                      },
                      "AnimStateName": "Attack_1",
                      "NormalizedTimeEnd": {
                        "IsDynamic": false,
                        "FixedValue": {
                          "Value": 0.060000000055879354
                        }
                      }
                    },
                    {
                      "$type": "RPG.GameCore.RadialBlurEffect",
                      "TargetType": {
                        "$type": "RPG.GameCore.TargetAlias",
                        "Alias": "Caster"
                      },
                      "Duration": 0.05,
                      "BlurY": 0.4,
                      "BlurRadius": 1,
                      "Iteration": 4,
                      "BlurStart": 0.005,
                      "BlurFeather": 0.01
                    },
                    {
                      "$type": "RPG.GameCore.AdventureTriggerAttack",
                      "AttackTargetType": {
                        "$type": "RPG.GameCore.TargetAlias",
                        "Alias": "AllEnemy"
                      },
                      "AttackRootTargetType": {
                        "$type": "RPG.GameCore.TargetAlias",
                        "Alias": "Caster"
                      },
                      "TriggerBattleDelay": 0.1,
                      "AttackDetectConfig": {
                        "$type": "RPG.GameCore.AdventureAttackDetectCircleConfig",
                        "MaxRadius": 3,
                        "FanAngle": 180,
                        "Offset": {
                          "X": 0,
                          "Y": 0,
                          "Z": -0.5
                        }
                      },
                      "HitConfig": {
                        "HitAnimation": "Hit",
                        "HitEffect": "Effects/Eff_Prefab/Eff_Avatar/Eff_Himeko/Eff_Avatar_Himeko_00_MazeAttack_Hit01.prefab"
                      }
                    },
                    {
                      "$type": "RPG.GameCore.WaitAnimState",
                      "TargetType": {
                        "$type": "RPG.GameCore.TargetAlias",
                        "Alias": "Caster"
                      },
                      "AnimStateName": "Attack_1",
                      "NormalizedTimeEnd": {
                        "IsDynamic": false,
                        "FixedValue": {
                          "Value": 0.10000000009313226
                        }
                      }
                    }
                  ]
                }
              ]
            }
          ]
        }
      ]
    },
    {
      "Name": "LocalPlayer_Himeko_MazeSkill",
      "TargetInfo": {
        "TargetType": "SkillPointEntityOrNone"
      },
      "OnStart": [
        {
          "$type": "RPG.GameCore.PredicateTaskList",
          "Predicate": {
            "$type": "RPG.GameCore.ByHaveAbilityTarget"
          },
          "SuccessTaskList": [
            {
              "$type": "RPG.GameCore.LookAt",
              "PerformerType": {
                "$type": "RPG.GameCore.TargetAlias",
                "Alias": "Caster"
              },
              "TargetType": "AbilityTargetEntity",
              "Duration": 0
            },
            {
              "$type": "RPG.GameCore.AdventureTriggerAnimStateWithMove",
              "TargetType": {
                "$type": "RPG.GameCore.TargetAlias",
                "Alias": "AdvLocalPlayer"
              },
              "AnimLogicState": "MazeSkill",
              "AnimStateName": "MazeSkill"
            },
            {
              "$type": "RPG.GameCore.VCameraConfigChange",
              "CameraConfig": {
                "Freelook3rdConfig": {
                  "ZoomChangeParam": {
                    "TargetValue": -0.7,
                    "Time": 0.15,
                    "ChangeCurvePath": "Camera/BlendCurve/Blend_MazeSkill.asset",
                    "RecoveryCurvePath": "Camera/BlendCurve/BlendCut06.asset"
                  }
                }
              }
            },
            {
              "$type": "RPG.GameCore.WaitAnimState",
              "TargetType": {
                "$type": "RPG.GameCore.TargetAlias",
                "Alias": "Caster"
              },
              "AnimStateName": "MazeSkill",
              "NormalizedTimeEnd": {
                "IsDynamic": false,
                "FixedValue": {
                  "Value": 0.08100000000558794
                }
              }
            },
            {
              "$type": "RPG.GameCore.VCameraConfigChange",
              "CameraConfig": {
                "Freelook3rdConfig": {
                  "ZoomChangeParam": {
                    "ChangeCurvePath": "Camera/BlendCurve/BlendCut06.asset",
                    "RecoveryCurvePath": "Camera/BlendCurve/BlendCut06.asset"
                  }
                }
              }
            },
            {
              "$type": "RPG.GameCore.WaitAnimState",
              "TargetType": {
                "$type": "RPG.GameCore.TargetAlias",
                "Alias": "Caster"
              },
              "AnimStateName": "MazeSkill",
              "NormalizedTimeEnd": {
                "IsDynamic": false,
                "FixedValue": {
                  "Value": 0.10000000009313226
                }
              }
            },
            {
              "$type": "RPG.GameCore.CreatePropInTargetFront",
              "Taskarget": {
                "$type": "RPG.GameCore.TargetAlias",
                "Alias": "SkillPointEntity"
              },
              "PropID": 10031,
              "Duration": {
                "IsDynamic": true,
                "Expressions": [
                  {
                    "Type": "DynamicNumber",
                    "DynamicHash": 1753558246
                  }
                ]
              },
              "NumLimitation": {
                "IsDynamic": false,
                "FixedValue": {
                  "Value": 1
                }
              },
              "Radius": {
                "IsDynamic": false,
                "FixedValue": {
                  "Value": 5.500000000465661
                }
              },
              "OnCreate": [
                {
                  "$type": "RPG.GameCore.PropSetupTrigger",
                  "TargetType": {
                    "$type": "RPG.GameCore.TargetFetchAdvPropEx"
                  },
                  "TargetTypes": [
                    "NPCMonster"
                  ],
                  "ColliderRelativePath": "Trigger",
                  "OnTriggerEnter": [
                    {
                      "$type": "RPG.GameCore.AddMazeBuff",
                      "TargetType": {
                        "$type": "RPG.GameCore.TargetAlias",
                        "Alias": "TaskActionTarget"
                      },
                      "ID": 100301
                    },
                    {
                      "$type": "RPG.GameCore.TriggerSound",
                      "SoundName": "Ev_sfx_avatar_skill_maze_hit_himeko"
                    }
                  ],
                  "OnTriggerExit": [
                    {
                      "$type": "RPG.GameCore.RemoveMazeBuff",
                      "TargetType": {
                        "$type": "RPG.GameCore.TargetAlias",
                        "Alias": "TaskActionTarget"
                      },
                      "ID": 100301
                    }
                  ]
                },
                {
                  "$type": "RPG.GameCore.PropAttractEnemy",
                  "Distance": 5.5,
                  "BehaviourType": "AlertAddTo",
                  "DeltaValue": 10
                },
                {
                  "$type": "RPG.GameCore.PropTriggerEffectList",
                  "TargetType": {
                    "$type": "RPG.GameCore.TargetFetchAdvPropEx"
                  },
                  "EffectList": [
                    {
                      "EffectPath": "Effects/Eff_Prefab/Eff_Avatar/Eff_Himeko/Eff_Avatar_Himeko_00_MazeSkill_01_Hit_Once.prefab"
                    }
                  ]
                }
              ],
              "IsTeamUnique": true
            },
            {
              "$type": "RPG.GameCore.WaitAnimState",
              "TargetType": {
                "$type": "RPG.GameCore.TargetAlias",
                "Alias": "Caster"
              },
              "AnimStateName": "MazeSkill",
              "NormalizedTimeEnd": {
                "IsDynamic": false,
                "FixedValue": {
                  "Value": 0.3000000002793968
                }
              }
            }
          ],
          "FailedTaskList": [
            {
              "$type": "RPG.GameCore.AdventureTriggerAnimStateWithMove",
              "TargetType": {
                "$type": "RPG.GameCore.TargetAlias",
                "Alias": "AdvLocalPlayer"
              },
              "AnimLogicState": "MazeSkill",
              "AnimStateName": "MazeSkill"
            },
            {
              "$type": "RPG.GameCore.VCameraConfigChange",
              "CameraConfig": {
                "Freelook3rdConfig": {
                  "ZoomChangeParam": {
                    "TargetValue": -0.7,
                    "Time": 0.15,
                    "ChangeCurvePath": "Camera/BlendCurve/Blend_MazeSkill.asset",
                    "RecoveryCurvePath": "Camera/BlendCurve/BlendCut06.asset"
                  }
                }
              }
            },
            {
              "$type": "RPG.GameCore.WaitAnimState",
              "TargetType": {
                "$type": "RPG.GameCore.TargetAlias",
                "Alias": "Caster"
              },
              "AnimStateName": "MazeSkill",
              "NormalizedTimeEnd": {
                "IsDynamic": false,
                "FixedValue": {
                  "Value": 0.08100000000558794
                }
              }
            },
            {
              "$type": "RPG.GameCore.VCameraConfigChange",
              "CameraConfig": {
                "Freelook3rdConfig": {
                  "ZoomChangeParam": {
                    "ChangeCurvePath": "Camera/BlendCurve/BlendCut06.asset",
                    "RecoveryCurvePath": "Camera/BlendCurve/BlendCut06.asset"
                  }
                }
              }
            },
            {
              "$type": "RPG.GameCore.WaitAnimState",
              "TargetType": {
                "$type": "RPG.GameCore.TargetAlias",
                "Alias": "Caster"
              },
              "AnimStateName": "MazeSkill",
              "NormalizedTimeEnd": {
                "IsDynamic": false,
                "FixedValue": {
                  "Value": 0.10000000009313226
                }
              }
            },
            {
              "$type": "RPG.GameCore.CreatePropInTargetFront",
              "Taskarget": {
                "$type": "RPG.GameCore.TargetAlias",
                "Alias": "Caster"
              },
              "PropID": 10031,
              "Distance": {
                "IsDynamic": false,
                "FixedValue": {
                  "Value": 6
                }
              },
              "Duration": {
                "IsDynamic": true,
                "Expressions": [
                  {
                    "Type": "DynamicNumber",
                    "DynamicHash": 1753558246
                  }
                ]
              },
              "NumLimitation": {
                "IsDynamic": false,
                "FixedValue": {
                  "Value": 1
                }
              },
              "Radius": {
                "IsDynamic": false,
                "FixedValue": {
                  "Value": 5.500000000465661
                }
              },
              "OnCreate": [
                {
                  "$type": "RPG.GameCore.PropSetupTrigger",
                  "TargetType": {
                    "$type": "RPG.GameCore.TargetFetchAdvPropEx"
                  },
                  "TargetTypes": [
                    "NPCMonster"
                  ],
                  "ColliderRelativePath": "Trigger",
                  "OnTriggerEnter": [
                    {
                      "$type": "RPG.GameCore.AddMazeBuff",
                      "TargetType": {
                        "$type": "RPG.GameCore.TargetAlias",
                        "Alias": "TaskActionTarget"
                      },
                      "ID": 100301
                    },
                    {
                      "$type": "RPG.GameCore.TriggerSound",
                      "SoundName": "Ev_sfx_avatar_skill_maze_hit_himeko"
                    }
                  ],
                  "OnTriggerExit": [
                    {
                      "$type": "RPG.GameCore.RemoveMazeBuff",
                      "TargetType": {
                        "$type": "RPG.GameCore.TargetAlias",
                        "Alias": "TaskActionTarget"
                      },
                      "ID": 100301
                    }
                  ]
                },
                {
                  "$type": "RPG.GameCore.PropAttractEnemy",
                  "Distance": 5.5,
                  "BehaviourType": "AlertAddTo",
                  "DeltaValue": 10
                },
                {
                  "$type": "RPG.GameCore.PropTriggerEffectList",
                  "TargetType": {
                    "$type": "RPG.GameCore.TargetFetchAdvPropEx"
                  },
                  "EffectList": [
                    {
                      "EffectPath": "Effects/Eff_Prefab/Eff_Avatar/Eff_Himeko/Eff_Avatar_Himeko_00_MazeSkill_01_Hit_Once.prefab"
                    }
                  ]
                }
              ],
              "IsTeamUnique": true
            },
            {
              "$type": "RPG.GameCore.WaitAnimState",
              "TargetType": {
                "$type": "RPG.GameCore.TargetAlias",
                "Alias": "Caster"
              },
              "AnimStateName": "MazeSkill",
              "NormalizedTimeEnd": {
                "IsDynamic": false,
                "FixedValue": {
                  "Value": 0.3000000002793968
                }
              }
            }
          ]
        }
      ]
    }
  ]
}