{
  "AbilityList": [
    {
      "Name": "LocalPlayer_DanHeng_NormalAtk01",
      "TargetInfo": {
        "TargetType": "SkillPointEntityOrNone"
      },
      "OnStart": [
        {
          "$type": "RPG.GameCore.VCameraConfigChange",
          "CameraConfig": {
            "Freelook3rdConfig": {
              "DampChangeParam": {
                "TargetValue": {
                  "X": 1,
                  "Y": 1,
                  "Z": 1
                },
                "ChangeCurvePath": "Camera/BlendCurve/AttackDampCurve.asset",
                "RecoveryTime": 0.25,
                "RecoveryCurvePath": "Camera/BlendCurve/AttackDampRecoverCurve.asset"
              }
            }
          }
        },
        {
          "$type": "RPG.GameCore.PredicateTaskList",
          "Predicate": {
            "$type": "RPG.GameCore.ByHaveAbilityTarget"
          },
          "SuccessTaskList": [
            {
              "$type": "RPG.GameCore.LookAt",
              "PerformerType": {
                "$type": "RPG.GameCore.TargetAlias",
                "Alias": "Caster"
              },
              "TargetType": "AbilityTargetEntity",
              "Duration": 0.1
            },
            {
              "$type": "RPG.GameCore.AdventureTriggerAnimStateWithMove",
              "TargetType": {
                "$type": "RPG.GameCore.TargetAlias",
                "Alias": "AdvLocalPlayer"
              },
              "AnimLogicState": "NormalAtk",
              "AnimStateName": "Attack_1",
              "TransitionDuration": 0.1,
              "MovingRangeList": [
                {
                  "TargetType": {
                    "$type": "RPG.GameCore.TargetAlias",
                    "Alias": "AbilityTargetEntity"
                  },
                  "OffsetTargetDistance": {
                    "IsDynamic": false,
                    "FixedValue": {
                      "Value": 1.5000000004656613
                    }
                  },
                  "NormalizedTimeStart": {
                    "IsDynamic": false,
                    "FixedValue": {
                      "Value": 0.030000000027939677
                    }
                  },
                  "NormalizedTimeEnd": {
                    "IsDynamic": false,
                    "FixedValue": {
                      "Value": 0.060000000055879354
                    }
                  },
                  "MaxMoveDistance": {
                    "IsDynamic": false,
                    "FixedValue": {
                      "Value": 5
                    }
                  },
                  "MaxSpeed": {
                    "IsDynamic": false,
                    "FixedValue": {
                      "Value": 300
                    }
                  },
                  "SteerNormalizedTimeStart": {
                    "IsDynamic": false,
                    "FixedValue": {
                      "Value": 0.030000000027939677
                    }
                  },
                  "SteerNormalizedTimeEnd": {
                    "IsDynamic": false,
                    "FixedValue": {
                      "Value": 0.060000000055879354
                    }
                  }
                }
              ]
            },
            {
              "$type": "RPG.GameCore.WaitAnimState",
              "TargetType": {
                "$type": "RPG.GameCore.TargetAlias",
                "Alias": "Caster"
              },
              "AnimStateName": "Attack_1",
              "NormalizedTimeEnd": {
                "IsDynamic": false,
                "FixedValue": {
                  "Value": 0.06499999971129
                }
              }
            },
            {
              "$type": "RPG.GameCore.AdventureTriggerAttack",
              "AttackTargetType": {
                "$type": "RPG.GameCore.TargetAlias",
                "Alias": "AbilityTargetEntity"
              },
              "AttackRootTargetType": {
                "$type": "RPG.GameCore.TargetAlias",
                "Alias": "Caster"
              },
              "TriggerBattleDelay": 0.1,
              "AttackDetectConfig": {
                "$type": "RPG.GameCore.AdventureAttackDetectBoxConfig",
                "Size": {
                  "X": 0.4,
                  "Y": 0.4,
                  "Z": 1.35
                },
                "Offset": {
                  "X": 0,
                  "Y": 0.7,
                  "Z": 1.6
                }
              },
              "HitConfig": {
                "HitAnimation": "Hit",
                "HitEffect": "Effects/Eff_Prefab/Eff_Avatar/Eff_DanHeng/Eff_Avatar_DanHeng_00_MazeAttack_Hit01.prefab",
                "HitEffectHeight": 1
              }
            },
            {
              "$type": "RPG.GameCore.VCameraConfigChange",
              "CameraConfig": {
                "ShakeTemplateName": "LocalPlayer_DanHeng_NormalAttack_OnTarget"
              }
            },
            {
              "$type": "RPG.GameCore.WaitAnimState",
              "TargetType": {
                "$type": "RPG.GameCore.TargetAlias",
                "Alias": "Caster"
              },
              "AnimStateName": "Attack_1",
              "NormalizedTimeEnd": {
                "IsDynamic": false,
                "FixedValue": {
                  "Value": 0.11000000010244548
                }
              }
            }
          ],
          "FailedTaskList": [
            {
              "$type": "RPG.GameCore.PredicateTaskList",
              "Predicate": {
                "$type": "RPG.GameCore.AdventureByInMotionState",
                "MotionFlag": "FastRun"
              },
              "SuccessTaskList": [
                {
                  "$type": "RPG.GameCore.AdventureTriggerAnimStateWithMove",
                  "TargetType": {
                    "$type": "RPG.GameCore.TargetAlias",
                    "Alias": "AdvLocalPlayer"
                  },
                  "AnimLogicState": "NormalAtk",
                  "AnimStateName": "Attack_1",
                  "TransitionDuration": 0.1,
                  "MovingRangeList": [
                    {
                      "NormalizedTimeStart": {
                        "IsDynamic": false,
                        "FixedValue": {
                          "Value": 0.030000000027939677
                        }
                      },
                      "NormalizedTimeEnd": {
                        "IsDynamic": false,
                        "FixedValue": {
                          "Value": 0.060000000055879354
                        }
                      },
                      "DefaultMoveDistance": {
                        "IsDynamic": false,
                        "FixedValue": {
                          "Value": 2.5000000004656613
                        }
                      }
                    }
                  ]
                },
                {
                  "$type": "RPG.GameCore.WaitAnimState",
                  "TargetType": {
                    "$type": "RPG.GameCore.TargetAlias",
                    "Alias": "Caster"
                  },
                  "AnimStateName": "Attack_1",
                  "NormalizedTimeEnd": {
                    "IsDynamic": false,
                    "FixedValue": {
                      "Value": 0.060000000055879354
                    }
                  }
                },
                {
                  "$type": "RPG.GameCore.RadialBlurEffect",
                  "TargetType": {
                    "$type": "RPG.GameCore.TargetAlias",
                    "Alias": "Caster"
                  },
                  "Duration": 0.05,
                  "BlurY": 0.4,
                  "BlurRadius": 1,
                  "Iteration": 4,
                  "BlurStart": 0.005,
                  "BlurFeather": 0.01
                },
                {
                  "$type": "RPG.GameCore.WaitAnimState",
                  "TargetType": {
                    "$type": "RPG.GameCore.TargetAlias",
                    "Alias": "Caster"
                  },
                  "AnimStateName": "Attack_1",
                  "NormalizedTimeEnd": {
                    "IsDynamic": false,
                    "FixedValue": {
                      "Value": 0.06499999971129
                    }
                  }
                },
                {
                  "$type": "RPG.GameCore.AdventureTriggerAttack",
                  "AttackTargetType": {
                    "$type": "RPG.GameCore.TargetAlias",
                    "Alias": "AllEnemy"
                  },
                  "AttackRootTargetType": {
                    "$type": "RPG.GameCore.TargetAlias",
                    "Alias": "Caster"
                  },
                  "TriggerBattleDelay": 0.1,
                  "AttackDetectConfig": {
                    "$type": "RPG.GameCore.AdventureAttackDetectBoxConfig",
                    "Size": {
                      "X": 0.4,
                      "Y": 0.4,
                      "Z": 1.3
                    },
                    "Offset": {
                      "X": 0,
                      "Y": 0.7,
                      "Z": 1.2
                    }
                  },
                  "HitConfig": {
                    "HitAnimation": "Hit",
                    "HitEffect": "Effects/Eff_Prefab/Eff_Avatar/Eff_DanHeng/Eff_Avatar_DanHeng_00_MazeAttack_Hit01.prefab",
                    "HitEffectHeight": 1
                  }
                },
                {
                  "$type": "RPG.GameCore.WaitAnimState",
                  "TargetType": {
                    "$type": "RPG.GameCore.TargetAlias",
                    "Alias": "Caster"
                  },
                  "AnimStateName": "Attack_1",
                  "NormalizedTimeEnd": {
                    "IsDynamic": false,
                    "FixedValue": {
                      "Value": 0.11000000010244548
                    }
                  }
                }
              ],
              "FailedTaskList": [
                {
                  "$type": "RPG.GameCore.PredicateTaskList",
                  "Predicate": {
                    "$type": "RPG.GameCore.AdventureByInMotionState",
                    "MotionFlag": "Run"
                  },
                  "SuccessTaskList": [
                    {
                      "$type": "RPG.GameCore.AdventureTriggerAnimStateWithMove",
                      "TargetType": {
                        "$type": "RPG.GameCore.TargetAlias",
                        "Alias": "AdvLocalPlayer"
                      },
                      "AnimLogicState": "NormalAtk",
                      "AnimStateName": "Attack_1",
                      "TransitionDuration": 0.1,
                      "MovingRangeList": [
                        {
                          "NormalizedTimeStart": {
                            "IsDynamic": false,
                            "FixedValue": {
                              "Value": 0.030000000027939677
                            }
                          },
                          "NormalizedTimeEnd": {
                            "IsDynamic": false,
                            "FixedValue": {
                              "Value": 0.060000000055879354
                            }
                          },
                          "DefaultMoveDistance": {
                            "IsDynamic": false,
                            "FixedValue": {
                              "Value": 1.7000000006519258
                            }
                          }
                        }
                      ]
                    },
                    {
                      "$type": "RPG.GameCore.WaitAnimState",
                      "TargetType": {
                        "$type": "RPG.GameCore.TargetAlias",
                        "Alias": "Caster"
                      },
                      "AnimStateName": "Attack_1",
                      "NormalizedTimeEnd": {
                        "IsDynamic": false,
                        "FixedValue": {
                          "Value": 0.060000000055879354
                        }
                      }
                    },
                    {
                      "$type": "RPG.GameCore.RadialBlurEffect",
                      "TargetType": {
                        "$type": "RPG.GameCore.TargetAlias",
                        "Alias": "Caster"
                      },
                      "Duration": 0.05,
                      "BlurY": 0.4,
                      "BlurRadius": 1,
                      "Iteration": 4,
                      "BlurStart": 0.005,
                      "BlurFeather": 0.01
                    },
                    {
                      "$type": "RPG.GameCore.WaitAnimState",
                      "TargetType": {
                        "$type": "RPG.GameCore.TargetAlias",
                        "Alias": "Caster"
                      },
                      "AnimStateName": "Attack_1",
                      "NormalizedTimeEnd": {
                        "IsDynamic": false,
                        "FixedValue": {
                          "Value": 0.06499999971129
                        }
                      }
                    },
                    {
                      "$type": "RPG.GameCore.AdventureTriggerAttack",
                      "AttackTargetType": {
                        "$type": "RPG.GameCore.TargetAlias",
                        "Alias": "AllEnemy"
                      },
                      "AttackRootTargetType": {
                        "$type": "RPG.GameCore.TargetAlias",
                        "Alias": "Caster"
                      },
                      "TriggerBattleDelay": 0.1,
                      "AttackDetectConfig": {
                        "$type": "RPG.GameCore.AdventureAttackDetectBoxConfig",
                        "Size": {
                          "X": 0.4,
                          "Y": 0.4,
                          "Z": 1.3
                        },
                        "Offset": {
                          "X": 0,
                          "Y": 0.7,
                          "Z": 1.2
                        }
                      },
                      "HitConfig": {
                        "HitAnimation": "Hit",
                        "HitEffect": "Effects/Eff_Prefab/Eff_Avatar/Eff_DanHeng/Eff_Avatar_DanHeng_00_MazeAttack_Hit01.prefab",
                        "HitEffectHeight": 1
                      }
                    },
                    {
                      "$type": "RPG.GameCore.WaitAnimState",
                      "TargetType": {
                        "$type": "RPG.GameCore.TargetAlias",
                        "Alias": "Caster"
                      },
                      "AnimStateName": "Attack_1",
                      "NormalizedTimeEnd": {
                        "IsDynamic": false,
                        "FixedValue": {
                          "Value": 0.11000000010244548
                        }
                      }
                    }
                  ],
                  "FailedTaskList": [
                    {
                      "$type": "RPG.GameCore.AdventureTriggerAnimStateWithMove",
                      "TargetType": {
                        "$type": "RPG.GameCore.TargetAlias",
                        "Alias": "AdvLocalPlayer"
                      },
                      "AnimLogicState": "NormalAtk",
                      "AnimStateName": "Attack_1",
                      "TransitionDuration": 0.1
                    },
                    {
                      "$type": "RPG.GameCore.WaitAnimState",
                      "TargetType": {
                        "$type": "RPG.GameCore.TargetAlias",
                        "Alias": "Caster"
                      },
                      "AnimStateName": "Attack_1",
                      "NormalizedTimeEnd": {
                        "IsDynamic": false,
                        "FixedValue": {
                          "Value": 0.060000000055879354
                        }
                      }
                    },
                    {
                      "$type": "RPG.GameCore.RadialBlurEffect",
                      "TargetType": {
                        "$type": "RPG.GameCore.TargetAlias",
                        "Alias": "Caster"
                      },
                      "Duration": 0.05,
                      "BlurY": 0.4,
                      "BlurRadius": 1,
                      "Iteration": 4,
                      "BlurStart": 0.005,
                      "BlurFeather": 0.01
                    },
                    {
                      "$type": "RPG.GameCore.WaitAnimState",
                      "TargetType": {
                        "$type": "RPG.GameCore.TargetAlias",
                        "Alias": "Caster"
                      },
                      "AnimStateName": "Attack_1",
                      "NormalizedTimeEnd": {
                        "IsDynamic": false,
                        "FixedValue": {
                          "Value": 0.06499999971129
                        }
                      }
                    },
                    {
                      "$type": "RPG.GameCore.AdventureTriggerAttack",
                      "AttackTargetType": {
                        "$type": "RPG.GameCore.TargetAlias",
                        "Alias": "AllEnemy"
                      },
                      "AttackRootTargetType": {
                        "$type": "RPG.GameCore.TargetAlias",
                        "Alias": "Caster"
                      },
                      "TriggerBattleDelay": 0.1,
                      "AttackDetectConfig": {
                        "$type": "RPG.GameCore.AdventureAttackDetectBoxConfig",
                        "Size": {
                          "X": 0.4,
                          "Y": 0.4,
                          "Z": 1.3
                        },
                        "Offset": {
                          "X": 0,
                          "Y": 0.7,
                          "Z": 1.2
                        }
                      },
                      "HitConfig": {
                        "HitAnimation": "Hit",
                        "HitEffect": "Effects/Eff_Prefab/Eff_Avatar/Eff_DanHeng/Eff_Avatar_DanHeng_00_MazeAttack_Hit01.prefab",
                        "HitEffectHeight": 1
                      }
                    },
                    {
                      "$type": "RPG.GameCore.WaitAnimState",
                      "TargetType": {
                        "$type": "RPG.GameCore.TargetAlias",
                        "Alias": "Caster"
                      },
                      "AnimStateName": "Attack_1",
                      "NormalizedTimeEnd": {
                        "IsDynamic": false,
                        "FixedValue": {
                          "Value": 0.11000000010244548
                        }
                      }
                    }
                  ]
                }
              ]
            }
          ]
        }
      ]
    },
    {
      "Name": "LocalPlayer_DanHeng_MazeSkill",
      "TargetInfo": {
        "TargetType": "Caster"
      },
      "OnStart": [
        {
          "$type": "RPG.GameCore.AdventureTriggerAnimStateWithMove",
          "TargetType": {
            "$type": "RPG.GameCore.TargetAlias",
            "Alias": "AdvLocalPlayer"
          },
          "AnimLogicState": "MazeSkill",
          "AnimStateName": "MazeSkill"
        },
        {
          "$type": "RPG.GameCore.WaitAnimState",
          "TargetType": {
            "$type": "RPG.GameCore.TargetAlias",
            "Alias": "Caster"
          },
          "AnimStateName": "MazeSkill",
          "NormalizedTimeEnd": {
            "IsDynamic": false,
            "FixedValue": {
              "Value": 0.09000000008381903
            }
          }
        },
        {
          "$type": "RPG.GameCore.AddMazeBuff",
          "TargetType": {
            "$type": "RPG.GameCore.TargetAlias",
            "Alias": "Caster"
          },
          "ID": 100201,
          "LifeTime": {
            "IsDynamic": false,
            "FixedValue": {
              "Value": -1
            }
          }
        },
        {
          "$type": "RPG.GameCore.AdventureSubmitSkill",
          "Caster": {
            "$type": "RPG.GameCore.TargetAlias",
            "Alias": "Caster"
          }
        },
        {
          "$type": "RPG.GameCore.WaitAnimState",
          "TargetType": {
            "$type": "RPG.GameCore.TargetAlias",
            "Alias": "Caster"
          },
          "AnimStateName": "MazeSkill",
          "NormalizedTimeEnd": {
            "IsDynamic": false,
            "FixedValue": {
              "Value": 0.11000000010244548
            }
          }
        }
      ]
    }
  ]
}