{
  "AbilityList": [
    {
      "Modifiers": {
        "Monster_XP_Minion03_00_EffectController": {
          "OnCreate": [
            {
              "$type": "RPG.GameCore.TriggerEffect",
              "TargetType": {
                "$type": "RPG.GameCore.TargetAlias",
                "Alias": "Caster"
              },
              "Flags": [
                "Resident"
              ],
              "EffectPath": "Effects/Eff_Prefab/Eff_Monster/Eff_XP_Minion03_00/Eff_Monster_XP_Minion03_00_StandBy_Loop.prefab",
              "AttachPoint": "Body"
            },
            {
              "$type": "RPG.GameCore.TriggerEffect",
              "TargetType": {
                "$type": "RPG.GameCore.TargetAlias",
                "Alias": "Caster"
              },
              "EffectPath": "Effects/Eff_Prefab/Eff_Monster/Eff_XP_Minion03_00/Eff_Monster_XP_Minion03_00_StandBy_Loop_02.prefab",
              "AttachPoint": "Body"
            }
          ],
          "OnDestroy": [
            {
              "$type": "RPG.GameCore.PredicateTaskList",
              "Predicate": {
                "$type": "RPG.GameCore.ByCompareDynamicValue",
                "TargetType": {
                  "$type": "RPG.GameCore.TargetAlias",
                  "Alias": "ModifierOwnerEntity"
                },
                "DynamicKey": "TimeSlowSpeed",
                "ContextScope": "TargetEntity",
                "CompareType": "Equal",
                "CompareValue": {
                  "IsDynamic": false,
                  "FixedValue": {
                    "Value": 0
                  }
                }
              },
              "SuccessTaskList": [
                {
                  "$type": "RPG.GameCore.SetAttachEffectTimeSlow",
                  "AttachPoint": "Body",
                  "TimeSlow": 1
                },
                {
                  "$type": "RPG.GameCore.DefineDynamicValue",
                  "TargetType": {
                    "$type": "RPG.GameCore.TargetAlias",
                    "Alias": "ModifierOwnerEntity"
                  },
                  "DynamicKey": "TimeSlowSpeed",
                  "ResetValue": {
                    "IsDynamic": false,
                    "FixedValue": {
                      "Value": 1
                    }
                  },
                  "ContextScope": "TargetEntity"
                }
              ],
              "FailedTaskList": []
            }
          ],
          "OnBeingBreak": [
            {
              "$type": "RPG.GameCore.RemoveEffect",
              "TargetType": {
                "$type": "RPG.GameCore.TargetAlias",
                "Alias": "Caster"
              },
              "EffectPath": "Effects/Eff_Prefab/Eff_Monster/Eff_XP_Minion03_00/Eff_Monster_XP_Minion03_00_StandBy_Loop_02.prefab"
            }
          ],
          "OnEndBreak": [
            {
              "$type": "RPG.GameCore.TriggerEffect",
              "TargetType": {
                "$type": "RPG.GameCore.TargetAlias",
                "Alias": "Caster"
              },
              "EffectPath": "Effects/Eff_Prefab/Eff_Monster/Eff_XP_Minion03_00/Eff_Monster_XP_Minion03_00_StandBy_Loop_02.prefab",
              "AttachPoint": "Body"
            }
          ],
          "OnModifierAdd": [
            {
              "$type": "RPG.GameCore.PredicateTaskList",
              "Predicate": {
                "$type": "RPG.GameCore.ByContainBehaviorFlag",
                "TargetType": {
                  "$type": "RPG.GameCore.TargetAlias",
                  "Alias": "ModifierOwnerEntity"
                },
                "Flag": "STAT_Confine"
              },
              "SuccessTaskList": [
                {
                  "$type": "RPG.GameCore.PredicateTaskList",
                  "Predicate": {
                    "$type": "RPG.GameCore.ByCompareDynamicValue",
                    "TargetType": {
                      "$type": "RPG.GameCore.TargetAlias",
                      "Alias": "ModifierOwnerEntity"
                    },
                    "DynamicKey": "TimeSlowSpeed",
                    "ContextScope": "TargetEntity",
                    "CompareType": "Equal",
                    "CompareValue": {
                      "IsDynamic": false,
                      "FixedValue": {
                        "Value": 1
                      }
                    }
                  },
                  "SuccessTaskList": [
                    {
                      "$type": "RPG.GameCore.SetAttachEffectTimeSlow",
                      "AttachPoint": "Body",
                      "TimeSlow": 0.2
                    },
                    {
                      "$type": "RPG.GameCore.DefineDynamicValue",
                      "TargetType": {
                        "$type": "RPG.GameCore.TargetAlias",
                        "Alias": "ModifierOwnerEntity"
                      },
                      "DynamicKey": "TimeSlowSpeed",
                      "ContextScope": "TargetEntity"
                    }
                  ],
                  "FailedTaskList": []
                }
              ]
            },
            {
              "$type": "RPG.GameCore.PredicateTaskList",
              "Predicate": {
                "$type": "RPG.GameCore.ByContainBehaviorFlag",
                "TargetType": {
                  "$type": "RPG.GameCore.TargetAlias",
                  "Alias": "ModifierOwnerEntity"
                },
                "Flag": "STAT_CTRL_Frozen"
              },
              "SuccessTaskList": [
                {
                  "$type": "RPG.GameCore.PredicateTaskList",
                  "Predicate": {
                    "$type": "RPG.GameCore.ByCompareDynamicValue",
                    "TargetType": {
                      "$type": "RPG.GameCore.TargetAlias",
                      "Alias": "ModifierOwnerEntity"
                    },
                    "DynamicKey": "TimeSlowSpeed",
                    "ContextScope": "TargetEntity",
                    "CompareType": "Equal",
                    "CompareValue": {
                      "IsDynamic": false,
                      "FixedValue": {
                        "Value": 1
                      }
                    }
                  },
                  "SuccessTaskList": [
                    {
                      "$type": "RPG.GameCore.SetAttachEffectTimeSlow",
                      "AttachPoint": "Body"
                    },
                    {
                      "$type": "RPG.GameCore.DefineDynamicValue",
                      "TargetType": {
                        "$type": "RPG.GameCore.TargetAlias",
                        "Alias": "ModifierOwnerEntity"
                      },
                      "DynamicKey": "TimeSlowSpeed",
                      "ContextScope": "TargetEntity"
                    }
                  ],
                  "FailedTaskList": []
                }
              ]
            }
          ],
          "OnModifierRemove": [
            {
              "$type": "RPG.GameCore.PredicateTaskList",
              "Predicate": {
                "$type": "RPG.GameCore.ByAny",
                "PredicateList": [
                  {
                    "$type": "RPG.GameCore.ByContainBehaviorFlag",
                    "TargetType": {
                      "$type": "RPG.GameCore.TargetAlias",
                      "Alias": "ModifierOwnerEntity"
                    },
                    "Flag": "STAT_Confine"
                  },
                  {
                    "$type": "RPG.GameCore.ByContainBehaviorFlag",
                    "TargetType": {
                      "$type": "RPG.GameCore.TargetAlias",
                      "Alias": "ModifierOwnerEntity"
                    },
                    "Flag": "STAT_CTRL_Frozen"
                  }
                ]
              },
              "FailedTaskList": [
                {
                  "$type": "RPG.GameCore.PredicateTaskList",
                  "Predicate": {
                    "$type": "RPG.GameCore.ByCompareDynamicValue",
                    "TargetType": {
                      "$type": "RPG.GameCore.TargetAlias",
                      "Alias": "ModifierOwnerEntity"
                    },
                    "DynamicKey": "TimeSlowSpeed",
                    "ContextScope": "TargetEntity",
                    "CompareType": "Equal",
                    "CompareValue": {
                      "IsDynamic": false,
                      "FixedValue": {
                        "Value": 0
                      }
                    }
                  },
                  "SuccessTaskList": [
                    {
                      "$type": "RPG.GameCore.SetAttachEffectTimeSlow",
                      "AttachPoint": "Body",
                      "TimeSlow": 1
                    },
                    {
                      "$type": "RPG.GameCore.DefineDynamicValue",
                      "TargetType": {
                        "$type": "RPG.GameCore.TargetAlias",
                        "Alias": "ModifierOwnerEntity"
                      },
                      "DynamicKey": "TimeSlowSpeed",
                      "ResetValue": {
                        "IsDynamic": false,
                        "FixedValue": {
                          "Value": 1
                        }
                      },
                      "ContextScope": "TargetEntity"
                    }
                  ],
                  "FailedTaskList": []
                }
              ]
            },
            {
              "$type": "RPG.GameCore.PredicateTaskList",
              "Predicate": {
                "$type": "RPG.GameCore.ByContainBehaviorFlag",
                "TargetType": {
                  "$type": "RPG.GameCore.TargetAlias",
                  "Alias": "ModifierOwnerEntity"
                },
                "Flag": "STAT_Confine"
              },
              "SuccessTaskList": [
                {
                  "$type": "RPG.GameCore.PredicateTaskList",
                  "Predicate": {
                    "$type": "RPG.GameCore.ByContainBehaviorFlag",
                    "TargetType": {
                      "$type": "RPG.GameCore.TargetAlias",
                      "Alias": "ModifierOwnerEntity"
                    },
                    "Flag": "STAT_CTRL_Frozen"
                  },
                  "SuccessTaskList": [],
                  "FailedTaskList": [
                    {
                      "$type": "RPG.GameCore.PredicateTaskList",
                      "Predicate": {
                        "$type": "RPG.GameCore.ByCompareDynamicValue",
                        "TargetType": {
                          "$type": "RPG.GameCore.TargetAlias",
                          "Alias": "ModifierOwnerEntity"
                        },
                        "DynamicKey": "TimeSlowSpeed",
                        "ContextScope": "TargetEntity",
                        "CompareType": "Equal",
                        "CompareValue": {
                          "IsDynamic": false,
                          "FixedValue": {
                            "Value": 1
                          }
                        }
                      },
                      "SuccessTaskList": [
                        {
                          "$type": "RPG.GameCore.SetAttachEffectTimeSlow",
                          "AttachPoint": "Body",
                          "TimeSlow": 0.2
                        },
                        {
                          "$type": "RPG.GameCore.DefineDynamicValue",
                          "TargetType": {
                            "$type": "RPG.GameCore.TargetAlias",
                            "Alias": "ModifierOwnerEntity"
                          },
                          "DynamicKey": "TimeSlowSpeed",
                          "ContextScope": "TargetEntity"
                        }
                      ],
                      "FailedTaskList": []
                    }
                  ]
                }
              ]
            }
          ]
        },
        "Monster_XP_Minion03_00_Deathrattle": {
          "BehaviorFlagList": [
            "Deathrattle"
          ],
          "OnDeathrattle": [
            {
              "$type": "RPG.GameCore.DispelStatus",
              "TargetType": {
                "$type": "RPG.GameCore.TargetAlias",
                "Alias": "Caster"
              },
              "OnlyAlive": false,
              "IsSlientDispel": true
            },
            {
              "$type": "RPG.GameCore.ExitBreakState",
              "TargetType": {
                "$type": "RPG.GameCore.TargetAlias",
                "Alias": "Caster"
              },
              "CancelRecoverAnim": true
            },
            {
              "$type": "RPG.GameCore.TurnInsertAbility",
              "AbilityName": "Monster_W2_BossPart_01_PassiveSkill_Insert_Phase01",
              "TargetType": {
                "$type": "RPG.GameCore.TargetAlias",
                "Alias": "ModifierOwnerEntity"
              },
              "InsertAbilityPriority": "MonsterDeathRattle",
              "OwnerAliveState": "Mask_AliveOrLimbo",
              "TargetAliveState": "Mask_AliveOrLimbo",
              "ShowInActionBar": true
            },
            {
              "$type": "RPG.GameCore.SetDieImmediately"
            }
          ]
        }
      },
      "Name": "Monster_W2_BossPart_01_Passive01",
      "TargetInfo": {
        "TargetType": "Caster"
      },
      "OnAdd": [
        {
          "$type": "RPG.GameCore.AddModifier",
          "TargetType": {
            "$type": "RPG.GameCore.TargetAlias",
            "Alias": "Caster"
          },
          "ModifierName": "Monster_XP_Minion03_00_EffectController"
        }
      ],
      "OnStart": [
        {
          "$type": "RPG.GameCore.AddModifier",
          "TargetType": {
            "$type": "RPG.GameCore.TargetAlias",
            "Alias": "Caster"
          },
          "ModifierName": "Monster_XP_Minion03_00_Deathrattle"
        },
        {
          "$type": "RPG.GameCore.AddModifier",
          "TargetType": {
            "$type": "RPG.GameCore.TargetAlias",
            "Alias": "Caster"
          },
          "ModifierName": "Monster_W2_BossPart_01_Heal",
          "DynamicValues": {
            "MDF_HealRatio": {
              "IsDynamic": true,
              "Expressions": [
                {
                  "Type": "DynamicNumber",
                  "DynamicHash": 1142900351
                }
              ]
            }
          }
        }
      ]
    },
    {
      "Name": "Monster_W2_BossPart_01_Skill01_Phase01",
      "TargetInfo": {
        "TargetType": "Caster"
      },
      "OnStart": [
        {
          "$type": "RPG.GameCore.TriggerAbility",
          "TargetType": {
            "$type": "RPG.GameCore.TargetAlias",
            "Alias": "Caster"
          },
          "AbilityName": "Monster_W2_BossPart_01_Skill01_Phase02",
          "IsSkillPerform": true
        },
        {
          "$type": "RPG.GameCore.TriggerAbility",
          "TargetType": {
            "$type": "RPG.GameCore.TargetAlias",
            "Alias": "Caster"
          },
          "AbilityName": "Monster_W2_BossPart_01_Skill01_Camera",
          "IsSkillPerform": true
        },
        {
          "$type": "RPG.GameCore.TriggerAnimState",
          "TargetType": {
            "$type": "RPG.GameCore.TargetAlias",
            "Alias": "Caster"
          },
          "AnimStateName": "Skill02",
          "NormalizedTimeEnd": {
            "IsDynamic": false,
            "FixedValue": {
              "Value": 1
            }
          }
        },
        {
          "$type": "RPG.GameCore.TriggerAnimState",
          "TargetType": {
            "$type": "RPG.GameCore.TargetAlias",
            "Alias": "Caster"
          },
          "AnimLogicState": "Idle"
        }
      ]
    },
    {
      "Name": "Monster_W2_BossPart_01_Skill01_Phase02",
      "TargetInfo": {
        "TargetType": "Caster"
      },
      "OnStart": [
        {
          "$type": "RPG.GameCore.SetTeamFormation",
          "Team": "TeamLight",
          "FormationType": "LightTeamNormal",
          "CustomCenterTargetType": {
            "$type": "RPG.GameCore.TargetAlias",
            "Alias": "None"
          },
          "CustomFormationIgnoreDying": false
        },
        {
          "$type": "RPG.GameCore.WaitAnimState",
          "TargetType": {
            "$type": "RPG.GameCore.TargetAlias",
            "Alias": "Caster"
          },
          "AnimStateName": "Skill02",
          "NormalizedTimeEnd": {
            "IsDynamic": false,
            "FixedValue": {
              "Value": 0.1500000001396984
            }
          }
        },
        {
          "$type": "RPG.GameCore.SkillExecutionStart"
        },
        {
          "$type": "RPG.GameCore.WaitAnimState",
          "TargetType": {
            "$type": "RPG.GameCore.TargetAlias",
            "Alias": "Caster"
          },
          "AnimStateName": "Skill02",
          "NormalizedTimeEnd": {
            "IsDynamic": false,
            "FixedValue": {
              "Value": 0.5000000004656613
            }
          }
        },
        {
          "$type": "RPG.GameCore.TriggerEffect",
          "TargetType": {
            "$type": "RPG.GameCore.TargetAlias",
            "Alias": "AllEnemy"
          },
          "EffectPath": "Effects/Eff_Prefab/Eff_Monster/Eff_W1_Svarog_00/Eff_W1_Svarog_00_Skill03_Teleport01.prefab"
        },
        {
          "$type": "RPG.GameCore.ModifyTeamBoostPoint",
          "ModifyFunction": "Add",
          "ModifyValue": {
            "IsDynamic": true,
            "Expressions": [
              {
                "Type": "FixedNumber",
                "FixedValue": {
                  "Value": 0
                }
              },
              {
                "Type": "DynamicNumber",
                "DynamicHash": -266899029
              },
              {
                "Type": "Sub"
              }
            ]
          }
        },
        {
          "$type": "RPG.GameCore.ShowEntityFloatMessage",
          "TargetType": {
            "$type": "RPG.GameCore.TargetAlias",
            "Alias": "AllEnemy"
          },
          "AliveOnly": true,
          "ContentID": {
            "Hash": 830018299
          }
        },
        {
          "$type": "RPG.GameCore.WaitAnimState",
          "AnimStateName": "Skill02",
          "NormalizedTimeEnd": {
            "IsDynamic": false,
            "FixedValue": {
              "Value": 1
            }
          }
        },
        {
          "$type": "RPG.GameCore.SkillPerformFinish"
        }
      ]
    },
    {
      "Name": "Monster_W2_BossPart_01_PassiveSkill_Insert_Phase01",
      "TargetInfo": {
        "TargetType": "AllEnemy"
      },
      "OnStart": [
        {
          "$type": "RPG.GameCore.SetTeamFormation",
          "Team": "TeamLight",
          "FormationType": "LightTeamNormal",
          "CustomCenterTargetType": {
            "$type": "RPG.GameCore.TargetAlias",
            "Alias": "None"
          },
          "CustomFormationIgnoreDying": false
        },
        {
          "$type": "RPG.GameCore.VCameraConfigChange",
          "CameraConfig": {
            "NormalConfig": {
              "CameraState": "CastAnimation",
              "AnchorTargetType": {
                "$type": "RPG.GameCore.TargetAlias",
                "Alias": "Caster"
              },
              "AnchorOffset": {
                "X": 0,
                "Y": 0.25,
                "Z": -5
              },
              "AimTargetType": {
                "$type": "RPG.GameCore.TargetAlias",
                "Alias": "Caster"
              },
              "AimOffset": {
                "X": 0,
                "Y": -0.25,
                "Z": 0
              }
            },
            "ShowEntityConfig": {
              "ShowTargetType": {
                "$type": "RPG.GameCore.TargetAlias",
                "Alias": "AllTeamMember"
              },
              "IsAliveOnly": false
            }
          }
        },
        {
          "$type": "RPG.GameCore.TriggerAnimStateWithMove",
          "TargetType": {
            "$type": "RPG.GameCore.TargetAlias",
            "Alias": "Caster"
          },
          "AnimStateName": "PassiveSkill01",
          "NormalizedTimeEnd": {
            "IsDynamic": false,
            "FixedValue": {
              "Value": 1
            }
          },
          "EventList": [
            {
              "NormalizedTime": {
                "IsDynamic": false,
                "FixedValue": {
                  "Value": 0.9000000008381903
                }
              },
              "TaskList": [
                {
                  "$type": "RPG.GameCore.SetEntityVisible",
                  "TargetType": {
                    "$type": "RPG.GameCore.TargetAlias",
                    "Alias": "Caster"
                  }
                }
              ]
            }
          ]
        },
        {
          "$type": "RPG.GameCore.WaitSecond",
          "WaitTime": 0.1
        },
        {
          "$type": "RPG.GameCore.VCameraConfigChange",
          "CameraConfig": {
            "NormalConfig": {
              "CameraState": "CasterToTargetPerform",
              "AnchorTargetType": {
                "$type": "RPG.GameCore.TargetAlias",
                "Alias": "DarkTeamEntity"
              },
              "IsLocalOffset": true,
              "AnchorOffset": {
                "X": -3.5,
                "Y": 1,
                "Z": 3.5
              },
              "AnchorRatio": 1,
              "AimTargetType": {
                "$type": "RPG.GameCore.TargetAlias",
                "Alias": "LightTeamEntity"
              },
              "AimOffset": {
                "X": 2.5,
                "Y": 1.5,
                "Z": 0
              },
              "FollowDamp": 0.01,
              "AimDamp": 0.01,
              "Dutch": 2,
              "ResetToDefault": false
            },
            "BlendConfig": {
              "BlendType": "Cut",
              "BlendTime": 0.013333
            }
          }
        },
        {
          "$type": "RPG.GameCore.ShowEntityFloatMessage",
          "TargetType": {
            "$type": "RPG.GameCore.TargetAlias",
            "Alias": "AllEnemy"
          },
          "AliveOnly": true,
          "ContentID": {
            "Hash": -1141152547
          }
        },
        {
          "$type": "RPG.GameCore.ModifyTeamBoostPoint",
          "ModifyFunction": "Add",
          "ModifyValue": {
            "IsDynamic": true,
            "Expressions": [
              {
                "Type": "DynamicNumber",
                "DynamicHash": 1450547785
              }
            ]
          }
        },
        {
          "$type": "RPG.GameCore.TriggerEffect",
          "TargetType": {
            "$type": "RPG.GameCore.TargetAlias",
            "Alias": "AllEnemy"
          },
          "AliveOnly": true,
          "EffectPath": "Effects/Eff_Prefab/Eff_Common/Eff_Buff_Common_Rogue_OtherRise_Trigger.prefab"
        },
        {
          "$type": "RPG.GameCore.WaitSecond",
          "WaitTime": 1
        }
      ]
    }
  ],
  "GlobalModifiers": {
    "Monster_W2_BossPart_01_Heal": {
      "LifeStepMoment": "ModifierPhase1End",
      "PerformTime": {
        "IsDynamic": false,
        "FixedValue": {
          "Value": 0.3000000002793968
        }
      },
      "OnPhase1": [
        {
          "$type": "RPG.GameCore.PredicateTaskList",
          "Predicate": {
            "$type": "RPG.GameCore.ByContainBehaviorFlag",
            "TargetType": {
              "$type": "RPG.GameCore.TargetAlias",
              "Alias": "ModifierOwnerEntity"
            },
            "Flag": "STAT_CTRL"
          },
          "SuccessTaskList": [],
          "FailedTaskList": [
            {
              "$type": "RPG.GameCore.TriggerEffect",
              "TargetType": {
                "$type": "RPG.GameCore.TargetAlias",
                "Alias": "ModifierOwnerEntity"
              },
              "EffectPath": "Effects/Eff_Prefab/Eff_Common/Eff_Common_Heal.prefab"
            },
            {
              "$type": "RPG.GameCore.HealHP",
              "TargetType": {
                "$type": "RPG.GameCore.TargetAlias",
                "Alias": "ModifierOwnerEntity"
              },
              "FormulaType": "HealByHealerMaxHP",
              "HealPercentage": {
                "IsDynamic": true,
                "Expressions": [
                  {
                    "Type": "DynamicNumber",
                    "DynamicHash": -2118159447
                  }
                ]
              }
            }
          ]
        }
      ],
      "DynamicValues": {
        "Values": {
          "-2118159447": {}
        }
      }
    }
  }
}