{
  "OnInitSequece": [],
  "OnStartSequece": [
    {
      "TaskList": [
        {
          "$type": "RPG.GameCore.LevelPerformanceInitialize",
          "PerformanceType": "D",
          "LockCamera": false,
          "CreateCharacterList": [],
          "EntityVisiableList": [],
          "StreamingCentersInBlackMask": [],
          "StreamingCentersAfterBlackMask": []
        },
        {
          "$type": "RPG.GameCore.PerformanceTransition",
          "CreateNpcList": [
            {
              "GroupID": {
                "IsDynamic": false,
                "FixedValue": {
                  "Value": 41
                }
              },
              "GroupNpcID": {
                "IsDynamic": false,
                "FixedValue": {
                  "Value": 400001
                }
              },
              "CreateList": []
            },
            {
              "GroupID": {
                "IsDynamic": false,
                "FixedValue": {
                  "Value": 41
                }
              },
              "GroupNpcID": {
                "IsDynamic": false,
                "FixedValue": {
                  "Value": 400002
                }
              },
              "CreateList": []
            }
          ],
          "CaptureNpcList": [
            {
              "GroupID": {
                "IsDynamic": false,
                "FixedValue": {
                  "Value": 41
                }
              },
              "GroupNpcID": {
                "IsDynamic": false,
                "FixedValue": {
                  "Value": 400001
                }
              },
              "CharacterUniqueName": {
                "Value": "1011110104_Serval"
              }
            },
            {
              "GroupID": {
                "IsDynamic": false,
                "FixedValue": {
                  "Value": 41
                }
              },
              "GroupNpcID": {
                "IsDynamic": false,
                "FixedValue": {
                  "Value": 400002
                }
              },
              "CharacterUniqueName": {
                "Value": "1011110104_Seele"
              }
            }
          ],
          "DestroyNpcList": [],
          "ActiveVirtualCamera": {
            "AreaName": "Mission_1011101_temp",
            "AnchorName": "Camera_101110104"
          },
          "SwitchCharacterAnchor": {
            "IsLocalPlayer": true,
            "CharacterUniqueName": "LocalPlayer",
            "AreaName": {
              "Value": "LevelArea_P20131_F20131001_G41"
            },
            "AnchorName": {
              "Value": "Anchor1"
            }
          }
        },
        {
          "$type": "RPG.GameCore.CharacterTriggerFreeStyle",
          "CharacterUniqueName": "1011110104_Serval",
          "StoryAvatarID": "NPC_Avatar_Lady_Serval_00",
          "StartMotion": "HoldArm01BS",
          "StoryMotionID": 1103050
        },
        {
          "$type": "RPG.GameCore.PlaySimpleTalk",
          "SimpleTalkList": [
            {
              "TalkSentenceID": 201310501,
              "ProtectTime": 0.3
            }
          ]
        },
        {
          "$type": "RPG.GameCore.WaitSimpleTalkFinish"
        },
        {
          "$type": "RPG.GameCore.PlayOptionTalk",
          "OptionList": [
            {
              "TalkSentenceID": 201310502,
              "OptionIconType": "ChatContinueIcon",
              "TriggerCustomString": "TalkSentence_201310502"
            },
            {
              "TalkSentenceID": 201310504,
              "OptionIconType": "ChatContinueIcon",
              "TriggerCustomString": "TalkSentence_201310504"
            },
            {
              "TalkSentenceID": 201310506,
              "OptionIconType": "ChatContinueIcon",
              "TriggerCustomString": "TalkSentence_201310506"
            }
          ]
        }
      ]
    },
    {
      "TaskList": [
        {
          "$type": "RPG.GameCore.WaitCustomString",
          "CustomString": {
            "Value": "TalkSentence_201310502"
          }
        },
        {
          "$type": "RPG.GameCore.CharacterTriggerFreeStyle",
          "CharacterUniqueName": "1011110104_Serval",
          "StoryAvatarID": "NPC_Avatar_Lady_Serval_00",
          "StartMotion": "HoldArm01HandBS",
          "StoryMotionID": 1103053
        },
        {
          "$type": "RPG.GameCore.PlaySimpleTalk",
          "SimpleTalkList": [
            {
              "TalkSentenceID": 201310503,
              "ProtectTime": 0.3
            }
          ]
        },
        {
          "$type": "RPG.GameCore.WaitSimpleTalkFinish"
        },
        {
          "$type": "RPG.GameCore.CharacterTriggerFreeStyle",
          "CharacterUniqueName": "1011110104_Serval",
          "StoryAvatarID": "NPC_Avatar_Lady_Serval_00",
          "StartMotion": "HoldArm01HandAS",
          "StoryMotionID": 1103055
        },
        {
          "$type": "RPG.GameCore.TriggerCustomString",
          "CustomString": {
            "Value": "101110104_01end"
          }
        }
      ]
    },
    {
      "TaskList": [
        {
          "$type": "RPG.GameCore.WaitCustomString",
          "CustomString": {
            "Value": "TalkSentence_201310504"
          }
        },
        {
          "$type": "RPG.GameCore.CharacterTriggerFreeStyle",
          "CharacterUniqueName": "1011110104_Serval",
          "StoryAvatarID": "NPC_Avatar_Lady_Serval_00",
          "StartMotion": "HoldArm01HandBS",
          "StoryMotionID": 1103053
        },
        {
          "$type": "RPG.GameCore.PlaySimpleTalk",
          "SimpleTalkList": [
            {
              "TalkSentenceID": 201310505,
              "ProtectTime": 0.3
            }
          ]
        },
        {
          "$type": "RPG.GameCore.WaitSimpleTalkFinish"
        },
        {
          "$type": "RPG.GameCore.CharacterTriggerFreeStyle",
          "CharacterUniqueName": "1011110104_Serval",
          "StoryAvatarID": "NPC_Avatar_Lady_Serval_00",
          "StartMotion": "HoldArm01HandAS",
          "StoryMotionID": 1103055
        },
        {
          "$type": "RPG.GameCore.TriggerCustomString",
          "CustomString": {
            "Value": "101110104_01end"
          }
        }
      ]
    },
    {
      "TaskList": [
        {
          "$type": "RPG.GameCore.WaitCustomString",
          "CustomString": {
            "Value": "TalkSentence_201310506"
          }
        },
        {
          "$type": "RPG.GameCore.CharacterTriggerFreeStyle",
          "CharacterUniqueName": "1011110104_Serval",
          "StoryAvatarID": "NPC_Avatar_Lady_Serval_00",
          "StartMotion": "HoldArm01HandBS",
          "StoryMotionID": 1103053
        },
        {
          "$type": "RPG.GameCore.PlaySimpleTalk",
          "SimpleTalkList": [
            {
              "TalkSentenceID": 201310507,
              "ProtectTime": 0.3
            }
          ]
        },
        {
          "$type": "RPG.GameCore.WaitSimpleTalkFinish"
        },
        {
          "$type": "RPG.GameCore.CharacterTriggerFreeStyle",
          "CharacterUniqueName": "1011110104_Serval",
          "StoryAvatarID": "NPC_Avatar_Lady_Serval_00",
          "StartMotion": "HoldArm01HandAS",
          "StoryMotionID": 1103055
        },
        {
          "$type": "RPG.GameCore.PlaySimpleTalk",
          "SimpleTalkList": [
            {
              "TalkSentenceID": 201310508,
              "ProtectTime": 0.3
            }
          ]
        },
        {
          "$type": "RPG.GameCore.WaitSimpleTalkFinish"
        },
        {
          "$type": "RPG.GameCore.TriggerCustomString",
          "CustomString": {
            "Value": "101110104_01end"
          }
        }
      ]
    },
    {
      "TaskList": [
        {
          "$type": "RPG.GameCore.WaitCustomString",
          "CustomString": {
            "Value": "101110104_01end"
          }
        },
        {
          "$type": "RPG.GameCore.PlaySimpleTalk",
          "SimpleTalkList": [
            {
              "TalkSentenceID": 201310509,
              "ProtectTime": 0.3
            },
            {
              "TalkSentenceID": 201310510,
              "ProtectTime": 0.3
            }
          ]
        },
        {
          "$type": "RPG.GameCore.AdvNpcFaceToPlayer",
          "GroupID": 41,
          "GroupNpcID": 400001,
          "FinishImmadiate": true
        },
        {
          "$type": "RPG.GameCore.WaitSimpleTalkFinish"
        },
        {
          "$type": "RPG.GameCore.PlayOptionTalk",
          "OptionList": [
            {
              "TalkSentenceID": 201310511,
              "OptionIconType": "ChatContinueIcon",
              "TriggerCustomString": "TalkSentence_201310511"
            },
            {
              "TalkSentenceID": 201310512,
              "OptionIconType": "ChatContinueIcon",
              "TriggerCustomString": "TalkSentence_201310511"
            },
            {
              "TalkSentenceID": 201310513,
              "OptionIconType": "ChatContinueIcon",
              "TriggerCustomString": "TalkSentence_201310511"
            }
          ]
        }
      ]
    },
    {
      "TaskList": [
        {
          "$type": "RPG.GameCore.WaitCustomString",
          "CustomString": {
            "Value": "TalkSentence_201310511"
          }
        },
        {
          "$type": "RPG.GameCore.CharacterTriggerFreeStyle",
          "CharacterUniqueName": "1011110104_Seele",
          "StoryAvatarID": "NPC_Avatar_Maid_Seele_00",
          "StartMotion": "Think01BS",
          "StoryMotionID": 1102041
        },
        {
          "$type": "RPG.GameCore.PlaySimpleTalk",
          "SimpleTalkList": [
            {
              "TalkSentenceID": 201310514,
              "ProtectTime": 0.3
            },
            {
              "TalkSentenceID": 201310515,
              "ProtectTime": 0.3
            }
          ]
        },
        {
          "$type": "RPG.GameCore.WaitSimpleTalkFinish"
        },
        {
          "$type": "RPG.GameCore.CharacterTriggerFreeStyle",
          "CharacterUniqueName": "1011110104_Serval",
          "StoryAvatarID": "NPC_Avatar_Lady_Serval_00",
          "StartMotion": "Talk01",
          "StoryMotionID": 1103020
        },
        {
          "$type": "RPG.GameCore.PlaySimpleTalk",
          "SimpleTalkList": [
            {
              "TalkSentenceID": 201310516,
              "ProtectTime": 0.3
            }
          ]
        },
        {
          "$type": "RPG.GameCore.WaitSimpleTalkFinish"
        },
        {
          "$type": "RPG.GameCore.PlaySimpleTalk",
          "SimpleTalkList": [
            {
              "TalkSentenceID": 201310517,
              "ProtectTime": 0.3
            }
          ]
        },
        {
          "$type": "RPG.GameCore.WaitSimpleTalkFinish"
        },
        {
          "$type": "RPG.GameCore.PerformanceTransition",
          "CreateNpcList": [],
          "CaptureNpcList": [],
          "DestroyNpcList": [
            {
              "GroupID": 41,
              "GroupNpcID": 400001,
              "DestroyList": []
            },
            {
              "GroupID": 41,
              "GroupNpcID": 400002,
              "DestroyList": []
            }
          ],
          "ActiveVirtualCamera": {
            "AreaName": "Mission_1011101_temp",
            "AnchorName": "Camera_101110104",
            "IsActive": false
          },
          "SwitchCharacterAnchor": {
            "TaskEnabled": false
          }
        },
        {
          "$type": "RPG.GameCore.EndPerformance"
        }
      ]
    },
    {
      "TaskList": [
        {
          "$type": "RPG.GameCore.WaitPerformanceEnd"
        },
        {
          "$type": "RPG.GameCore.FinishLevelGraph"
        }
      ]
    }
  ]
}