{
  "OnInitSequece": [],
  "OnStartSequece": [
    {
      "TaskList": [
        {
          "$type": "RPG.GameCore.LevelPerformanceInitialize",
          "PerformanceType": "E",
          "HideMunicipalCrowd": false,
          "HideMunicipalPedestrian": false
        },
        {
          "$type": "RPG.GameCore.AdvNpcFaceToPlayer",
          "FinishImmadiate": true
        },
        {
          "$type": "RPG.GameCore.PlaySimpleTalk",
          "SimpleTalkList": [
            {
              "TalkSentenceID": 404015138,
              "ProtectTime": 0.3
            },
            {
              "TalkSentenceID": 404015139,
              "ProtectTime": 0.3
            },
            {
              "TalkSentenceID": 404015140,
              "ProtectTime": 0.3
            },
            {
              "TalkSentenceID": 404015141,
              "ProtectTime": 0.3
            }
          ]
        },
        {
          "$type": "RPG.GameCore.WaitSimpleTalkFinish"
        },
        {
          "$type": "RPG.GameCore.ConsumeMissionItemPerformance",
          "SubMissionID": 404018801,
          "Desc": {
            "Hash": 278713946
          },
          "OnSubmitConfirm": [
            {
              "$type": "RPG.GameCore.TriggerCustomStringOnDialogEnd",
              "CustomString": {
                "Value": "Talk_404018801"
              }
            },
            {
              "$type": "RPG.GameCore.EndPerformance"
            }
          ],
          "OnSubmitCancel": [
            {
              "$type": "RPG.GameCore.EndPerformance"
            }
          ]
        }
      ]
    },
    {
      "TaskList": [
        {
          "$type": "RPG.GameCore.WaitPerformanceEnd"
        },
        {
          "$type": "RPG.GameCore.FinishLevelGraph"
        }
      ]
    }
  ]
}