{
  "OnInitSequece": [],
  "OnStartSequece": [
    {
      "TaskList": [
        {
          "$type": "RPG.GameCore.ShowFuncBtn",
          "PuzzleFunc": "Identify",
          "CDDuration": 1,
          "CustomString": {
            "Value": "PhotoGraph4040126"
          }
        }
      ]
    },
    {
      "IsLoop": true,
      "TaskList": [
        {
          "$type": "RPG.GameCore.WaitCustomString",
          "CustomString": {
            "Value": "PhotoGraph4040126"
          }
        },
        {
          "$type": "RPG.GameCore.SwitchPhotoGraphMode",
          "PhotoGraphMode": "Identify"
        }
      ]
    },
    {
      "TaskList": [
        {
          "$type": "RPG.GameCore.PhotoGraphAimTarget",
          "AimTargetType": {
            "$type": "RPG.GameCore.TargetConcat",
            "Targets": [
              {
                "$type": "RPG.GameCore.TargetFetchAdvProp",
                "MultiGroupFetch": [
                  {
                    "GroupID": {
                      "IsDynamic": false,
                      "FixedValue": {
                        "Value": 35
                      }
                    },
                    "ID": {
                      "IsDynamic": false,
                      "FixedValue": {
                        "Value": 300001
                      }
                    }
                  }
                ]
              }
            ]
          },
          "IsAim": true,
          "AimIdentifyType": "Manual"
        },
        {
          "$type": "RPG.GameCore.PhotoGraphWaitIdentifyFinish",
          "WaitTargetType": {
            "$type": "RPG.GameCore.TargetConcat",
            "Targets": [
              {
                "$type": "RPG.GameCore.TargetFetchAdvProp",
                "MultiGroupFetch": [
                  {
                    "GroupID": {
                      "IsDynamic": false,
                      "FixedValue": {
                        "Value": 35
                      }
                    },
                    "ID": {
                      "IsDynamic": false,
                      "FixedValue": {
                        "Value": 300001
                      }
                    }
                  }
                ]
              }
            ]
          },
          "WaitAll": true,
          "OnIdentifyFailed": [
            {
              "$type": "RPG.GameCore.PhotoGraphAimTarget",
              "AimTargetType": {
                "$type": "RPG.GameCore.TargetConcat",
                "Targets": [
                  {
                    "$type": "RPG.GameCore.TargetFetchAdvProp",
                    "MultiGroupFetch": [
                      {
                        "GroupID": {
                          "IsDynamic": false,
                          "FixedValue": {
                            "Value": 35
                          }
                        },
                        "ID": {
                          "IsDynamic": false,
                          "FixedValue": {
                            "Value": 300001
                          }
                        }
                      }
                    ]
                  }
                ]
              }
            },
            {
              "$type": "RPG.GameCore.SwitchPhotoGraphMode"
            },
            {
              "$type": "RPG.GameCore.TriggerCustomString",
              "CustomString": {
                "Value": "Talk_404012603_Fa"
              }
            }
          ],
          "OnPreviewFinish": [
            {
              "$type": "RPG.GameCore.PhotoGraphAimTarget",
              "AimTargetType": {
                "$type": "RPG.GameCore.TargetConcat",
                "Targets": [
                  {
                    "$type": "RPG.GameCore.TargetFetchAdvProp",
                    "MultiGroupFetch": [
                      {
                        "GroupID": {
                          "IsDynamic": false,
                          "FixedValue": {
                            "Value": 35
                          }
                        },
                        "ID": {
                          "IsDynamic": false,
                          "FixedValue": {
                            "Value": 300001
                          }
                        }
                      }
                    ]
                  }
                ]
              }
            },
            {
              "$type": "RPG.GameCore.SwitchPhotoGraphMode"
            },
            {
              "$type": "RPG.GameCore.TriggerCustomString",
              "CustomString": {
                "Value": "Talk_404012603"
              }
            }
          ]
        }
      ]
    },
    {
      "IsLoop": true,
      "Order": 1,
      "TaskList": [
        {
          "$type": "RPG.GameCore.WaitCustomString",
          "CustomString": {
            "Value": "Talk_404012603_Fa"
          }
        },
        {
          "$type": "RPG.GameCore.TriggerCustomString",
          "CustomString": {
            "Value": "Talk_404012606"
          }
        },
        {
          "$type": "RPG.GameCore.FinishPerformanceMission",
          "Key": "Mission_404012603"
        }
      ]
    },
    {
      "TaskList": [
        {
          "$type": "RPG.GameCore.WaitCustomString",
          "CustomString": {
            "Value": "Talk_404012603"
          }
        },
        {
          "$type": "RPG.GameCore.TriggerCustomString",
          "CustomString": {
            "Value": "Talk_404012605"
          }
        },
        {
          "$type": "RPG.GameCore.FinishPerformanceMission",
          "Key": "Mission_404012603"
        }
      ]
    }
  ]
}