{
  "MainMissionID": 1011501,
  "StartSubMissionList": [
    101150101,
    101150129
  ],
  "FinishSubMissionList": [
    101150128
  ],
  "SubMissionList": [
    {
      "MainMissionID": 1011501,
      "MissionJsonPath": "Config/Level/Mission/1011501/Mission_101150101.json",
      "CustomValueReward": [],
      "TakeType": "Auto",
      "TakeParamIntList": [],
      "ID": 101150101,
      "FinishType": "Talk",
      "ParamType": "Equal",
      "ParamStr1": "Mission_101150101",
      "ParamItemList": [],
      "Progress": 1
    },
    {
      "MainMissionID": 1011501,
      "MissionJsonPath": "Config/Level/Mission/1011501/Mission_101150102.json",
      "CustomValueReward": [],
      "TakeType": "CustomValue",
      "TakeParamIntList": [
        0,
        1
      ],
      "ID": 101150102,
      "FinishType": "Talk",
      "ParamType": "Equal",
      "ParamStr1": "Mission_101150102",
      "ParamItemList": [],
      "Progress": 1
    },
    {
      "MainMissionID": 1011501,
      "MissionJsonPath": "Config/Level/Mission/1011501/Mission_101150103.json",
      "CustomValueReward": [],
      "TakeType": "CustomValue",
      "TakeParamIntList": [
        0,
        2
      ],
      "ID": 101150103,
      "FinishType": "Talk",
      "ParamType": "Equal",
      "ParamStr1": "Mission_101150103",
      "ParamItemList": [],
      "Progress": 1
    },
    {
      "MainMissionID": 1011501,
      "MissionJsonPath": "Config/Level/Mission/1011501/Mission_101150104.json",
      "CustomValueReward": [],
      "TakeType": "CustomValue",
      "TakeParamIntList": [
        0,
        3
      ],
      "ID": 101150104,
      "FinishType": "Talk",
      "ParamType": "Equal",
      "ParamStr1": "Mission_101150104",
      "ParamItemList": [],
      "Progress": 1
    },
    {
      "MainMissionID": 1011501,
      "TakeType": "AnySequence",
      "TakeParamIntList": [
        101150102
      ],
      "ID": 101150105,
      "FinishType": "SubMissionFinishCnt",
      "ParamType": "ListContain",
      "ParamIntList": [
        101150108
      ],
      "ParamItemList": [],
      "Progress": 1
    },
    {
      "MainMissionID": 1011501,
      "MissionJsonPath": "Config/Level/Mission/1011501/Mission_101150106.json",
      "TakeType": "AnySequence",
      "TakeParamIntList": [
        101150103
      ],
      "ID": 101150106,
      "FinishType": "Talk",
      "ParamType": "Equal",
      "ParamStr1": "Mission_101150106",
      "ParamItemList": [],
      "Progress": 1
    },
    {
      "MainMissionID": 1011501,
      "TakeType": "AnySequence",
      "TakeParamIntList": [
        101150104
      ],
      "ID": 101150107,
      "FinishType": "SubMissionFinishCnt",
      "ParamType": "ListContain",
      "ParamIntList": [
        101150110
      ],
      "ParamItemList": [],
      "Progress": 1
    },
    {
      "MainMissionID": 1011501,
      "MissionJsonPath": "Config/Level/Mission/1011501/Mission_101150108.json",
      "TakeType": "AnySequence",
      "TakeParamIntList": [
        101150101
      ],
      "ID": 101150108,
      "FinishType": "Talk",
      "ParamType": "Equal",
      "ParamStr1": "Mission_101150108",
      "ParamItemList": [],
      "Progress": 1
    },
    {
      "MainMissionID": 1011501,
      "MissionJsonPath": "Config/Level/Mission/1011501/Mission_101150109.json",
      "TakeType": "AnySequence",
      "TakeParamIntList": [
        101150101
      ],
      "ID": 101150109,
      "FinishType": "Talk",
      "ParamType": "Equal",
      "ParamStr1": "Mission_101150109",
      "ParamItemList": [],
      "Progress": 1
    },
    {
      "MainMissionID": 1011501,
      "MissionJsonPath": "Config/Level/Mission/1011501/Mission_101150110.json",
      "TakeType": "AnySequence",
      "TakeParamIntList": [
        101150101
      ],
      "ID": 101150110,
      "FinishType": "Talk",
      "ParamType": "Equal",
      "ParamStr1": "Mission_101150110",
      "ParamItemList": [],
      "Progress": 1
    },
    {
      "MainMissionID": 1011501,
      "MissionJsonPath": "Config/Level/Mission/1011501/Mission_101150111.json",
      "TakeType": "AnySequence",
      "TakeParamIntList": [
        101150114,
        101150126,
        101150127
      ],
      "ID": 101150111,
      "FinishType": "Talk",
      "ParamType": "Equal",
      "ParamStr1": "Mission_101150111",
      "ParamItemList": [],
      "Progress": 1
    },
    {
      "MainMissionID": 1011501,
      "TakeType": "AnySequence",
      "TakeParamIntList": [
        101150101
      ],
      "ID": 101150112,
      "FinishType": "SubMissionFinishCnt",
      "ParamType": "ListContain",
      "ParamIntList": [
        101150105,
        101150107,
        101150124
      ],
      "ParamItemList": [],
      "Progress": 1
    },
    {
      "MainMissionID": 1011501,
      "TakeType": "Auto",
      "ID": 101150113,
      "FinishType": "MessageSectionFinish",
      "ParamType": "Equal",
      "ParamInt1": 1110900,
      "ParamItemList": [],
      "Progress": 1
    },
    {
      "MainMissionID": 1011501,
      "MissionJsonPath": "Config/Level/Mission/1011501/Mission_101150114.json",
      "TakeType": "MultiSequence",
      "TakeParamIntList": [
        101150112,
        101150102
      ],
      "ID": 101150114,
      "FinishType": "MessagePerformSectionFinish",
      "ParamType": "Equal",
      "ParamInt1": 1110900,
      "ParamItemList": [],
      "Progress": 1
    },
    {
      "MainMissionID": 1011501,
      "MissionJsonPath": "Config/Level/Mission/1011501/Mission_101150115.json",
      "TakeType": "AnySequence",
      "TakeParamIntList": [
        101150111
      ],
      "ID": 101150115,
      "FinishType": "Talk",
      "ParamType": "Equal",
      "ParamStr1": "Mission_101150115",
      "ParamItemList": [],
      "Progress": 1
    },
    {
      "MainMissionID": 1011501,
      "MissionJsonPath": "Config/Level/Mission/1011501/Mission_101150116.json",
      "TakeType": "AnySequence",
      "TakeParamIntList": [
        101150115
      ],
      "ID": 101150116,
      "FinishType": "Talk",
      "ParamType": "Equal",
      "ParamStr1": "Mission_101150116",
      "ParamItemList": [],
      "Progress": 1
    },
    {
      "MainMissionID": 1011501,
      "MissionJsonPath": "Config/Level/Mission/1011501/Mission_101150117.json",
      "TakeType": "AnySequence",
      "TakeParamIntList": [
        101150116
      ],
      "ID": 101150117,
      "FinishType": "Talk",
      "ParamType": "Equal",
      "ParamStr1": "Mission_101150117",
      "ParamItemList": [],
      "Progress": 1
    },
    {
      "MainMissionID": 1011501,
      "MissionJsonPath": "Config/Level/Mission/1011501/Mission_101150118.json",
      "TakeType": "AnySequence",
      "TakeParamIntList": [
        101150117
      ],
      "ID": 101150118,
      "FinishType": "MessagePerformSectionFinish",
      "ParamType": "Equal",
      "ParamInt1": 1111000,
      "ParamItemList": [],
      "Progress": 1
    },
    {
      "MainMissionID": 1011501,
      "MissionJsonPath": "Config/Level/Mission/1011501/Mission_101150123.json",
      "TakeType": "AnySequence",
      "TakeParamIntList": [
        101150106
      ],
      "ID": 101150123,
      "FinishType": "Talk",
      "ParamType": "Equal",
      "ParamStr1": "Mission_101150123",
      "ParamItemList": [],
      "Progress": 1
    },
    {
      "MainMissionID": 1011501,
      "MissionJsonPath": "Config/Level/Mission/1011501/Mission_101150124.json",
      "TakeType": "AnySequence",
      "TakeParamIntList": [
        101150125
      ],
      "ID": 101150124,
      "FinishType": "Talk",
      "ParamType": "Equal",
      "ParamStr1": "Mission_101150124",
      "ParamItemList": [],
      "Progress": 1
    },
    {
      "MainMissionID": 1011501,
      "TakeType": "AnySequence",
      "TakeParamIntList": [
        101150123
      ],
      "ID": 101150125,
      "FinishType": "SubMissionFinishCnt",
      "ParamType": "ListContain",
      "ParamIntList": [
        101150109
      ],
      "ParamItemList": [],
      "Progress": 1
    },
    {
      "MainMissionID": 1011501,
      "MissionJsonPath": "Config/Level/Mission/1011501/Mission_101150126.json",
      "TakeType": "MultiSequence",
      "TakeParamIntList": [
        101150112,
        101150103
      ],
      "ID": 101150126,
      "FinishType": "MessagePerformSectionFinish",
      "ParamType": "Equal",
      "ParamInt1": 1110900,
      "ParamItemList": [],
      "Progress": 1
    },
    {
      "MainMissionID": 1011501,
      "MissionJsonPath": "Config/Level/Mission/1011501/Mission_101150127.json",
      "TakeType": "MultiSequence",
      "TakeParamIntList": [
        101150112,
        101150104
      ],
      "ID": 101150127,
      "FinishType": "MessagePerformSectionFinish",
      "ParamType": "Equal",
      "ParamInt1": 1110900,
      "ParamItemList": [],
      "Progress": 1
    },
    {
      "MainMissionID": 1011501,
      "MissionJsonPath": "Config/Level/Mission/1011501/Mission_101150128.json",
      "TakeType": "AnySequence",
      "TakeParamIntList": [
        101150118
      ],
      "ID": 101150128,
      "FinishType": "Talk",
      "ParamType": "Equal",
      "ParamStr1": "Mission_101150128",
      "ParamItemList": [],
      "Progress": 1
    },
    {
      "MainMissionID": 1011501,
      "MissionJsonPath": "Config/Level/Mission/1011501/Mission_101150129.json",
      "CustomValueReward": [],
      "TakeType": "Auto",
      "TakeParamIntList": [],
      "ID": 101150129,
      "FinishType": "EnterFloor",
      "ParamType": "Equal",
      "ParamInt1": 10102,
      "ParamInt2": 10102001,
      "Progress": 1
    }
  ],
  "MissionCustomValueList": [
    {
      "ValidValueParamList": [
        1,
        2,
        3
      ]
    }
  ]
}