{
  "ModifierMap": {
    "ADV_ItemAbility_400004": {
      "OnCreate": [
        {
          "$type": "RPG.GameCore.AdventureModifyTeamPlayerHP",
          "AddRatio": {
            "IsDynamic": false,
            "FixedValue": {
              "Value": 0.1500000001396984
            }
          },
          "ModifyValue": {
            "IsDynamic": false,
            "FixedValue": {
              "Value": 150
            }
          },
          "SpecifyTargetType": {
            "$type": "RPG.GameCore.TargetAlias",
            "Alias": "ModifierOwnerEntity"
          }
        },
        {
          "$type": "RPG.GameCore.RemoveSelfModifier"
        }
      ],
      "Stacking": "Replace"
    },
    "ADV_ItemAbility_400005": {
      "OnCreate": [
        {
          "$type": "RPG.GameCore.AdventureModifyMazeMP",
          "ModifyFunction": "Add",
          "ModifyValue": {
            "IsDynamic": false,
            "FixedValue": {
              "Value": 2
            }
          }
        },
        {
          "$type": "RPG.GameCore.RemoveSelfModifier"
        }
      ],
      "Stacking": "Replace"
    },
    "ADV_ItemAbility_400006": {
      "OnCreate": [
        {
          "$type": "RPG.GameCore.AdventureModifyMazeMP",
          "ModifyFunction": "Add",
          "ModifyValue": {
            "IsDynamic": false,
            "FixedValue": {
              "Value": 2
            }
          }
        },
        {
          "$type": "RPG.GameCore.RemoveSelfModifier"
        }
      ],
      "Stacking": "Replace"
    },
    "ADV_ItemAbility_400007": {
      "OnCreate": [
        {
          "$type": "RPG.GameCore.AdventureRevivePlayer",
          "RevivedHPRatio": {
            "IsDynamic": false,
            "FixedValue": {
              "Value": 0.05000000004656613
            }
          },
          "SpecifyTargetType": {
            "$type": "RPG.GameCore.TargetAlias",
            "Alias": "ModifierOwnerEntity"
          }
        },
        {
          "$type": "RPG.GameCore.RemoveSelfModifier"
        }
      ],
      "Stacking": "Replace"
    },
    "ADV_ItemAbility_401003": {
      "OnCreate": [
        {
          "$type": "RPG.GameCore.AdventureModifyTeamPlayerHP",
          "AddRatio": {
            "IsDynamic": false,
            "FixedValue": {
              "Value": 0.24000000022351742
            }
          },
          "ModifyValue": {
            "IsDynamic": false,
            "FixedValue": {
              "Value": 300
            }
          },
          "SpecifyTargetType": {
            "$type": "RPG.GameCore.TargetAlias",
            "Alias": "ModifierOwnerEntity"
          }
        },
        {
          "$type": "RPG.GameCore.RemoveSelfModifier"
        }
      ],
      "Stacking": "Replace"
    },
    "ADV_ItemAbility_401004": {
      "LifeTime": 900,
      "Count": 1,
      "Stacking": "Replace"
    },
    "ADV_ItemAbility_401005": {
      "OnCreate": [
        {
          "$type": "RPG.GameCore.AdventureModifyMazeMP",
          "ModifyFunction": "Add",
          "ModifyValue": {
            "IsDynamic": false,
            "FixedValue": {
              "Value": 4
            }
          }
        },
        {
          "$type": "RPG.GameCore.AdventureModifyTeamPlayerHP",
          "AddRatio": {
            "IsDynamic": false,
            "FixedValue": {
              "Value": -0.1500000001396984
            }
          },
          "MinRatio": {
            "IsDynamic": false,
            "FixedValue": {
              "Value": 0.0009999999310821295
            }
          },
          "SpecifyTargetType": {
            "$type": "RPG.GameCore.TargetAlias",
            "Alias": "AllLightTeam"
          }
        },
        {
          "$type": "RPG.GameCore.RemoveSelfModifier"
        }
      ],
      "Stacking": "Replace"
    },
    "ADV_ItemAbility_401006": {
      "OnCreate": [
        {
          "$type": "RPG.GameCore.AdventureModifyTeamPlayerSP",
          "AddRatio": {
            "IsDynamic": false,
            "FixedValue": {
              "Value": 0.3000000002793968
            }
          },
          "SpecifyTargetType": {
            "$type": "RPG.GameCore.TargetAlias",
            "Alias": "ModifierOwnerEntity"
          }
        },
        {
          "$type": "RPG.GameCore.RemoveSelfModifier"
        }
      ],
      "Stacking": "Replace"
    },
    "ADV_ItemAbility_401007": {
      "OnCreate": [
        {
          "$type": "RPG.GameCore.AdventureRevivePlayer",
          "RevivedHPRatio": {
            "IsDynamic": false,
            "FixedValue": {
              "Value": 0.10000000009313226
            }
          },
          "SpecifyTargetType": {
            "$type": "RPG.GameCore.TargetAlias",
            "Alias": "ModifierOwnerEntity"
          }
        },
        {
          "$type": "RPG.GameCore.RemoveSelfModifier"
        }
      ],
      "Stacking": "Replace"
    },
    "ADV_ItemAbility_401008": {
      "LifeTime": 900,
      "Count": 1,
      "Stacking": "Replace"
    },
    "ADV_ItemAbility_401009": {
      "LifeTime": 900,
      "Count": 1,
      "Stacking": "Replace"
    },
    "ADV_ItemAbility_401010": {
      "LifeTime": 900,
      "Count": 1,
      "Stacking": "Replace"
    },
    "ADV_ItemAbility_401011": {
      "LifeTime": 75,
      "OnStack": [
        {
          "$type": "RPG.GameCore.AdventureStackProperty",
          "TargetType": {
            "$type": "RPG.GameCore.TargetAlias",
            "Alias": "ModifierOwnerEntity"
          },
          "Property": "AlertDecSpeedRatio",
          "PropertyValue": {
            "IsDynamic": false,
            "FixedValue": {
              "Value": -0.9000000008381903
            }
          }
        }
      ],
      "Stacking": "Replace"
    },
    "ADV_ItemAbility_401012": {
      "OnCreate": [
        {
          "$type": "RPG.GameCore.AdventureModifyTeamPlayerHP",
          "AddRatio": {
            "IsDynamic": false,
            "FixedValue": {
              "Value": 0.2800000002607703
            }
          },
          "ModifyValue": {
            "IsDynamic": false,
            "FixedValue": {
              "Value": 250
            }
          },
          "SpecifyTargetType": {
            "$type": "RPG.GameCore.TargetAlias",
            "Alias": "ModifierOwnerEntity"
          }
        },
        {
          "$type": "RPG.GameCore.RemoveSelfModifier"
        }
      ],
      "Stacking": "Replace"
    },
    "ADV_ItemAbility_401013": {
      "LifeTime": 900,
      "Count": 1,
      "Stacking": "Replace"
    },
    "ADV_ItemAbility_402001": {
      "OnCreate": [
        {
          "$type": "RPG.GameCore.AdventureModifyTeamPlayerHP",
          "AddRatio": {
            "IsDynamic": false,
            "FixedValue": {
              "Value": 0.3800000003539026
            }
          },
          "ModifyValue": {
            "IsDynamic": false,
            "FixedValue": {
              "Value": 400
            }
          },
          "SpecifyTargetType": {
            "$type": "RPG.GameCore.TargetAlias",
            "Alias": "ModifierOwnerEntity"
          }
        },
        {
          "$type": "RPG.GameCore.RemoveSelfModifier"
        }
      ],
      "Stacking": "Replace"
    },
    "ADV_ItemAbility_402002": {
      "LifeTime": 900,
      "Count": 1,
      "Stacking": "Replace"
    },
    "ADV_ItemAbility_402003": {
      "OnCreate": [
        {
          "$type": "RPG.GameCore.AdventureModifyTeamPlayerSP",
          "AddRatio": {
            "IsDynamic": false,
            "FixedValue": {
              "Value": 0.5000000004656613
            }
          },
          "SpecifyTargetType": {
            "$type": "RPG.GameCore.TargetAlias",
            "Alias": "ModifierOwnerEntity"
          }
        },
        {
          "$type": "RPG.GameCore.RemoveSelfModifier"
        }
      ],
      "Stacking": "Replace"
    },
    "ADV_ItemAbility_402004": {
      "LifeTime": 900,
      "Count": 1,
      "Stacking": "Replace"
    },
    "ADV_ItemAbility_402005": {
      "LifeTime": 900,
      "Count": 1,
      "Stacking": "Replace"
    },
    "ADV_ItemAbility_402006": {
      "LifeTime": 900,
      "Count": 1,
      "Stacking": "Replace"
    },
    "ADV_ItemAbility_402007": {
      "LifeTime": 900,
      "Count": 1,
      "Stacking": "Replace"
    },
    "ADV_ItemAbility_402008": {
      "LifeTime": 900,
      "Count": 1,
      "Stacking": "Replace"
    },
    "ADV_ItemAbility_402009": {
      "LifeTime": 900,
      "Count": 1,
      "Stacking": "Replace"
    },
    "ADV_ItemAbility_402010": {
      "LifeTime": 900,
      "Count": 1,
      "Stacking": "Replace"
    },
    "ADV_ItemAbility_402011": {
      "LifeTime": 900,
      "Count": 1,
      "Stacking": "Replace"
    },
    "ADV_ItemAbility_402012": {
      "LifeTime": 900,
      "Count": 1,
      "Stacking": "Replace"
    },
    "ADV_ItemAbility_402013": {
      "LifeTime": 900,
      "Count": 1,
      "Stacking": "Replace"
    },
    "ADV_ItemAbility_402014": {
      "LifeTime": 900,
      "Count": 1,
      "Stacking": "Replace"
    },
    "ADV_ItemAbility_402015": {
      "LifeTime": 900,
      "Count": 1,
      "Stacking": "Replace"
    },
    "ADV_ItemAbility_402016": {
      "OnCreate": [
        {
          "$type": "RPG.GameCore.AdventureModifyTeamPlayerHP",
          "AddRatio": {
            "IsDynamic": false,
            "FixedValue": {
              "Value": -0.9900000009220093
            }
          },
          "MinRatio": {
            "IsDynamic": false,
            "FixedValue": {
              "Value": 0.0009999999310821295
            }
          },
          "SpecifyTargetType": {
            "$type": "RPG.GameCore.TargetAlias",
            "Alias": "ModifierOwnerEntity"
          }
        },
        {
          "$type": "RPG.GameCore.RemoveSelfModifier"
        }
      ],
      "Stacking": "Replace"
    },
    "ADV_ItemAbility_403001": {
      "LifeTime": 900,
      "Count": 1,
      "Stacking": "Replace"
    },
    "ADV_ItemAbility_403002": {
      "LifeTime": 900,
      "Count": 1,
      "Stacking": "Replace"
    },
    "ADV_ItemAbility_403003": {
      "LifeTime": 900,
      "Count": 1,
      "Stacking": "Replace"
    },
    "ADV_ItemAbility_403004": {
      "LifeTime": 900,
      "Count": 1,
      "Stacking": "Replace"
    },
    "ADV_ItemAbility_403005": {
      "LifeTime": 2700,
      "Count": 3,
      "Stacking": "Replace"
    },
    "ADV_ItemAbility_403006": {
      "LifeTime": 2700,
      "Count": 3,
      "Stacking": "Replace"
    },
    "ADV_ItemAbility_408001": {
      "OnCreate": [
        {
          "$type": "RPG.GameCore.AdventureModifyTeamPlayerHP",
          "AddRatio": {
            "IsDynamic": false,
            "FixedValue": {
              "Value": -0.1500000001396984
            }
          },
          "MinRatio": {
            "IsDynamic": false,
            "FixedValue": {
              "Value": 0.0009999999310821295
            }
          },
          "SpecifyTargetType": {
            "$type": "RPG.GameCore.TargetAlias",
            "Alias": "ModifierOwnerEntity"
          }
        },
        {
          "$type": "RPG.GameCore.RemoveSelfModifier"
        }
      ],
      "Stacking": "Replace"
    },
    "ADV_ItemAbility_408002": {
      "OnCreate": [
        {
          "$type": "RPG.GameCore.AdventureModifyMazeMP",
          "ModifyFunction": "Add",
          "ModifyValue": {
            "IsDynamic": false,
            "FixedValue": {
              "Value": 4
            }
          }
        },
        {
          "$type": "RPG.GameCore.RemoveSelfModifier"
        }
      ],
      "Stacking": "Replace"
    },
    "ADV_ItemAbility_408003": {
      "LifeTime": 900,
      "Count": 1,
      "Stacking": "Replace"
    },
    "ADV_ItemAbility_408004": {
      "OnCreate": [
        {
          "$type": "RPG.GameCore.AdventureModifyTeamPlayerHP",
          "AddRatio": {
            "IsDynamic": false,
            "FixedValue": {
              "Value": 1
            }
          },
          "SpecifyTargetType": {
            "$type": "RPG.GameCore.TargetAlias",
            "Alias": "ModifierOwnerEntity"
          }
        },
        {
          "$type": "RPG.GameCore.RemoveSelfModifier"
        }
      ],
      "Stacking": "Replace"
    },
    "ADV_ItemAbility_408005": {
      "LifeTime": 900,
      "Count": 1,
      "Stacking": "Replace"
    },
    "ADV_ItemAbility_408201": {
      "OnCreate": [
        {
          "$type": "RPG.GameCore.AdventureModifyTeamPlayerHP",
          "AddRatio": {
            "IsDynamic": false,
            "FixedValue": {
              "Value": 0.20000000018626451
            }
          },
          "SpecifyTargetType": {
            "$type": "RPG.GameCore.TargetAlias",
            "Alias": "ModifierOwnerEntity"
          }
        },
        {
          "$type": "RPG.GameCore.RemoveSelfModifier"
        }
      ],
      "Stacking": "Replace"
    },
    "ADV_ItemAbility_408202": {
      "OnCreate": [
        {
          "$type": "RPG.GameCore.AdventureModifyTeamPlayerHP",
          "AddRatio": {
            "IsDynamic": false,
            "FixedValue": {
              "Value": 0.1500000001396984
            }
          },
          "ModifyValue": {
            "IsDynamic": false,
            "FixedValue": {
              "Value": 150
            }
          },
          "SpecifyTargetType": {
            "$type": "RPG.GameCore.TargetAlias",
            "Alias": "ModifierOwnerEntity"
          }
        },
        {
          "$type": "RPG.GameCore.RemoveSelfModifier"
        }
      ],
      "Stacking": "Replace"
    },
    "ADV_ItemAbility_408203": {
      "OnCreate": [
        {
          "$type": "RPG.GameCore.AdventureModifyTeamPlayerHP",
          "AddRatio": {
            "IsDynamic": false,
            "FixedValue": {
              "Value": 0.1500000001396984
            }
          },
          "ModifyValue": {
            "IsDynamic": false,
            "FixedValue": {
              "Value": 150
            }
          },
          "SpecifyTargetType": {
            "$type": "RPG.GameCore.TargetAlias",
            "Alias": "ModifierOwnerEntity"
          }
        },
        {
          "$type": "RPG.GameCore.RemoveSelfModifier"
        }
      ],
      "Stacking": "Replace"
    },
    "ADV_ItemAbility_408401": {
      "LifeTime": 900,
      "Count": 1,
      "Stacking": "Replace"
    },
    "ADV_ItemAbility_408402": {
      "OnCreate": [
        {
          "$type": "RPG.GameCore.AdventureModifyMazeMP",
          "ModifyFunction": "Add",
          "ModifyValue": {
            "IsDynamic": false,
            "FixedValue": {
              "Value": 4
            }
          }
        },
        {
          "$type": "RPG.GameCore.RemoveSelfModifier"
        }
      ],
      "Stacking": "Replace"
    },
    "ADV_ItemAbility_408403": {
      "LifeTime": 900,
      "Count": 1,
      "Stacking": "Replace"
    },
    "ADV_ItemAbility_408404": {
      "OnCreate": [
        {
          "$type": "RPG.GameCore.AdventureModifyMazeMP",
          "ModifyFunction": "Add",
          "ModifyValue": {
            "IsDynamic": false,
            "FixedValue": {
              "Value": 3
            }
          }
        },
        {
          "$type": "RPG.GameCore.RemoveSelfModifier"
        }
      ],
      "Stacking": "Replace"
    },
    "ADV_ItemAbility_408405": {
      "LifeTime": 900,
      "Count": 1,
      "Stacking": "Replace"
    },
    "ADV_ItemAbility_408406": {
      "OnCreate": [
        {
          "$type": "RPG.GameCore.AdventureModifyTeamPlayerSP",
          "AddRatio": {
            "IsDynamic": false,
            "FixedValue": {
              "Value": 0.3000000002793968
            }
          },
          "SpecifyTargetType": {
            "$type": "RPG.GameCore.TargetAlias",
            "Alias": "ModifierOwnerEntity"
          }
        },
        {
          "$type": "RPG.GameCore.RemoveSelfModifier"
        }
      ],
      "Stacking": "Replace"
    },
    "ADV_ItemAbility_408407": {
      "OnCreate": [
        {
          "$type": "RPG.GameCore.AdventureModifyTeamPlayerSP",
          "AddRatio": {
            "IsDynamic": false,
            "FixedValue": {
              "Value": 0.3000000002793968
            }
          },
          "SpecifyTargetType": {
            "$type": "RPG.GameCore.TargetAlias",
            "Alias": "ModifierOwnerEntity"
          }
        },
        {
          "$type": "RPG.GameCore.RemoveSelfModifier"
        }
      ],
      "Stacking": "Replace"
    },
    "ADV_ItemAbility_408408": {
      "OnCreate": [
        {
          "$type": "RPG.GameCore.AdventureRevivePlayer",
          "RevivedHPRatio": {
            "IsDynamic": false,
            "FixedValue": {
              "Value": 0.10000000009313226
            }
          },
          "SpecifyTargetType": {
            "$type": "RPG.GameCore.TargetAlias",
            "Alias": "ModifierOwnerEntity"
          }
        },
        {
          "$type": "RPG.GameCore.RemoveSelfModifier"
        }
      ],
      "Stacking": "Replace"
    },
    "ADV_ItemAbility_408601": {
      "OnCreate": [
        {
          "$type": "RPG.GameCore.AdventureModifyTeamPlayerSP",
          "AddRatio": {
            "IsDynamic": false,
            "FixedValue": {
              "Value": 0.5000000004656613
            }
          },
          "SpecifyTargetType": {
            "$type": "RPG.GameCore.TargetAlias",
            "Alias": "ModifierOwnerEntity"
          }
        },
        {
          "$type": "RPG.GameCore.RemoveSelfModifier"
        }
      ],
      "Stacking": "Replace"
    },
    "ADV_ItemAbility_408602": {
      "OnCreate": [
        {
          "$type": "RPG.GameCore.AdventureRevivePlayer",
          "RevivedHPRatio": {
            "IsDynamic": false,
            "FixedValue": {
              "Value": 0.3000000002793968
            }
          },
          "SpecifyTargetType": {
            "$type": "RPG.GameCore.TargetAlias",
            "Alias": "ModifierOwnerEntity"
          }
        },
        {
          "$type": "RPG.GameCore.RemoveSelfModifier"
        }
      ],
      "Stacking": "Replace"
    },
    "ADV_ItemAbility_408603": {
      "LifeTime": 900,
      "Count": 1,
      "Stacking": "Replace"
    },
    "ADV_ItemAbility_408604": {
      "OnCreate": [
        {
          "$type": "RPG.GameCore.AdventureModifyMazeMP",
          "ModifyFunction": "Add",
          "ModifyValue": {
            "IsDynamic": false,
            "FixedValue": {
              "Value": 2
            }
          }
        },
        {
          "$type": "RPG.GameCore.RemoveSelfModifier"
        }
      ],
      "Stacking": "Replace"
    },
    "ADV_ItemAbility_409001": {
      "OnCreate": [
        {
          "$type": "RPG.GameCore.AdventureModifyTeamPlayerHP",
          "AddRatio": {
            "IsDynamic": false,
            "FixedValue": {
              "Value": -0.1500000001396984
            }
          },
          "MinRatio": {
            "IsDynamic": false,
            "FixedValue": {
              "Value": 0.0009999999310821295
            }
          },
          "SpecifyTargetType": {
            "$type": "RPG.GameCore.TargetAlias",
            "Alias": "AdvTeamMembers"
          }
        },
        {
          "$type": "RPG.GameCore.RemoveSelfModifier"
        }
      ],
      "Stacking": "Replace"
    },
    "ADV_ItemAbility_409002": {
      "LifeTime": 75,
      "BehaviorFlagList": [
        "Stealth"
      ],
      "Count": 1,
      "Stacking": "Replace"
    },
    "ADV_ItemAbility_404001": {
      "LifeTime": 900,
      "OnCreate": [
        {
          "$type": "RPG.GameCore.AdventureModifyTeamPlayerHP",
          "AddRatio": {
            "IsDynamic": false,
            "FixedValue": {
              "Value": 0.10000000009313226
            }
          },
          "ModifyValue": {
            "IsDynamic": false,
            "FixedValue": {
              "Value": 500
            }
          },
          "SpecifyTargetType": {
            "$type": "RPG.GameCore.TargetAlias",
            "Alias": "ModifierOwnerEntity"
          }
        }
      ],
      "Count": 1,
      "Stacking": "Replace"
    },
    "ADV_ItemAbility_404002": {
      "LifeTime": 900,
      "OnCreate": [
        {
          "$type": "RPG.GameCore.AdventureModifyTeamPlayerHP",
          "AddRatio": {
            "IsDynamic": false,
            "FixedValue": {
              "Value": -0.10000000009313226
            }
          },
          "MinRatio": {
            "IsDynamic": false,
            "FixedValue": {
              "Value": 0.010000000009313226
            }
          },
          "ModifyValue": {
            "IsDynamic": false,
            "FixedValue": {
              "Value": -500
            }
          },
          "SpecifyTargetType": {
            "$type": "RPG.GameCore.TargetAlias",
            "Alias": "AllLightTeam"
          }
        },
        {
          "$type": "RPG.GameCore.AddMazeBuff",
          "TargetType": {
            "$type": "RPG.GameCore.TargetAlias",
            "Alias": "LightTeamEntity"
          },
          "ID": 408003
        },
        {
          "$type": "RPG.GameCore.AddMazeBuff",
          "TargetType": {
            "$type": "RPG.GameCore.TargetAlias",
            "Alias": "ModifierOwnerEntity"
          },
          "ID": 403002
        },
        {
          "$type": "RPG.GameCore.RemoveSelfModifier"
        }
      ],
      "Count": 1,
      "Stacking": "Replace"
    }
  }
}