{
  "MainMissionID": 2010405,
  "StartSubMissionList": [
    201040501
  ],
  "FinishSubMissionList": [
    201040515
  ],
  "SubMissionList": [
    {
      "MainMissionID": 2010405,
      "MissionJsonPath": "Config/Level/Mission/2010405/Mission_201040501.json",
      "TakeType": "Auto",
      "TakeParamIntList": [
        201040504
      ],
      "ID": 201040501,
      "FinishType": "Talk",
      "ParamType": "Equal",
      "ParamStr1": "Mission_201040501",
      "ParamItemList": [],
      "Progress": 1
    },
    {
      "MainMissionID": 2010405,
      "MissionJsonPath": "Config/Level/Mission/2010405/Mission_201040502.json",
      "TakeType": "AnySequence",
      "TakeParamIntList": [
        201040501
      ],
      "ID": 201040502,
      "FinishType": "Talk",
      "ParamType": "Equal",
      "ParamStr1": "Mission_201040502",
      "ParamItemList": [],
      "Progress": 1
    },
    {
      "MainMissionID": 2010405,
      "MissionJsonPath": "Config/Level/Mission/2010405/Mission_201040503.json",
      "TakeType": "AnySequence",
      "TakeParamIntList": [
        201040502
      ],
      "ID": 201040503,
      "MazePlaneID": 20121,
      "MazeFloorID": 20121001,
      "FinishType": "PropState",
      "ParamType": "Equal",
      "ParamInt1": 66,
      "ParamInt2": 300005,
      "ParamItemList": [],
      "Progress": 1
    },
    {
      "MainMissionID": 2010405,
      "MissionJsonPath": "Config/Level/Mission/2010405/Mission_201040504.json",
      "TakeType": "AnySequence",
      "TakeParamIntList": [
        201040503
      ],
      "ID": 201040504,
      "FinishType": "Talk",
      "ParamType": "Equal",
      "ParamStr1": "Mission_201040504",
      "ParamItemList": [],
      "Progress": 1
    },
    {
      "MainMissionID": 2010405,
      "MissionJsonPath": "Config/Level/Mission/2010405/Mission_201040505.json",
      "TakeType": "AnySequence",
      "TakeParamIntList": [
        201040504
      ],
      "ID": 201040505,
      "MazePlaneID": 20121,
      "MazeFloorID": 20121001,
      "FinishType": "PropState",
      "ParamType": "Equal",
      "ParamInt1": 66,
      "ParamInt2": 300002,
      "ParamInt3": 13,
      "ParamItemList": [],
      "Progress": 1
    },
    {
      "MainMissionID": 2010405,
      "MissionJsonPath": "Config/Level/Mission/2010405/Mission_201040506.json",
      "TakeType": "AnySequence",
      "TakeParamIntList": [
        201040505
      ],
      "ID": 201040506,
      "FinishType": "Talk",
      "ParamType": "Equal",
      "ParamStr1": "Mission_201040506",
      "Progress": 1
    },
    {
      "MainMissionID": 2010405,
      "MissionJsonPath": "Config/Level/Mission/2010405/Mission_201040507.json",
      "TakeType": "AnySequence",
      "TakeParamIntList": [
        201040506
      ],
      "ID": 201040507,
      "FinishType": "Talk",
      "ParamType": "Equal",
      "ParamStr1": "Mission_201040507",
      "Progress": 1
    },
    {
      "MainMissionID": 2010405,
      "TakeType": "AnySequence",
      "TakeParamIntList": [
        201040507
      ],
      "ID": 201040508,
      "MazePlaneID": 20121,
      "MazeFloorID": 20121001,
      "FinishType": "PropState",
      "ParamType": "Equal",
      "ParamInt1": 103,
      "ParamInt2": 300005,
      "Progress": 1
    },
    {
      "MainMissionID": 2010405,
      "MissionJsonPath": "Config/Level/Mission/2010405/Mission_201040509.json",
      "TakeType": "AnySequence",
      "TakeParamIntList": [
        201040508
      ],
      "ID": 201040509,
      "FinishType": "Talk",
      "ParamType": "Equal",
      "ParamStr1": "Mission_201040509",
      "Progress": 1
    },
    {
      "MainMissionID": 2010405,
      "MissionJsonPath": "Config/Level/Mission/2010405/Mission_201040510.json",
      "TakeType": "AnySequence",
      "TakeParamIntList": [
        201040509
      ],
      "ID": 201040510,
      "MazePlaneID": 20121,
      "MazeFloorID": 20121001,
      "FinishType": "PropState",
      "ParamType": "Equal",
      "ParamInt1": 103,
      "ParamInt2": 300002,
      "ParamInt3": 13,
      "Progress": 1
    },
    {
      "MainMissionID": 2010405,
      "MissionJsonPath": "Config/Level/Mission/2010405/Mission_201040511.json",
      "TakeType": "AnySequence",
      "TakeParamIntList": [
        201040510
      ],
      "ID": 201040511,
      "FinishType": "Talk",
      "ParamType": "Equal",
      "ParamStr1": "Mission_201040511",
      "Progress": 1
    },
    {
      "MainMissionID": 2010405,
      "MissionJsonPath": "Config/Level/Mission/2010405/Mission_201040512.json",
      "TakeType": "AnySequence",
      "TakeParamIntList": [
        201040511
      ],
      "ID": 201040512,
      "FinishType": "Talk",
      "ParamType": "Equal",
      "ParamStr1": "Mission_201040512",
      "Progress": 1
    },
    {
      "MainMissionID": 2010405,
      "TakeType": "AnySequence",
      "TakeParamIntList": [
        201040512
      ],
      "ID": 201040513,
      "MazePlaneID": 20121,
      "MazeFloorID": 20121001,
      "FinishType": "PropState",
      "ParamType": "Equal",
      "ParamInt1": 102,
      "ParamInt2": 300005,
      "Progress": 1
    },
    {
      "MainMissionID": 2010405,
      "MissionJsonPath": "Config/Level/Mission/2010405/Mission_201040514.json",
      "TakeType": "AnySequence",
      "TakeParamIntList": [
        201040513
      ],
      "ID": 201040514,
      "FinishType": "Talk",
      "ParamType": "Equal",
      "ParamStr1": "Mission_201040514",
      "Progress": 1
    },
    {
      "MainMissionID": 2010405,
      "MissionJsonPath": "Config/Level/Mission/2010405/Mission_201040515.json",
      "TakeType": "AnySequence",
      "TakeParamIntList": [
        201040514
      ],
      "ID": 201040515,
      "MazePlaneID": 20121,
      "MazeFloorID": 20121001,
      "FinishType": "PropState",
      "ParamType": "Equal",
      "ParamInt1": 102,
      "ParamInt2": 300002,
      "ParamInt3": 13,
      "Progress": 1
    }
  ]
}