{
  "AdaptionConfigList": {
    "Normal": {
      "TemplateSingleConfigList": [
        {
          "TemplateName": "Default",
          "LightTeamFightFormation": {
            "DefaultConfig": {
              "IntervalMin": 0.9,
              "IntervalMax": 3,
              "TeamWidthRatioFactor": 0.8,
              "WidthRatioForEnemy": 0.2,
              "LeftAngle": 2,
              "LeftOffsetMax": 0.48,
              "RightAngle": 8.5,
              "RightAngleOffsetRatio": 0.8,
              "RightDirAdditiveDisRatioForEnemy": 0.25
            },
            "ExtraConfig": {
              "IntervalMin": 0.9,
              "IntervalMax": 3,
              "TeamWidthRatioFactor": 0.8,
              "WidthRatioForEnemy": 0.2,
              "LeftAngle": 2,
              "LeftOffsetMax": 0.48,
              "RightAngle": 8.5,
              "RightAngleOffsetRatio": 0.8,
              "RightDirAdditiveDisRatioForEnemy": 0.25
            },
            "MaxLocationCount": 5
          },
          "DarkTeamFightFormation": {
            "DefaultConfig": {
              "Interval": 1
            },
            "MaxLocationCount": 5
          }
        },
        {
          "TemplateName": "LowSpacing",
          "LightTeamFightFormation": {
            "DefaultConfig": {
              "IntervalMin": 0.4,
              "IntervalMax": 0.5,
              "TeamWidthRatioFactor": 0.8,
              "WidthRatioForEnemy": 0.2,
              "LeftAngle": 2,
              "LeftOffsetMax": 0.48,
              "RightAngle": 8.5,
              "RightAngleOffsetRatio": 0.8,
              "RightDirAdditiveDisRatioForEnemy": 0.25
            },
            "ExtraConfig": {
              "IntervalMin": 0.4,
              "IntervalMax": 0.5,
              "TeamWidthRatioFactor": 0.8,
              "WidthRatioForEnemy": 0.2,
              "LeftAngle": 2,
              "LeftOffsetMax": 0.48,
              "RightAngle": 8.5,
              "RightAngleOffsetRatio": 0.8,
              "RightDirAdditiveDisRatioForEnemy": 0.25
            },
            "MaxLocationCount": 5
          },
          "DarkTeamFightFormation": {
            "DefaultConfig": {
              "Interval": 0.5
            },
            "MaxLocationCount": 5
          }
        }
      ],
      "InitFOV": 45,
      "GamePreviewFixAnchorOffset": {
        "X": 0.125,
        "Y": 0,
        "Z": 0
      },
      "GamePreviewFixAimOffset": {
        "X": 0.125,
        "Y": 0,
        "Z": 0
      }
    },
    "FOV45Angle": {
      "TemplateSingleConfigList": [
        {
          "TemplateName": "Default",
          "LightTeamFightFormation": {
            "DefaultConfig": {
              "IntervalMin": 0.9,
              "IntervalMax": 3,
              "TeamWidthRatioFactor": 0.8,
              "WidthRatioForEnemy": 0.2,
              "LeftAngle": 2,
              "LeftOffsetMax": 0.8,
              "RightAngle": 8.5,
              "RightAngleOffsetRatio": 0.8,
              "RightDirAdditiveDisRatioForEnemy": 0.25
            },
            "ExtraConfig": {
              "IntervalMin": 0.9,
              "IntervalMax": 3,
              "TeamWidthRatioFactor": 0.8,
              "WidthRatioForEnemy": 0.2,
              "LeftAngle": 2,
              "LeftOffsetMax": 0.8,
              "RightAngle": 8.5,
              "RightAngleOffsetRatio": 0.8,
              "RightDirAdditiveDisRatioForEnemy": 0.25
            },
            "MaxLocationCount": 5
          },
          "DarkTeamFightFormation": {
            "DefaultConfig": {
              "Interval": 1
            },
            "MaxLocationCount": 5
          }
        },
        {
          "TemplateName": "LowSpacing",
          "LightTeamFightFormation": {
            "DefaultConfig": {
              "IntervalMin": 0.4,
              "IntervalMax": 0.5,
              "TeamWidthRatioFactor": 0.8,
              "WidthRatioForEnemy": 0.2,
              "LeftAngle": 2,
              "LeftOffsetMax": 0.8,
              "RightAngle": 8.5,
              "RightAngleOffsetRatio": 0.8,
              "RightDirAdditiveDisRatioForEnemy": 0.25
            },
            "ExtraConfig": {
              "IntervalMin": 0.4,
              "IntervalMax": 0.5,
              "TeamWidthRatioFactor": 0.8,
              "WidthRatioForEnemy": 0.2,
              "LeftAngle": 2,
              "LeftOffsetMax": 0.8,
              "RightAngle": 8.5,
              "RightAngleOffsetRatio": 0.8,
              "RightDirAdditiveDisRatioForEnemy": 0.25
            },
            "MaxLocationCount": 5
          },
          "DarkTeamFightFormation": {
            "DefaultConfig": {
              "Interval": 0.5
            },
            "MaxLocationCount": 5
          }
        }
      ],
      "InitFOV": 45,
      "GamePreviewFixAnchorOffset": {
        "X": 0.05,
        "Y": 0,
        "Z": 0
      },
      "GamePreviewFixAimOffset": {
        "X": 0.05,
        "Y": 0,
        "Z": 0
      }
    },
    "FOV55": {
      "TemplateSingleConfigList": [
        {
          "TemplateName": "Default",
          "LightTeamFightFormation": {
            "DefaultConfig": {
              "IntervalMin": 0.9,
              "IntervalMax": 3,
              "TeamWidthRatioFactor": 0.8,
              "WidthRatioForEnemy": 0.2,
              "LeftAngle": 2,
              "LeftOffsetMax": 0.48,
              "RightAngle": 8.5,
              "RightAngleOffsetRatio": 0.8,
              "RightDirAdditiveDisRatioForEnemy": 0.25
            },
            "ExtraConfig": {
              "IntervalMin": 0.9,
              "IntervalMax": 3,
              "TeamWidthRatioFactor": 0.8,
              "WidthRatioForEnemy": 0.2,
              "LeftAngle": 2,
              "LeftOffsetMax": 0.48,
              "RightAngle": 8.5,
              "RightAngleOffsetRatio": 0.8,
              "RightDirAdditiveDisRatioForEnemy": 0.25
            },
            "MaxLocationCount": 5
          },
          "DarkTeamFightFormation": {
            "DefaultConfig": {
              "Interval": 1
            },
            "MaxLocationCount": 5
          }
        },
        {
          "TemplateName": "LowSpacing",
          "LightTeamFightFormation": {
            "DefaultConfig": {
              "IntervalMin": 0.4,
              "IntervalMax": 0.5,
              "TeamWidthRatioFactor": 0.8,
              "WidthRatioForEnemy": 0.2,
              "LeftAngle": 2,
              "LeftOffsetMax": 0.48,
              "RightAngle": 8.5,
              "RightAngleOffsetRatio": 0.8,
              "RightDirAdditiveDisRatioForEnemy": 0.25
            },
            "ExtraConfig": {
              "IntervalMin": 0.4,
              "IntervalMax": 0.5,
              "TeamWidthRatioFactor": 0.8,
              "WidthRatioForEnemy": 0.2,
              "LeftAngle": 2,
              "LeftOffsetMax": 0.48,
              "RightAngle": 8.5,
              "RightAngleOffsetRatio": 0.8,
              "RightDirAdditiveDisRatioForEnemy": 0.25
            },
            "MaxLocationCount": 5
          },
          "DarkTeamFightFormation": {
            "DefaultConfig": {
              "Interval": 0.5
            },
            "MaxLocationCount": 5
          }
        }
      ],
      "InitFOV": 55,
      "GamePreviewFixAnchorOffset": {
        "X": 0.175,
        "Y": 0,
        "Z": 0
      },
      "GamePreviewFixAimOffset": {
        "X": 0.175,
        "Y": 0,
        "Z": 0
      }
    },
    "FOV60": {
      "TemplateSingleConfigList": [
        {
          "TemplateName": "Default",
          "LightTeamFightFormation": {
            "DefaultConfig": {
              "IntervalMin": 0.9,
              "IntervalMax": 3,
              "TeamWidthRatioFactor": 0.8,
              "WidthRatioForEnemy": 0.2,
              "LeftAngle": 2,
              "LeftOffsetMax": 0.48,
              "RightAngle": 8.5,
              "RightAngleOffsetRatio": 0.8,
              "RightDirAdditiveDisRatioForEnemy": 0.25
            },
            "ExtraConfig": {
              "IntervalMin": 0.9,
              "IntervalMax": 3,
              "TeamWidthRatioFactor": 0.8,
              "WidthRatioForEnemy": 0.2,
              "LeftAngle": 2,
              "LeftOffsetMax": 0.48,
              "RightAngle": 8.5,
              "RightAngleOffsetRatio": 0.8,
              "RightDirAdditiveDisRatioForEnemy": 0.25
            },
            "MaxLocationCount": 5
          },
          "DarkTeamFightFormation": {
            "DefaultConfig": {
              "Interval": 1
            },
            "MaxLocationCount": 5
          }
        },
        {
          "TemplateName": "LowSpacing",
          "LightTeamFightFormation": {
            "DefaultConfig": {
              "IntervalMin": 0.4,
              "IntervalMax": 0.5,
              "TeamWidthRatioFactor": 0.8,
              "WidthRatioForEnemy": 0.2,
              "LeftAngle": 2,
              "LeftOffsetMax": 0.48,
              "RightAngle": 8.5,
              "RightAngleOffsetRatio": 0.8,
              "RightDirAdditiveDisRatioForEnemy": 0.25
            },
            "ExtraConfig": {
              "IntervalMin": 0.4,
              "IntervalMax": 0.5,
              "TeamWidthRatioFactor": 0.8,
              "WidthRatioForEnemy": 0.2,
              "LeftAngle": 2,
              "LeftOffsetMax": 0.48,
              "RightAngle": 8.5,
              "RightAngleOffsetRatio": 0.8,
              "RightDirAdditiveDisRatioForEnemy": 0.25
            },
            "MaxLocationCount": 5
          },
          "DarkTeamFightFormation": {
            "DefaultConfig": {
              "Interval": 0.5
            },
            "MaxLocationCount": 5
          }
        }
      ],
      "InitFOV": 60,
      "GamePreviewFixAnchorOffset": {
        "X": 0.315,
        "Y": 0,
        "Z": 0
      },
      "GamePreviewFixAimOffset": {
        "X": 0.315,
        "Y": 0,
        "Z": 0
      }
    }
  }
}