{
  "OnInitSequece": [],
  "OnStartSequece": [
    {
      "TaskList": [
        {
          "$type": "RPG.GameCore.LevelPerformanceInitialize",
          "PerformanceType": "D",
          "CreateCharacterList": [],
          "EntityVisiableList": [],
          "PropVisiableList": [],
          "StreamingCentersInBlackMask": [],
          "StreamingCentersAfterBlackMask": [],
          "MarkStreamingItems": []
        },
        {
          "$type": "RPG.GameCore.PlayScreenTransfer",
          "Mode": "SwitchOut",
          "CustomTime": 0.5
        },
        {
          "$type": "RPG.GameCore.PropRemoveEffect",
          "TargetType": {
            "$type": "RPG.GameCore.TargetFetchAdvPropEx",
            "FetchType": "SinglePropByPropID",
            "SinglePropID": {
              "GroupID": {
                "IsDynamic": false,
                "FixedValue": {
                  "Value": 1
                }
              },
              "ID": {
                "IsDynamic": false,
                "FixedValue": {
                  "Value": 300003
                }
              }
            }
          },
          "EffectPath": "Effects/Eff_Prefab/Eff_Scene/Interactive Object/Eff_Common_MAZ_CheckPoint_Idle_Enable.prefab"
        },
        {
          "$type": "RPG.GameCore.SetEntityVisible",
          "TargetType": {
            "$type": "RPG.GameCore.TargetFetchAdvPropEx",
            "FetchType": "SinglePropByPropID",
            "SinglePropID": {
              "GroupID": {
                "IsDynamic": false,
                "FixedValue": {
                  "Value": 1
                }
              },
              "ID": {
                "IsDynamic": false,
                "FixedValue": {
                  "Value": 300003
                }
              }
            }
          }
        },
        {
          "$type": "RPG.GameCore.WaitSecond",
          "WaitTime": 0.5,
          "MaxAdvencePerTick": 0.1
        },
        {
          "$type": "RPG.GameCore.PerformanceTransition",
          "SwitchInTime": 0,
          "SwitchKeepTime": 1,
          "CreateNpcList": [
            {
              "GroupID": {
                "IsDynamic": false,
                "FixedValue": {
                  "Value": 94
                }
              },
              "GroupNpcID": {
                "IsDynamic": false,
                "FixedValue": {
                  "Value": 400009
                }
              },
              "CreateList": []
            },
            {
              "GroupID": {
                "IsDynamic": false,
                "FixedValue": {
                  "Value": 94
                }
              },
              "GroupNpcID": {
                "IsDynamic": false,
                "FixedValue": {
                  "Value": 400010
                }
              },
              "CreateList": []
            },
            {
              "GroupID": {
                "IsDynamic": false,
                "FixedValue": {
                  "Value": 94
                }
              },
              "GroupNpcID": {
                "IsDynamic": false,
                "FixedValue": {
                  "Value": 400011
                }
              },
              "NPCUniqueName": {
                "Value": "M1"
              },
              "CreateList": []
            },
            {
              "GroupID": {
                "IsDynamic": false,
                "FixedValue": {
                  "Value": 94
                }
              },
              "GroupNpcID": {
                "IsDynamic": false,
                "FixedValue": {
                  "Value": 400012
                }
              },
              "NPCUniqueName": {
                "Value": "M2"
              },
              "CreateList": []
            },
            {
              "GroupID": {
                "IsDynamic": false,
                "FixedValue": {
                  "Value": 94
                }
              },
              "GroupNpcID": {
                "IsDynamic": false,
                "FixedValue": {
                  "Value": 400013
                }
              },
              "NPCUniqueName": {
                "Value": "M3"
              },
              "CreateList": []
            }
          ],
          "CaptureNpcList": [
            {
              "GroupID": {
                "IsDynamic": false,
                "FixedValue": {
                  "Value": 94
                }
              },
              "GroupNpcID": {
                "IsDynamic": false,
                "FixedValue": {
                  "Value": 400011
                }
              },
              "CharacterUniqueName": {
                "Value": "Mon1"
              }
            },
            {
              "GroupID": {
                "IsDynamic": false,
                "FixedValue": {
                  "Value": 94
                }
              },
              "GroupNpcID": {
                "IsDynamic": false,
                "FixedValue": {
                  "Value": 400012
                }
              },
              "CharacterUniqueName": {
                "Value": "Mon2"
              }
            },
            {
              "GroupID": {
                "IsDynamic": false,
                "FixedValue": {
                  "Value": 94
                }
              },
              "GroupNpcID": {
                "IsDynamic": false,
                "FixedValue": {
                  "Value": 400013
                }
              },
              "CharacterUniqueName": {
                "Value": "Mon3"
              }
            }
          ],
          "DestroyNpcList": [],
          "ActiveVirtualCamera": {
            "AreaName": "LevelArea_P20212_F20212001_G94",
            "AnchorName": "Anchor18"
          },
          "SwitchCharacterAnchor": {
            "IsLocalPlayer": true,
            "CharacterUniqueName": "LocalPlayer",
            "AreaName": {
              "Value": "LevelArea_P20212_F20212001_G94"
            },
            "AnchorName": {
              "Value": "Anchor8"
            }
          }
        },
        {
          "$type": "RPG.GameCore.AdvEntityFaceTo",
          "SourceType": {
            "$type": "RPG.GameCore.TargetFetchAdvNpcEx",
            "FetchType": "SingleNpcByNpcID",
            "SingleNpcID": {
              "GroupID": {
                "IsDynamic": false,
                "FixedValue": {
                  "Value": 94
                }
              },
              "GroupNpcID": {
                "IsDynamic": false,
                "FixedValue": {
                  "Value": 400010
                }
              }
            }
          },
          "TargetType": {
            "$type": "RPG.GameCore.TargetFetchAnchor",
            "GroupID": 94,
            "GroupInstanceID": 3
          },
          "EnableSteer": false,
          "FinishImmediately": true
        },
        {
          "$type": "RPG.GameCore.AdvEntityFaceTo",
          "SourceType": {
            "$type": "RPG.GameCore.TargetFetchAdvLocalPlayer",
            "IncludeStoryPlayer": true
          },
          "TargetType": {
            "$type": "RPG.GameCore.TargetFetchAnchor",
            "GroupID": 94,
            "GroupInstanceID": 3
          },
          "EnableSteer": false
        },
        {
          "$type": "RPG.GameCore.PlaySimpleTalk",
          "SimpleTalkList": [
            {
              "TalkSentenceID": 204011801
            }
          ]
        },
        {
          "$type": "RPG.GameCore.WaitSimpleTalkFinish"
        },
        {
          "$type": "RPG.GameCore.PlayOptionTalk",
          "OptionList": [
            {
              "TalkSentenceID": 204011804,
              "OptionIconType": "ChatContinueIcon",
              "TriggerCustomString": "TalkSentence_204011805"
            }
          ]
        }
      ]
    },
    {
      "TaskList": [
        {
          "$type": "RPG.GameCore.WaitCustomString",
          "CustomString": {
            "Value": "TalkSentence_204011805"
          }
        },
        {
          "$type": "RPG.GameCore.PlaySimpleTalk",
          "SimpleTalkList": [
            {
              "TalkSentenceID": 204011805
            },
            {
              "TalkSentenceID": 204011812
            }
          ]
        },
        {
          "$type": "RPG.GameCore.WaitSimpleTalkFinish"
        },
        {
          "$type": "RPG.GameCore.TriggerCustomString",
          "CustomString": {
            "Value": "TalkSentence_204011806"
          }
        }
      ]
    },
    {
      "TaskList": [
        {
          "$type": "RPG.GameCore.WaitCustomString",
          "CustomString": {
            "Value": "TalkSentence_204011806"
          }
        },
        {
          "$type": "RPG.GameCore.PlaySimpleTalk",
          "SimpleTalkList": [
            {
              "TalkSentenceID": 204011806
            }
          ]
        },
        {
          "$type": "RPG.GameCore.WaitSimpleTalkFinish"
        },
        {
          "$type": "RPG.GameCore.AdvEntityFaceTo",
          "SourceType": {
            "$type": "RPG.GameCore.TargetFetchAdvNpcEx",
            "FetchType": "SingleNpcByNpcID",
            "SingleNpcID": {
              "GroupID": {
                "IsDynamic": false,
                "FixedValue": {
                  "Value": 94
                }
              },
              "GroupNpcID": {
                "IsDynamic": false,
                "FixedValue": {
                  "Value": 400010
                }
              }
            }
          },
          "TargetType": {
            "$type": "RPG.GameCore.TargetFetchAdvNpcEx",
            "FetchType": "SingleNpcByNpcID",
            "SingleNpcID": {
              "GroupID": {
                "IsDynamic": false,
                "FixedValue": {
                  "Value": 94
                }
              },
              "GroupNpcID": {
                "IsDynamic": false,
                "FixedValue": {
                  "Value": 400009
                }
              }
            }
          }
        },
        {
          "$type": "RPG.GameCore.PlaySimpleTalk",
          "SimpleTalkList": [
            {
              "TalkSentenceID": 204011807
            },
            {
              "TalkSentenceID": 204011808
            }
          ]
        },
        {
          "$type": "RPG.GameCore.WaitSimpleTalkFinish"
        },
        {
          "$type": "RPG.GameCore.ActiveVirtualCamera",
          "AreaName": "LevelArea_P20212_F20212001_G94",
          "AnchorName": "Anchor12"
        },
        {
          "$type": "RPG.GameCore.PlaySimpleTalk",
          "SimpleTalkList": [
            {
              "TalkSentenceID": 204011809
            },
            {
              "TalkSentenceID": 204011810
            },
            {
              "TalkSentenceID": 204011811
            }
          ]
        },
        {
          "$type": "RPG.GameCore.WaitSimpleTalkFinish"
        },
        {
          "$type": "RPG.GameCore.EndPerformance"
        }
      ]
    },
    {
      "TaskList": [
        {
          "$type": "RPG.GameCore.WaitPerformanceEnd"
        },
        {
          "$type": "RPG.GameCore.FinishLevelGraph"
        }
      ]
    }
  ]
}