{
  "MainMissionID": 2000001,
  "StartSubMissionList": [
    200000101
  ],
  "FinishSubMissionList": [
    200000101
  ],
  "SubMissionList": [
    {
      "MainMissionID": 2000001,
      "TakeType": "Auto",
      "ID": 200000101,
      "FinishType": "PlayerLevel",
      "ParamType": "NoPara",
      "ParamItemList": [],
      "Progress": 9,
      "IsBackTrack": true
    }
  ]
}