{
  "MainMissionID": 1000300,
  "StartSubMissionList": [
    100030101
  ],
  "FinishSubMissionList": [
    100030100
  ],
  "SubMissionList": [
    {
      "MainMissionID": 1000300,
      "MissionJsonPath": "Config/Level/Mission/1000301/Mission_100030100.json",
      "TakeType": "AnySequence",
      "TakeParamIntList": [
        100030101
      ],
      "ID": 100030100,
      "FinishType": "Talk",
      "ParamType": "Equal",
      "ParamStr1": "Mission_100030100",
      "ParamIntList": [],
      "ParamItemList": [],
      "Progress": 1
    },
    {
      "MainMissionID": 1000300,
      "MissionJsonPath": "Config/Level/Mission/1000301/Mission_100030101.json",
      "TakeType": "Auto",
      "TakeParamIntList": [],
      "ID": 100030101,
      "FinishType": "Talk",
      "ParamType": "Equal",
      "ParamStr1": "Mission_100030101",
      "ParamIntList": [],
      "ParamItemList": [],
      "Progress": 1
    }
  ]
}