{
  "OnInitSequece": [],
  "OnStartSequece": [
    {
      "TaskList": [
        {
          "$type": "RPG.GameCore.LevelPerformanceInitialize",
          "PerformanceType": "E",
          "HideMunicipalCrowd": false,
          "HideMunicipalPedestrian": false
        },
        {
          "$type": "RPG.GameCore.AdvNpcFaceToPlayer",
          "FinishImmadiate": true
        },
        {
          "$type": "RPG.GameCore.PlaySimpleTalk",
          "SimpleTalkList": [
            {
              "TalkSentenceID": 501030762,
              "ProtectTime": 0.3
            },
            {
              "TalkSentenceID": 501030763,
              "ProtectTime": 0.3
            },
            {
              "TalkSentenceID": 501030764,
              "ProtectTime": 0.3
            },
            {
              "TalkSentenceID": 501030765,
              "ProtectTime": 0.3
            },
            {
              "TalkSentenceID": 501030766,
              "ProtectTime": 0.3
            },
            {
              "TalkSentenceID": 501030767,
              "ProtectTime": 0.3
            },
            {
              "TalkSentenceID": 501030768,
              "ProtectTime": 0.3
            },
            {
              "TalkSentenceID": 501030769,
              "ProtectTime": 0.3
            },
            {
              "TalkSentenceID": 501030770,
              "ProtectTime": 0.3
            },
            {
              "TalkSentenceID": 501030771,
              "ProtectTime": 0.3
            },
            {
              "TalkSentenceID": 501030772,
              "ProtectTime": 0.3
            },
            {
              "TalkSentenceID": 501030773,
              "ProtectTime": 0.3
            },
            {
              "TalkSentenceID": 501030774,
              "ProtectTime": 0.3
            },
            {
              "TalkSentenceID": 501030775,
              "ProtectTime": 0.3
            },
            {
              "TalkSentenceID": 501030776,
              "ProtectTime": 0.3
            },
            {
              "TalkSentenceID": 501030777,
              "ProtectTime": 0.3
            },
            {
              "TalkSentenceID": 501030778,
              "ProtectTime": 0.3
            },
            {
              "TalkSentenceID": 501030779,
              "ProtectTime": 0.3
            },
            {
              "TalkSentenceID": 501030780,
              "ProtectTime": 0.3
            },
            {
              "TalkSentenceID": 501030781,
              "ProtectTime": 0.3
            },
            {
              "TalkSentenceID": 501030782,
              "ProtectTime": 0.3
            },
            {
              "TalkSentenceID": 501030783,
              "ProtectTime": 0.3
            },
            {
              "TalkSentenceID": 501030784,
              "ProtectTime": 0.3
            }
          ]
        },
        {
          "$type": "RPG.GameCore.WaitSimpleTalkFinish"
        },
        {
          "$type": "RPG.GameCore.EndPerformance"
        }
      ]
    },
    {
      "TaskList": [
        {
          "$type": "RPG.GameCore.WaitPerformanceEnd"
        },
        {
          "$type": "RPG.GameCore.FinishLevelGraph"
        }
      ]
    }
  ]
}