{
  "AbilityList": [
    {
      "Name": "Avatar_RogueTestBattleevent2_Skill03_EnterReady",
      "TargetInfo": {
        "TargetType": "InherentTargetEntity"
      },
      "OnStart": [
        {
          "$type": "RPG.GameCore.WaitSecond",
          "WaitTime": 0.4
        },
        {
          "$type": "RPG.GameCore.AlignTargetToTeamCenter",
          "TargetType": {
            "$type": "RPG.GameCore.TargetAlias",
            "Alias": "Caster"
          }
        },
        {
          "$type": "RPG.GameCore.WaitSecond",
          "WaitTime": 0.1
        },
        {
          "$type": "RPG.GameCore.LookAt",
          "PerformerType": {
            "$type": "RPG.GameCore.TargetAlias",
            "Alias": "Caster"
          },
          "TargetType": "DarkTeamCenter"
        },
        {
          "$type": "RPG.GameCore.HeadLookAt",
          "PerformerType": {
            "$type": "RPG.GameCore.TargetAlias",
            "Alias": "AllDarkTeam"
          },
          "TargetType": {
            "$type": "RPG.GameCore.TargetAlias",
            "Alias": "Caster"
          },
          "DoRootRotate": true
        },
        {
          "$type": "RPG.GameCore.VCameraConfigChange",
          "CameraConfig": {
            "NormalConfig": {
              "CameraState": "SelectDarkTeamEntity",
              "AnchorTargetType": {
                "$type": "RPG.GameCore.TargetAlias",
                "Alias": "Caster"
              },
              "IsLocalOffset": true,
              "AnchorOffset": {
                "X": -0.62,
                "Y": -0.44,
                "Z": -0.37
              },
              "AimTargetType": {
                "$type": "RPG.GameCore.TargetAlias",
                "Alias": "AbilityTargetEntity"
              },
              "AimOffset": {
                "X": -1.6,
                "Y": 2.16,
                "Z": 0.17
              },
              "FollowRadius": 0.9,
              "AnchorToAimAngle": 13,
              "FollowDamp": 0.5,
              "AimDamp": 0.5,
              "Dutch": 4.5,
              "FOV": 90
            },
            "BlendConfig": {
              "BlendType": "Cut"
            },
            "ShowEntityConfig": {
              "ShowTargetType": {
                "$type": "RPG.GameCore.TargetAlias",
                "Alias": "CasterWithAllEnemy"
              }
            }
          }
        },
        {
          "$type": "RPG.GameCore.WaitSecond",
          "WaitTime": 0.7
        },
        {
          "$type": "RPG.GameCore.VCameraConfigChange",
          "CameraConfig": {
            "NormalConfig": {
              "CameraState": "SelectDarkTeamEntity",
              "AnchorTargetType": {
                "$type": "RPG.GameCore.TargetAlias",
                "Alias": "Caster"
              },
              "IsLocalOffset": true,
              "AnchorOffset": {
                "X": 0.62,
                "Y": -0.44,
                "Z": -0.28
              },
              "AimTargetType": {
                "$type": "RPG.GameCore.TargetAlias",
                "Alias": "AbilityTargetEntity"
              },
              "AimOffset": {
                "X": -1.6,
                "Y": 2.16,
                "Z": 0.17
              },
              "FollowRadius": 0.9,
              "AnchorToAimAngle": 26,
              "Dutch": 4.5,
              "FOV": 70
            },
            "BlendConfig": {
              "BlendType": "Custom",
              "CustomCurveName": "Blend_UltraReady",
              "BlendTime": 1.5
            },
            "ShowEntityConfig": {
              "ShowTargetType": {
                "$type": "RPG.GameCore.TargetAlias",
                "Alias": "CasterWithAllEnemy"
              }
            }
          }
        }
      ]
    },
    {
      "Name": "Avatar_RogueTestBattleevent2_Skill03_Phase01",
      "TargetInfo": {
        "TargetType": "AllDarkTeamMember"
      },
      "OnStart": [
        {
          "$type": "RPG.GameCore.TriggerAbility",
          "TargetType": {
            "$type": "RPG.GameCore.TargetAlias",
            "Alias": "Caster"
          },
          "AbilityName": "Avatar_RogueTestBattleevent2_Skill03_Phase02",
          "IsSkillPerform": true
        }
      ]
    },
    {
      "Name": "Avatar_RogueTestBattleevent2_Skill03_Phase02",
      "TargetInfo": {
        "TargetType": "AllDarkTeamMember"
      },
      "OnStart": [
        {
          "$type": "RPG.GameCore.TriggerAbility",
          "TargetType": {
            "$type": "RPG.GameCore.TargetAlias",
            "Alias": "Caster"
          },
          "AbilityName": "BattleEventAbility_620701_Camera",
          "IsSkillPerform": true
        },
        {
          "$type": "RPG.GameCore.PlayTimeline",
          "TimelineName": "Effects/Eff_Animation/Common/Eff_BattleEvent_Rogue_Ruin_Timeline.playable"
        },
        {
          "$type": "RPG.GameCore.TriggerSound",
          "SoundName": "Ev_sfx_rogue_buff_ruin",
          "EmitterType": "DefaultEmitter"
        },
        {
          "$type": "RPG.GameCore.TriggerEffect",
          "TargetType": {
            "$type": "RPG.GameCore.TargetAlias",
            "Alias": "DarkTeamEntity"
          },
          "EffectPath": "Effects/Eff_Prefab/Eff_Common/Eff_BattleEvent_Rogue_Ruin_Start01.prefab"
        },
        {
          "$type": "RPG.GameCore.ShowSkillTextDialog",
          "SkillName": {
            "Hash": -624929944
          }
        },
        {
          "$type": "RPG.GameCore.WaitSecond",
          "WaitTime": 0.7
        },
        {
          "$type": "RPG.GameCore.SetDynamicValue",
          "TargetType": {
            "$type": "RPG.GameCore.TargetAlias",
            "Alias": "Caster"
          },
          "DynamicKey": "LoseHP_Sum_620701",
          "Value": {
            "IsDynamic": false,
            "FixedValue": {
              "Value": 0
            }
          }
        },
        {
          "$type": "RPG.GameCore.Retarget",
          "TargetType": {
            "$type": "RPG.GameCore.TargetAlias",
            "Alias": "AllLightTeam"
          },
          "MaxNumber": {
            "IsDynamic": false,
            "FixedValue": {
              "Value": 10
            }
          },
          "TaskList": [
            {
              "$type": "RPG.GameCore.SetDynamicValueByProperty",
              "DynamicKey": "MaxHPValue_620701",
              "ReadTargetType": {
                "$type": "RPG.GameCore.TargetAlias",
                "Alias": "ParamEntity"
              },
              "Value": "MaxHP"
            },
            {
              "$type": "RPG.GameCore.SetDynamicValueByProperty",
              "DynamicKey": "CurrentHPValue_620701",
              "ReadTargetType": {
                "$type": "RPG.GameCore.TargetAlias",
                "Alias": "ParamEntity"
              },
              "Value": "CurrentHP"
            },
            {
              "$type": "RPG.GameCore.SetDynamicValue",
              "TargetType": {
                "$type": "RPG.GameCore.TargetAlias",
                "Alias": "Caster"
              },
              "DynamicKey": "LoseHP_Sum_620701",
              "Value": {
                "IsDynamic": true,
                "Expressions": [
                  {
                    "Type": "DynamicNumber",
                    "DynamicHash": -1580653338
                  },
                  {
                    "Type": "DynamicNumber",
                    "DynamicHash": 704092248
                  },
                  {
                    "Type": "Add"
                  },
                  {
                    "Type": "DynamicNumber",
                    "DynamicHash": 408493419
                  },
                  {
                    "Type": "Sub"
                  }
                ]
              }
            }
          ]
        },
        {
          "$type": "RPG.GameCore.WaitSecond",
          "WaitTime": 3.2
        },
        {
          "$type": "RPG.GameCore.DamageByAttackProperty",
          "TargetType": {
            "$type": "RPG.GameCore.TargetAlias",
            "Alias": "AllDarkTeam"
          },
          "AttackProperty": {
            "FormulaType": "ByMaxHP",
            "DamagePercentage": {
              "IsDynamic": true,
              "Expressions": [
                {
                  "Type": "DynamicNumber",
                  "DynamicHash": 909827943
                }
              ]
            },
            "DamageValue": {
              "IsDynamic": true,
              "Expressions": [
                {
                  "Type": "DynamicNumber",
                  "DynamicHash": -1580653338
                },
                {
                  "Type": "DynamicNumber",
                  "DynamicHash": 909827948
                },
                {
                  "Type": "Mul"
                }
              ]
            },
            "AttackType": "Insert",
            "HitAnimation": "Hit_H",
            "HitEffect": "Effects/Eff_Prefab/Eff_Common/Eff_BattleEvent_Rogue_Ruin_Hit01.prefab"
          }
        },
        {
          "$type": "RPG.GameCore.DamagePerformFinish"
        },
        {
          "$type": "RPG.GameCore.Retarget",
          "TargetType": {
            "$type": "RPG.GameCore.TargetAlias",
            "Alias": "AllLightTeam"
          },
          "MaxNumber": {
            "IsDynamic": false,
            "FixedValue": {
              "Value": 10
            }
          },
          "TaskList": [
            {
              "$type": "RPG.GameCore.PredicateTaskList",
              "Predicate": {
                "$type": "RPG.GameCore.ByCompareHPRatio",
                "TargetType": {
                  "$type": "RPG.GameCore.TargetAlias",
                  "Alias": "ParamEntity"
                },
                "CompareType": "Less",
                "CompareValue": {
                  "IsDynamic": true,
                  "Expressions": [
                    {
                      "Type": "DynamicNumber",
                      "DynamicHash": 909827953
                    }
                  ]
                }
              },
              "SuccessTaskList": [
                {
                  "$type": "RPG.GameCore.PredicateTaskList",
                  "Predicate": {
                    "$type": "RPG.GameCore.ByCompareDynamicValue",
                    "TargetType": {
                      "$type": "RPG.GameCore.TargetAlias",
                      "Alias": "Caster"
                    },
                    "DynamicKey": "Rouge_620701_Level",
                    "CompareType": "GreaterEqual",
                    "CompareValue": {
                      "IsDynamic": false,
                      "FixedValue": {
                        "Value": 5
                      }
                    }
                  },
                  "SuccessTaskList": [
                    {
                      "$type": "RPG.GameCore.AddModifier",
                      "TargetType": {
                        "$type": "RPG.GameCore.TargetAlias",
                        "Alias": "ParamEntity"
                      },
                      "ModifierName": "MLevel_StageAbility_620701_Modifier_Sub3",
                      "DynamicValues": {
                        "MDF_1": {
                          "IsDynamic": true,
                          "Expressions": [
                            {
                              "Type": "DynamicNumber",
                              "DynamicHash": 1646835833
                            }
                          ]
                        }
                      }
                    }
                  ]
                }
              ]
            }
          ]
        },
        {
          "$type": "RPG.GameCore.WaitSecond",
          "WaitTime": 0.1
        },
        {
          "$type": "RPG.GameCore.TargetTimeSlow",
          "TargetType": {
            "$type": "RPG.GameCore.TargetAlias",
            "Alias": "AllDarkTeam"
          },
          "TimeScale": 0.2,
          "UnscaledDuration": 0.3
        },
        {
          "$type": "RPG.GameCore.WaitSecond",
          "WaitTime": 1.9
        }
      ],
      "DynamicValues": {
        "Values": {
          "-484905552": {},
          "-1580653338": {},
          "704092248": {},
          "408493419": {}
        }
      }
    },
    {
      "Modifiers": {
        "MAvatar_RogueTestBattleevent_PassiveAbility": {
          "BehaviorFlagList": [
            "BlockDamage",
            "Stealth"
          ],
          "OnCreate": [
            {
              "$type": "RPG.GameCore.SetEntityUnselectable",
              "TargetType": {
                "$type": "RPG.GameCore.TargetAlias",
                "Alias": "ModifierOwnerEntity"
              },
              "Unselectable": true
            }
          ],
          "OnModifierAdd": [
            {
              "$type": "RPG.GameCore.DispelStatus",
              "TargetType": {
                "$type": "RPG.GameCore.TargetAlias",
                "Alias": "ModifierOwnerEntity"
              },
              "BuffType": "Buff"
            },
            {
              "$type": "RPG.GameCore.DispelStatus",
              "TargetType": {
                "$type": "RPG.GameCore.TargetAlias",
                "Alias": "ModifierOwnerEntity"
              }
            },
            {
              "$type": "RPG.GameCore.DispelStatus",
              "TargetType": {
                "$type": "RPG.GameCore.TargetAlias",
                "Alias": "ModifierOwnerEntity"
              },
              "BuffType": "Other"
            }
          ]
        },
        "MAvatar_RogueTestBattleevent_BanBPSkill": {
          "OnStack": [
            {
              "$type": "RPG.GameCore.AttachSkillTypeDisable",
              "TargetType": {
                "$type": "RPG.GameCore.TargetAlias",
                "Alias": "ModifierOwnerEntity"
              },
              "Types": [
                "Skill"
              ]
            },
            {
              "$type": "RPG.GameCore.StackProperty",
              "TargetType": {
                "$type": "RPG.GameCore.TargetAlias",
                "Alias": "ModifierOwnerEntity"
              },
              "Property": "SpeedDelta",
              "PropertyValue": {
                "IsDynamic": false,
                "FixedValue": {
                  "Value": -1000
                }
              }
            }
          ]
        },
        "MAvatar_RogueTestBattleevent_Charge": {
          "OnCreate": [
            {
              "$type": "RPG.GameCore.ModifySPNew",
              "TargetType": {
                "$type": "RPG.GameCore.TargetAlias",
                "Alias": "ModifierOwnerEntity"
              },
              "FixedAddValue": {
                "IsDynamic": true,
                "Expressions": [
                  {
                    "Type": "DynamicNumber",
                    "DynamicHash": 395022026
                  }
                ]
              }
            }
          ],
          "OnListenBeforeSkillUse": [
            {
              "$type": "RPG.GameCore.PredicateTaskList",
              "Predicate": {
                "$type": "RPG.GameCore.ByAny",
                "PredicateList": [
                  {
                    "$type": "RPG.GameCore.ByAnd",
                    "PredicateList": [
                      {
                        "$type": "RPG.GameCore.ByCompareTurnActionEntityTeamType",
                        "Team": "TeamLight"
                      },
                      {
                        "$type": "RPG.GameCore.ByNot",
                        "Predicate": {
                          "$type": "RPG.GameCore.ByCurrentSkillType",
                          "SkillType": "Ultra"
                        }
                      }
                    ]
                  }
                ]
              },
              "SuccessTaskList": [
                {
                  "$type": "RPG.GameCore.ModifySPNew",
                  "TargetType": {
                    "$type": "RPG.GameCore.TargetAlias",
                    "Alias": "ModifierOwnerEntity"
                  },
                  "FixedAddValue": {
                    "IsDynamic": true,
                    "Expressions": [
                      {
                        "Type": "DynamicNumber",
                        "DynamicHash": 2116906935
                      }
                    ]
                  }
                }
              ]
            }
          ]
        },
        "MAvatar_RogueTestBattleevent_AutoUseUltraSkill": {
          "OnCreate": [
            {
              "$type": "RPG.GameCore.AutoUseUltraSkill",
              "Target": {
                "$type": "RPG.GameCore.TargetAlias",
                "Alias": "AllDarkTeam"
              },
              "WaitCutinFinished": false
            }
          ]
        },
        "MAvatar_RogueTestBattleevent_SetLevel": {
          "OnCreate": [
            {
              "$type": "RPG.GameCore.SetLevel",
              "TargetType": {
                "$type": "RPG.GameCore.TargetAlias",
                "Alias": "ModifierOwnerEntity"
              },
              "ByStageLevel": true
            }
          ]
        }
      },
      "Name": "Avatar_RogueTestBattleevent2_PassiveSkill01",
      "TargetInfo": {
        "TargetType": "Caster"
      },
      "OnStart": [
        {
          "$type": "RPG.GameCore.ShowBattleEventButton",
          "IsShow": true
        },
        {
          "$type": "RPG.GameCore.AddModifier",
          "TargetType": {
            "$type": "RPG.GameCore.TargetAlias",
            "Alias": "Caster"
          },
          "ModifierName": "MAvatar_RogueTestBattleevent_PassiveAbility"
        },
        {
          "$type": "RPG.GameCore.AddModifier",
          "TargetType": {
            "$type": "RPG.GameCore.TargetAlias",
            "Alias": "Caster"
          },
          "ModifierName": "MAvatar_RogueTestBattleevent_Charge"
        },
        {
          "$type": "RPG.GameCore.AddModifier",
          "TargetType": {
            "$type": "RPG.GameCore.TargetAlias",
            "Alias": "Caster"
          },
          "ModifierName": "MAvatar_RogueTestBattleevent_AutoUseUltraSkill"
        },
        {
          "$type": "RPG.GameCore.AddModifier",
          "TargetType": {
            "$type": "RPG.GameCore.TargetAlias",
            "Alias": "Caster"
          },
          "ModifierName": "MAvatar_RogueTestBattleevent_SetLevel"
        }
      ]
    }
  ]
}