{
  "OnInitSequece": [],
  "OnStartSequece": [
    {
      "TaskList": [
        {
          "$type": "RPG.GameCore.SetSimulationSpeedEnable"
        },
        {
          "$type": "RPG.GameCore.CreateLevelAreas",
          "AssetPath": {
            "Value": "Level/Mission/1011401/BattlePerform_20003011_4.prefab"
          }
        },
        {
          "$type": "RPG.GameCore.SetTeamFormation",
          "Team": "TeamLight",
          "FormationType": "LightTeamNormal",
          "CustomCenterTargetType": {
            "$type": "RPG.GameCore.TargetAlias",
            "Alias": "None"
          },
          "CustomFormationIgnoreDying": false
        },
        {
          "$type": "RPG.GameCore.PlayBackgroundTalk",
          "BackgroundTalkList": [
            {
              "AutoSkipTime": 3,
              "TalkSentenceID": 100040149
            },
            {
              "AutoSkipTime": 3,
              "TalkSentenceID": 100040150
            },
            {
              "AutoSkipTime": 3,
              "TalkSentenceID": 100040151
            }
          ]
        },
        {
          "$type": "RPG.GameCore.WaitSecond",
          "WaitTime": 0.3
        },
        {
          "$type": "RPG.GameCore.RemoveLevelAreas",
          "AreaName": {
            "Value": "BattlePerform_1"
          }
        },
        {
          "$type": "RPG.GameCore.SetSimulationSpeedEnable",
          "Enable": true
        },
        {
          "$type": "RPG.GameCore.LockBattleOperation",
          "IsLock": false,
          "OperationWhiteList": []
        },
        {
          "$type": "RPG.GameCore.FinishLevelGraph"
        }
      ]
    }
  ]
}