{
  "OnInitSequece": [],
  "OnStartSequece": [
    {
      "TaskList": [
        {
          "$type": "RPG.GameCore.LevelPerformanceInitialize",
          "PerformanceType": "E",
          "LockCamera": false,
          "CreateCharacterList": [],
          "EntityVisiableList": [],
          "StreamingCentersInBlackMask": [],
          "StreamingCentersAfterBlackMask": []
        },
        {
          "$type": "RPG.GameCore.PlaySimpleTalk",
          "SimpleTalkList": [
            {
              "TalkSentenceID": 201320801,
              "ProtectTime": 0.3
            },
            {
              "TalkSentenceID": 201320802,
              "ProtectTime": 0.3
            },
            {
              "TalkSentenceID": 201320803,
              "ProtectTime": 0.3
            },
            {
              "TalkSentenceID": 201320804,
              "ProtectTime": 0.3
            },
            {
              "TalkSentenceID": 201320805,
              "ProtectTime": 0.3
            },
            {
              "TalkSentenceID": 201320806,
              "ProtectTime": 0.3
            },
            {
              "TalkSentenceID": 201320807,
              "ProtectTime": 0.3
            },
            {
              "TalkSentenceID": 201320808,
              "ProtectTime": 0.3
            },
            {
              "TalkSentenceID": 201320809,
              "ProtectTime": 0.3
            },
            {
              "TalkSentenceID": 201320810,
              "ProtectTime": 0.3
            }
          ]
        },
        {
          "$type": "RPG.GameCore.WaitSimpleTalkFinish"
        },
        {
          "$type": "RPG.GameCore.EndPerformance"
        }
      ]
    },
    {
      "TaskList": [
        {
          "$type": "RPG.GameCore.WaitPerformanceEnd"
        },
        {
          "$type": "RPG.GameCore.FinishLevelGraph"
        }
      ]
    }
  ]
}