{
  "OnInitSequece": [],
  "OnStartSequece": [
    {
      "TaskList": [
        {
          "$type": "RPG.GameCore.LevelPerformanceInitialize",
          "PerformanceType": "E",
          "LockCamera": false,
          "CreateCharacterList": [],
          "EntityVisiableList": [],
          "HideMunicipalCrowd": false,
          "HideMunicipalPedestrian": false,
          "StreamingCentersInBlackMask": [],
          "StreamingCentersAfterBlackMask": [],
          "MarkStreamingItems": []
        },
        {
          "$type": "RPG.GameCore.AdvNpcFaceToPlayer",
          "FinishImmadiate": true
        },
        {
          "$type": "RPG.GameCore.PlaySimpleTalk",
          "SimpleTalkList": [
            {
              "TalkSentenceID": 200031841,
              "ProtectTime": 0.3
            },
            {
              "TalkSentenceID": 200031842,
              "ProtectTime": 0.3
            },
            {
              "TalkSentenceID": 200031843,
              "ProtectTime": 0.3
            },
            {
              "TalkSentenceID": 200031844,
              "ProtectTime": 0.3
            },
            {
              "TalkSentenceID": 200031845,
              "ProtectTime": 0.3
            },
            {
              "TalkSentenceID": 200031846,
              "ProtectTime": 0.3
            },
            {
              "TalkSentenceID": 200031847,
              "ProtectTime": 0.3
            },
            {
              "TalkSentenceID": 200031848,
              "ProtectTime": 0.3
            }
          ]
        },
        {
          "$type": "RPG.GameCore.WaitSimpleTalkFinish"
        },
        {
          "$type": "RPG.GameCore.PlayOptionTalk",
          "OptionList": [
            {
              "TalkSentenceID": 200031849,
              "OptionIconType": "ChatContinueIcon",
              "TriggerCustomString": "TalkSentence_200031850"
            }
          ]
        }
      ]
    },
    {
      "TaskList": [
        {
          "$type": "RPG.GameCore.WaitCustomString",
          "CustomString": {
            "Value": "TalkSentence_200031850"
          }
        },
        {
          "$type": "RPG.GameCore.PlaySimpleTalk",
          "SimpleTalkList": [
            {
              "TalkSentenceID": 200031850,
              "ProtectTime": 0.3
            }
          ]
        },
        {
          "$type": "RPG.GameCore.WaitSimpleTalkFinish"
        },
        {
          "$type": "RPG.GameCore.TriggerCustomString",
          "CustomString": {
            "Value": "TalkSentence_200031851"
          }
        }
      ]
    },
    {
      "TaskList": [
        {
          "$type": "RPG.GameCore.WaitCustomString",
          "CustomString": {
            "Value": "TalkSentence_200031851"
          }
        },
        {
          "$type": "RPG.GameCore.PlaySimpleTalk",
          "SimpleTalkList": [
            {
              "TalkSentenceID": 200031851,
              "ProtectTime": 0.3
            },
            {
              "TalkSentenceID": 200031852,
              "ProtectTime": 0.3
            },
            {
              "TalkSentenceID": 200031853,
              "ProtectTime": 0.3
            },
            {
              "TalkSentenceID": 200031854,
              "ProtectTime": 0.3
            }
          ]
        },
        {
          "$type": "RPG.GameCore.WaitSimpleTalkFinish"
        },
        {
          "$type": "RPG.GameCore.TriggerCustomString",
          "CustomString": {
            "Value": "Wait_Option_200021124_561"
          }
        }
      ]
    },
    {
      "TaskList": [
        {
          "$type": "RPG.GameCore.WaitCustomString",
          "CustomString": {
            "Value": "Wait_Option_200021124_561"
          }
        },
        {
          "$type": "RPG.GameCore.PlayOptionTalk",
          "OptionList": [
            {
              "TalkSentenceID": 200031855,
              "OptionIconType": "ChatContinueIcon",
              "TriggerCustomString": "TalkSentence_200031856"
            }
          ]
        }
      ]
    },
    {
      "TaskList": [
        {
          "$type": "RPG.GameCore.WaitCustomString",
          "CustomString": {
            "Value": "TalkSentence_200031856"
          }
        },
        {
          "$type": "RPG.GameCore.PlaySimpleTalk",
          "SimpleTalkList": [
            {
              "TalkSentenceID": 200031856,
              "ProtectTime": 0.3
            },
            {
              "TalkSentenceID": 200031857,
              "ProtectTime": 0.3
            },
            {
              "TalkSentenceID": 200031858,
              "ProtectTime": 0.3
            },
            {
              "TalkSentenceID": 200031859,
              "ProtectTime": 0.3
            },
            {
              "TalkSentenceID": 200031860,
              "ProtectTime": 0.3
            },
            {
              "TalkSentenceID": 200031861,
              "ProtectTime": 0.3
            },
            {
              "TalkSentenceID": 200031862,
              "ProtectTime": 0.3
            },
            {
              "TalkSentenceID": 200031863,
              "ProtectTime": 0.3
            },
            {
              "TalkSentenceID": 200031864,
              "ProtectTime": 0.3
            },
            {
              "TalkSentenceID": 200031865,
              "ProtectTime": 0.3
            },
            {
              "TalkSentenceID": 200031866,
              "ProtectTime": 0.3
            },
            {
              "TalkSentenceID": 200031867,
              "ProtectTime": 0.3
            },
            {
              "TalkSentenceID": 200031868,
              "ProtectTime": 0.3
            },
            {
              "TalkSentenceID": 200031869,
              "ProtectTime": 0.3
            },
            {
              "TalkSentenceID": 200031870,
              "ProtectTime": 0.3
            }
          ]
        },
        {
          "$type": "RPG.GameCore.WaitSimpleTalkFinish"
        },
        {
          "$type": "RPG.GameCore.PlayOptionTalk",
          "OptionList": [
            {
              "TalkSentenceID": 200031871,
              "OptionIconType": "ChatContinueIcon",
              "TriggerCustomString": "TalkSentence_200031872"
            }
          ]
        }
      ]
    },
    {
      "TaskList": [
        {
          "$type": "RPG.GameCore.WaitCustomString",
          "CustomString": {
            "Value": "TalkSentence_200031872"
          }
        },
        {
          "$type": "RPG.GameCore.PlaySimpleTalk",
          "SimpleTalkList": [
            {
              "TalkSentenceID": 200031872,
              "ProtectTime": 0.3
            }
          ]
        },
        {
          "$type": "RPG.GameCore.WaitSimpleTalkFinish"
        },
        {
          "$type": "RPG.GameCore.PlayOptionTalk",
          "OptionList": [
            {
              "TalkSentenceID": 200031873,
              "OptionIconType": "ChatContinueIcon",
              "TriggerCustomString": "TalkSentence_200031876"
            },
            {
              "TalkSentenceID": 200031874,
              "OptionIconType": "ChatContinueIcon",
              "TriggerCustomString": "TalkSentence_200031876"
            },
            {
              "TalkSentenceID": 200031875,
              "OptionIconType": "ChatContinueIcon",
              "TriggerCustomString": "TalkSentence_200031876"
            }
          ]
        }
      ]
    },
    {
      "TaskList": [
        {
          "$type": "RPG.GameCore.WaitCustomString",
          "CustomString": {
            "Value": "TalkSentence_200031876"
          }
        },
        {
          "$type": "RPG.GameCore.PlaySimpleTalk",
          "SimpleTalkList": [
            {
              "TalkSentenceID": 200031876,
              "ProtectTime": 0.3
            },
            {
              "TalkSentenceID": 200031877,
              "ProtectTime": 0.3
            },
            {
              "TalkSentenceID": 200031878,
              "ProtectTime": 0.3
            },
            {
              "TalkSentenceID": 200031879,
              "ProtectTime": 0.3
            },
            {
              "TalkSentenceID": 200031880,
              "ProtectTime": 0.3
            }
          ]
        },
        {
          "$type": "RPG.GameCore.WaitSimpleTalkFinish"
        },
        {
          "$type": "RPG.GameCore.PlayOptionTalk",
          "OptionList": [
            {
              "TalkSentenceID": 200031881,
              "OptionIconType": "ChatContinueIcon",
              "TriggerCustomString": "TalkSentence_200031882"
            },
            {
              "TalkSentenceID": 200031883,
              "OptionIconType": "ChatContinueIcon",
              "TriggerCustomString": "TalkSentence_200031884"
            },
            {
              "TalkSentenceID": 200031885,
              "OptionIconType": "ChatContinueIcon",
              "TriggerCustomString": "TalkSentence_200031886"
            }
          ]
        }
      ]
    },
    {
      "TaskList": [
        {
          "$type": "RPG.GameCore.WaitCustomString",
          "CustomString": {
            "Value": "TalkSentence_200031882"
          }
        },
        {
          "$type": "RPG.GameCore.PlaySimpleTalk",
          "SimpleTalkList": [
            {
              "TalkSentenceID": 200031882,
              "ProtectTime": 0.3
            }
          ]
        },
        {
          "$type": "RPG.GameCore.WaitSimpleTalkFinish"
        },
        {
          "$type": "RPG.GameCore.TriggerCustomString",
          "CustomString": {
            "Value": "Wait_Option_200021124_601"
          }
        }
      ]
    },
    {
      "TaskList": [
        {
          "$type": "RPG.GameCore.WaitCustomString",
          "CustomString": {
            "Value": "TalkSentence_200031884"
          }
        },
        {
          "$type": "RPG.GameCore.PlaySimpleTalk",
          "SimpleTalkList": [
            {
              "TalkSentenceID": 200031884,
              "ProtectTime": 0.3
            }
          ]
        },
        {
          "$type": "RPG.GameCore.WaitSimpleTalkFinish"
        },
        {
          "$type": "RPG.GameCore.TriggerCustomString",
          "CustomString": {
            "Value": "Wait_Option_200021124_601"
          }
        }
      ]
    },
    {
      "TaskList": [
        {
          "$type": "RPG.GameCore.WaitCustomString",
          "CustomString": {
            "Value": "TalkSentence_200031886"
          }
        },
        {
          "$type": "RPG.GameCore.PlaySimpleTalk",
          "SimpleTalkList": [
            {
              "TalkSentenceID": 200031886,
              "ProtectTime": 0.3
            }
          ]
        },
        {
          "$type": "RPG.GameCore.WaitSimpleTalkFinish"
        },
        {
          "$type": "RPG.GameCore.TriggerCustomString",
          "CustomString": {
            "Value": "Wait_Option_200021124_601"
          }
        }
      ]
    },
    {
      "TaskList": [
        {
          "$type": "RPG.GameCore.WaitCustomString",
          "CustomString": {
            "Value": "Wait_Option_200021124_601"
          }
        },
        {
          "$type": "RPG.GameCore.PlayOptionTalk",
          "OptionList": [
            {
              "TalkSentenceID": 200031887,
              "OptionIconType": "ChatContinueIcon",
              "TriggerCustomString": "TalkSentence_200031888"
            }
          ]
        }
      ]
    },
    {
      "TaskList": [
        {
          "$type": "RPG.GameCore.WaitCustomString",
          "CustomString": {
            "Value": "TalkSentence_200031888"
          }
        },
        {
          "$type": "RPG.GameCore.PlaySimpleTalk",
          "SimpleTalkList": [
            {
              "TalkSentenceID": 200031888,
              "ProtectTime": 0.3
            },
            {
              "TalkSentenceID": 200031889,
              "ProtectTime": 0.3
            },
            {
              "TalkSentenceID": 200031890,
              "ProtectTime": 0.3
            }
          ]
        },
        {
          "$type": "RPG.GameCore.WaitSimpleTalkFinish"
        },
        {
          "$type": "RPG.GameCore.EndPerformance"
        }
      ]
    },
    {
      "TaskList": [
        {
          "$type": "RPG.GameCore.WaitPerformanceEnd"
        },
        {
          "$type": "RPG.GameCore.FinishLevelGraph"
        }
      ]
    }
  ]
}