{
  "OnInitSequece": [],
  "OnStartSequece": [
    {
      "TaskList": [
        {
          "$type": "RPG.GameCore.LevelPerformanceInitialize",
          "LockCamera": false,
          "CreateCharacterList": [],
          "EntityVisiableList": []
        },
        {
          "$type": "RPG.GameCore.AdvNpcFaceToPlayer",
          "GroupID": 15,
          "GroupNpcID": 400003,
          "FinishImmadiate": true
        },
        {
          "$type": "RPG.GameCore.PlaySimpleTalk",
          "SimpleTalkList": [
            {
              "TalkSentenceID": 501024601,
              "ProtectTime": 0.3
            }
          ]
        },
        {
          "$type": "RPG.GameCore.WaitSimpleTalkFinish"
        },
        {
          "$type": "RPG.GameCore.PlayOptionTalk",
          "OptionList": [
            {
              "TalkSentenceID": 501024602,
              "OptionIconType": "ChatIcon",
              "TriggerCustomString": "TalkSentence_501024602"
            },
            {
              "TalkSentenceID": 501024604,
              "OptionIconType": "ChatIcon",
              "TriggerCustomString": "TalkSentence_501024604"
            }
          ]
        }
      ]
    },
    {
      "TaskList": [
        {
          "$type": "RPG.GameCore.WaitCustomString",
          "CustomString": {
            "Value": "TalkSentence_501024602"
          }
        },
        {
          "$type": "RPG.GameCore.PlaySimpleTalk",
          "SimpleTalkList": [
            {
              "TalkSentenceID": 501024603,
              "ProtectTime": 0.3
            },
            {
              "TalkSentenceID": 501024606,
              "ProtectTime": 0.3
            },
            {
              "TalkSentenceID": 501024607,
              "ProtectTime": 0,
              "ForceToNextTime": 0.3
            }
          ]
        },
        {
          "$type": "RPG.GameCore.WaitSimpleTalkFinish"
        },
        {
          "$type": "RPG.GameCore.PlayOptionTalk",
          "OptionList": [
            {
              "TalkSentenceID": 501024608,
              "OptionIconType": "ChatIcon",
              "TriggerCustomString": "TalkSentence_501024608"
            }
          ]
        }
      ]
    },
    {
      "TaskList": [
        {
          "$type": "RPG.GameCore.WaitCustomString",
          "CustomString": {
            "Value": "TalkSentence_501024604"
          }
        },
        {
          "$type": "RPG.GameCore.PlaySimpleTalk",
          "SimpleTalkList": [
            {
              "TalkSentenceID": 501024605,
              "ProtectTime": 0.3
            },
            {
              "TalkSentenceID": 501024606,
              "ProtectTime": 0.3
            },
            {
              "TalkSentenceID": 501024607,
              "ProtectTime": 0,
              "ForceToNextTime": 0.3
            }
          ]
        },
        {
          "$type": "RPG.GameCore.WaitSimpleTalkFinish"
        },
        {
          "$type": "RPG.GameCore.PlayOptionTalk",
          "OptionList": [
            {
              "TalkSentenceID": 501024608,
              "OptionIconType": "ChatIcon",
              "TriggerCustomString": "TalkSentence_501024608"
            }
          ]
        }
      ]
    },
    {
      "TaskList": [
        {
          "$type": "RPG.GameCore.WaitCustomString",
          "CustomString": {
            "Value": "TalkSentence_501024611"
          }
        },
        {
          "$type": "RPG.GameCore.EndPerformance"
        }
      ]
    },
    {
      "TaskList": [
        {
          "$type": "RPG.GameCore.WaitCustomString",
          "CustomString": {
            "Value": "TalkSentence_501024608"
          }
        },
        {
          "$type": "RPG.GameCore.PlaySimpleTalk",
          "SimpleTalkList": [
            {
              "TalkSentenceID": 501024609,
              "ProtectTime": 0.3
            },
            {
              "TalkSentenceID": 501024610,
              "ProtectTime": 0.3
            }
          ]
        },
        {
          "$type": "RPG.GameCore.WaitSimpleTalkFinish"
        },
        {
          "$type": "RPG.GameCore.PlayOptionTalk",
          "OptionList": [
            {
              "TalkSentenceID": 501024612,
              "OptionIconType": "ChatIcon",
              "TriggerCustomString": "TalkSentence_501024612"
            },
            {
              "TalkSentenceID": 501024615,
              "OptionIconType": "ChatIcon",
              "TriggerCustomString": "TalkSentence_501024615"
            },
            {
              "TalkSentenceID": 501024617,
              "OptionIconType": "ChatIcon",
              "TriggerCustomString": "TalkSentence_501024617"
            }
          ]
        }
      ]
    },
    {
      "TaskList": [
        {
          "$type": "RPG.GameCore.WaitCustomString",
          "CustomString": {
            "Value": "TalkSentence_501024612"
          }
        },
        {
          "$type": "RPG.GameCore.PlaySimpleTalk",
          "SimpleTalkList": [
            {
              "TalkSentenceID": 501024613,
              "ProtectTime": 0.3
            },
            {
              "TalkSentenceID": 501024614,
              "ProtectTime": 0.3
            },
            {
              "TalkSentenceID": 501024619,
              "ProtectTime": 0.3
            },
            {
              "TalkSentenceID": 501024620,
              "ProtectTime": 0.3
            },
            {
              "TalkSentenceID": 501024621,
              "ProtectTime": 0.3
            }
          ]
        },
        {
          "$type": "RPG.GameCore.WaitSimpleTalkFinish"
        },
        {
          "$type": "RPG.GameCore.PlayOptionTalk",
          "OptionList": [
            {
              "TalkSentenceID": 501024622,
              "OptionIconType": "ChatIcon",
              "TriggerCustomString": "TalkSentence_501024622"
            }
          ]
        }
      ]
    },
    {
      "TaskList": [
        {
          "$type": "RPG.GameCore.WaitCustomString",
          "CustomString": {
            "Value": "TalkSentence_501024615"
          }
        },
        {
          "$type": "RPG.GameCore.PlaySimpleTalk",
          "SimpleTalkList": [
            {
              "TalkSentenceID": 501024616,
              "ProtectTime": 0.3
            },
            {
              "TalkSentenceID": 501024619,
              "ProtectTime": 0.3
            },
            {
              "TalkSentenceID": 501024620,
              "ProtectTime": 0.3
            },
            {
              "TalkSentenceID": 501024621,
              "ProtectTime": 0.3
            }
          ]
        },
        {
          "$type": "RPG.GameCore.WaitSimpleTalkFinish"
        },
        {
          "$type": "RPG.GameCore.PlayOptionTalk",
          "OptionList": [
            {
              "TalkSentenceID": 501024622,
              "OptionIconType": "ChatIcon",
              "TriggerCustomString": "TalkSentence_501024622"
            }
          ]
        }
      ]
    },
    {
      "TaskList": [
        {
          "$type": "RPG.GameCore.WaitCustomString",
          "CustomString": {
            "Value": "TalkSentence_501024617"
          }
        },
        {
          "$type": "RPG.GameCore.PlaySimpleTalk",
          "SimpleTalkList": [
            {
              "TalkSentenceID": 501024618,
              "ProtectTime": 0.3
            },
            {
              "TalkSentenceID": 501024619,
              "ProtectTime": 0.3
            },
            {
              "TalkSentenceID": 501024620,
              "ProtectTime": 0.3
            },
            {
              "TalkSentenceID": 501024621,
              "ProtectTime": 0.3
            }
          ]
        },
        {
          "$type": "RPG.GameCore.WaitSimpleTalkFinish"
        },
        {
          "$type": "RPG.GameCore.PlayOptionTalk",
          "OptionList": [
            {
              "TalkSentenceID": 501024622,
              "OptionIconType": "ChatIcon",
              "TriggerCustomString": "TalkSentence_501024622"
            }
          ]
        }
      ]
    },
    {
      "TaskList": [
        {
          "$type": "RPG.GameCore.WaitCustomString",
          "CustomString": {
            "Value": "TalkSentence_501024622"
          }
        },
        {
          "$type": "RPG.GameCore.PlaySimpleTalk",
          "SimpleTalkList": [
            {
              "TalkSentenceID": 501024623,
              "ProtectTime": 0.3
            },
            {
              "TalkSentenceID": 501024624,
              "ProtectTime": 0.3
            }
          ]
        },
        {
          "$type": "RPG.GameCore.WaitSimpleTalkFinish"
        },
        {
          "$type": "RPG.GameCore.PlayOptionTalk",
          "OptionList": [
            {
              "TalkSentenceID": 501024625,
              "OptionIconType": "ChatIcon",
              "TriggerCustomString": "TalkSentence_501024625"
            },
            {
              "TalkSentenceID": 501024626,
              "OptionIconType": "ChatIcon",
              "TriggerCustomString": "TalkSentence_501024625"
            }
          ]
        }
      ]
    },
    {
      "TaskList": [
        {
          "$type": "RPG.GameCore.WaitCustomString",
          "CustomString": {
            "Value": "TalkSentence_501024625"
          }
        },
        {
          "$type": "RPG.GameCore.PlaySimpleTalk",
          "SimpleTalkList": [
            {
              "TalkSentenceID": 501024627,
              "ProtectTime": 0.3
            },
            {
              "TalkSentenceID": 501024628,
              "ProtectTime": 0.3
            }
          ]
        },
        {
          "$type": "RPG.GameCore.WaitSimpleTalkFinish"
        },
        {
          "$type": "RPG.GameCore.PlayOptionTalk",
          "OptionList": [
            {
              "TalkSentenceID": 501024629,
              "OptionIconType": "ChatIcon",
              "TriggerCustomString": "TalkSentence_501024629"
            }
          ]
        }
      ]
    },
    {
      "TaskList": [
        {
          "$type": "RPG.GameCore.WaitCustomString",
          "CustomString": {
            "Value": "TalkSentence_501024629"
          }
        },
        {
          "$type": "RPG.GameCore.PlaySimpleTalk",
          "SimpleTalkList": [
            {
              "TalkSentenceID": 501024630,
              "ProtectTime": 0.3
            }
          ]
        },
        {
          "$type": "RPG.GameCore.WaitSimpleTalkFinish"
        },
        {
          "$type": "RPG.GameCore.EndPerformance"
        }
      ]
    },
    {
      "TaskList": [
        {
          "$type": "RPG.GameCore.WaitPerformanceEnd"
        },
        {
          "$type": "RPG.GameCore.FinishLevelGraph"
        }
      ]
    }
  ]
}