{
  "AIName": "MazeMonster_Patrol_Loop",
  "VariableList": [],
  "DecisionList": [
    {
      "$type": "RPG.GameCore.AIDecisionConfig",
      "DecisionName": "Patrol",
      "ScoreEvaluatorType": "AdventureDefaultDSE",
      "ConsiderAxisList": [
        {
          "$type": "RPG.GameCore.CheckPredicateAxis",
          "Predicate": {
            "$type": "RPG.GameCore.ByAlertValueInRange",
            "AlertValueMax": 5
          },
          "SuccessScore": {
            "Value": 1
          }
        }
      ],
      "RootTask": {
        "$type": "RPG.GameCore.SequenceConfig",
        "TaskList": [
          {
            "$type": "RPG.GameCore.AdvSetNpcVisionsConfig",
            "VisionsByName": [
              "GlobalVisionConfig_Front_Slow",
              "GlobalVisionConfig_Front_Back",
              "GlobalVisionConfig_Front_Fast"
            ]
          },
          {
            "$type": "RPG.GameCore.AdvNPCPatrol",
            "StayOnWaypoint": true,
            "StayOnWaypointDuration": 2
          }
        ]
      }
    },
    {
      "$type": "RPG.GameCore.AIDecisionConfig",
      "DecisionName": "Guarding",
      "ScoreEvaluatorType": "AdventureDefaultDSE",
      "Weight": {
        "Value": 2
      },
      "ConsiderAxisList": [
        {
          "$type": "RPG.GameCore.CheckPredicateAxis",
          "Predicate": {
            "$type": "RPG.GameCore.ByAlertValueInRange",
            "AlertValueMin": 5,
            "AlertValueMax": 25
          },
          "SuccessScore": {
            "Value": 1
          }
        }
      ],
      "RootTask": {
        "$type": "RPG.GameCore.SequenceConfig",
        "TaskList": [
          {
            "$type": "RPG.GameCore.AdvNPCGuarding",
            "SearchOffset": 5.5,
            "OnGuardStart": {
              "$type": "RPG.GameCore.TaskConfig"
            },
            "OnGuardEnd": {
              "$type": "RPG.GameCore.TaskConfig"
            }
          }
        ]
      }
    },
    {
      "$type": "RPG.GameCore.AIDecisionConfig",
      "DecisionName": "Chase",
      "ScoreEvaluatorType": "AdventureDefaultDSE",
      "Weight": {
        "Value": 3
      },
      "ConsiderAxisList": [
        {
          "$type": "RPG.GameCore.CheckPredicateAxis",
          "Predicate": {
            "$type": "RPG.GameCore.ByAlertValueInRange",
            "AlertValueMin": 25,
            "AlertValueMax": 45
          },
          "SuccessScore": {
            "Value": 1
          }
        }
      ],
      "RootTask": {
        "$type": "RPG.GameCore.SequenceConfig",
        "TaskList": [
          {
            "$type": "RPG.GameCore.AdvSetNpcVisionsConfig",
            "VisionsByName": [
              "GlobalVisionConfig_Front_Back_Chase",
              "GlobalVisionConfig_Front_Fast_Chase"
            ]
          },
          {
            "$type": "RPG.GameCore.AdvNPCChase",
            "ChaseRadius": 30,
            "OnMissTarget": {
              "$type": "RPG.GameCore.AdvForceSetNpcAlertValue",
              "AlertValue": 26
            },
            "OnEnterChaseButNoTarget": {
              "$type": "RPG.GameCore.AdvForceSetNpcAlertValue",
              "AlertValue": 26
            }
          }
        ]
      }
    },
    {
      "$type": "RPG.GameCore.AIDecisionConfig",
      "DecisionName": "GoBack",
      "ScoreEvaluatorType": "AdventureDefaultDSE",
      "Weight": {
        "Value": 4
      },
      "ConsiderAxisList": [
        {
          "$type": "RPG.GameCore.CheckPredicateAxis",
          "Predicate": {
            "$type": "RPG.GameCore.ByNPCStatus",
            "NPCStatus": "GoBack"
          },
          "SuccessScore": {
            "Value": 1
          }
        }
      ],
      "RootTask": {
        "$type": "RPG.GameCore.AdvNPCGoback"
      }
    },
    {
      "$type": "RPG.GameCore.AIDecisionConfig",
      "DecisionName": "Attack",
      "ScoreEvaluatorType": "AdventureDefaultDSE",
      "Weight": {
        "Value": 5
      },
      "ConsiderAxisList": [
        {
          "$type": "RPG.GameCore.CheckPredicateAxis",
          "Predicate": {
            "$type": "RPG.GameCore.ByAny",
            "PredicateList": [
              {
                "$type": "RPG.GameCore.ByAnd",
                "PredicateList": [
                  {
                    "$type": "RPG.GameCore.ByInAttackRange",
                    "Target": {
                      "$type": "RPG.GameCore.TargetAlias",
                      "Alias": "AdvLocalPlayer"
                    }
                  },
                  {
                    "$type": "RPG.GameCore.ByAlertValueInRange",
                    "AlertValueMin": 25,
                    "AlertValueMax": 45
                  }
                ]
              },
              {
                "$type": "RPG.GameCore.ByNPCStatus",
                "NPCStatus": "Attack"
              }
            ]
          },
          "SuccessScore": {
            "Value": 1
          }
        }
      ],
      "RootTask": {
        "$type": "RPG.GameCore.SequenceConfig",
        "TaskList": [
          {
            "$type": "RPG.GameCore.AdvNPCAttack",
            "AttackCD": 4
          }
        ]
      }
    }
  ],
  "OnDisable": {
    "$type": "RPG.GameCore.AdvNPCIdle"
  }
}