{
  "OnInitSequece": [],
  "OnStartSequece": [
    {
      "TaskList": [
        {
          "$type": "RPG.GameCore.LevelPerformanceInitialize",
          "PerformanceType": "E",
          "LockCamera": false,
          "CreateCharacterList": [],
          "EntityVisiableList": [],
          "PropVisiableList": [],
          "StreamingCentersInBlackMask": [],
          "StreamingCentersAfterBlackMask": [],
          "MarkStreamingItems": []
        },
        {
          "$type": "RPG.GameCore.AdvNpcFaceToPlayer",
          "FinishImmadiate": true
        },
        {
          "$type": "RPG.GameCore.PlaySimpleTalk",
          "SimpleTalkList": [
            {
              "TalkSentenceID": 100060101,
              "ProtectTime": 0.3
            }
          ]
        },
        {
          "$type": "RPG.GameCore.WaitSimpleTalkFinish"
        },
        {
          "$type": "RPG.GameCore.PlayOptionTalk",
          "OptionList": [
            {
              "TalkSentenceID": 100060102,
              "OptionIconType": "ChatContinueIcon",
              "TriggerCustomString": "TalkSentence_100060102",
              "FinishKey": "0"
            },
            {
              "TalkSentenceID": 100060104,
              "OptionIconType": "ChatContinueIcon",
              "TriggerCustomString": "TalkSentence_100060104",
              "FinishKey": "0"
            }
          ],
          "HideSelected": true
        }
      ]
    },
    {
      "TaskList": [
        {
          "$type": "RPG.GameCore.WaitCustomString",
          "CustomString": {
            "Value": "TalkSentence_100060102"
          }
        },
        {
          "$type": "RPG.GameCore.PlaySimpleTalk",
          "SimpleTalkList": [
            {
              "TalkSentenceID": 100060103,
              "ProtectTime": 0.3
            }
          ]
        },
        {
          "$type": "RPG.GameCore.WaitSimpleTalkFinish"
        },
        {
          "$type": "RPG.GameCore.PlaySimpleTalk",
          "SimpleTalkList": [
            {
              "TalkSentenceID": 100060106,
              "ProtectTime": 0.3
            },
            {
              "TalkSentenceID": 100060107,
              "ProtectTime": 0.3
            },
            {
              "TalkSentenceID": 100060108,
              "ProtectTime": 0.3
            }
          ]
        },
        {
          "$type": "RPG.GameCore.WaitSimpleTalkFinish"
        },
        {
          "$type": "RPG.GameCore.PlayOptionTalk",
          "OptionList": [
            {
              "TalkSentenceID": 100060109,
              "OptionIconType": "ChatContinueIcon",
              "TriggerCustomString": "TalkSentence_100060109",
              "FinishKey": "0"
            },
            {
              "TalkSentenceID": 100060111,
              "OptionIconType": "ChatContinueIcon",
              "TriggerCustomString": "TalkSentence_100060111",
              "FinishKey": "0"
            },
            {
              "TalkSentenceID": 100060113,
              "OptionIconType": "ChatContinueIcon",
              "TriggerCustomString": "TalkSentence_100060113",
              "FinishKey": "0"
            }
          ],
          "HideSelected": true
        }
      ]
    },
    {
      "TaskList": [
        {
          "$type": "RPG.GameCore.WaitCustomString",
          "CustomString": {
            "Value": "TalkSentence_100060104"
          }
        },
        {
          "$type": "RPG.GameCore.PlaySimpleTalk",
          "SimpleTalkList": [
            {
              "TalkSentenceID": 100060105,
              "ProtectTime": 0.3
            }
          ]
        },
        {
          "$type": "RPG.GameCore.WaitSimpleTalkFinish"
        },
        {
          "$type": "RPG.GameCore.PlaySimpleTalk",
          "SimpleTalkList": [
            {
              "TalkSentenceID": 100060106,
              "ProtectTime": 0.3
            },
            {
              "TalkSentenceID": 100060107,
              "ProtectTime": 0.3
            },
            {
              "TalkSentenceID": 100060108,
              "ProtectTime": 0.3
            }
          ]
        },
        {
          "$type": "RPG.GameCore.WaitSimpleTalkFinish"
        },
        {
          "$type": "RPG.GameCore.PlayOptionTalk",
          "OptionList": [
            {
              "TalkSentenceID": 100060109,
              "OptionIconType": "ChatContinueIcon",
              "TriggerCustomString": "TalkSentence_100060109",
              "FinishKey": "0"
            },
            {
              "TalkSentenceID": 100060111,
              "OptionIconType": "ChatContinueIcon",
              "TriggerCustomString": "TalkSentence_100060111",
              "FinishKey": "0"
            },
            {
              "TalkSentenceID": 100060113,
              "OptionIconType": "ChatContinueIcon",
              "TriggerCustomString": "TalkSentence_100060113",
              "FinishKey": "0"
            }
          ],
          "HideSelected": true
        }
      ]
    },
    {
      "TaskList": [
        {
          "$type": "RPG.GameCore.WaitCustomString",
          "CustomString": {
            "Value": "TalkSentence_100060109"
          }
        },
        {
          "$type": "RPG.GameCore.PlaySimpleTalk",
          "SimpleTalkList": [
            {
              "TalkSentenceID": 100060110,
              "ProtectTime": 0.3
            },
            {
              "TalkSentenceID": 100060115,
              "ProtectTime": 0.3
            }
          ]
        },
        {
          "$type": "RPG.GameCore.WaitSimpleTalkFinish"
        },
        {
          "$type": "RPG.GameCore.PlaySimpleTalk",
          "SimpleTalkList": [
            {
              "TalkSentenceID": 100060116,
              "ProtectTime": 0.3
            }
          ]
        },
        {
          "$type": "RPG.GameCore.WaitSimpleTalkFinish"
        },
        {
          "$type": "RPG.GameCore.PlayOptionTalk",
          "OptionList": [
            {
              "TalkSentenceID": 100060117,
              "OptionIconType": "ChatContinueIcon",
              "TriggerCustomString": "TalkSentence_100060117",
              "FinishKey": "0"
            },
            {
              "TalkSentenceID": 100060118,
              "OptionIconType": "ChatContinueIcon",
              "TriggerCustomString": "TalkSentence_100060117",
              "FinishKey": "0"
            }
          ],
          "HideSelected": true
        }
      ]
    },
    {
      "TaskList": [
        {
          "$type": "RPG.GameCore.WaitCustomString",
          "CustomString": {
            "Value": "TalkSentence_100060111"
          }
        },
        {
          "$type": "RPG.GameCore.PlaySimpleTalk",
          "SimpleTalkList": [
            {
              "TalkSentenceID": 100060112,
              "ProtectTime": 0.3
            },
            {
              "TalkSentenceID": 100060115,
              "ProtectTime": 0.3
            }
          ]
        },
        {
          "$type": "RPG.GameCore.WaitSimpleTalkFinish"
        },
        {
          "$type": "RPG.GameCore.PlaySimpleTalk",
          "SimpleTalkList": [
            {
              "TalkSentenceID": 100060116,
              "ProtectTime": 0.3
            }
          ]
        },
        {
          "$type": "RPG.GameCore.WaitSimpleTalkFinish"
        },
        {
          "$type": "RPG.GameCore.PlayOptionTalk",
          "OptionList": [
            {
              "TalkSentenceID": 100060117,
              "OptionIconType": "ChatContinueIcon",
              "TriggerCustomString": "TalkSentence_100060117",
              "FinishKey": "0"
            },
            {
              "TalkSentenceID": 100060118,
              "OptionIconType": "ChatContinueIcon",
              "TriggerCustomString": "TalkSentence_100060117",
              "FinishKey": "0"
            }
          ],
          "HideSelected": true
        }
      ]
    },
    {
      "TaskList": [
        {
          "$type": "RPG.GameCore.WaitCustomString",
          "CustomString": {
            "Value": "TalkSentence_100060113"
          }
        },
        {
          "$type": "RPG.GameCore.PlaySimpleTalk",
          "SimpleTalkList": [
            {
              "TalkSentenceID": 100060114,
              "ProtectTime": 0.3
            },
            {
              "TalkSentenceID": 100060115,
              "ProtectTime": 0.3
            }
          ]
        },
        {
          "$type": "RPG.GameCore.WaitSimpleTalkFinish"
        },
        {
          "$type": "RPG.GameCore.PlaySimpleTalk",
          "SimpleTalkList": [
            {
              "TalkSentenceID": 100060116,
              "ProtectTime": 0.3
            }
          ]
        },
        {
          "$type": "RPG.GameCore.WaitSimpleTalkFinish"
        },
        {
          "$type": "RPG.GameCore.PlayOptionTalk",
          "OptionList": [
            {
              "TalkSentenceID": 100060117,
              "OptionIconType": "ChatContinueIcon",
              "TriggerCustomString": "TalkSentence_100060117",
              "FinishKey": "0"
            },
            {
              "TalkSentenceID": 100060118,
              "OptionIconType": "ChatContinueIcon",
              "TriggerCustomString": "TalkSentence_100060117",
              "FinishKey": "0"
            }
          ],
          "HideSelected": true
        }
      ]
    },
    {
      "TaskList": [
        {
          "$type": "RPG.GameCore.WaitCustomString",
          "CustomString": {
            "Value": "TalkSentence_100060117"
          }
        },
        {
          "$type": "RPG.GameCore.PlaySimpleTalk",
          "SimpleTalkList": [
            {
              "TalkSentenceID": 100060119,
              "ProtectTime": 0.3
            },
            {
              "TalkSentenceID": 100060120,
              "ProtectTime": 0.3
            }
          ]
        },
        {
          "$type": "RPG.GameCore.WaitSimpleTalkFinish"
        },
        {
          "$type": "RPG.GameCore.EndPerformance"
        }
      ]
    },
    {
      "TaskList": [
        {
          "$type": "RPG.GameCore.WaitPerformanceEnd"
        },
        {
          "$type": "RPG.GameCore.FinishLevelGraph"
        }
      ]
    }
  ]
}