{
  "AbilityList": [
    {
      "Modifiers": {
        "StageAbility_3990801_Modifier": {
          "OnListenCharacterCreate": [
            {
              "$type": "RPG.GameCore.PredicateTaskList",
              "Predicate": {
                "$type": "RPG.GameCore.ByTargetTeam",
                "TargetType": {
                  "$type": "RPG.GameCore.TargetAlias",
                  "Alias": "ParamEntity"
                },
                "Team": "TeamLight"
              },
              "SuccessTaskList": [
                {
                  "$type": "RPG.GameCore.AddModifier",
                  "TargetType": {
                    "$type": "RPG.GameCore.TargetAlias",
                    "Alias": "ParamEntity"
                  },
                  "ModifierName": "MLevel_WB_3990801",
                  "DynamicValues": {
                    "MDF_Ratio": {
                      "IsDynamic": true,
                      "Expressions": [
                        {
                          "Type": "DynamicNumber",
                          "DynamicHash": 59671469
                        }
                      ]
                    }
                  }
                }
              ]
            }
          ]
        },
        "MLevel_WB_3990801": {
          "OnStack": [
            {
              "$type": "RPG.GameCore.StackProperty",
              "TargetType": {
                "$type": "RPG.GameCore.TargetAlias",
                "Alias": "ModifierOwnerEntity"
              },
              "Property": "Level_AllDamageAddedRatio",
              "PropertyValue": {
                "IsDynamic": true,
                "Expressions": [
                  {
                    "Type": "DynamicNumber",
                    "DynamicHash": -306891275
                  }
                ]
              }
            }
          ],
          "DynamicValues": {
            "Values": {
              "-306891275": {}
            }
          }
        }
      },
      "Name": "StageAbility_3990801",
      "OnAdd": [
        {
          "$type": "RPG.GameCore.AddModifier",
          "TargetType": {
            "$type": "RPG.GameCore.TargetAlias",
            "Alias": "Caster"
          },
          "ModifierName": "StageAbility_3990801_Modifier"
        }
      ]
    },
    {
      "Modifiers": {
        "StageAbility_3990802_Modifier": {
          "OnListenCharacterCreate": [
            {
              "$type": "RPG.GameCore.PredicateTaskList",
              "Predicate": {
                "$type": "RPG.GameCore.ByTargetTeam",
                "TargetType": {
                  "$type": "RPG.GameCore.TargetAlias",
                  "Alias": "ParamEntity"
                },
                "Team": "TeamDark"
              },
              "SuccessTaskList": [
                {
                  "$type": "RPG.GameCore.AddModifier",
                  "TargetType": {
                    "$type": "RPG.GameCore.TargetAlias",
                    "Alias": "ParamEntity"
                  },
                  "ModifierName": "MLevel_WB_PowerBoss",
                  "DynamicValues": {
                    "ATK_Ratio": {
                      "IsDynamic": false,
                      "FixedValue": {
                        "Value": 0.10000000009313226
                      }
                    },
                    "Count": {
                      "IsDynamic": false,
                      "FixedValue": {
                        "Value": 0
                      }
                    }
                  }
                }
              ]
            }
          ]
        },
        "MLevel_WB_PowerBoss": {
          "OnAllowAction": [
            {
              "$type": "RPG.GameCore.SetDynamicValue",
              "TargetType": {
                "$type": "RPG.GameCore.TargetAlias",
                "Alias": "Caster"
              },
              "DynamicKey": "Count",
              "Value": {
                "IsDynamic": true,
                "Expressions": [
                  {
                    "Type": "DynamicNumber",
                    "DynamicHash": 1554779067
                  },
                  {
                    "Type": "FixedNumber",
                    "FixedValue": {
                      "Value": 1
                    }
                  },
                  {
                    "Type": "Add"
                  }
                ]
              }
            },
            {
              "$type": "RPG.GameCore.AddModifier",
              "TargetType": {
                "$type": "RPG.GameCore.TargetAlias",
                "Alias": "ModifierOwnerEntity"
              },
              "ModifierName": "MLevel_WB_AllDamageAdd",
              "DynamicValues": {
                "ATK_Ratio": {
                  "IsDynamic": true,
                  "Expressions": [
                    {
                      "Type": "DynamicNumber",
                      "DynamicHash": -455908924
                    },
                    {
                      "Type": "DynamicNumber",
                      "DynamicHash": 1554779067
                    },
                    {
                      "Type": "Mul"
                    }
                  ]
                }
              },
              "InheritCaster": "TargetSelf"
            }
          ],
          "OnBeingBreak": [
            {
              "$type": "RPG.GameCore.SetDynamicValue",
              "TargetType": {
                "$type": "RPG.GameCore.TargetAlias",
                "Alias": "Caster"
              },
              "DynamicKey": "Count",
              "Value": {
                "IsDynamic": false,
                "FixedValue": {
                  "Value": 0
                }
              }
            },
            {
              "$type": "RPG.GameCore.AddModifier",
              "TargetType": {
                "$type": "RPG.GameCore.TargetAlias",
                "Alias": "ModifierOwnerEntity"
              },
              "ModifierName": "MLevel_WB_AllDamageAdd",
              "DynamicValues": {
                "ATK_Ratio": {
                  "IsDynamic": true,
                  "Expressions": [
                    {
                      "Type": "DynamicNumber",
                      "DynamicHash": -455908924
                    },
                    {
                      "Type": "DynamicNumber",
                      "DynamicHash": 1554779067
                    },
                    {
                      "Type": "Mul"
                    }
                  ]
                }
              },
              "InheritCaster": "TargetSelf"
            },
            {
              "$type": "RPG.GameCore.AddModifier",
              "TargetType": {
                "$type": "RPG.GameCore.TargetAlias",
                "Alias": "ModifierOwnerEntity"
              },
              "ModifierName": "MLevel_WB_AllDamageReSet"
            }
          ],
          "DynamicValues": {
            "Values": {
              "-455908924": {},
              "1554779067": {}
            }
          }
        },
        "MLevel_WB_AllDamageReSet": {
          "OnCreate": [
            {
              "$type": "RPG.GameCore.RemoveModifier",
              "TargetType": {
                "$type": "RPG.GameCore.TargetAlias",
                "Alias": "ModifierOwnerEntity"
              },
              "ModifierName": "MLevel_WB_AllDamageReSet"
            }
          ]
        },
        "MLevel_WB_AllDamageAdd": {
          "OnAfterAttack": [
            {
              "$type": "RPG.GameCore.LoopExecuteTaskList",
              "MaxLoopCount": {
                "IsDynamic": false,
                "FixedValue": {
                  "Value": 1
                }
              },
              "TaskList": [
                {
                  "$type": "RPG.GameCore.Retarget",
                  "TargetType": {
                    "$type": "RPG.GameCore.TargetAlias",
                    "Alias": "AttackTargetList"
                  },
                  "MaxNumber": {
                    "IsDynamic": false,
                    "FixedValue": {
                      "Value": 4
                    }
                  },
                  "TaskList": [
                    {
                      "$type": "RPG.GameCore.DamageByAttackProperty",
                      "TargetType": {
                        "$type": "RPG.GameCore.TargetAlias",
                        "Alias": "ParamEntity"
                      },
                      "AttackProperty": {
                        "DamageType": "Ice",
                        "DamagePercentage": {
                          "IsDynamic": true,
                          "Expressions": [
                            {
                              "Type": "DynamicNumber",
                              "DynamicHash": -455908924
                            }
                          ]
                        },
                        "AttackType": "Pursued",
                        "HitAnimation": "Hit",
                        "HitPosHeight": 2
                      }
                    }
                  ]
                }
              ]
            }
          ],
          "Stacking": "Replace",
          "DynamicValues": {
            "Values": {
              "-455908924": {}
            }
          }
        }
      },
      "Name": "StageAbility_3990802",
      "OnAdd": [
        {
          "$type": "RPG.GameCore.AddModifier",
          "TargetType": {
            "$type": "RPG.GameCore.TargetAlias",
            "Alias": "Caster"
          },
          "ModifierName": "StageAbility_3990802_Modifier"
        }
      ]
    },
    {
      "Modifiers": {
        "StageAbility_3990803_Modifier": {
          "OnListenCharacterCreate": [
            {
              "$type": "RPG.GameCore.PredicateTaskList",
              "Predicate": {
                "$type": "RPG.GameCore.ByTargetTeam",
                "TargetType": {
                  "$type": "RPG.GameCore.TargetAlias",
                  "Alias": "ParamEntity"
                },
                "Team": "TeamDark"
              },
              "SuccessTaskList": [
                {
                  "$type": "RPG.GameCore.AddModifier",
                  "TargetType": {
                    "$type": "RPG.GameCore.TargetAlias",
                    "Alias": "ParamEntity"
                  },
                  "ModifierName": "MLevel_WB_PowerBoss_HP",
                  "DynamicValues": {
                    "HP_Ratio": {
                      "IsDynamic": true,
                      "Expressions": [
                        {
                          "Type": "DynamicNumber",
                          "DynamicHash": 59671469
                        }
                      ]
                    }
                  }
                }
              ]
            }
          ],
          "Stacking": "Replace"
        },
        "MLevel_WB_PowerBoss_HealHP": {
          "OnCreate": [
            {
              "$type": "RPG.GameCore.TriggerEffect",
              "TargetType": {
                "$type": "RPG.GameCore.TargetAlias",
                "Alias": "ModifierOwnerEntity"
              },
              "EffectPath": "Effects/Eff_Prefab/Eff_Common/Eff_Common_Heal.prefab"
            },
            {
              "$type": "RPG.GameCore.HealHP",
              "TargetType": {
                "$type": "RPG.GameCore.TargetAlias",
                "Alias": "ModifierOwnerEntity"
              },
              "FormulaType": "HealByTargetMaxHP",
              "HealPercentage": {
                "IsDynamic": true,
                "Expressions": [
                  {
                    "Type": "DynamicNumber",
                    "DynamicHash": -1169441530
                  }
                ]
              }
            },
            {
              "$type": "RPG.GameCore.RemoveModifier",
              "TargetType": {
                "$type": "RPG.GameCore.TargetAlias",
                "Alias": "ModifierOwnerEntity"
              },
              "ModifierName": "MLevel_WB_PowerBoss_HealHP"
            }
          ],
          "DynamicValues": {
            "Values": {
              "-1169441530": {}
            }
          }
        },
        "MLevel_WB_PowerBoss_RemoveHeal": {
          "OnCreate": [
            {
              "$type": "RPG.GameCore.RemoveModifier",
              "TargetType": {
                "$type": "RPG.GameCore.TargetAlias",
                "Alias": "ModifierOwnerEntity"
              },
              "ModifierName": "MLevel_WB_PowerBoss_RemoveHeal"
            }
          ]
        },
        "MLevel_WB_PowerBoss_HP": {
          "LayerAddWhenStack": {
            "IsDynamic": false,
            "FixedValue": {
              "Value": 1
            }
          },
          "LifeStepMoment": "ModifierPhase1End",
          "PerformTime": {
            "IsDynamic": false,
            "FixedValue": {
              "Value": 0.3000000002793968
            }
          },
          "OnCreate": [
            {
              "$type": "RPG.GameCore.PredicateTaskList",
              "Predicate": {
                "$type": "RPG.GameCore.ByInTurnBasedGameModeState"
              },
              "SuccessTaskList": [],
              "FailedTaskList": [
                {
                  "$type": "RPG.GameCore.AddBuffPerform",
                  "TargetType": {
                    "$type": "RPG.GameCore.TargetAlias",
                    "Alias": "ModifierOwnerEntity"
                  },
                  "TaskList": [
                    {
                      "$type": "RPG.GameCore.TriggerEffect",
                      "TargetType": {
                        "$type": "RPG.GameCore.TargetAlias",
                        "Alias": "ModifierOwnerEntity"
                      },
                      "EffectPath": "Effects/Eff_Prefab/Eff_Common/Eff_Buff_Common_Fire_Add.prefab",
                      "AttachPoint": "SelectRoot"
                    }
                  ],
                  "AddPerformTime": {
                    "IsDynamic": false,
                    "FixedValue": {
                      "Value": 0.7500000006984919
                    }
                  }
                }
              ]
            }
          ],
          "OnPhase1": [
            {
              "$type": "RPG.GameCore.AddModifier",
              "TargetType": {
                "$type": "RPG.GameCore.TargetAlias",
                "Alias": "ModifierOwnerEntity"
              },
              "ModifierName": "MLevel_WB_PowerBoss_HealHP",
              "DynamicValues": {
                "HP_Ratio": {
                  "IsDynamic": true,
                  "Expressions": [
                    {
                      "Type": "DynamicNumber",
                      "DynamicHash": -1169441530
                    }
                  ]
                }
              }
            }
          ],
          "OnBeingBreak": [
            {
              "$type": "RPG.GameCore.RemoveModifier",
              "TargetType": {
                "$type": "RPG.GameCore.TargetAlias",
                "Alias": "ModifierOwnerEntity"
              },
              "ModifierName": "MLevel_WB_PowerBoss_HP"
            },
            {
              "$type": "RPG.GameCore.AddModifier",
              "TargetType": {
                "$type": "RPG.GameCore.TargetAlias",
                "Alias": "ModifierOwnerEntity"
              },
              "ModifierName": "MLevel_WB_PowerBoss_RemoveHeal"
            }
          ],
          "Stacking": "ReplaceByCaster",
          "DynamicValues": {
            "Values": {
              "-1169441530": {}
            }
          }
        }
      },
      "Name": "StageAbility_3990803",
      "OnAdd": [
        {
          "$type": "RPG.GameCore.AddModifier",
          "TargetType": {
            "$type": "RPG.GameCore.TargetAlias",
            "Alias": "Caster"
          },
          "ModifierName": "StageAbility_3990803_Modifier"
        }
      ]
    },
    {
      "Modifiers": {
        "StageAbility_3990804_Modifier": {
          "OnListenCharacterCreate": [
            {
              "$type": "RPG.GameCore.PredicateTaskList",
              "Predicate": {
                "$type": "RPG.GameCore.ByTargetTeam",
                "TargetType": {
                  "$type": "RPG.GameCore.TargetAlias",
                  "Alias": "ParamEntity"
                },
                "Team": "TeamDark"
              },
              "SuccessTaskList": [
                {
                  "$type": "RPG.GameCore.AddModifier",
                  "TargetType": {
                    "$type": "RPG.GameCore.TargetAlias",
                    "Alias": "ParamEntity"
                  },
                  "ModifierName": "MLevel_WB_PowerBoss_ATKSlow",
                  "DynamicValues": {
                    "ATK_Ratio": {
                      "IsDynamic": false,
                      "FixedValue": {
                        "Value": 0.10000000009313226
                      }
                    }
                  }
                }
              ]
            }
          ]
        },
        "MLevel_WB_PowerBoss_RemoveATKSlow": {
          "OnCreate": [
            {
              "$type": "RPG.GameCore.RemoveModifier",
              "TargetType": {
                "$type": "RPG.GameCore.TargetAlias",
                "Alias": "ModifierOwnerEntity"
              },
              "ModifierName": "MLevel_WB_PowerBoss_RemoveATKSlow"
            }
          ]
        },
        "MLevel_WB_PowerBoss_ATKSlow": {
          "OnAfterAttack": [
            {
              "$type": "RPG.GameCore.Retarget",
              "TargetType": {
                "$type": "RPG.GameCore.TargetAlias",
                "Alias": "AttackTargetList"
              },
              "TaskList": [
                {
                  "$type": "RPG.GameCore.AddModifier",
                  "TargetType": {
                    "$type": "RPG.GameCore.TargetAlias",
                    "Alias": "ParamEntity"
                  },
                  "ModifierName": "MLevel_WB_PowerBoss_Slow",
                  "DynamicValues": {
                    "ATK_Ratio": {
                      "IsDynamic": false,
                      "FixedValue": {
                        "Value": 0.10000000009313226
                      }
                    }
                  }
                }
              ]
            }
          ],
          "OnBeingBreak": [
            {
              "$type": "RPG.GameCore.RemoveModifier",
              "TargetType": {
                "$type": "RPG.GameCore.TargetAlias",
                "Alias": "ModifierOwnerEntity"
              },
              "ModifierName": "MLevel_WB_PowerBoss_ATKSlow"
            },
            {
              "$type": "RPG.GameCore.AddModifier",
              "TargetType": {
                "$type": "RPG.GameCore.TargetAlias",
                "Alias": "ModifierOwnerEntity"
              },
              "ModifierName": "MLevel_WB_PowerBoss_RemoveATKSlow"
            }
          ],
          "DynamicValues": {
            "Values": {
              "-455908924": {},
              "1554779067": {}
            }
          }
        },
        "MLevel_WB_PowerBoss_Slow": {
          "OnCreate": [
            {
              "$type": "RPG.GameCore.ModifyActionDelay",
              "TargetType": {
                "$type": "RPG.GameCore.TargetAlias",
                "Alias": "ModifierOwnerEntity"
              },
              "AddNormalizedValue": {
                "IsDynamic": false,
                "FixedValue": {
                  "Value": 0.10000000009313226
                }
              }
            },
            {
              "$type": "RPG.GameCore.RemoveModifier",
              "TargetType": {
                "$type": "RPG.GameCore.TargetAlias",
                "Alias": "ModifierOwnerEntity"
              },
              "ModifierName": "MLevel_WB_PowerBoss_Slow"
            }
          ]
        }
      },
      "Name": "StageAbility_3990804",
      "OnAdd": [
        {
          "$type": "RPG.GameCore.AddModifier",
          "TargetType": {
            "$type": "RPG.GameCore.TargetAlias",
            "Alias": "Caster"
          },
          "ModifierName": "StageAbility_3990804_Modifier"
        }
      ]
    },
    {
      "Modifiers": {
        "StageAbility_MechanismSnow_Modifier": {
          "OnCreate": [
            {
              "$type": "RPG.GameCore.PredicateTaskList",
              "Predicate": {
                "$type": "RPG.GameCore.ByTargetTeam",
                "TargetType": {
                  "$type": "RPG.GameCore.TargetAlias",
                  "Alias": "Caster"
                },
                "Team": "TeamLight"
              },
              "SuccessTaskList": []
            },
            {
              "$type": "RPG.GameCore.AddModifier",
              "TargetType": {
                "$type": "RPG.GameCore.TargetAlias",
                "Alias": "Caster"
              },
              "ModifierName": "Mechanism_SnowAdd_Modifier"
            },
            {
              "$type": "RPG.GameCore.RemoveModifier",
              "TargetType": {
                "$type": "RPG.GameCore.TargetAlias",
                "Alias": "Caster"
              },
              "ModifierName": "StageAbility_MechanismSnow_Modifier"
            }
          ],
          "Stacking": "Replace"
        },
        "Mechanism_SnowAdd_Modifier": {
          "OnCreate": [],
          "OnActionEnd": [
            {
              "$type": "RPG.GameCore.PredicateTaskList",
              "Predicate": {
                "$type": "RPG.GameCore.ByIsContainModifier",
                "TargetType": {
                  "$type": "RPG.GameCore.TargetAlias",
                  "Alias": "ModifierOwnerEntity"
                },
                "ModifierName": "MLevel_WB_StageAbility_Furance_LightTeam_Modifier"
              },
              "FailedTaskList": [
                {
                  "$type": "RPG.GameCore.ChangeMechanismBarValue",
                  "ID": 1,
                  "DeltaValue": 2
                }
              ]
            }
          ],
          "Stacking": "Replace"
        }
      },
      "Name": "StageAbility_3990901",
      "OnAdd": [
        {
          "$type": "RPG.GameCore.AddModifier",
          "TargetType": {
            "$type": "RPG.GameCore.TargetAlias",
            "Alias": "Caster"
          },
          "ModifierName": "StageAbility_MechanismSnow_Modifier"
        },
        {
          "$type": "RPG.GameCore.PredicateTaskList",
          "Predicate": {
            "$type": "RPG.GameCore.ByTargetTeam",
            "TargetType": {
              "$type": "RPG.GameCore.TargetAlias",
              "Alias": "Caster"
            },
            "Team": "TeamLight"
          },
          "SuccessTaskList": [
            {
              "$type": "RPG.GameCore.RemoveModifier",
              "TargetType": {
                "$type": "RPG.GameCore.TargetAlias",
                "Alias": "ModifierOwnerEntity"
              },
              "ModifierName": "MCommon_SpeedDown"
            },
            {
              "$type": "RPG.GameCore.AddModifier",
              "TargetType": {
                "$type": "RPG.GameCore.TargetAlias",
                "Alias": "ModifierOwnerEntity"
              },
              "ModifierName": "MCommon_SpeedDown",
              "LifeTime": {
                "IsDynamic": false,
                "FixedValue": {
                  "Value": -1
                }
              },
              "DynamicValues": {
                "MDF_PropertyValue": {
                  "IsDynamic": false,
                  "FixedValue": {
                    "Value": 10
                  }
                }
              }
            }
          ]
        }
      ]
    },
    {
      "Modifiers": {
        "StageAbility_MechanismSnow_Modifier": {
          "OnCreate": [
            {
              "$type": "RPG.GameCore.PredicateTaskList",
              "Predicate": {
                "$type": "RPG.GameCore.ByTargetTeam",
                "TargetType": {
                  "$type": "RPG.GameCore.TargetAlias",
                  "Alias": "Caster"
                },
                "Team": "TeamLight"
              },
              "SuccessTaskList": []
            },
            {
              "$type": "RPG.GameCore.AddModifier",
              "TargetType": {
                "$type": "RPG.GameCore.TargetAlias",
                "Alias": "Caster"
              },
              "ModifierName": "Mechanism_SnowAdd_Modifier"
            },
            {
              "$type": "RPG.GameCore.RemoveModifier",
              "TargetType": {
                "$type": "RPG.GameCore.TargetAlias",
                "Alias": "Caster"
              },
              "ModifierName": "StageAbility_MechanismSnow_Modifier"
            }
          ],
          "Stacking": "Replace"
        },
        "MLevel_WB_Snow_LoseHP": {
          "LayerAddWhenStack": {
            "IsDynamic": false,
            "FixedValue": {
              "Value": 1
            }
          },
          "LifeStepMoment": "ModifierPhase1End",
          "PerformTime": {
            "IsDynamic": false,
            "FixedValue": {
              "Value": 0.3000000002793968
            }
          },
          "OnCreate": [
            {
              "$type": "RPG.GameCore.PredicateTaskList",
              "Predicate": {
                "$type": "RPG.GameCore.ByInTurnBasedGameModeState"
              },
              "SuccessTaskList": [],
              "FailedTaskList": [
                {
                  "$type": "RPG.GameCore.AddBuffPerform",
                  "TargetType": {
                    "$type": "RPG.GameCore.TargetAlias",
                    "Alias": "ModifierOwnerEntity"
                  },
                  "TaskList": [
                    {
                      "$type": "RPG.GameCore.TriggerEffect",
                      "TargetType": {
                        "$type": "RPG.GameCore.TargetAlias",
                        "Alias": "ModifierOwnerEntity"
                      },
                      "EffectPath": "Effects/Eff_Prefab/Eff_Common/Eff_Buff_Common_Ice_Add.prefab",
                      "AttachPoint": "SelectRoot"
                    }
                  ],
                  "AddPerformTime": {
                    "IsDynamic": false,
                    "FixedValue": {
                      "Value": 1
                    }
                  }
                }
              ]
            }
          ],
          "OnPhase1": [
            {
              "$type": "RPG.GameCore.ShowEntityFloatMessage",
              "TargetType": {
                "$type": "RPG.GameCore.TargetAlias",
                "Alias": "ModifierOwnerEntity"
              },
              "ContentID": {
                "Hash": 1272228075
              }
            },
            {
              "$type": "RPG.GameCore.LoseHPByRatio",
              "TargetType": {
                "$type": "RPG.GameCore.TargetAlias",
                "Alias": "ModifierOwnerEntity"
              },
              "AttackType": "Insert",
              "DamageType": "Ice",
              "RatioType": "MaxHP",
              "Ratio": {
                "IsDynamic": true,
                "Expressions": [
                  {
                    "Type": "DynamicNumber",
                    "DynamicHash": -325944519
                  }
                ]
              },
              "Floor": {
                "Value": 1
              }
            },
            {
              "$type": "RPG.GameCore.TriggerEffect",
              "TargetType": {
                "$type": "RPG.GameCore.TargetAlias",
                "Alias": "ModifierOwnerEntity"
              },
              "EffectPath": "Effects/Eff_Prefab/Eff_Common/Eff_Buff_Common_Ice_Trigger.prefab",
              "AttachPoint": "SelectRoot"
            }
          ],
          "Stacking": "ReplaceByCaster",
          "DynamicValues": {
            "Values": {
              "-325944519": {}
            }
          }
        },
        "Mechanism_SnowAdd_Modifier": {
          "OnCreate": [],
          "OnActionEnd": [
            {
              "$type": "RPG.GameCore.PredicateTaskList",
              "Predicate": {
                "$type": "RPG.GameCore.ByIsContainModifier",
                "TargetType": {
                  "$type": "RPG.GameCore.TargetAlias",
                  "Alias": "ModifierOwnerEntity"
                },
                "ModifierName": "MLevel_WB_StageAbility_Furance_LightTeam_Modifier"
              },
              "FailedTaskList": [
                {
                  "$type": "RPG.GameCore.ChangeMechanismBarValue",
                  "ID": 1,
                  "DeltaValue": 2
                }
              ]
            }
          ],
          "Stacking": "Replace"
        }
      },
      "Name": "StageAbility_3990902",
      "OnAdd": [
        {
          "$type": "RPG.GameCore.AddModifier",
          "TargetType": {
            "$type": "RPG.GameCore.TargetAlias",
            "Alias": "Caster"
          },
          "ModifierName": "StageAbility_MechanismSnow_Modifier"
        },
        {
          "$type": "RPG.GameCore.PredicateTaskList",
          "Predicate": {
            "$type": "RPG.GameCore.ByTargetTeam",
            "TargetType": {
              "$type": "RPG.GameCore.TargetAlias",
              "Alias": "Caster"
            },
            "Team": "TeamLight"
          },
          "SuccessTaskList": [
            {
              "$type": "RPG.GameCore.RemoveModifier",
              "TargetType": {
                "$type": "RPG.GameCore.TargetAlias",
                "Alias": "ModifierOwnerEntity"
              },
              "ModifierName": "MCommon_SpeedDown"
            },
            {
              "$type": "RPG.GameCore.AddModifier",
              "TargetType": {
                "$type": "RPG.GameCore.TargetAlias",
                "Alias": "ModifierOwnerEntity"
              },
              "ModifierName": "MCommon_SpeedDown",
              "LifeTime": {
                "IsDynamic": false,
                "FixedValue": {
                  "Value": -1
                }
              },
              "DynamicValues": {
                "MDF_PropertyValue": {
                  "IsDynamic": false,
                  "FixedValue": {
                    "Value": 20
                  }
                }
              }
            },
            {
              "$type": "RPG.GameCore.RemoveModifier",
              "TargetType": {
                "$type": "RPG.GameCore.TargetAlias",
                "Alias": "ModifierOwnerEntity"
              },
              "ModifierName": "MLevel_WB_Snow_LoseHP"
            },
            {
              "$type": "RPG.GameCore.AddModifier",
              "TargetType": {
                "$type": "RPG.GameCore.TargetAlias",
                "Alias": "ModifierOwnerEntity"
              },
              "ModifierName": "MLevel_WB_Snow_LoseHP",
              "LifeTime": {
                "IsDynamic": false,
                "FixedValue": {
                  "Value": -1
                }
              },
              "DynamicValues": {
                "LoseHP_Value": {
                  "IsDynamic": false,
                  "FixedValue": {
                    "Value": 0.05000000004656613
                  }
                }
              }
            }
          ]
        }
      ]
    },
    {
      "Modifiers": {
        "StageAbility_MechanismSnow_Modifier": {
          "OnCreate": [
            {
              "$type": "RPG.GameCore.PredicateTaskList",
              "Predicate": {
                "$type": "RPG.GameCore.ByTargetTeam",
                "TargetType": {
                  "$type": "RPG.GameCore.TargetAlias",
                  "Alias": "Caster"
                },
                "Team": "TeamLight"
              },
              "SuccessTaskList": []
            },
            {
              "$type": "RPG.GameCore.AddModifier",
              "TargetType": {
                "$type": "RPG.GameCore.TargetAlias",
                "Alias": "Caster"
              },
              "ModifierName": "Mechanism_SnowAdd_Modifier"
            },
            {
              "$type": "RPG.GameCore.RemoveModifier",
              "TargetType": {
                "$type": "RPG.GameCore.TargetAlias",
                "Alias": "Caster"
              },
              "ModifierName": "StageAbility_MechanismSnow_Modifier"
            }
          ],
          "Stacking": "Replace"
        },
        "MLevel_WB_Snow_LoseHP": {
          "LayerAddWhenStack": {
            "IsDynamic": false,
            "FixedValue": {
              "Value": 1
            }
          },
          "LifeStepMoment": "ModifierPhase1End",
          "PerformTime": {
            "IsDynamic": false,
            "FixedValue": {
              "Value": 0.3000000002793968
            }
          },
          "OnCreate": [
            {
              "$type": "RPG.GameCore.PredicateTaskList",
              "Predicate": {
                "$type": "RPG.GameCore.ByInTurnBasedGameModeState"
              },
              "SuccessTaskList": [],
              "FailedTaskList": [
                {
                  "$type": "RPG.GameCore.AddBuffPerform",
                  "TargetType": {
                    "$type": "RPG.GameCore.TargetAlias",
                    "Alias": "ModifierOwnerEntity"
                  },
                  "TaskList": [
                    {
                      "$type": "RPG.GameCore.TriggerEffect",
                      "TargetType": {
                        "$type": "RPG.GameCore.TargetAlias",
                        "Alias": "ModifierOwnerEntity"
                      },
                      "EffectPath": "Effects/Eff_Prefab/Eff_Common/Eff_Buff_Common_Ice_Add.prefab",
                      "AttachPoint": "SelectRoot"
                    }
                  ],
                  "AddPerformTime": {
                    "IsDynamic": false,
                    "FixedValue": {
                      "Value": 1
                    }
                  }
                }
              ]
            }
          ],
          "OnPhase1": [
            {
              "$type": "RPG.GameCore.ShowEntityFloatMessage",
              "TargetType": {
                "$type": "RPG.GameCore.TargetAlias",
                "Alias": "ModifierOwnerEntity"
              },
              "ContentID": {
                "Hash": 1272228075
              }
            },
            {
              "$type": "RPG.GameCore.LoseHPByRatio",
              "TargetType": {
                "$type": "RPG.GameCore.TargetAlias",
                "Alias": "ModifierOwnerEntity"
              },
              "AttackType": "Insert",
              "DamageType": "Ice",
              "RatioType": "MaxHP",
              "Ratio": {
                "IsDynamic": true,
                "Expressions": [
                  {
                    "Type": "DynamicNumber",
                    "DynamicHash": -325944519
                  }
                ]
              },
              "Floor": {
                "Value": 1
              }
            },
            {
              "$type": "RPG.GameCore.TriggerEffect",
              "TargetType": {
                "$type": "RPG.GameCore.TargetAlias",
                "Alias": "ModifierOwnerEntity"
              },
              "EffectPath": "Effects/Eff_Prefab/Eff_Common/Eff_Buff_Common_Ice_Trigger.prefab",
              "AttachPoint": "SelectRoot"
            }
          ],
          "Stacking": "ReplaceByCaster",
          "DynamicValues": {
            "Values": {
              "-325944519": {}
            }
          }
        },
        "Mechanism_SnowAdd_Modifier": {
          "OnCreate": [],
          "OnActionEnd": [
            {
              "$type": "RPG.GameCore.PredicateTaskList",
              "Predicate": {
                "$type": "RPG.GameCore.ByIsContainModifier",
                "TargetType": {
                  "$type": "RPG.GameCore.TargetAlias",
                  "Alias": "ModifierOwnerEntity"
                },
                "ModifierName": "MLevel_WB_StageAbility_Furance_LightTeam_Modifier"
              },
              "FailedTaskList": [
                {
                  "$type": "RPG.GameCore.ChangeMechanismBarValue",
                  "ID": 1,
                  "DeltaValue": 2
                }
              ]
            }
          ],
          "Stacking": "Replace"
        }
      },
      "Name": "StageAbility_3990903",
      "OnAdd": [
        {
          "$type": "RPG.GameCore.AddModifier",
          "TargetType": {
            "$type": "RPG.GameCore.TargetAlias",
            "Alias": "Caster"
          },
          "ModifierName": "StageAbility_MechanismSnow_Modifier"
        },
        {
          "$type": "RPG.GameCore.PredicateTaskList",
          "Predicate": {
            "$type": "RPG.GameCore.ByTargetTeam",
            "TargetType": {
              "$type": "RPG.GameCore.TargetAlias",
              "Alias": "Caster"
            },
            "Team": "TeamLight"
          },
          "SuccessTaskList": [
            {
              "$type": "RPG.GameCore.RemoveModifier",
              "TargetType": {
                "$type": "RPG.GameCore.TargetAlias",
                "Alias": "ModifierOwnerEntity"
              },
              "ModifierName": "MCommon_SpeedDown"
            },
            {
              "$type": "RPG.GameCore.AddModifier",
              "TargetType": {
                "$type": "RPG.GameCore.TargetAlias",
                "Alias": "ModifierOwnerEntity"
              },
              "ModifierName": "MCommon_SpeedDown",
              "LifeTime": {
                "IsDynamic": false,
                "FixedValue": {
                  "Value": -1
                }
              },
              "DynamicValues": {
                "MDF_PropertyValue": {
                  "IsDynamic": false,
                  "FixedValue": {
                    "Value": 30
                  }
                }
              }
            },
            {
              "$type": "RPG.GameCore.RemoveModifier",
              "TargetType": {
                "$type": "RPG.GameCore.TargetAlias",
                "Alias": "ModifierOwnerEntity"
              },
              "ModifierName": "MLevel_WB_Snow_LoseHP"
            },
            {
              "$type": "RPG.GameCore.AddModifier",
              "TargetType": {
                "$type": "RPG.GameCore.TargetAlias",
                "Alias": "ModifierOwnerEntity"
              },
              "ModifierName": "MLevel_WB_Snow_LoseHP",
              "LifeTime": {
                "IsDynamic": false,
                "FixedValue": {
                  "Value": -1
                }
              },
              "DynamicValues": {
                "LoseHP_Value": {
                  "IsDynamic": false,
                  "FixedValue": {
                    "Value": 0.10000000009313226
                  }
                }
              }
            }
          ]
        }
      ]
    },
    {
      "Modifiers": {
        "StageAbility_MechanismSnow_Modifier": {
          "OnCreate": [
            {
              "$type": "RPG.GameCore.PredicateTaskList",
              "Predicate": {
                "$type": "RPG.GameCore.ByTargetTeam",
                "TargetType": {
                  "$type": "RPG.GameCore.TargetAlias",
                  "Alias": "Caster"
                },
                "Team": "TeamLight"
              },
              "SuccessTaskList": []
            },
            {
              "$type": "RPG.GameCore.AddModifier",
              "TargetType": {
                "$type": "RPG.GameCore.TargetAlias",
                "Alias": "Caster"
              },
              "ModifierName": "Mechanism_SnowAdd_Modifier"
            },
            {
              "$type": "RPG.GameCore.RemoveModifier",
              "TargetType": {
                "$type": "RPG.GameCore.TargetAlias",
                "Alias": "Caster"
              },
              "ModifierName": "StageAbility_MechanismSnow_Modifier"
            }
          ],
          "Stacking": "Replace"
        },
        "MLevel_WB_Snow_LoseHP": {
          "LayerAddWhenStack": {
            "IsDynamic": false,
            "FixedValue": {
              "Value": 1
            }
          },
          "LifeStepMoment": "ModifierPhase1End",
          "PerformTime": {
            "IsDynamic": false,
            "FixedValue": {
              "Value": 0.3000000002793968
            }
          },
          "OnCreate": [
            {
              "$type": "RPG.GameCore.PredicateTaskList",
              "Predicate": {
                "$type": "RPG.GameCore.ByInTurnBasedGameModeState"
              },
              "SuccessTaskList": [],
              "FailedTaskList": [
                {
                  "$type": "RPG.GameCore.AddBuffPerform",
                  "TargetType": {
                    "$type": "RPG.GameCore.TargetAlias",
                    "Alias": "ModifierOwnerEntity"
                  },
                  "TaskList": [
                    {
                      "$type": "RPG.GameCore.TriggerEffect",
                      "TargetType": {
                        "$type": "RPG.GameCore.TargetAlias",
                        "Alias": "ModifierOwnerEntity"
                      },
                      "EffectPath": "Effects/Eff_Prefab/Eff_Common/Eff_Buff_Common_Ice_Add.prefab",
                      "AttachPoint": "SelectRoot"
                    }
                  ],
                  "AddPerformTime": {
                    "IsDynamic": false,
                    "FixedValue": {
                      "Value": 1
                    }
                  }
                }
              ]
            }
          ],
          "OnPhase1": [
            {
              "$type": "RPG.GameCore.ShowEntityFloatMessage",
              "TargetType": {
                "$type": "RPG.GameCore.TargetAlias",
                "Alias": "ModifierOwnerEntity"
              },
              "ContentID": {
                "Hash": 1272228075
              }
            },
            {
              "$type": "RPG.GameCore.LoseHPByRatio",
              "TargetType": {
                "$type": "RPG.GameCore.TargetAlias",
                "Alias": "ModifierOwnerEntity"
              },
              "AttackType": "Insert",
              "DamageType": "Ice",
              "RatioType": "MaxHP",
              "Ratio": {
                "IsDynamic": true,
                "Expressions": [
                  {
                    "Type": "DynamicNumber",
                    "DynamicHash": -325944519
                  }
                ]
              },
              "Floor": {
                "Value": 1
              }
            },
            {
              "$type": "RPG.GameCore.TriggerEffect",
              "TargetType": {
                "$type": "RPG.GameCore.TargetAlias",
                "Alias": "ModifierOwnerEntity"
              },
              "EffectPath": "Effects/Eff_Prefab/Eff_Common/Eff_Buff_Common_Ice_Trigger.prefab",
              "AttachPoint": "SelectRoot"
            }
          ],
          "Stacking": "ReplaceByCaster",
          "DynamicValues": {
            "Values": {
              "-325944519": {}
            }
          }
        },
        "Mechanism_SnowAdd_Modifier": {
          "OnCreate": [],
          "OnActionEnd": [
            {
              "$type": "RPG.GameCore.PredicateTaskList",
              "Predicate": {
                "$type": "RPG.GameCore.ByIsContainModifier",
                "TargetType": {
                  "$type": "RPG.GameCore.TargetAlias",
                  "Alias": "ModifierOwnerEntity"
                },
                "ModifierName": "MLevel_WB_StageAbility_Furance_LightTeam_Modifier"
              },
              "FailedTaskList": [
                {
                  "$type": "RPG.GameCore.ChangeMechanismBarValue",
                  "ID": 1,
                  "DeltaValue": 2
                }
              ]
            }
          ],
          "Stacking": "Replace"
        }
      },
      "Name": "StageAbility_3990904",
      "OnAdd": [
        {
          "$type": "RPG.GameCore.AddModifier",
          "TargetType": {
            "$type": "RPG.GameCore.TargetAlias",
            "Alias": "Caster"
          },
          "ModifierName": "StageAbility_MechanismSnow_Modifier"
        },
        {
          "$type": "RPG.GameCore.PredicateTaskList",
          "Predicate": {
            "$type": "RPG.GameCore.ByTargetTeam",
            "TargetType": {
              "$type": "RPG.GameCore.TargetAlias",
              "Alias": "Caster"
            },
            "Team": "TeamLight"
          },
          "SuccessTaskList": [
            {
              "$type": "RPG.GameCore.RemoveModifier",
              "TargetType": {
                "$type": "RPG.GameCore.TargetAlias",
                "Alias": "ModifierOwnerEntity"
              },
              "ModifierName": "MCommon_SpeedDown"
            },
            {
              "$type": "RPG.GameCore.AddModifier",
              "TargetType": {
                "$type": "RPG.GameCore.TargetAlias",
                "Alias": "ModifierOwnerEntity"
              },
              "ModifierName": "MCommon_SpeedDown",
              "LifeTime": {
                "IsDynamic": false,
                "FixedValue": {
                  "Value": -1
                }
              },
              "DynamicValues": {
                "MDF_PropertyValue": {
                  "IsDynamic": false,
                  "FixedValue": {
                    "Value": 35
                  }
                }
              }
            },
            {
              "$type": "RPG.GameCore.RemoveModifier",
              "TargetType": {
                "$type": "RPG.GameCore.TargetAlias",
                "Alias": "ModifierOwnerEntity"
              },
              "ModifierName": "MLevel_WB_Snow_LoseHP"
            },
            {
              "$type": "RPG.GameCore.AddModifier",
              "TargetType": {
                "$type": "RPG.GameCore.TargetAlias",
                "Alias": "ModifierOwnerEntity"
              },
              "ModifierName": "MLevel_WB_Snow_LoseHP",
              "LifeTime": {
                "IsDynamic": false,
                "FixedValue": {
                  "Value": -1
                }
              },
              "DynamicValues": {
                "LoseHP_Value": {
                  "IsDynamic": false,
                  "FixedValue": {
                    "Value": 0.1500000001396984
                  }
                }
              }
            }
          ]
        }
      ]
    },
    {
      "Modifiers": {
        "StageAbility_MechanismSnow_Modifier": {
          "OnCreate": [
            {
              "$type": "RPG.GameCore.PredicateTaskList",
              "Predicate": {
                "$type": "RPG.GameCore.ByTargetTeam",
                "TargetType": {
                  "$type": "RPG.GameCore.TargetAlias",
                  "Alias": "Caster"
                },
                "Team": "TeamLight"
              },
              "SuccessTaskList": []
            },
            {
              "$type": "RPG.GameCore.AddModifier",
              "TargetType": {
                "$type": "RPG.GameCore.TargetAlias",
                "Alias": "Caster"
              },
              "ModifierName": "Mechanism_SnowAdd_Modifier"
            },
            {
              "$type": "RPG.GameCore.RemoveModifier",
              "TargetType": {
                "$type": "RPG.GameCore.TargetAlias",
                "Alias": "Caster"
              },
              "ModifierName": "StageAbility_MechanismSnow_Modifier"
            }
          ],
          "Stacking": "Replace"
        },
        "MLevel_WB_Snow_LoseHP": {
          "LayerAddWhenStack": {
            "IsDynamic": false,
            "FixedValue": {
              "Value": 1
            }
          },
          "LifeStepMoment": "ModifierPhase1End",
          "PerformTime": {
            "IsDynamic": false,
            "FixedValue": {
              "Value": 0.3000000002793968
            }
          },
          "OnCreate": [
            {
              "$type": "RPG.GameCore.PredicateTaskList",
              "Predicate": {
                "$type": "RPG.GameCore.ByInTurnBasedGameModeState"
              },
              "SuccessTaskList": [],
              "FailedTaskList": [
                {
                  "$type": "RPG.GameCore.AddBuffPerform",
                  "TargetType": {
                    "$type": "RPG.GameCore.TargetAlias",
                    "Alias": "ModifierOwnerEntity"
                  },
                  "TaskList": [
                    {
                      "$type": "RPG.GameCore.TriggerEffect",
                      "TargetType": {
                        "$type": "RPG.GameCore.TargetAlias",
                        "Alias": "ModifierOwnerEntity"
                      },
                      "EffectPath": "Effects/Eff_Prefab/Eff_Common/Eff_Buff_Common_Ice_Add.prefab",
                      "AttachPoint": "SelectRoot"
                    }
                  ],
                  "AddPerformTime": {
                    "IsDynamic": false,
                    "FixedValue": {
                      "Value": 1
                    }
                  }
                }
              ]
            }
          ],
          "OnPhase1": [
            {
              "$type": "RPG.GameCore.ShowEntityFloatMessage",
              "TargetType": {
                "$type": "RPG.GameCore.TargetAlias",
                "Alias": "ModifierOwnerEntity"
              },
              "ContentID": {
                "Hash": 1272228075
              }
            },
            {
              "$type": "RPG.GameCore.LoseHPByRatio",
              "TargetType": {
                "$type": "RPG.GameCore.TargetAlias",
                "Alias": "ModifierOwnerEntity"
              },
              "AttackType": "Insert",
              "DamageType": "Ice",
              "RatioType": "MaxHP",
              "Ratio": {
                "IsDynamic": true,
                "Expressions": [
                  {
                    "Type": "DynamicNumber",
                    "DynamicHash": -325944519
                  }
                ]
              },
              "Floor": {
                "Value": 1
              }
            },
            {
              "$type": "RPG.GameCore.TriggerEffect",
              "TargetType": {
                "$type": "RPG.GameCore.TargetAlias",
                "Alias": "ModifierOwnerEntity"
              },
              "EffectPath": "Effects/Eff_Prefab/Eff_Common/Eff_Buff_Common_Ice_Trigger.prefab",
              "AttachPoint": "SelectRoot"
            }
          ],
          "Stacking": "ReplaceByCaster",
          "DynamicValues": {
            "Values": {
              "-325944519": {}
            }
          }
        },
        "Mechanism_SnowAdd_Modifier": {
          "OnCreate": [],
          "OnActionEnd": [
            {
              "$type": "RPG.GameCore.PredicateTaskList",
              "Predicate": {
                "$type": "RPG.GameCore.ByIsContainModifier",
                "TargetType": {
                  "$type": "RPG.GameCore.TargetAlias",
                  "Alias": "ModifierOwnerEntity"
                },
                "ModifierName": "MLevel_WB_StageAbility_Furance_LightTeam_Modifier"
              },
              "FailedTaskList": [
                {
                  "$type": "RPG.GameCore.ChangeMechanismBarValue",
                  "ID": 1,
                  "DeltaValue": 2
                }
              ]
            }
          ],
          "Stacking": "Replace"
        }
      },
      "Name": "StageAbility_3990905",
      "OnAdd": [
        {
          "$type": "RPG.GameCore.AddModifier",
          "TargetType": {
            "$type": "RPG.GameCore.TargetAlias",
            "Alias": "Caster"
          },
          "ModifierName": "StageAbility_MechanismSnow_Modifier"
        },
        {
          "$type": "RPG.GameCore.PredicateTaskList",
          "Predicate": {
            "$type": "RPG.GameCore.ByTargetTeam",
            "TargetType": {
              "$type": "RPG.GameCore.TargetAlias",
              "Alias": "Caster"
            },
            "Team": "TeamLight"
          },
          "SuccessTaskList": [
            {
              "$type": "RPG.GameCore.RemoveModifier",
              "TargetType": {
                "$type": "RPG.GameCore.TargetAlias",
                "Alias": "ModifierOwnerEntity"
              },
              "ModifierName": "MCommon_SpeedDown"
            },
            {
              "$type": "RPG.GameCore.AddModifier",
              "TargetType": {
                "$type": "RPG.GameCore.TargetAlias",
                "Alias": "ModifierOwnerEntity"
              },
              "ModifierName": "MCommon_SpeedDown",
              "LifeTime": {
                "IsDynamic": false,
                "FixedValue": {
                  "Value": -1
                }
              },
              "DynamicValues": {
                "MDF_PropertyValue": {
                  "IsDynamic": false,
                  "FixedValue": {
                    "Value": 40
                  }
                }
              }
            },
            {
              "$type": "RPG.GameCore.RemoveModifier",
              "TargetType": {
                "$type": "RPG.GameCore.TargetAlias",
                "Alias": "ModifierOwnerEntity"
              },
              "ModifierName": "MLevel_WB_Snow_LoseHP"
            },
            {
              "$type": "RPG.GameCore.AddModifier",
              "TargetType": {
                "$type": "RPG.GameCore.TargetAlias",
                "Alias": "ModifierOwnerEntity"
              },
              "ModifierName": "MLevel_WB_Snow_LoseHP",
              "LifeTime": {
                "IsDynamic": false,
                "FixedValue": {
                  "Value": -1
                }
              },
              "DynamicValues": {
                "LoseHP_Value": {
                  "IsDynamic": false,
                  "FixedValue": {
                    "Value": 0.20000000018626451
                  }
                }
              }
            }
          ]
        }
      ]
    },
    {
      "Modifiers": {
        "StageAbility_MechanismSnow_Modifier": {
          "OnCreate": [
            {
              "$type": "RPG.GameCore.PredicateTaskList",
              "Predicate": {
                "$type": "RPG.GameCore.ByTargetTeam",
                "TargetType": {
                  "$type": "RPG.GameCore.TargetAlias",
                  "Alias": "Caster"
                },
                "Team": "TeamLight"
              },
              "SuccessTaskList": []
            },
            {
              "$type": "RPG.GameCore.AddModifier",
              "TargetType": {
                "$type": "RPG.GameCore.TargetAlias",
                "Alias": "Caster"
              },
              "ModifierName": "Mechanism_SnowAdd_Modifier"
            },
            {
              "$type": "RPG.GameCore.RemoveModifier",
              "TargetType": {
                "$type": "RPG.GameCore.TargetAlias",
                "Alias": "Caster"
              },
              "ModifierName": "StageAbility_MechanismSnow_Modifier"
            }
          ],
          "Stacking": "Replace"
        },
        "MLevel_WB_Snow_LoseHP": {
          "LayerAddWhenStack": {
            "IsDynamic": false,
            "FixedValue": {
              "Value": 1
            }
          },
          "LifeStepMoment": "ModifierPhase1End",
          "PerformTime": {
            "IsDynamic": false,
            "FixedValue": {
              "Value": 0.3000000002793968
            }
          },
          "OnCreate": [
            {
              "$type": "RPG.GameCore.PredicateTaskList",
              "Predicate": {
                "$type": "RPG.GameCore.ByInTurnBasedGameModeState"
              },
              "SuccessTaskList": [],
              "FailedTaskList": [
                {
                  "$type": "RPG.GameCore.AddBuffPerform",
                  "TargetType": {
                    "$type": "RPG.GameCore.TargetAlias",
                    "Alias": "ModifierOwnerEntity"
                  },
                  "TaskList": [
                    {
                      "$type": "RPG.GameCore.TriggerEffect",
                      "TargetType": {
                        "$type": "RPG.GameCore.TargetAlias",
                        "Alias": "ModifierOwnerEntity"
                      },
                      "EffectPath": "Effects/Eff_Prefab/Eff_Common/Eff_Buff_Common_Ice_Add.prefab",
                      "AttachPoint": "SelectRoot"
                    }
                  ],
                  "AddPerformTime": {
                    "IsDynamic": false,
                    "FixedValue": {
                      "Value": 1
                    }
                  }
                }
              ]
            }
          ],
          "OnPhase1": [
            {
              "$type": "RPG.GameCore.ShowEntityFloatMessage",
              "TargetType": {
                "$type": "RPG.GameCore.TargetAlias",
                "Alias": "ModifierOwnerEntity"
              },
              "ContentID": {
                "Hash": 1272228075
              }
            },
            {
              "$type": "RPG.GameCore.LoseHPByRatio",
              "TargetType": {
                "$type": "RPG.GameCore.TargetAlias",
                "Alias": "ModifierOwnerEntity"
              },
              "AttackType": "Insert",
              "DamageType": "Ice",
              "RatioType": "MaxHP",
              "Ratio": {
                "IsDynamic": true,
                "Expressions": [
                  {
                    "Type": "DynamicNumber",
                    "DynamicHash": -325944519
                  }
                ]
              },
              "Floor": {
                "Value": 1
              }
            },
            {
              "$type": "RPG.GameCore.TriggerEffect",
              "TargetType": {
                "$type": "RPG.GameCore.TargetAlias",
                "Alias": "ModifierOwnerEntity"
              },
              "EffectPath": "Effects/Eff_Prefab/Eff_Common/Eff_Buff_Common_Ice_Trigger.prefab",
              "AttachPoint": "SelectRoot"
            }
          ],
          "Stacking": "ReplaceByCaster",
          "DynamicValues": {
            "Values": {
              "-325944519": {}
            }
          }
        },
        "Mechanism_SnowAdd_Modifier": {
          "OnCreate": [],
          "OnActionEnd": [
            {
              "$type": "RPG.GameCore.PredicateTaskList",
              "Predicate": {
                "$type": "RPG.GameCore.ByIsContainModifier",
                "TargetType": {
                  "$type": "RPG.GameCore.TargetAlias",
                  "Alias": "ModifierOwnerEntity"
                },
                "ModifierName": "MLevel_WB_StageAbility_Furance_LightTeam_Modifier"
              },
              "FailedTaskList": [
                {
                  "$type": "RPG.GameCore.ChangeMechanismBarValue",
                  "ID": 1,
                  "DeltaValue": 2
                }
              ]
            }
          ],
          "Stacking": "Replace"
        }
      },
      "Name": "StageAbility_3990906",
      "OnAdd": [
        {
          "$type": "RPG.GameCore.AddModifier",
          "TargetType": {
            "$type": "RPG.GameCore.TargetAlias",
            "Alias": "Caster"
          },
          "ModifierName": "StageAbility_MechanismSnow_Modifier"
        },
        {
          "$type": "RPG.GameCore.PredicateTaskList",
          "Predicate": {
            "$type": "RPG.GameCore.ByTargetTeam",
            "TargetType": {
              "$type": "RPG.GameCore.TargetAlias",
              "Alias": "Caster"
            },
            "Team": "TeamLight"
          },
          "SuccessTaskList": [
            {
              "$type": "RPG.GameCore.RemoveModifier",
              "TargetType": {
                "$type": "RPG.GameCore.TargetAlias",
                "Alias": "ModifierOwnerEntity"
              },
              "ModifierName": "MCommon_SpeedDown"
            },
            {
              "$type": "RPG.GameCore.AddModifier",
              "TargetType": {
                "$type": "RPG.GameCore.TargetAlias",
                "Alias": "ModifierOwnerEntity"
              },
              "ModifierName": "MCommon_SpeedDown",
              "LifeTime": {
                "IsDynamic": false,
                "FixedValue": {
                  "Value": -1
                }
              },
              "DynamicValues": {
                "MDF_PropertyValue": {
                  "IsDynamic": false,
                  "FixedValue": {
                    "Value": 45
                  }
                }
              }
            },
            {
              "$type": "RPG.GameCore.RemoveModifier",
              "TargetType": {
                "$type": "RPG.GameCore.TargetAlias",
                "Alias": "ModifierOwnerEntity"
              },
              "ModifierName": "MLevel_WB_Snow_LoseHP"
            },
            {
              "$type": "RPG.GameCore.AddModifier",
              "TargetType": {
                "$type": "RPG.GameCore.TargetAlias",
                "Alias": "ModifierOwnerEntity"
              },
              "ModifierName": "MLevel_WB_Snow_LoseHP",
              "LifeTime": {
                "IsDynamic": false,
                "FixedValue": {
                  "Value": -1
                }
              },
              "DynamicValues": {
                "LoseHP_Value": {
                  "IsDynamic": false,
                  "FixedValue": {
                    "Value": 0.25000000023283064
                  }
                }
              }
            }
          ]
        }
      ]
    },
    {
      "Modifiers": {
        "StageAblity_PlayerSpeedDown": {
          "OnEnterBattle": [
            {
              "$type": "RPG.GameCore.AddModifier",
              "TargetType": {
                "$type": "RPG.GameCore.TargetAlias",
                "Alias": "AllLightTeam"
              },
              "ModifierName": "MCommon_SpeedDown",
              "LifeTime": {
                "IsDynamic": false,
                "FixedValue": {
                  "Value": -1
                }
              },
              "DynamicValues": {
                "MDF_PropertyValue": {
                  "IsDynamic": false,
                  "FixedValue": {
                    "Value": 30
                  }
                }
              }
            },
            {
              "$type": "RPG.GameCore.ShowUIPage",
              "AssetPath": "UI/Common/Widget/BattleAlertHint.prefab",
              "UITextNodes": [
                {
                  "TextPath": "AreaInfoPanel/Title/Text",
                  "TextContent": {
                    "Hash": -1731622440
                  }
                }
              ],
              "LifeTime": 3
            }
          ]
        }
      },
      "Name": "StageAbility_3991301",
      "OnAdd": [
        {
          "$type": "RPG.GameCore.AddModifier",
          "TargetType": {
            "$type": "RPG.GameCore.TargetAlias",
            "Alias": "Caster"
          },
          "ModifierName": "StageAblity_PlayerSpeedDown"
        }
      ]
    },
    {
      "Modifiers": {
        "StageAbility_DimensionShift_Modifier": {
          "OnCreate": [
            {
              "$type": "RPG.GameCore.PredicateTaskList",
              "Predicate": {
                "$type": "RPG.GameCore.ByTargetTeam",
                "TargetType": {
                  "$type": "RPG.GameCore.TargetAlias",
                  "Alias": "Caster"
                },
                "Team": "TeamLight"
              },
              "SuccessTaskList": []
            },
            {
              "$type": "RPG.GameCore.AddModifier",
              "TargetType": {
                "$type": "RPG.GameCore.TargetAlias",
                "Alias": "Caster"
              },
              "ModifierName": "Mechanism_DS_Modifier"
            },
            {
              "$type": "RPG.GameCore.RemoveModifier",
              "TargetType": {
                "$type": "RPG.GameCore.TargetAlias",
                "Alias": "Caster"
              },
              "ModifierName": "StageAbility_DimensionShift_Modifier"
            }
          ],
          "Stacking": "Replace"
        },
        "Mechanism_DS_Modifier": {
          "OnCreate": [],
          "OnTriggerDeath": [
            {
              "$type": "RPG.GameCore.ChangeMechanismBarValue",
              "ID": 4,
              "DeltaValue": 1
            }
          ],
          "Stacking": "Replace"
        }
      },
      "Name": "StageAbility_3991400",
      "OnAdd": [
        {
          "$type": "RPG.GameCore.AddModifier",
          "TargetType": {
            "$type": "RPG.GameCore.TargetAlias",
            "Alias": "Caster"
          },
          "ModifierName": "StageAbility_DimensionShift_Modifier"
        }
      ]
    },
    {
      "Modifiers": {
        "StageAbility_DimensionShift_Modifier": {
          "OnCreate": [
            {
              "$type": "RPG.GameCore.PredicateTaskList",
              "Predicate": {
                "$type": "RPG.GameCore.ByTargetTeam",
                "TargetType": {
                  "$type": "RPG.GameCore.TargetAlias",
                  "Alias": "Caster"
                },
                "Team": "TeamLight"
              },
              "SuccessTaskList": []
            },
            {
              "$type": "RPG.GameCore.AddModifier",
              "TargetType": {
                "$type": "RPG.GameCore.TargetAlias",
                "Alias": "Caster"
              },
              "ModifierName": "Mechanism_DS_Modifier"
            },
            {
              "$type": "RPG.GameCore.RemoveModifier",
              "TargetType": {
                "$type": "RPG.GameCore.TargetAlias",
                "Alias": "Caster"
              },
              "ModifierName": "StageAbility_DimensionShift_Modifier"
            }
          ],
          "Stacking": "Replace"
        },
        "Mechanism_DS_Modifier": {
          "OnCreate": [],
          "OnTriggerDeath": [
            {
              "$type": "RPG.GameCore.ChangeMechanismBarValue",
              "ID": 4,
              "DeltaValue": 1
            }
          ],
          "Stacking": "Replace"
        }
      },
      "Name": "StageAbility_3991401",
      "OnAdd": [
        {
          "$type": "RPG.GameCore.AddModifier",
          "TargetType": {
            "$type": "RPG.GameCore.TargetAlias",
            "Alias": "Caster"
          },
          "ModifierName": "StageAbility_DimensionShift_Modifier"
        }
      ]
    },
    {
      "Modifiers": {
        "StageAbility_DimensionShift_Modifier": {
          "OnCreate": [
            {
              "$type": "RPG.GameCore.PredicateTaskList",
              "Predicate": {
                "$type": "RPG.GameCore.ByTargetTeam",
                "TargetType": {
                  "$type": "RPG.GameCore.TargetAlias",
                  "Alias": "Caster"
                },
                "Team": "TeamLight"
              },
              "SuccessTaskList": []
            },
            {
              "$type": "RPG.GameCore.AddModifier",
              "TargetType": {
                "$type": "RPG.GameCore.TargetAlias",
                "Alias": "Caster"
              },
              "ModifierName": "Mechanism_DS_Modifier"
            },
            {
              "$type": "RPG.GameCore.RemoveModifier",
              "TargetType": {
                "$type": "RPG.GameCore.TargetAlias",
                "Alias": "Caster"
              },
              "ModifierName": "StageAbility_DimensionShift_Modifier"
            }
          ],
          "Stacking": "Replace"
        },
        "Mechanism_DS_Modifier": {
          "OnCreate": [],
          "OnTriggerDeath": [
            {
              "$type": "RPG.GameCore.ChangeMechanismBarValue",
              "ID": 4,
              "DeltaValue": 1
            }
          ],
          "Stacking": "Replace"
        }
      },
      "Name": "StageAbility_3991402",
      "OnAdd": [
        {
          "$type": "RPG.GameCore.AddModifier",
          "TargetType": {
            "$type": "RPG.GameCore.TargetAlias",
            "Alias": "Caster"
          },
          "ModifierName": "StageAbility_DimensionShift_Modifier"
        }
      ]
    },
    {
      "Modifiers": {
        "StageAbility_DimensionShift_Modifier": {
          "OnCreate": [
            {
              "$type": "RPG.GameCore.PredicateTaskList",
              "Predicate": {
                "$type": "RPG.GameCore.ByTargetTeam",
                "TargetType": {
                  "$type": "RPG.GameCore.TargetAlias",
                  "Alias": "Caster"
                },
                "Team": "TeamLight"
              },
              "SuccessTaskList": []
            },
            {
              "$type": "RPG.GameCore.AddModifier",
              "TargetType": {
                "$type": "RPG.GameCore.TargetAlias",
                "Alias": "Caster"
              },
              "ModifierName": "Mechanism_DS_Modifier"
            },
            {
              "$type": "RPG.GameCore.RemoveModifier",
              "TargetType": {
                "$type": "RPG.GameCore.TargetAlias",
                "Alias": "Caster"
              },
              "ModifierName": "StageAbility_DimensionShift_Modifier"
            }
          ],
          "Stacking": "Replace"
        },
        "Mechanism_DS_Modifier": {
          "OnCreate": [
            {
              "$type": "RPG.GameCore.ChangeMechanismBarValue",
              "ID": 4,
              "DeltaValue": -3
            }
          ],
          "OnTriggerDeath": [],
          "Stacking": "Replace"
        }
      },
      "Name": "StageAbility_3991403",
      "OnAdd": [
        {
          "$type": "RPG.GameCore.AddModifier",
          "TargetType": {
            "$type": "RPG.GameCore.TargetAlias",
            "Alias": "Caster"
          },
          "ModifierName": "StageAbility_DimensionShift_Modifier"
        }
      ]
    }
  ]
}