{
  "MainMissionID": 9999908,
  "StartSubMissionList": [
    999990831
  ],
  "FinishSubMissionList": [
    999990804,
    999990812,
    999990822
  ],
  "SubMissionList": [
    {
      "MainMissionID": 9999908,
      "TakeType": "AnySequence",
      "TakeParamIntList": [
        999990831
      ],
      "ID": 999990801,
      "MazePlaneID": 90090,
      "MazeFloorID": 90090001,
      "FinishType": "PropState",
      "ParamType": "Equal",
      "ParamInt1": 4,
      "ParamInt2": 300014,
      "ParamInt3": 1,
      "ParamItemList": [],
      "Progress": 1
    },
    {
      "MainMissionID": 9999908,
      "TakeType": "AnySequence",
      "TakeParamIntList": [
        999990801
      ],
      "ID": 999990802,
      "MazePlaneID": 90090,
      "MazeFloorID": 90090001,
      "FinishType": "PropState",
      "ParamType": "Equal",
      "ParamInt1": 9,
      "ParamInt2": 300014,
      "ParamInt3": 1,
      "ParamItemList": [],
      "Progress": 1
    },
    {
      "MainMissionID": 9999908,
      "TakeType": "AnySequence",
      "TakeParamIntList": [
        999990802
      ],
      "ID": 999990803,
      "MazePlaneID": 90090,
      "MazeFloorID": 90090001,
      "FinishType": "PropState",
      "ParamType": "Equal",
      "ParamInt1": 8,
      "ParamInt2": 300014,
      "ParamInt3": 1,
      "ParamItemList": [],
      "Progress": 1
    },
    {
      "MainMissionID": 9999908,
      "TakeType": "AnySequence",
      "TakeParamIntList": [
        999990803
      ],
      "ID": 999990804,
      "MazePlaneID": 90090,
      "MazeFloorID": 90090001,
      "FinishType": "PropState",
      "ParamType": "Equal",
      "ParamInt1": 14,
      "ParamInt2": 300014,
      "ParamInt3": 1,
      "ParamItemList": [],
      "Progress": 1
    },
    {
      "MainMissionID": 9999908,
      "TakeType": "AnySequence",
      "TakeParamIntList": [
        999990831
      ],
      "ID": 999990811,
      "MazePlaneID": 90090,
      "MazeFloorID": 90090001,
      "FinishType": "PropState",
      "ParamType": "Equal",
      "ParamInt1": 2,
      "ParamInt2": 300015,
      "ParamInt3": 1,
      "ParamItemList": [],
      "Progress": 1
    },
    {
      "MainMissionID": 9999908,
      "TakeType": "AnySequence",
      "TakeParamIntList": [
        999990811
      ],
      "ID": 999990812,
      "MazePlaneID": 90090,
      "MazeFloorID": 90090001,
      "FinishType": "PropState",
      "ParamType": "Equal",
      "ParamInt1": 12,
      "ParamInt2": 300015,
      "ParamInt3": 1,
      "ParamItemList": [],
      "Progress": 1
    },
    {
      "MainMissionID": 9999908,
      "TakeType": "AnySequence",
      "TakeParamIntList": [
        999990831
      ],
      "ID": 999990821,
      "MazePlaneID": 90090,
      "MazeFloorID": 90090001,
      "FinishType": "PropState",
      "ParamType": "Equal",
      "ParamInt1": 11,
      "ParamInt2": 300015,
      "ParamInt3": 1,
      "ParamItemList": [],
      "Progress": 1
    },
    {
      "MainMissionID": 9999908,
      "TakeType": "AnySequence",
      "TakeParamIntList": [
        999990821
      ],
      "ID": 999990822,
      "MazePlaneID": 90090,
      "MazeFloorID": 90090001,
      "FinishType": "PropState",
      "ParamType": "Equal",
      "ParamInt1": 13,
      "ParamInt2": 300015,
      "ParamInt3": 1,
      "ParamItemList": [],
      "Progress": 1
    },
    {
      "MainMissionID": 9999908,
      "TakeType": "Auto",
      "ID": 999990831,
      "MazePlaneID": 90090,
      "MazeFloorID": 90090001,
      "FinishType": "PropState",
      "ParamType": "Equal",
      "ParamInt1": 1,
      "ParamInt2": 300001,
      "ParamInt3": 1,
      "ParamItemList": [],
      "Progress": 1
    }
  ]
}