{
  "MainMissionID": 1000303,
  "StartSubMissionList": [
    100030206,
    100030111
  ],
  "FinishSubMissionList": [
    100030111
  ],
  "SubMissionList": [
    {
      "MainMissionID": 1000303,
      "MissionJsonPath": "Config/Level/Mission/1000301/Mission_100030111.json",
      "TakeType": "Auto",
      "ID": 100030111,
      "FinishType": "Talk",
      "ParamType": "Equal",
      "ParamStr1": "Mission_100030111",
      "ParamItemList": [],
      "Progress": 1
    },
    {
      "MainMissionID": 1000303,
      "MissionJsonPath": "Config/Level/Mission/1000301/Mission_100030206.json",
      "TakeType": "Auto",
      "ID": 100030206,
      "FinishType": "Talk",
      "ParamType": "Equal",
      "ParamStr1": "Mission_100030206",
      "ParamItemList": [],
      "Progress": 1
    }
  ]
}