{
  "States": [],
  "DisableAnimEventLayers": [
    "Dissolve Layer"
  ],
  "AnimatorStateGroupEvents": [
    {
      "States": [
        {
          "Name": "Disable"
        }
      ],
      "OnEnter": [
        {
          "$type": "RPG.GameCore.TriggerSound",
          "SoundName": "Ev_sfx_chaptrain_mirror_idle01"
        },
        {
          "$type": "RPG.GameCore.PropTriggerEffectList",
          "TargetType": {
            "$type": "RPG.GameCore.TargetFetchAdvPropEx"
          },
          "EffectList": [
            {
              "EffectPath": "Effects/Eff_Prefab/Eff_Scene/Interactive Object/Eff_Common_ChapTrain_Mirror_Disable.prefab",
              "AttachPoint": "Root"
            }
          ]
        }
      ],
      "OnExit": [
        {
          "$type": "RPG.GameCore.TriggerSound",
          "SoundName": "Ev_sfx_chaptrain_mirror_idle01_stop"
        },
        {
          "$type": "RPG.GameCore.PropRemoveEffect",
          "TargetType": {
            "$type": "RPG.GameCore.TargetFetchAdvPropEx"
          },
          "EffectPath": "Effects/Eff_Prefab/Eff_Scene/Interactive Object/Eff_Common_ChapTrain_Mirror_Disable.prefab"
        }
      ]
    },
    {
      "States": [
        {
          "Name": "Enable"
        }
      ],
      "OnEnter": [
        {
          "$type": "RPG.GameCore.TriggerSound",
          "SoundName": "Ev_sfx_chaptrain_mirror_open"
        },
        {
          "$type": "RPG.GameCore.TriggerSound",
          "SoundName": "Ev_sfx_chaptrain_mirror_idle02"
        },
        {
          "$type": "RPG.GameCore.PropTriggerEffectList",
          "TargetType": {
            "$type": "RPG.GameCore.TargetFetchAdvPropEx"
          },
          "EffectList": [
            {
              "EffectPath": "Effects/Eff_Prefab/Eff_Scene/Interactive Object/Eff_Common_ChapTrain_Mirror_Loop.prefab",
              "AttachPoint": "Root"
            }
          ]
        }
      ],
      "OnExit": [
        {
          "$type": "RPG.GameCore.TriggerSound",
          "SoundName": "Ev_sfx_chaptrain_mirror_idle02_stop"
        },
        {
          "$type": "RPG.GameCore.PropRemoveEffect",
          "TargetType": {
            "$type": "RPG.GameCore.TargetFetchAdvPropEx"
          },
          "EffectPath": "Effects/Eff_Prefab/Eff_Scene/Interactive Object/Eff_Common_ChapTrain_Mirror_Loop.prefab"
        }
      ]
    }
  ]
}