{
  "OnInitSequece": [],
  "OnStartSequece": [
    {
      "TaskList": [
        {
          "$type": "RPG.GameCore.LevelPerformanceInitialize",
          "PerformanceType": "D",
          "LockCamera": false,
          "CreateCharacterList": [],
          "EntityVisiableList": [],
          "PropVisiableList": [],
          "StreamingCentersInBlackMask": [],
          "StreamingCentersAfterBlackMask": [],
          "MarkStreamingItems": []
        },
        {
          "$type": "RPG.GameCore.AdvEntityFaceTo",
          "SourceType": {
            "$type": "RPG.GameCore.TargetFetchAdvNPC",
            "MultiGroupFetch": [
              {
                "GroupID": 50,
                "GroupNpcID": 400003
              }
            ]
          },
          "TargetType": {
            "$type": "RPG.GameCore.TargetFetchAdvNPC",
            "MultiGroupFetch": [
              {
                "GroupID": 44,
                "GroupNpcID": 400002
              }
            ]
          }
        },
        {
          "$type": "RPG.GameCore.CaptureNPCToCharacter",
          "GroupID": {
            "IsDynamic": false,
            "FixedValue": {
              "Value": 50
            }
          },
          "GroupNpcID": {
            "IsDynamic": false,
            "FixedValue": {
              "Value": 400001
            }
          },
          "CharacterUniqueName": {
            "Value": "Bronya_101060210"
          }
        },
        {
          "$type": "RPG.GameCore.CaptureNPCToCharacter",
          "GroupID": {
            "IsDynamic": false,
            "FixedValue": {
              "Value": 50
            }
          },
          "GroupNpcID": {
            "IsDynamic": false,
            "FixedValue": {
              "Value": 400003
            }
          },
          "CharacterUniqueName": {
            "Value": "Xier01"
          }
        },
        {
          "$type": "RPG.GameCore.CaptureNPCToCharacter",
          "GroupID": {
            "IsDynamic": false,
            "FixedValue": {
              "Value": 44
            }
          },
          "GroupNpcID": {
            "IsDynamic": false,
            "FixedValue": {
              "Value": 400002
            }
          },
          "CharacterUniqueName": {
            "Value": "Natasha01"
          }
        },
        {
          "$type": "RPG.GameCore.PerformanceTransition",
          "SwitchInTime": 0,
          "SwitchOutTime": 0,
          "CreateNpcList": [],
          "CaptureNpcList": [],
          "DestroyNpcList": [],
          "ActiveVirtualCamera": {
            "AreaName": "1010602_Temp",
            "AnchorName": "Camera_101060210"
          },
          "SwitchCharacterAnchor": {
            "IsLocalPlayer": true,
            "AreaName": {
              "Value": "LevelArea_P20123_F20123001_G53"
            },
            "AnchorName": {
              "Value": "Anchor1"
            }
          }
        },
        {
          "$type": "RPG.GameCore.AdvNpcFaceToPlayer",
          "GroupID": 44,
          "GroupNpcID": 400002,
          "FinishImmadiate": true
        },
        {
          "$type": "RPG.GameCore.CharacterTriggerFreeStyle",
          "CharacterUniqueName": "Xier01",
          "StoryAvatarID": "NPC_Avatar_Lady_Serval_00",
          "StartMotion": "HoldArm01BS",
          "StoryMotionID": 1103050
        },
        {
          "$type": "RPG.GameCore.CharacterHeadLookAt",
          "CharacterUniqueName": "Bronya_101060210",
          "TargetAreaName": "LevelArea_P10102_F10102001_G44",
          "TargetAnchorName": "Anchor2",
          "Constraint": {}
        },
        {
          "$type": "RPG.GameCore.PlaySimpleTalk",
          "SimpleTalkList": [
            {
              "TalkSentenceID": 101024601
            }
          ]
        },
        {
          "$type": "RPG.GameCore.WaitSimpleTalkFinish"
        },
        {
          "$type": "RPG.GameCore.CharacterTriggerFreeStyle",
          "CharacterUniqueName": "Natasha01",
          "StoryAvatarID": "NPC_Avatar_Lady_Natasha_00",
          "StartMotion": "Think01BS",
          "StoryMotionID": 1105041
        },
        {
          "$type": "RPG.GameCore.PlaySimpleTalk",
          "SimpleTalkList": [
            {
              "TalkSentenceID": 101024602
            },
            {
              "TalkSentenceID": 101024603
            },
            {
              "TalkSentenceID": 101024604
            },
            {
              "TalkSentenceID": 101024605
            }
          ]
        },
        {
          "$type": "RPG.GameCore.WaitSimpleTalkFinish"
        },
        {
          "$type": "RPG.GameCore.CharacterTriggerFreeStyle",
          "CharacterUniqueName": "Xier01",
          "StoryAvatarID": "NPC_Avatar_Lady_Serval_00",
          "StartMotion": "HoldArm01AS",
          "StoryMotionID": 1103052
        },
        {
          "$type": "RPG.GameCore.CharacterTriggerFreeStyle",
          "CharacterUniqueName": "Xier01",
          "StoryAvatarID": "NPC_Avatar_Lady_Serval_00",
          "StartMotion": "Akimbo01BS",
          "StoryMotionID": 1103029
        },
        {
          "$type": "RPG.GameCore.PlaySimpleTalk",
          "SimpleTalkList": [
            {
              "TalkSentenceID": 101024606
            }
          ]
        },
        {
          "$type": "RPG.GameCore.WaitSimpleTalkFinish"
        },
        {
          "$type": "RPG.GameCore.AdvNpcFaceToPlayer",
          "GroupID": 50,
          "GroupNpcID": 400003,
          "TryFaceToFace": false,
          "PlayerLookAtNpc": false,
          "FinishImmadiate": true,
          "ForceToStandBy": false
        },
        {
          "$type": "RPG.GameCore.PlaySimpleTalk",
          "SimpleTalkList": [
            {
              "TalkSentenceID": 101024607
            }
          ]
        },
        {
          "$type": "RPG.GameCore.WaitSimpleTalkFinish"
        },
        {
          "$type": "RPG.GameCore.PerformanceTransition",
          "CreateNpcList": [],
          "CaptureNpcList": [],
          "DestroyNpcList": [
            {
              "GroupID": 50,
              "GroupNpcID": 400001
            },
            {
              "GroupID": 50,
              "GroupNpcID": 400003
            }
          ],
          "ActiveVirtualCamera": {
            "AreaName": "1010602_Temp",
            "AnchorName": "Camera_101060210",
            "IsActive": false
          },
          "SwitchCharacterAnchor": {
            "IsLocalPlayer": true,
            "TaskEnabled": false
          }
        },
        {
          "$type": "RPG.GameCore.EndPerformance"
        }
      ]
    },
    {
      "TaskList": [
        {
          "$type": "RPG.GameCore.WaitPerformanceEnd"
        },
        {
          "$type": "RPG.GameCore.FinishLevelGraph"
        }
      ]
    }
  ]
}