{
  "WalkSpeedRatio": 1.15,
  "RunSpeedRatio": 0.8,
  "AnimEventConfigList": [
    "Config/ConfigAnimEvents/NPC/Monster/Audio/NPC_Monster_W1_Soldier03_00_Audio_AnimEvent.json",
    "Config/ConfigAnimEvents/NPC/Monster/Designer/NPC_Monster_W1_Soldier03_00_Designer_AnimEvent.json",
    "Config/ConfigAnimEvents/NPC/Monster/Effect/NPC_Monster_W1_Soldier03_00_Effect_AnimEvent.json"
  ],
  "AnimZoneConfigPath": "Config/ConfigAnimZone/NPCMonster/NPCMonster_Common_AnimZone.json",
  "ModelScale": 1.1,
  "DisableAnimEventLayers": [
    "Riboon Layer"
  ]
}