{
  "AbilityList": [
    {
      "Name": "Avatar_Bronya_00_Assistant03_Phase01",
      "TargetInfo": {
        "TargetType": "AllTeamMember"
      },
      "OnStart": [
        {
          "$type": "RPG.GameCore.OwnerEntityAddAbility",
          "AbilityName": "Avatar_Bronya_00_Assistant03_Camera"
        },
        {
          "$type": "RPG.GameCore.OwnerEntityAddAbility",
          "AbilityName": "Avatar_Bronya_00_Assistant03_Phase02"
        },
        {
          "$type": "RPG.GameCore.HideLevelStage",
          "IsHide": true
        },
        {
          "$type": "RPG.GameCore.TriggerAbility",
          "TargetType": {
            "$type": "RPG.GameCore.TargetAlias",
            "Alias": "Caster"
          },
          "AbilityInherentTargetType": {
            "$type": "RPG.GameCore.TargetAlias",
            "Alias": "AbilityTargetEntity"
          },
          "AbilityName": "Avatar_Bronya_00_Assistant03_Camera",
          "IsSkillPerform": true
        },
        {
          "$type": "RPG.GameCore.TriggerAbility",
          "TargetType": {
            "$type": "RPG.GameCore.TargetAlias",
            "Alias": "Caster"
          },
          "AbilityInherentTargetType": {
            "$type": "RPG.GameCore.TargetAlias",
            "Alias": "AbilityTargetEntity"
          },
          "AbilityName": "Avatar_Bronya_00_Assistant03_Phase02"
        },
        {
          "$type": "RPG.GameCore.ShowBattleUI"
        },
        {
          "$type": "RPG.GameCore.TriggerAnimState",
          "TargetType": {
            "$type": "RPG.GameCore.TargetAlias",
            "Alias": "Caster"
          },
          "AnimStateName": "Skill03"
        },
        {
          "$type": "RPG.GameCore.WaitAnimState",
          "AnimStateName": "Skill03",
          "NormalizedTimeEnd": {
            "IsDynamic": false,
            "FixedValue": {
              "Value": 0.6500000006053597
            }
          }
        },
        {
          "$type": "RPG.GameCore.SetTeamFormation",
          "Team": "TeamLight",
          "CustomFormationName": "Bronya_00_Skill03",
          "CustomCenterTargetType": {
            "$type": "RPG.GameCore.TargetAlias",
            "Alias": "Caster"
          }
        },
        {
          "$type": "RPG.GameCore.WaitAnimState",
          "AnimStateName": "Skill03",
          "NormalizedTimeEnd": {
            "IsDynamic": false,
            "FixedValue": {
              "Value": 0.7500000006984919
            }
          }
        },
        {
          "$type": "RPG.GameCore.TriggerEffect",
          "TargetType": {
            "$type": "RPG.GameCore.TargetAlias",
            "Alias": "AllTeammate"
          },
          "EffectPath": "Effects/Eff_Prefab/Eff_Avatar/Eff_Bronya/Eff_Avatar_Bronya_00_Skill03_Buff.prefab"
        },
        {
          "$type": "RPG.GameCore.TriggerEffect",
          "TargetType": {
            "$type": "RPG.GameCore.TargetAlias",
            "Alias": "Caster"
          },
          "EffectPath": "Effects/Eff_Prefab/Eff_Avatar/Eff_Bronya/Eff_Avatar_Bronya_00_Skill03_Buff_Self.prefab"
        },
        {
          "$type": "RPG.GameCore.WaitAnimState",
          "AnimStateName": "Skill03",
          "NormalizedTimeEnd": {
            "IsDynamic": false,
            "FixedValue": {
              "Value": 0.8000000007450581
            }
          }
        },
        {
          "$type": "RPG.GameCore.WaitAnimState",
          "TargetType": {
            "$type": "RPG.GameCore.TargetAlias",
            "Alias": "Caster"
          },
          "AnimStateName": "Skill03",
          "NormalizedTimeEnd": {
            "IsDynamic": false,
            "FixedValue": {
              "Value": 0.9800000009126961
            }
          }
        },
        {
          "$type": "RPG.GameCore.TryStartConnectUltraSkillFrameCapture"
        },
        {
          "$type": "RPG.GameCore.WaitAnimState",
          "AnimStateName": "Skill03",
          "NormalizedTimeEnd": {
            "IsDynamic": false,
            "FixedValue": {
              "Value": 0.9980000003706664
            }
          }
        },
        {
          "$type": "RPG.GameCore.HideLevelStage"
        },
        {
          "$type": "RPG.GameCore.TriggerAnimState",
          "TargetType": {
            "$type": "RPG.GameCore.TargetAlias",
            "Alias": "Caster"
          },
          "AnimLogicState": "Idle",
          "AnimStateName": "StandBy"
        },
        {
          "$type": "RPG.GameCore.LookAt",
          "PerformerType": {
            "$type": "RPG.GameCore.TargetAlias",
            "Alias": "Caster"
          },
          "TargetType": "TeamFormation"
        },
        {
          "$type": "RPG.GameCore.ShowBattleUI",
          "IsShow": true
        }
      ]
    },
    {
      "Name": "Avatar_Bronya_00_Assistant03_Phase02",
      "TargetInfo": {
        "TargetType": "InherentTargetEntity"
      },
      "OnStart": [
        {
          "$type": "RPG.GameCore.WaitAnimState",
          "TargetType": {
            "$type": "RPG.GameCore.TargetAlias",
            "Alias": "Caster"
          },
          "AnimStateName": "Skill03",
          "NormalizedTimeEnd": {
            "IsDynamic": false,
            "FixedValue": {
              "Value": 0.8000000007450581
            }
          }
        },
        {
          "$type": "RPG.GameCore.AddModifier",
          "TargetType": {
            "$type": "RPG.GameCore.TargetAlias",
            "Alias": "AllTeamMember"
          },
          "ModifierName": "MAvatar_Bronya_00_Ultra_PowerUp",
          "LifeTime": {
            "IsDynamic": false,
            "FixedValue": {
              "Value": 3
            }
          },
          "DynamicValues": {
            "MDF_AttackAddedRatio": {
              "IsDynamic": false,
              "FixedValue": {
                "Value": 0.3000000002793968
              }
            },
            "Bronya_CriticalDamage": {
              "IsDynamic": false,
              "FixedValue": {
                "Value": 0.3000000002793968
              }
            }
          }
        },
        {
          "$type": "RPG.GameCore.ModifySPNew",
          "TargetType": {
            "$type": "RPG.GameCore.TargetAlias",
            "Alias": "Caster"
          },
          "AddRatio": {
            "IsDynamic": false,
            "FixedValue": {
              "Value": 1
            }
          }
        },
        {
          "$type": "RPG.GameCore.CharacterPlayVO",
          "VOType": "ReceiveBuff",
          "TargetType": {
            "$type": "RPG.GameCore.TargetAlias",
            "Alias": "AllTeamMember"
          }
        }
      ]
    }
  ]
}