{
  "AbilityList": [
    {
      "Name": "Monster_W2_Abomi03_00_Skill01_Camera",
      "TargetInfo": {
        "TargetType": "AllEnemy"
      },
      "OnStart": [
        {
          "$type": "RPG.GameCore.WaitAnimState",
          "TargetType": {
            "$type": "RPG.GameCore.TargetFetchCaster"
          },
          "AnimStateName": "Skill01",
          "NormalizedTimeEnd": {
            "IsDynamic": false,
            "FixedValue": {
              "Value": 0.020364007214084268
            }
          }
        },
        {
          "$type": "RPG.GameCore.VCameraConfigChange",
          "CameraConfig": {
            "NormalConfig": {
              "CameraState": "CasterToTargetPerform",
              "TemplateName": "Monster_Common_Range_AOE",
              "AnchorTargetType": {
                "$type": "RPG.GameCore.TargetAlias",
                "Alias": "Caster"
              },
              "AnchorOffset": {
                "X": 0,
                "Y": 2,
                "Z": -5
              },
              "AnchorRatio": 0.01,
              "AimTargetType": {
                "$type": "RPG.GameCore.TargetAlias",
                "Alias": "Caster"
              },
              "AimRatio": 1,
              "ForbidDynamicOffset": false,
              "ResetToDefault": false
            },
            "AdditiveNormalConfig": {
              "AnchorTargetType": {
                "$type": "RPG.GameCore.TargetAlias",
                "Alias": "Caster"
              },
              "IsLocalOffset": true,
              "AnchorOffset": {
                "X": 1.33,
                "Y": -2,
                "Z": 1
              },
              "AnchorRatio": 1,
              "AimTargetType": {
                "$type": "RPG.GameCore.TargetAlias",
                "Alias": "SkillTargetEntityList"
              },
              "AimOffset": {
                "X": 0,
                "Y": -0.81,
                "Z": -0.03
              },
              "ResetToDefault": false
            },
            "BlendConfig": {
              "BlendType": "EaseIn",
              "CustomCurveName": "BlendCut_00to1_FastToSlow",
              "BlendTime": 0.494845
            }
          }
        },
        {
          "$type": "RPG.GameCore.WaitAnimState",
          "TargetType": {
            "$type": "RPG.GameCore.TargetFetchCaster"
          },
          "AnimStateName": "Skill01",
          "NormalizedTimeEnd": {
            "IsDynamic": false,
            "FixedValue": {
              "Value": 0.25327733205631375
            }
          }
        },
        {
          "$type": "RPG.GameCore.VCameraConfigChange",
          "CameraConfig": {
            "NormalConfig": {
              "CameraState": "CasterToTargetPerform",
              "TemplateName": "Monster_Common_Range_AOE",
              "AnchorTargetType": {
                "$type": "RPG.GameCore.TargetAlias",
                "Alias": "AllEnemy"
              },
              "AnchorOffset": {
                "X": 0,
                "Y": 2,
                "Z": -5
              },
              "AnchorRatio": 0.01,
              "AimTargetType": {
                "$type": "RPG.GameCore.TargetAlias",
                "Alias": "AllTeamMember"
              },
              "AimRatio": 1,
              "ForbidDynamicOffset": false,
              "ResetToDefault": false
            },
            "AdditiveNormalConfig": {
              "AnchorTargetType": {
                "$type": "RPG.GameCore.TargetAlias",
                "Alias": "Caster"
              },
              "IsLocalOffset": true,
              "AnchorOffset": {
                "X": 4.86,
                "Y": -1.17,
                "Z": -1.58
              },
              "AimTargetType": {
                "$type": "RPG.GameCore.TargetAlias",
                "Alias": "SkillTargetEntityList"
              },
              "AimOffset": {
                "X": -1.34,
                "Y": 0.47,
                "Z": 0
              },
              "ResetToDefault": false
            },
            "BlendConfig": {
              "BlendType": "EaseInOut",
              "BlendTime": 0.161512
            }
          }
        }
      ]
    }
  ]
}