{
  "AbilityList": [
    {
      "Name": "Monster_W2_Beast02_00_Skill01_Camera",
      "TargetInfo": {
        "TargetType": "Caster"
      },
      "OnStart": [
        {
          "$type": "RPG.GameCore.VCameraConfigChange",
          "CameraConfig": {
            "NormalConfig": {
              "CameraState": "CastAnimation",
              "AnchorTargetType": {
                "$type": "RPG.GameCore.TargetAlias",
                "Alias": "Caster"
              },
              "AimTargetType": {
                "$type": "RPG.GameCore.TargetAlias",
                "Alias": "SkillTargetEntityList"
              }
            },
            "ShowEntityConfig": {
              "ShowTargetType": {
                "$type": "RPG.GameCore.TargetAlias",
                "Alias": "AllTeamMember"
              }
            }
          }
        },
        {
          "$type": "RPG.GameCore.WaitAnimState",
          "AnimStateName": "Skill01",
          "NormalizedTimeEnd": {
            "IsDynamic": false,
            "FixedValue": {
              "Value": 0.40000000037252903
            }
          }
        },
        {
          "$type": "RPG.GameCore.VCameraConfigChange",
          "CameraConfig": {
            "NormalConfig": {
              "CameraState": "CasterToTargetPerform",
              "TemplateName": "Monster_Common_Summon",
              "AnchorTargetType": {
                "$type": "RPG.GameCore.TargetAlias",
                "Alias": "AllEnemy"
              },
              "AimTargetType": {
                "$type": "RPG.GameCore.TargetAlias",
                "Alias": "AllTeamMember"
              },
              "ResetToDefault": false
            },
            "BlendConfig": {
              "BlendType": "Cut"
            },
            "ShowEntityConfig": {
              "ShowTargetType": {
                "$type": "RPG.GameCore.TargetAlias",
                "Alias": "Caster"
              }
            }
          }
        },
        {
          "$type": "RPG.GameCore.VCameraConfigChange",
          "CameraConfig": {
            "ShotAnimMovementConfig": {
              "AngleXY": 180,
              "DistanceZ": -1,
              "Damp": 8.5,
              "Duration": 2
            }
          }
        }
      ]
    },
    {
      "Name": "Monster_W2_Beast02_00_Skill02_Camera",
      "TargetInfo": {
        "TargetType": "SkillTargetEntityList"
      },
      "OnStart": [
        {
          "$type": "RPG.GameCore.VCameraConfigChange",
          "CameraConfig": {
            "NormalConfig": {
              "CameraState": "CastAnimation",
              "AnchorTargetType": {
                "$type": "RPG.GameCore.TargetAlias",
                "Alias": "Caster"
              },
              "AimTargetType": {
                "$type": "RPG.GameCore.TargetAlias",
                "Alias": "SkillTargetEntityList"
              }
            },
            "AdditiveNormalConfig": {
              "AnchorTargetType": {
                "$type": "RPG.GameCore.TargetAlias",
                "Alias": "Caster"
              },
              "AnchorOffset": {
                "X": -1.59,
                "Y": 0,
                "Z": -5.8
              },
              "AimTargetType": {
                "$type": "RPG.GameCore.TargetAlias",
                "Alias": "Caster"
              },
              "AimOffset": {
                "X": 0,
                "Y": 1.83,
                "Z": 0.34
              }
            },
            "BlendConfig": {
              "BlendType": "Custom",
              "CustomCurveName": "BlendCut_00to1",
              "BlendTime": 0.3
            },
            "ShowEntityConfig": {
              "ShowTargetType": {
                "$type": "RPG.GameCore.TargetAlias",
                "Alias": "CasterAndSummonedAndAbilityTargetEntity"
              }
            }
          }
        },
        {
          "$type": "RPG.GameCore.WaitAnimState",
          "TargetType": {
            "$type": "RPG.GameCore.TargetFetchCaster"
          },
          "AnimStateName": "Skill02",
          "NormalizedTimeEnd": {
            "IsDynamic": false,
            "FixedValue": {
              "Value": 0.00125000043772161
            }
          }
        },
        {
          "$type": "RPG.GameCore.VCameraConfigChange",
          "CameraConfig": {
            "NormalConfig": {
              "CameraState": "DarkEntityAttack",
              "AttackType": "MeleeAttack",
              "AnchorTargetType": {
                "$type": "RPG.GameCore.TargetAlias",
                "Alias": "Caster"
              },
              "AimTargetType": {
                "$type": "RPG.GameCore.TargetAlias",
                "Alias": "SkillTargetEntityList"
              },
              "FollowDamp": 0.01,
              "AimDamp": 0.01
            },
            "AdditiveNormalConfig": {
              "AnchorTargetType": {
                "$type": "RPG.GameCore.TargetAlias",
                "Alias": "Caster"
              },
              "AnchorOffset": {
                "X": -0.23,
                "Y": 0,
                "Z": 0
              },
              "AimTargetType": {
                "$type": "RPG.GameCore.TargetAlias",
                "Alias": "SkillTargetEntityList"
              },
              "AimOffset": {
                "X": -1.53,
                "Y": 0,
                "Z": 0
              }
            },
            "BlendConfig": {
              "BlendType": "Cut"
            },
            "ShowEntityConfig": {
              "ShowTargetType": {
                "$type": "RPG.GameCore.TargetAlias",
                "Alias": "AllTeamMemberWithAbilityTargetEntity"
              }
            }
          }
        },
        {
          "$type": "RPG.GameCore.WaitAnimState",
          "TargetType": {
            "$type": "RPG.GameCore.TargetFetchCaster"
          },
          "AnimStateName": "Skill02",
          "NormalizedTimeEnd": {
            "IsDynamic": false,
            "FixedValue": {
              "Value": 0.1289423108100891
            }
          }
        },
        {
          "$type": "RPG.GameCore.VCameraConfigChange",
          "CameraConfig": {
            "NormalConfig": {
              "CameraState": "CameraMotion",
              "AnchorTargetType": {
                "$type": "RPG.GameCore.TargetAlias",
                "Alias": "Caster"
              },
              "AimTargetType": {
                "$type": "RPG.GameCore.TargetAlias",
                "Alias": "SkillTargetEntityList"
              },
              "ResetToDefault": false
            },
            "BlendConfig": {
              "BlendType": "Cut",
              "BlendTime": 0.054271
            },
            "ShowEntityConfig": {
              "ShowTargetType": {
                "$type": "RPG.GameCore.TargetAlias",
                "Alias": "AllTeamMemberWithAbilityTargetEntity"
              }
            }
          }
        },
        {
          "$type": "RPG.GameCore.WaitAnimState",
          "TargetType": {
            "$type": "RPG.GameCore.TargetFetchCaster"
          },
          "AnimStateName": "Skill02",
          "NormalizedTimeEnd": {
            "IsDynamic": false,
            "FixedValue": {
              "Value": 0.2767794441897422
            }
          }
        },
        {
          "$type": "RPG.GameCore.VCameraConfigChange",
          "CameraConfig": {
            "ShakeTemplateName": "OneShake_Normal_03s_XY",
            "OverrideShakeConfigV2": {
              "ShakeScale": 1,
              "ShakeDir": {
                "X": 0.5,
                "Y": -0.2,
                "Z": -0.8
              }
            },
            "ShowEntityConfig": {
              "ShowTargetType": {
                "$type": "RPG.GameCore.TargetAlias",
                "Alias": "AllTeamMemberWithAbilityTargetEntity"
              }
            }
          }
        }
      ]
    },
    {
      "Name": "Monster_W2_Beast02_00_Skill03_Camera",
      "TargetInfo": {
        "TargetType": "SkillTargetEntityList"
      },
      "OnStart": [
        {
          "$type": "RPG.GameCore.VCameraConfigChange",
          "CameraConfig": {
            "NormalConfig": {
              "CameraState": "CastAnimation",
              "AnchorTargetType": {
                "$type": "RPG.GameCore.TargetAlias",
                "Alias": "Caster"
              },
              "AnchorOffset": {
                "X": 0,
                "Y": -0.35,
                "Z": -4.72
              },
              "AimTargetType": {
                "$type": "RPG.GameCore.TargetAlias",
                "Alias": "SkillTargetEntityList"
              },
              "AimOffset": {
                "X": 0.7,
                "Y": 0.07,
                "Z": 0
              }
            }
          }
        },
        {
          "$type": "RPG.GameCore.WaitAnimState",
          "TargetType": {
            "$type": "RPG.GameCore.TargetAlias",
            "Alias": "Caster"
          },
          "AnimStateName": "Skill01",
          "NormalizedTimeEnd": {
            "IsDynamic": false,
            "FixedValue": {
              "Value": 0.24000000022351742
            }
          }
        },
        {
          "$type": "RPG.GameCore.VCameraConfigChange",
          "CameraConfig": {
            "ShakeTemplateName": "Player_BPSkill"
          }
        },
        {
          "$type": "RPG.GameCore.VCameraConfigChange",
          "CameraConfig": {
            "NormalConfig": {
              "CameraState": "UseSkillPerform",
              "TemplateName": "Cocolia_UseSkill",
              "AnchorTargetType": {
                "$type": "RPG.GameCore.TargetAlias",
                "Alias": "Caster"
              },
              "IsLocalOffset": true,
              "AnchorOffset": {
                "X": -1,
                "Y": 0,
                "Z": 2
              },
              "AimTargetType": {
                "$type": "RPG.GameCore.TargetAlias",
                "Alias": "Caster"
              },
              "FollowPoleAngle": 90,
              "FollowElevationAngle": -4.52,
              "FollowRadius": 8,
              "FollowDamp": 0.1,
              "AimDamp": 0.1,
              "ResetToDefault": false
            },
            "AdditiveNormalConfig": {
              "AnchorTargetType": {
                "$type": "RPG.GameCore.TargetAlias",
                "Alias": "Caster"
              },
              "AnchorOffset": {
                "X": 0,
                "Y": 0,
                "Z": -1.81
              },
              "AimTargetType": {
                "$type": "RPG.GameCore.TargetAlias",
                "Alias": "Caster"
              },
              "AimOffset": {
                "X": 0.7,
                "Y": -0.96,
                "Z": 0
              },
              "ResetToDefault": false
            },
            "BlendConfig": {
              "BlendType": "Custom",
              "CustomCurveName": "BlendCut_00to1",
              "BlendTime": 0.1
            },
            "ShowEntityConfig": {
              "ShowTargetType": {
                "$type": "RPG.GameCore.TargetAlias",
                "Alias": "AllTeamMember"
              }
            }
          }
        },
        {
          "$type": "RPG.GameCore.WaitAnimState",
          "TargetType": {
            "$type": "RPG.GameCore.TargetAlias",
            "Alias": "Caster"
          },
          "AnimStateName": "Skill01",
          "NormalizedTimeEnd": {
            "IsDynamic": false,
            "FixedValue": {
              "Value": 0.3200000002980232
            }
          }
        },
        {
          "$type": "RPG.GameCore.WaitSecond",
          "WaitTime": 2.5
        }
      ]
    },
    {
      "Name": "Monster_W2_Beast02_00_Skill04_Camera",
      "TargetInfo": {
        "TargetType": "SkillTargetEntityList"
      },
      "OnStart": [
        {
          "$type": "RPG.GameCore.VCameraConfigChange",
          "CameraConfig": {
            "NormalConfig": {
              "CameraState": "UseSkillPerform",
              "TemplateName": "Monster_Common_UseSkill",
              "AnchorTargetType": {
                "$type": "RPG.GameCore.TargetAlias",
                "Alias": "Caster"
              },
              "IsLocalOffset": true,
              "AnchorOffset": {
                "X": -1,
                "Y": 0,
                "Z": 0
              },
              "AimTargetType": {
                "$type": "RPG.GameCore.TargetAlias",
                "Alias": "SkillTargetEntityList"
              },
              "FollowPoleAngle": 90,
              "FollowElevationAngle": -4.52,
              "FollowRadius": 5,
              "FollowDamp": 0.1,
              "AimDamp": 0.1,
              "ResetToDefault": false
            },
            "AdditiveNormalConfig": {
              "AnchorTargetType": {
                "$type": "RPG.GameCore.TargetAlias",
                "Alias": "Caster"
              },
              "AnchorOffset": {
                "X": 0.78,
                "Y": 1.43,
                "Z": -3.45
              },
              "AimTargetType": {
                "$type": "RPG.GameCore.TargetAlias",
                "Alias": "SkillTargetEntityList"
              },
              "AimOffset": {
                "X": 1.69,
                "Y": 0.77,
                "Z": -2.41
              },
              "FOV": 20,
              "ResetToDefault": false
            },
            "BlendConfig": {
              "BlendType": "Cut"
            },
            "ShowEntityConfig": {
              "ShowTargetType": {
                "$type": "RPG.GameCore.TargetAlias",
                "Alias": "AllTeamMember"
              }
            }
          }
        },
        {
          "$type": "RPG.GameCore.WaitAnimState",
          "TargetType": {
            "$type": "RPG.GameCore.TargetFetchCaster"
          },
          "AnimStateName": "Skill04",
          "NormalizedTimeEnd": {
            "IsDynamic": false,
            "FixedValue": {
              "Value": 0.05507171945646405
            }
          }
        },
        {
          "$type": "RPG.GameCore.VCameraConfigChange",
          "CameraConfig": {
            "NormalConfig": {
              "CameraState": "UseSkillPerform",
              "TemplateName": "Monster_Common_UseSkill",
              "AnchorTargetType": {
                "$type": "RPG.GameCore.TargetAlias",
                "Alias": "Caster"
              },
              "IsLocalOffset": true,
              "AnchorOffset": {
                "X": -1,
                "Y": 0,
                "Z": 0
              },
              "AimTargetType": {
                "$type": "RPG.GameCore.TargetAlias",
                "Alias": "SkillTargetEntityList"
              },
              "FollowPoleAngle": 90,
              "FollowElevationAngle": -4.52,
              "FollowRadius": 5,
              "FollowDamp": 0.1,
              "AimDamp": 0.1,
              "ResetToDefault": false
            },
            "AdditiveNormalConfig": {
              "AnchorTargetType": {
                "$type": "RPG.GameCore.TargetAlias",
                "Alias": "Caster"
              },
              "AnchorOffset": {
                "X": 0.54,
                "Y": 1.12,
                "Z": -2.66
              },
              "AimTargetType": {
                "$type": "RPG.GameCore.TargetAlias",
                "Alias": "SkillTargetEntityList"
              },
              "AimOffset": {
                "X": 1.12,
                "Y": 0.77,
                "Z": 0.18
              },
              "ResetToDefault": false
            },
            "BlendConfig": {
              "BlendType": "Custom",
              "CustomCurveName": "BlendCut_Motion",
              "BlendTime": 1.135654
            },
            "ShowEntityConfig": {
              "ShowTargetType": {
                "$type": "RPG.GameCore.TargetAlias",
                "Alias": "AllTeamMember"
              }
            }
          }
        },
        {
          "$type": "RPG.GameCore.WaitAnimState",
          "TargetType": {
            "$type": "RPG.GameCore.TargetFetchCaster"
          },
          "AnimStateName": "Skill04",
          "NormalizedTimeEnd": {
            "IsDynamic": false,
            "FixedValue": {
              "Value": 0.5119057903066278
            }
          }
        },
        {
          "$type": "RPG.GameCore.VCameraConfigChange",
          "CameraConfig": {
            "NormalConfig": {
              "CameraState": "CasterToTargetPerform",
              "TemplateName": "Monster_Common_SoloRangeAttack",
              "AnchorTargetType": {
                "$type": "RPG.GameCore.TargetAlias",
                "Alias": "Caster"
              },
              "IsLocalOffset": true,
              "AnchorOffset": {
                "X": -1.8,
                "Y": -0.4,
                "Z": 2
              },
              "AnchorRatio": 1,
              "AimTargetType": {
                "$type": "RPG.GameCore.TargetAlias",
                "Alias": "SkillTargetEntityList"
              },
              "AimOffset": {
                "X": 2.5,
                "Y": 0,
                "Z": 0
              },
              "AimRatio": 0.01,
              "FollowDamp": 0.01,
              "AimDamp": 0.01,
              "Dutch": 2,
              "ResetToDefault": false
            },
            "AdditiveNormalConfig": {
              "AnchorTargetType": {
                "$type": "RPG.GameCore.TargetAlias",
                "Alias": "Caster"
              },
              "AnchorOffset": {
                "X": -0.96,
                "Y": 0,
                "Z": -0.5
              },
              "AimTargetType": {
                "$type": "RPG.GameCore.TargetAlias",
                "Alias": "SkillTargetEntityList"
              },
              "AimOffset": {
                "X": 2.03,
                "Y": 0.2,
                "Z": -0.77
              },
              "ResetToDefault": false
            },
            "BlendConfig": {
              "BlendType": "Custom",
              "CustomCurveName": "BlendCut_Motion",
              "BlendTime": 0.27
            }
          }
        }
      ]
    },
    {
      "Name": "Monster_W2_Beast02_00_Skill05_Camera",
      "TargetInfo": {
        "TargetType": "SkillTargetEntityList"
      },
      "OnStart": [
        {
          "$type": "RPG.GameCore.VCameraConfigChange",
          "CameraConfig": {
            "NormalConfig": {
              "CameraState": "CastAnimation",
              "AnchorTargetType": {
                "$type": "RPG.GameCore.TargetAlias",
                "Alias": "Caster"
              },
              "AimTargetType": {
                "$type": "RPG.GameCore.TargetAlias",
                "Alias": "SkillTargetEntityList"
              }
            },
            "ShowEntityConfig": {
              "ShowTargetType": {
                "$type": "RPG.GameCore.TargetAlias",
                "Alias": "AllTeamMember"
              }
            }
          }
        },
        {
          "$type": "RPG.GameCore.WaitAnimState",
          "TargetType": {
            "$type": "RPG.GameCore.TargetFetchCaster"
          },
          "AnimStateName": "Skill05",
          "NormalizedTimeEnd": {
            "IsDynamic": false,
            "FixedValue": {
              "Value": 0.3440000000409782
            }
          }
        },
        {
          "$type": "RPG.GameCore.LookAt",
          "PerformerType": {
            "$type": "RPG.GameCore.TargetAlias",
            "Alias": "Caster"
          },
          "TargetType": "AbilityTargetEntity"
        },
        {
          "$type": "RPG.GameCore.VCameraConfigChange",
          "CameraConfig": {
            "NormalConfig": {
              "CameraState": "CasterToTargetPerform",
              "TemplateName": "Monster_Common_SoloRangeAttack",
              "AnchorTargetType": {
                "$type": "RPG.GameCore.TargetAlias",
                "Alias": "Caster"
              },
              "IsLocalOffset": true,
              "AnchorOffset": {
                "X": -1.8,
                "Y": -0.4,
                "Z": 2
              },
              "AnchorRatio": 1,
              "AimTargetType": {
                "$type": "RPG.GameCore.TargetAlias",
                "Alias": "SkillTargetEntityList"
              },
              "AimOffset": {
                "X": 2.5,
                "Y": 0,
                "Z": 0
              },
              "AimRatio": 0.01,
              "FollowDamp": 0.01,
              "AimDamp": 0.01,
              "Dutch": 2,
              "ResetToDefault": false
            },
            "BlendConfig": {
              "BlendType": "Cut"
            }
          }
        },
        {
          "$type": "RPG.GameCore.VCameraConfigChange",
          "CameraConfig": {
            "ShakeTemplateName": "Klara_BP_04s"
          }
        }
      ]
    }
  ]
}