{
  "AbilityList": [
    {
      "Name": "WMonster_Wizard_Wind_02_Skill01_Camera",
      "TargetInfo": {
        "TargetType": "SkillTargetEntityList"
      },
      "OnStart": [
        {
          "$type": "RPG.GameCore.VCameraConfigChange",
          "CameraConfig": {
            "NormalConfig": {
              "CameraState": "CastAnimation",
              "AnchorTargetType": {
                "$type": "RPG.GameCore.TargetAlias",
                "Alias": "Caster"
              },
              "AimTargetType": {
                "$type": "RPG.GameCore.TargetAlias",
                "Alias": "SkillTargetEntityList"
              }
            },
            "ShowEntityConfig": {
              "ShowTargetType": {
                "$type": "RPG.GameCore.TargetAlias",
                "Alias": "AllTeamMember"
              }
            }
          }
        },
        {
          "$type": "RPG.GameCore.WaitAnimState",
          "AnimStateName": "Skill01",
          "NormalizedTimeEnd": {
            "IsDynamic": false,
            "FixedValue": {
              "Value": 0.5500000114552677
            }
          }
        },
        {
          "$type": "RPG.GameCore.VCameraConfigChange",
          "CameraConfig": {
            "ShakeConfigV2": {
              "ShakeRange": 0.21,
              "ShakeTime": 0.2,
              "ShakeDir": {
                "X": 0.15,
                "Y": 0.15,
                "Z": 0
              },
              "BaseCycle": 0.28,
              "CycleDamping": 0,
              "RangeAttenuation": 0.95,
              "PerlinNoiseAmplitude": {
                "X": 0.1,
                "Y": 0.1,
                "Z": 0.1
              },
              "PerlinNoiseFreq": {
                "X": 16,
                "Y": 14,
                "Z": 12
              },
              "RotationalAmplitude": {
                "X": 0,
                "Y": 0,
                "Z": 3.5
              },
              "RotationFreqV3": {
                "X": 4,
                "Y": 0,
                "Z": 8
              }
            }
          }
        },
        {
          "$type": "RPG.GameCore.WaitSecond",
          "WaitTime": 1.32
        },
        {
          "$type": "RPG.GameCore.VCameraConfigChange",
          "CameraConfig": {
            "NormalConfig": {
              "CameraState": "CasterToTargetPerform",
              "TemplateName": "Monster_Common_SoloRangeAttack",
              "AnchorTargetType": {
                "$type": "RPG.GameCore.TargetAlias",
                "Alias": "Caster"
              },
              "AimTargetType": {
                "$type": "RPG.GameCore.TargetAlias",
                "Alias": "SkillTargetEntityList"
              },
              "ResetToDefault": false
            },
            "BlendConfig": {
              "BlendType": "Cut"
            }
          }
        },
        {
          "$type": "RPG.GameCore.VCameraConfigChange",
          "CameraConfig": {
            "NormalConfig": {
              "CameraState": "CameraMotion",
              "AnchorTargetType": {
                "$type": "RPG.GameCore.TargetAlias",
                "Alias": "Caster"
              },
              "AimTargetType": {
                "$type": "RPG.GameCore.TargetAlias",
                "Alias": "SkillTargetEntityList"
              },
              "ResetToDefault": false
            }
          }
        }
      ]
    },
    {
      "Name": "WMonster_Wizard_Wind_02_Skill02_Camera",
      "TargetInfo": {
        "TargetType": "SkillTargetEntityList"
      },
      "OnStart": [
        {
          "$type": "RPG.GameCore.VCameraConfigChange",
          "CameraConfig": {
            "NormalConfig": {
              "CameraState": "CastAnimation",
              "AnchorTargetType": {
                "$type": "RPG.GameCore.TargetAlias",
                "Alias": "Caster"
              },
              "AimTargetType": {
                "$type": "RPG.GameCore.TargetAlias",
                "Alias": "SkillTargetEntityList"
              }
            },
            "ShowEntityConfig": {
              "ShowTargetType": {
                "$type": "RPG.GameCore.TargetAlias",
                "Alias": "AllTeamMember"
              }
            }
          }
        },
        {
          "$type": "RPG.GameCore.WaitAnimState",
          "AnimStateName": "Skill02",
          "NormalizedTimeEnd": {
            "IsDynamic": false,
            "FixedValue": {
              "Value": 0.5600000023841858
            }
          }
        },
        {
          "$type": "RPG.GameCore.VCameraConfigChange",
          "CameraConfig": {
            "NormalConfig": {
              "CameraState": "CasterToTargetPerform",
              "TemplateName": "Monster_Common_Summon",
              "AnchorTargetType": {
                "$type": "RPG.GameCore.TargetAlias",
                "Alias": "AllEnemy"
              },
              "AimTargetType": {
                "$type": "RPG.GameCore.TargetAlias",
                "Alias": "AllTeamMember"
              },
              "ResetToDefault": false
            },
            "BlendConfig": {
              "BlendType": "Cut"
            },
            "ShowEntityConfig": {
              "ShowTargetType": {
                "$type": "RPG.GameCore.TargetAlias",
                "Alias": "AllTeamMember"
              }
            }
          }
        },
        {
          "$type": "RPG.GameCore.WaitAnimState",
          "AnimStateName": "Skill02",
          "NormalizedTimeEnd": {
            "IsDynamic": false,
            "FixedValue": {
              "Value": 0.5600000023841858
            }
          }
        },
        {
          "$type": "RPG.GameCore.VCameraConfigChange",
          "CameraConfig": {
            "ShakeConfigV2": {
              "ShakeRange": 0.2,
              "ShakeTime": 0.25,
              "ShakeDir": {
                "X": 0,
                "Y": 0.2,
                "Z": 0
              },
              "BaseCycle": 0.1,
              "CycleDamping": 0,
              "RangeAttenuation": 0.95,
              "PerlinNoiseAmplitude": {
                "X": 0.1,
                "Y": 0.1,
                "Z": 0.1
              },
              "PerlinNoiseFreq": {
                "X": 16,
                "Y": 16,
                "Z": 0
              }
            }
          }
        }
      ]
    }
  ]
}