{
  "MainMissionID": 9999919,
  "StartSubMissionList": [
    999991901
  ],
  "FinishSubMissionList": [
    999991902
  ],
  "SubMissionList": [
    {
      "MainMissionID": 9999919,
      "MissionJsonPath": "Config/Level/Mission/9999919/Mission_999991901.json",
      "TakeType": "Auto",
      "ID": 999991901,
      "MazePlaneID": 90090,
      "MazeFloorID": 90090010,
      "FinishType": "PropState",
      "ParamType": "Equal",
      "ParamInt1": 10,
      "ParamInt2": 300014,
      "ParamInt3": 1,
      "ParamItemList": [],
      "Progress": 1
    },
    {
      "MainMissionID": 9999919,
      "MissionJsonPath": "Config/Level/Mission/9999919/Mission_999991902.json",
      "TakeType": "AnySequence",
      "TakeParamIntList": [
        999991901
      ],
      "ID": 999991902,
      "MazePlaneID": 90090,
      "MazeFloorID": 90090010,
      "FinishType": "PropState",
      "ParamType": "Equal",
      "ParamInt1": 14,
      "ParamInt2": 300001,
      "ParamInt3": 13,
      "ParamItemList": [],
      "Progress": 1
    }
  ]
}