{
  "OnInitSequece": [
    {
      "TaskList": [
        {
          "$type": "RPG.GameCore.DefineDynamicValue",
          "TargetType": {
            "$type": "RPG.GameCore.TargetFetchCaster"
          },
          "DynamicKey": "TutorialDemoStage"
        }
      ]
    }
  ],
  "OnStartSequece": [
    {
      "TaskList": [
        {
          "$type": "RPG.GameCore.ShowTutorialUI",
          "AssociatedUIName": "BattleGamePageContext",
          "ForceShowDialog": true
        }
      ]
    },
    {
      "TaskList": [
        {
          "$type": "RPG.GameCore.WaitTurnCount",
          "TaskList": []
        },
        {
          "$type": "RPG.GameCore.WaitTutorial",
          "Event": "ShowUIContext",
          "Param": "BattleGamePageContext",
          "OnSuccessImmediate": []
        },
        {
          "$type": "RPG.GameCore.TutorialNotify",
          "Type": "NodeRename"
        },
        {
          "$type": "RPG.GameCore.WaitUINodeOpen",
          "NodeID": "BattleGamePhaseUI.NormalMode.Append_Neutral_Normal_11203"
        },
        {
          "$type": "RPG.GameCore.PauseGame",
          "Pause": true
        },
        {
          "$type": "RPG.GameCore.ShowGuide",
          "ID": 203,
          "GuideResID": 2,
          "NodeID": "BattleGamePhaseUI.NormalMode.Append_Neutral_Normal_11203",
          "Show": true,
          "CopyAnchorAndSale": true,
          "UseOriginRatio": true,
          "OffsetY": 30,
          "Scale": 1.2,
          "PCGuide": {},
          "AnimConfig": {
            "InitScale": 6,
            "TotalTime": 0.5
          }
        },
        {
          "$type": "RPG.GameCore.ShowTutorialUIMask",
          "NodeID": "BattleGamePhaseUI.NormalMode.Append_Neutral_Normal_11203",
          "Show": true,
          "PCGuide": {},
          "AnimConfig": {
            "UseAnim": true,
            "InitScale": 1.0001,
            "TotalTime": 0.25
          }
        },
        {
          "$type": "RPG.GameCore.ShowGuideText",
          "ID": 103,
          "GuideResID": 7,
          "NodeID": "BattleGamePhaseUI.NormalMode.Append_Neutral_Normal_11203",
          "Show": true,
          "Text": "TutorialTextmap_Demo_120403",
          "Follow": false,
          "OffsetX": 80,
          "OffsetY": 10,
          "PCGuide": {}
        },
        {
          "$type": "RPG.GameCore.WaitTutorial",
          "Event": "ActionPress"
        },
        {
          "$type": "RPG.GameCore.PauseGame"
        },
        {
          "$type": "RPG.GameCore.ShowGuide",
          "ID": 203,
          "GuideResID": 1,
          "NodeID": "BattleGamePhaseUI.BtnUltraSkill.ActiveIcon",
          "CopyAnchorAndSale": true,
          "UseOriginRatio": true,
          "PCGuide": {},
          "AnimConfig": {
            "InitScale": 6,
            "TotalTime": 0.5
          }
        },
        {
          "$type": "RPG.GameCore.ShowGuideText",
          "ID": 103,
          "GuideResID": 9,
          "NodeID": "BattleGamePhaseUI.BtnUltraSkill.ActiveIcon",
          "Text": "TutorialTextmap_Demo_110501",
          "OffsetX": 30,
          "OffsetY": 40,
          "PCGuide": {}
        },
        {
          "$type": "RPG.GameCore.ShowTutorialUIMask",
          "NodeID": "BattleGamePhaseUI.NormalMode.Append_Neutral_Normal_11203",
          "PCGuide": {},
          "AnimConfig": {
            "UseAnim": true,
            "InitScale": 1.0001,
            "TotalTime": 0.25
          }
        },
        {
          "$type": "RPG.GameCore.TutorialNotify",
          "Type": "ShowRoleTrialDesc",
          "Param": "15"
        },
        {
          "$type": "RPG.GameCore.ByCompareBP",
          "CompareType": "Greater",
          "CompareValue": {
            "IsDynamic": false,
            "FixedValue": {
              "Value": 0
            }
          }
        },
        {
          "$type": "RPG.GameCore.ShowGuide",
          "ID": 201,
          "GuideResID": 1,
          "NodeID": "BattleGamePhaseUI.SkillButton02",
          "Show": true,
          "CopyAnchorAndSale": true,
          "UseOriginRatio": true,
          "PCGuide": {},
          "AnimConfig": {
            "InitScale": 6,
            "TotalTime": 0.5
          }
        },
        {
          "$type": "RPG.GameCore.ShowGuideText",
          "ID": 101,
          "GuideResID": 9,
          "NodeID": "BattleGamePhaseUI.SkillButton02",
          "Show": true,
          "Text": "TutorialTextmap_Demo_120402",
          "OffsetX": -30,
          "OffsetY": 70,
          "PCGuide": {}
        },
        {
          "$type": "RPG.GameCore.WaitTutorial",
          "Event": "ClickAction"
        },
        {
          "$type": "RPG.GameCore.ShowGuideText",
          "ID": 101,
          "Path": "BattleGamePhaseUI.SkillButton02",
          "Text": "TutorialTextmap_Demo_110506",
          "PCGuide": {}
        },
        {
          "$type": "RPG.GameCore.ShowGuide",
          "ID": 201,
          "GuideResID": 1,
          "NodeID": "BattleGamePhaseUI.SkillButton02",
          "CopyAnchorAndSale": true,
          "UseOriginRatio": true,
          "PCGuide": {},
          "AnimConfig": {
            "InitScale": 6,
            "TotalTime": 0.5
          }
        },
        {
          "$type": "RPG.GameCore.SetDynamicValue",
          "TargetType": {
            "$type": "RPG.GameCore.TargetAlias",
            "Alias": "Caster"
          },
          "DynamicKey": "TutorialDemoStage",
          "ContextScope": "TargetEntity",
          "Value": {
            "IsDynamic": false,
            "FixedValue": {
              "Value": 1
            }
          }
        }
      ]
    },
    {
      "IsLoop": true,
      "TaskList": [
        {
          "$type": "RPG.GameCore.WaitTutorial",
          "Event": "SelectUltra",
          "Param": "1204",
          "OnSuccessImmediate": []
        },
        {
          "$type": "RPG.GameCore.ShowGuideText",
          "ID": 101,
          "Path": "BattleGamePhaseUI.SkillButton02",
          "Text": "TutorialTextmap_Demo_110506",
          "PCGuide": {}
        },
        {
          "$type": "RPG.GameCore.ShowGuide",
          "ID": 201,
          "GuideResID": 1,
          "NodeID": "BattleGamePhaseUI.SkillButton02",
          "CopyAnchorAndSale": true,
          "UseOriginRatio": true,
          "PCGuide": {},
          "AnimConfig": {
            "InitScale": 6,
            "TotalTime": 0.5
          }
        },
        {
          "$type": "RPG.GameCore.WaitTutorial",
          "Event": "LevelCharacterAction",
          "Param": "1204",
          "OnSuccessImmediate": []
        },
        {
          "$type": "RPG.GameCore.ShowGuide",
          "ID": 202,
          "GuideResID": 1,
          "NodeID": "BattleGamePhaseUI.BtnUltraSkill.ActiveIcon",
          "Show": true,
          "CopyAnchorAndSale": true,
          "UseOriginRatio": true,
          "PCGuide": {},
          "AnimConfig": {
            "InitScale": 6,
            "TotalTime": 0.5
          }
        },
        {
          "$type": "RPG.GameCore.ShowGuideText",
          "ID": 102,
          "GuideResID": 9,
          "NodeID": "BattleGamePhaseUI.BtnUltraSkill.ActiveIcon",
          "Show": true,
          "Text": "TutorialTextmap_Demo_120401",
          "OffsetX": -10,
          "OffsetY": 90,
          "PCGuide": {}
        },
        {
          "$type": "RPG.GameCore.WaitTutorial",
          "Event": "ClickAction"
        },
        {
          "$type": "RPG.GameCore.ShowGuide",
          "ID": 202,
          "GuideResID": 1,
          "NodeID": "BattleGamePhaseUI.BtnUltraSkill.ActiveIcon",
          "CopyAnchorAndSale": true,
          "UseOriginRatio": true,
          "PCGuide": {},
          "AnimConfig": {
            "InitScale": 6,
            "TotalTime": 0.5
          }
        },
        {
          "$type": "RPG.GameCore.ShowGuideText",
          "ID": 102,
          "GuideResID": 9,
          "NodeID": "BattleGamePhaseUI.BtnUltraSkill.ActiveIcon",
          "Text": "TutorialTextmap_Demo_110501",
          "OffsetX": 30,
          "OffsetY": 40,
          "PCGuide": {}
        }
      ]
    },
    {
      "IsLoop": true,
      "TaskList": [
        {
          "$type": "RPG.GameCore.ByCompareDynamicValue",
          "TargetType": {
            "$type": "RPG.GameCore.TargetAlias",
            "Alias": "Caster"
          },
          "DynamicKey": "TutorialDemoStage",
          "ContextScope": "TargetEntity",
          "CompareType": "Greater",
          "CompareValue": {
            "IsDynamic": false,
            "FixedValue": {
              "Value": 0
            }
          }
        },
        {
          "$type": "RPG.GameCore.WaitTutorial",
          "Event": "LevelCharacterActionWithoutUltra",
          "Param": "1204",
          "OnSuccessImmediate": []
        },
        {
          "$type": "RPG.GameCore.ByCompareBP",
          "CompareType": "Greater",
          "CompareValue": {
            "IsDynamic": false,
            "FixedValue": {
              "Value": 0
            }
          }
        },
        {
          "$type": "RPG.GameCore.ShowGuide",
          "ID": 201,
          "GuideResID": 1,
          "NodeID": "BattleGamePhaseUI.SkillButton02",
          "Show": true,
          "CopyAnchorAndSale": true,
          "UseOriginRatio": true,
          "PCGuide": {},
          "AnimConfig": {
            "InitScale": 6,
            "TotalTime": 0.5
          }
        },
        {
          "$type": "RPG.GameCore.ShowGuideText",
          "ID": 101,
          "GuideResID": 9,
          "NodeID": "BattleGamePhaseUI.SkillButton02",
          "Show": true,
          "Text": "TutorialTextmap_Demo_120402",
          "OffsetX": -30,
          "OffsetY": 70,
          "PCGuide": {}
        },
        {
          "$type": "RPG.GameCore.WaitTutorial",
          "Event": "ClickAction"
        },
        {
          "$type": "RPG.GameCore.ShowGuideText",
          "ID": 101,
          "Path": "BattleGamePhaseUI.SkillButton02",
          "Text": "TutorialTextmap_Demo_110506",
          "PCGuide": {}
        },
        {
          "$type": "RPG.GameCore.ShowGuide",
          "ID": 201,
          "GuideResID": 1,
          "NodeID": "BattleGamePhaseUI.SkillButton02",
          "CopyAnchorAndSale": true,
          "UseOriginRatio": true,
          "PCGuide": {},
          "AnimConfig": {
            "InitScale": 6,
            "TotalTime": 0.5
          }
        },
        {
          "$type": "RPG.GameCore.WaitFrame"
        }
      ]
    },
    {
      "IsLoop": true,
      "TaskList": [
        {
          "$type": "RPG.GameCore.WaitTutorial",
          "Event": "SelectUltra",
          "Param": "0",
          "OnSuccessImmediate": []
        },
        {
          "$type": "RPG.GameCore.ShowGuideText",
          "ID": 101,
          "Path": "BattleGamePhaseUI.SkillButton02",
          "Text": "TutorialTextmap_Demo_110506",
          "PCGuide": {}
        },
        {
          "$type": "RPG.GameCore.ShowGuide",
          "ID": 201,
          "GuideResID": 1,
          "NodeID": "BattleGamePhaseUI.SkillButton02",
          "CopyAnchorAndSale": true,
          "UseOriginRatio": true,
          "PCGuide": {},
          "AnimConfig": {
            "InitScale": 6,
            "TotalTime": 0.5
          }
        }
      ]
    }
  ]
}