{
  "MainMissionID": 2000207,
  "StartSubMissionList": [
    200020700
  ],
  "FinishSubMissionList": [
    200020714
  ],
  "SubMissionList": [
    {
      "MainMissionID": 2000207,
      "MissionJsonPath": "Config/Level/Mission/2000207/Mission_200020700.json",
      "TakeType": "Auto",
      "TakeParamIntList": [],
      "ID": 200020700,
      "FinishType": "Talk",
      "ParamType": "Equal",
      "ParamStr1": "Mission_200020700",
      "ParamIntList": [],
      "ParamItemList": [],
      "Progress": 1
    },
    {
      "MainMissionID": 2000207,
      "MissionJsonPath": "Config/Level/Mission/2000207/Mission_200020701.json",
      "TakeType": "AnySequence",
      "TakeParamIntList": [
        200020700,
        200020700
      ],
      "ID": 200020701,
      "FinishType": "Talk",
      "ParamType": "Equal",
      "ParamStr1": "Mission_200020701",
      "ParamIntList": [],
      "ParamItemList": [],
      "Progress": 1
    },
    {
      "MainMissionID": 2000207,
      "MissionJsonPath": "Config/Level/Mission/2000207/Mission_200020702.json",
      "TakeType": "AnySequence",
      "TakeParamIntList": [
        200020732
      ],
      "ID": 200020702,
      "FinishType": "Talk",
      "ParamType": "Equal",
      "ParamStr1": "Mission_200020702",
      "ParamItemList": [],
      "Progress": 1
    },
    {
      "MainMissionID": 2000207,
      "MissionJsonPath": "Config/Level/Mission/2000207/Mission_200020703.json",
      "TakeType": "AnySequence",
      "TakeParamIntList": [
        200020702
      ],
      "ID": 200020703,
      "FinishType": "SubMissionFinishCnt",
      "ParamType": "ListContain",
      "ParamIntList": [
        200020704
      ],
      "ParamItemList": [],
      "Progress": 1
    },
    {
      "MainMissionID": 2000207,
      "TakeType": "AnySequence",
      "TakeParamIntList": [
        200020702
      ],
      "ID": 200020704,
      "MazePlaneID": 40002,
      "MazeFloorID": 40002004,
      "FinishType": "KillMonster",
      "ParamType": "Equal",
      "ParamInt1": 11,
      "ParamInt2": 200001,
      "ParamItemList": [],
      "Progress": 1,
      "IsBackTrack": true
    },
    {
      "MainMissionID": 2000207,
      "MissionJsonPath": "Config/Level/Mission/2000207/Mission_200020705.json",
      "TakeType": "AnySequence",
      "TakeParamIntList": [
        200020704
      ],
      "ID": 200020705,
      "FinishType": "SubMissionFinishCnt",
      "ParamType": "ListContain",
      "ParamIntList": [
        200020706
      ],
      "ParamItemList": [],
      "Progress": 1
    },
    {
      "MainMissionID": 2000207,
      "TakeType": "AnySequence",
      "TakeParamIntList": [
        200020704
      ],
      "ID": 200020706,
      "MazePlaneID": 40002,
      "MazeFloorID": 40002004,
      "FinishType": "KillMonster",
      "ParamType": "Equal",
      "ParamInt1": 12,
      "ParamInt2": 200001,
      "ParamItemList": [],
      "Progress": 1,
      "IsBackTrack": true
    },
    {
      "MainMissionID": 2000207,
      "MissionJsonPath": "Config/Level/Mission/2000207/Mission_200020707.json",
      "TakeType": "AnySequence",
      "TakeParamIntList": [
        200020706
      ],
      "ID": 200020707,
      "FinishType": "SubMissionFinishCnt",
      "ParamType": "ListContain",
      "ParamIntList": [
        200020708
      ],
      "ParamItemList": [],
      "Progress": 1
    },
    {
      "MainMissionID": 2000207,
      "TakeType": "AnySequence",
      "TakeParamIntList": [
        200020706
      ],
      "ID": 200020708,
      "MazePlaneID": 40002,
      "MazeFloorID": 40002004,
      "FinishType": "KillMonster",
      "ParamType": "Equal",
      "ParamInt1": 10,
      "ParamInt2": 200001,
      "ParamItemList": [],
      "Progress": 1,
      "IsBackTrack": true
    },
    {
      "MainMissionID": 2000207,
      "MissionJsonPath": "Config/Level/Mission/2000207/Mission_200020709.json",
      "TakeType": "AnySequence",
      "TakeParamIntList": [
        200020708
      ],
      "ID": 200020709,
      "FinishType": "Talk",
      "ParamType": "Equal",
      "ParamStr1": "Mission_200020709",
      "ParamItemList": [],
      "Progress": 1
    },
    {
      "MainMissionID": 2000207,
      "MissionJsonPath": "Config/Level/Mission/2000207/Mission_200020710.json",
      "TakeType": "AnySequence",
      "TakeParamIntList": [
        200020709
      ],
      "ID": 200020710,
      "FinishType": "Talk",
      "ParamType": "Equal",
      "ParamStr1": "Mission_200020710",
      "ParamItemList": [],
      "Progress": 1
    },
    {
      "MainMissionID": 2000207,
      "TakeType": "AnySequence",
      "TakeParamIntList": [
        200020710
      ],
      "ID": 200020711,
      "MazePlaneID": 40002,
      "MazeFloorID": 40002004,
      "FinishType": "KillMonster",
      "ParamType": "Equal",
      "ParamInt1": 9,
      "ParamInt2": 200001,
      "ParamItemList": [],
      "Progress": 1,
      "IsBackTrack": true
    },
    {
      "MainMissionID": 2000207,
      "TakeType": "Auto",
      "ID": 200020712,
      "MazePlaneID": 40002,
      "MazeFloorID": 40002004,
      "FinishType": "PropState",
      "ParamType": "Equal",
      "ParamInt1": 8,
      "ParamInt2": 300001,
      "ParamInt3": 13,
      "ParamItemList": [],
      "Progress": 1
    },
    {
      "MainMissionID": 2000207,
      "MissionJsonPath": "Config/Level/Mission/2000207/Mission_200020713.json",
      "TakeType": "AnySequence",
      "TakeParamIntList": [
        200020711
      ],
      "ID": 200020713,
      "FinishType": "Talk",
      "ParamType": "Equal",
      "ParamStr1": "Mission_200020713",
      "ParamItemList": [],
      "Progress": 1
    },
    {
      "MainMissionID": 2000207,
      "MissionJsonPath": "Config/Level/Mission/2000207/Mission_200020714.json",
      "TakeType": "AnySequence",
      "TakeParamIntList": [
        200020750
      ],
      "ID": 200020714,
      "FinishType": "Talk",
      "ParamType": "Equal",
      "ParamStr1": "Mission_200020714",
      "ParamIntList": [],
      "ParamItemList": [],
      "Progress": 1
    },
    {
      "MainMissionID": 2000207,
      "MissionJsonPath": "Config/Level/Mission/2000207/Mission_200020721.json",
      "TakeType": "AnySequence",
      "TakeParamIntList": [
        200020700
      ],
      "ID": 200020721,
      "FinishType": "Talk",
      "ParamType": "Equal",
      "ParamStr1": "Mission_200020721",
      "ParamItemList": [],
      "Progress": 1
    },
    {
      "MainMissionID": 2000207,
      "TakeType": "AnySequence",
      "TakeParamIntList": [
        200020700
      ],
      "ID": 200020722,
      "MazePlaneID": 40002,
      "MazeFloorID": 40002004,
      "FinishType": "KillMonster",
      "ParamType": "Equal",
      "ParamInt1": 7,
      "ParamInt2": 200001,
      "ParamItemList": [],
      "Progress": 1,
      "IsBackTrack": true
    },
    {
      "MainMissionID": 2000207,
      "MissionJsonPath": "Config/Level/Mission/2000207/Mission_200020723.json",
      "TakeType": "AnySequence",
      "TakeParamIntList": [
        200020702
      ],
      "ID": 200020723,
      "FinishType": "Talk",
      "ParamType": "Equal",
      "ParamStr1": "Mission_200020723",
      "ParamItemList": [],
      "Progress": 1
    },
    {
      "MainMissionID": 2000207,
      "MissionJsonPath": "Config/Level/Mission/2000207/Mission_200020724.json",
      "TakeType": "AnySequence",
      "TakeParamIntList": [
        200020723
      ],
      "ID": 200020724,
      "MazePlaneID": 40002,
      "MazeFloorID": 40002004,
      "FinishType": "KillMonster",
      "ParamType": "Equal",
      "ParamInt1": 11,
      "ParamInt2": 200001,
      "ParamItemList": [],
      "Progress": 1,
      "IsBackTrack": true
    },
    {
      "MainMissionID": 2000207,
      "MissionJsonPath": "Config/Level/Mission/2000207/Mission_200020725.json",
      "TakeType": "AnySequence",
      "TakeParamIntList": [
        200020704
      ],
      "ID": 200020725,
      "FinishType": "Talk",
      "ParamType": "Equal",
      "ParamStr1": "Mission_200020725",
      "ParamItemList": [],
      "Progress": 1
    },
    {
      "MainMissionID": 2000207,
      "MissionJsonPath": "Config/Level/Mission/2000207/Mission_200020726.json",
      "TakeType": "AnySequence",
      "TakeParamIntList": [
        200020725
      ],
      "ID": 200020726,
      "MazePlaneID": 40002,
      "MazeFloorID": 40002004,
      "FinishType": "KillMonster",
      "ParamType": "Equal",
      "ParamInt1": 12,
      "ParamInt2": 200001,
      "ParamItemList": [],
      "Progress": 1,
      "IsBackTrack": true
    },
    {
      "MainMissionID": 2000207,
      "MissionJsonPath": "Config/Level/Mission/2000207/Mission_200020727.json",
      "TakeType": "AnySequence",
      "TakeParamIntList": [
        200020706
      ],
      "ID": 200020727,
      "FinishType": "Talk",
      "ParamType": "Equal",
      "ParamStr1": "Mission_200020727",
      "ParamItemList": [],
      "Progress": 1
    },
    {
      "MainMissionID": 2000207,
      "MissionJsonPath": "Config/Level/Mission/2000207/Mission_200020728.json",
      "TakeType": "AnySequence",
      "TakeParamIntList": [
        200020727
      ],
      "ID": 200020728,
      "MazePlaneID": 40002,
      "MazeFloorID": 40002004,
      "FinishType": "KillMonster",
      "ParamType": "Equal",
      "ParamInt1": 10,
      "ParamInt2": 200001,
      "ParamItemList": [],
      "Progress": 1,
      "IsBackTrack": true
    },
    {
      "MainMissionID": 2000207,
      "MissionJsonPath": "Config/Level/Mission/2000207/Mission_200020732.json",
      "TakeType": "AnySequence",
      "TakeParamIntList": [
        200020721,
        200020722
      ],
      "ID": 200020732,
      "FinishType": "Talk",
      "ParamType": "Equal",
      "ParamStr1": "Mission_200020732",
      "ParamItemList": [],
      "Progress": 1
    },
    {
      "MainMissionID": 2000207,
      "MissionJsonPath": "Config/Level/Mission/2000207/Mission_200020735.json",
      "TakeType": "AnySequence",
      "TakeParamIntList": [
        200020704
      ],
      "ID": 200020735,
      "FinishType": "Talk",
      "ParamType": "Equal",
      "ParamStr1": "Mission_200020735",
      "ParamItemList": [],
      "Progress": 1
    },
    {
      "MainMissionID": 2000207,
      "MissionJsonPath": "Config/Level/Mission/2000207/Mission_200020736.json",
      "TakeType": "AnySequence",
      "TakeParamIntList": [
        200020706
      ],
      "ID": 200020736,
      "FinishType": "Talk",
      "ParamType": "Equal",
      "ParamStr1": "Mission_200020736",
      "ParamItemList": [],
      "Progress": 1
    },
    {
      "MainMissionID": 2000207,
      "TakeType": "AnySequence",
      "TakeParamIntList": [
        200020701
      ],
      "ID": 200020740,
      "FinishType": "ItemNum",
      "ParamType": "Equal",
      "ParamInt1": 149985,
      "ParamIntList": [],
      "ParamItemList": [],
      "Progress": 5,
      "IsBackTrack": true
    },
    {
      "MainMissionID": 2000207,
      "MissionJsonPath": "Config/Level/Mission/2000207/Mission_200020741.json",
      "TakeType": "AnySequence",
      "TakeParamIntList": [
        200020701
      ],
      "ID": 200020741,
      "FinishType": "Talk",
      "ParamType": "Equal",
      "ParamStr1": "Mission_200020741",
      "ParamIntList": [],
      "ParamItemList": [],
      "Progress": 1
    },
    {
      "MainMissionID": 2000207,
      "MissionJsonPath": "Config/Level/Mission/2000207/Mission_200020742.json",
      "TakeType": "AnySequence",
      "TakeParamIntList": [
        200020701
      ],
      "ID": 200020742,
      "FinishType": "Talk",
      "ParamType": "Equal",
      "ParamStr1": "Mission_200020742",
      "ParamItemList": [],
      "Progress": 1
    },
    {
      "MainMissionID": 2000207,
      "MissionJsonPath": "Config/Level/Mission/2000207/Mission_200020743.json",
      "TakeType": "AnySequence",
      "TakeParamIntList": [
        200020701
      ],
      "ID": 200020743,
      "FinishType": "Talk",
      "ParamType": "Equal",
      "ParamStr1": "Mission_200020743",
      "ParamItemList": [],
      "Progress": 1
    },
    {
      "MainMissionID": 2000207,
      "MissionJsonPath": "Config/Level/Mission/2000207/Mission_200020744.json",
      "TakeType": "AnySequence",
      "TakeParamIntList": [
        200020701
      ],
      "ID": 200020744,
      "FinishType": "Talk",
      "ParamType": "Equal",
      "ParamStr1": "Mission_200020744",
      "ParamItemList": [],
      "Progress": 1
    },
    {
      "MainMissionID": 2000207,
      "MissionJsonPath": "Config/Level/Mission/2000207/Mission_200020745.json",
      "TakeType": "AnySequence",
      "TakeParamIntList": [
        200020701
      ],
      "ID": 200020745,
      "FinishType": "Talk",
      "ParamType": "Equal",
      "ParamStr1": "Mission_200020745",
      "ParamItemList": [],
      "Progress": 1
    },
    {
      "MainMissionID": 2000207,
      "TakeType": "AnySequence",
      "TakeParamIntList": [
        200020701
      ],
      "ID": 200020746,
      "MazePlaneID": 40002,
      "MazeFloorID": 40002004,
      "FinishType": "KillMonster",
      "ParamType": "Equal",
      "ParamInt1": 15,
      "ParamInt2": 200001,
      "ParamIntList": [],
      "ParamItemList": [],
      "Progress": 1,
      "IsBackTrack": true
    },
    {
      "MainMissionID": 2000207,
      "TakeType": "AnySequence",
      "TakeParamIntList": [
        200020701
      ],
      "ID": 200020747,
      "MazePlaneID": 40002,
      "MazeFloorID": 40002004,
      "FinishType": "KillMonster",
      "ParamType": "Equal",
      "ParamInt1": 39,
      "ParamInt2": 200002,
      "ParamIntList": [],
      "ParamItemList": [],
      "Progress": 1,
      "IsBackTrack": true
    },
    {
      "MainMissionID": 2000207,
      "MissionJsonPath": "Config/Level/Mission/2000207/Mission_200020748.json",
      "TakeType": "AnySequence",
      "TakeParamIntList": [
        200020744
      ],
      "ID": 200020748,
      "FinishType": "SubMissionFinishCnt",
      "ParamType": "ListContain",
      "ParamIntList": [
        200020746
      ],
      "ParamItemList": [],
      "Progress": 1
    },
    {
      "MainMissionID": 2000207,
      "MissionJsonPath": "Config/Level/Mission/2000207/Mission_200020749.json",
      "TakeType": "AnySequence",
      "TakeParamIntList": [
        200020745
      ],
      "ID": 200020749,
      "FinishType": "SubMissionFinishCnt",
      "ParamType": "ListContain",
      "ParamIntList": [
        200020747
      ],
      "ParamItemList": [],
      "Progress": 1
    },
    {
      "MainMissionID": 2000207,
      "MissionJsonPath": "Config/Level/Mission/2000207/Mission_200020750.json",
      "TakeType": "AnySequence",
      "TakeParamIntList": [
        200020778
      ],
      "ID": 200020750,
      "FinishType": "ConsumeMissionItem",
      "ParamType": "Equal",
      "ParamIntList": [],
      "ParamItemList": [
        {
          "ItemID": 149985,
          "ItemNum": 5
        }
      ],
      "Progress": 1
    },
    {
      "MainMissionID": 2000207,
      "MissionJsonPath": "Config/Level/Mission/2000207/Mission_200020751.json",
      "TakeType": "AnySequence",
      "TakeParamIntList": [
        200020701
      ],
      "ID": 200020751,
      "FinishType": "Talk",
      "ParamType": "Equal",
      "ParamStr1": "Mission_200020751",
      "ParamItemList": [],
      "Progress": 1
    },
    {
      "MainMissionID": 2000207,
      "MissionJsonPath": "Config/Level/Mission/2000207/Mission_200020760.json",
      "TakeType": "AnySequence",
      "TakeParamIntList": [
        200020746
      ],
      "ID": 200020760,
      "FinishType": "Talk",
      "ParamType": "Equal",
      "ParamStr1": "Mission_200020760",
      "ParamItemList": [],
      "Progress": 1
    },
    {
      "MainMissionID": 2000207,
      "MissionJsonPath": "Config/Level/Mission/2000207/Mission_200020761.json",
      "TakeType": "AnySequence",
      "TakeParamIntList": [
        200020747
      ],
      "ID": 200020761,
      "FinishType": "Talk",
      "ParamType": "Equal",
      "ParamStr1": "Mission_200020761",
      "ParamItemList": [],
      "Progress": 1
    },
    {
      "MainMissionID": 2000207,
      "MissionJsonPath": "Config/Level/Mission/2000207/Mission_200020762.json",
      "TakeType": "AnySequence",
      "TakeParamIntList": [
        200020701
      ],
      "ID": 200020762,
      "FinishType": "Talk",
      "ParamType": "Equal",
      "ParamStr1": "Mission_200020762",
      "ParamItemList": [],
      "Progress": 1
    },
    {
      "MainMissionID": 2000207,
      "MissionJsonPath": "Config/Level/Mission/2000207/Mission_200020763.json",
      "TakeType": "AnySequence",
      "TakeParamIntList": [
        200020701
      ],
      "ID": 200020763,
      "FinishType": "Talk",
      "ParamType": "Equal",
      "ParamStr1": "Mission_200020763",
      "ParamItemList": [],
      "Progress": 1
    },
    {
      "MainMissionID": 2000207,
      "MissionJsonPath": "Config/Level/Mission/2000207/Mission_200020764.json",
      "TakeType": "AnySequence",
      "TakeParamIntList": [
        200020701
      ],
      "ID": 200020764,
      "FinishType": "Talk",
      "ParamType": "Equal",
      "ParamStr1": "Mission_200020764",
      "ParamItemList": [],
      "Progress": 1
    },
    {
      "MainMissionID": 2000207,
      "MissionJsonPath": "Config/Level/Mission/2000207/Mission_200020765.json",
      "TakeType": "AnySequence",
      "TakeParamIntList": [
        200020701
      ],
      "ID": 200020765,
      "FinishType": "Talk",
      "ParamType": "Equal",
      "ParamStr1": "Mission_200020765",
      "ParamItemList": [],
      "Progress": 1
    },
    {
      "MainMissionID": 2000207,
      "MissionJsonPath": "Config/Level/Mission/2000207/Mission_200020766.json",
      "TakeType": "AnySequence",
      "TakeParamIntList": [
        200020701
      ],
      "ID": 200020766,
      "FinishType": "Talk",
      "ParamType": "Equal",
      "ParamStr1": "Mission_200020766",
      "ParamItemList": [],
      "Progress": 1
    },
    {
      "MainMissionID": 2000207,
      "MissionJsonPath": "Config/Level/Mission/2000207/Mission_200020767.json",
      "TakeType": "AnySequence",
      "TakeParamIntList": [
        200020701
      ],
      "ID": 200020767,
      "FinishType": "Talk",
      "ParamType": "Equal",
      "ParamStr1": "Mission_200020767",
      "ParamItemList": [],
      "Progress": 1
    },
    {
      "MainMissionID": 2000207,
      "MissionJsonPath": "Config/Level/Mission/2000207/Mission_200020768.json",
      "TakeType": "AnySequence",
      "TakeParamIntList": [
        200020762
      ],
      "ID": 200020768,
      "FinishType": "Talk",
      "ParamType": "Equal",
      "ParamStr1": "Mission_200020768",
      "ParamItemList": [],
      "Progress": 1
    },
    {
      "MainMissionID": 2000207,
      "MissionJsonPath": "Config/Level/Mission/2000207/Mission_200020769.json",
      "TakeType": "AnySequence",
      "TakeParamIntList": [
        200020763
      ],
      "ID": 200020769,
      "FinishType": "Talk",
      "ParamType": "Equal",
      "ParamStr1": "Mission_200020769",
      "ParamItemList": [],
      "Progress": 1
    },
    {
      "MainMissionID": 2000207,
      "MissionJsonPath": "Config/Level/Mission/2000207/Mission_200020770.json",
      "TakeType": "AnySequence",
      "TakeParamIntList": [
        200020764
      ],
      "ID": 200020770,
      "FinishType": "Talk",
      "ParamType": "Equal",
      "ParamStr1": "Mission_200020770",
      "ParamItemList": [],
      "Progress": 1
    },
    {
      "MainMissionID": 2000207,
      "MissionJsonPath": "Config/Level/Mission/2000207/Mission_200020771.json",
      "TakeType": "AnySequence",
      "TakeParamIntList": [
        200020765
      ],
      "ID": 200020771,
      "FinishType": "Talk",
      "ParamType": "Equal",
      "ParamStr1": "Mission_200020771",
      "ParamItemList": [],
      "Progress": 1
    },
    {
      "MainMissionID": 2000207,
      "MissionJsonPath": "Config/Level/Mission/2000207/Mission_200020772.json",
      "TakeType": "AnySequence",
      "TakeParamIntList": [
        200020766
      ],
      "ID": 200020772,
      "FinishType": "Talk",
      "ParamType": "Equal",
      "ParamStr1": "Mission_200020772",
      "ParamItemList": [],
      "Progress": 1
    },
    {
      "MainMissionID": 2000207,
      "MissionJsonPath": "Config/Level/Mission/2000207/Mission_200020773.json",
      "TakeType": "AnySequence",
      "TakeParamIntList": [
        200020767
      ],
      "ID": 200020773,
      "FinishType": "Talk",
      "ParamType": "Equal",
      "ParamStr1": "Mission_200020773",
      "ParamItemList": [],
      "Progress": 1
    },
    {
      "MainMissionID": 2000207,
      "MissionJsonPath": "Config/Level/Mission/2000207/Mission_200020774.json",
      "TakeType": "AnySequence",
      "TakeParamIntList": [
        200020701
      ],
      "ID": 200020774,
      "FinishType": "Talk",
      "ParamType": "Equal",
      "ParamStr1": "Mission_200020774",
      "ParamItemList": [],
      "Progress": 1
    },
    {
      "MainMissionID": 2000207,
      "MissionJsonPath": "Config/Level/Mission/2000207/Mission_200020775.json",
      "TakeType": "AnySequence",
      "TakeParamIntList": [
        200020701
      ],
      "ID": 200020775,
      "FinishType": "Talk",
      "ParamType": "Equal",
      "ParamStr1": "Mission_200020775",
      "ParamItemList": [],
      "Progress": 1
    },
    {
      "MainMissionID": 2000207,
      "MissionJsonPath": "Config/Level/Mission/2000207/Mission_200020776.json",
      "TakeType": "AnySequence",
      "TakeParamIntList": [
        200020701
      ],
      "ID": 200020776,
      "FinishType": "Talk",
      "ParamType": "Equal",
      "ParamStr1": "Mission_200020776",
      "ParamItemList": [],
      "Progress": 1
    },
    {
      "MainMissionID": 2000207,
      "MissionJsonPath": "Config/Level/Mission/2000207/Mission_200020777.json",
      "TakeType": "AnySequence",
      "TakeParamIntList": [
        200020701
      ],
      "ID": 200020777,
      "FinishType": "Talk",
      "ParamType": "Equal",
      "ParamStr1": "Mission_200020777",
      "Progress": 1
    },
    {
      "MainMissionID": 2000207,
      "MissionJsonPath": "Config/Level/Mission/2000207/Mission_200020778.json",
      "TakeType": "AnySequence",
      "TakeParamIntList": [
        200020740
      ],
      "ID": 200020778,
      "FinishType": "Talk",
      "ParamType": "Equal",
      "ParamStr1": "Mission_200020778",
      "Progress": 1
    }
  ]
}