{
  "OnInitSequece": [],
  "OnStartSequece": [
    {
      "TaskList": [
        {
          "$type": "RPG.GameCore.SwitchCharacterAnchor",
          "IsLocalPlayer": true,
          "CharacterUniqueName": "LocalPlayer",
          "AreaName": {
            "Value": "LevelArea_P20122_F20122001_G42"
          },
          "AnchorName": {
            "Value": "Anchor2"
          }
        },
        {
          "$type": "RPG.GameCore.LevelPerformanceInitialize",
          "PerformanceType": "D",
          "LockCamera": false,
          "CreateCharacterList": [],
          "EntityVisiableList": [],
          "StreamingCentersInBlackMask": [],
          "StreamingCentersAfterBlackMask": []
        },
        {
          "$type": "RPG.GameCore.PlaySimpleTalk",
          "BlackMask": true,
          "SimpleTalkList": [
            {
              "TalkSentenceID": 201232301,
              "ProtectTime": 0.3
            },
            {
              "TalkSentenceID": 201232302,
              "ProtectTime": 0.3
            },
            {
              "TalkSentenceID": 201232303,
              "ProtectTime": 0.3
            },
            {
              "TalkSentenceID": 201232304,
              "ProtectTime": 0.3
            },
            {
              "TalkSentenceID": 201232305,
              "ProtectTime": 0.3
            },
            {
              "TalkSentenceID": 201232306,
              "ProtectTime": 0.3
            }
          ]
        },
        {
          "$type": "RPG.GameCore.WaitSimpleTalkFinish"
        },
        {
          "$type": "RPG.GameCore.PlayOptionTalk",
          "OptionList": [
            {
              "TalkSentenceID": 201232307,
              "OptionIconType": "ChatIcon",
              "TriggerCustomString": "TalkSentence_201232307"
            },
            {
              "TalkSentenceID": 201232309,
              "OptionIconType": "ChatIcon",
              "TriggerCustomString": "TalkSentence_201232309"
            }
          ],
          "HideSelected": true
        }
      ]
    },
    {
      "TaskList": [
        {
          "$type": "RPG.GameCore.WaitCustomString",
          "CustomString": {
            "Value": "TalkSentence_201232307"
          }
        },
        {
          "$type": "RPG.GameCore.PlaySimpleTalk",
          "BlackMask": true,
          "SimpleTalkList": [
            {
              "TalkSentenceID": 201232308,
              "ProtectTime": 0.3
            }
          ]
        },
        {
          "$type": "RPG.GameCore.WaitSimpleTalkFinish"
        },
        {
          "$type": "RPG.GameCore.TriggerCustomString",
          "CustomString": {
            "Value": "TalkSentence_201232309"
          }
        }
      ]
    },
    {
      "TaskList": [
        {
          "$type": "RPG.GameCore.WaitCustomString",
          "CustomString": {
            "Value": "TalkSentence_201232309"
          }
        },
        {
          "$type": "RPG.GameCore.PlaySimpleTalk",
          "BlackMask": true,
          "SimpleTalkList": [
            {
              "TalkSentenceID": 201232310,
              "ProtectTime": 0.3
            },
            {
              "TalkSentenceID": 201232311,
              "ProtectTime": 0.3
            },
            {
              "TalkSentenceID": 201232312,
              "ProtectTime": 0.3
            },
            {
              "TalkSentenceID": 201232313,
              "ProtectTime": 0.3
            },
            {
              "TalkSentenceID": 201232314,
              "ProtectTime": 0.3
            },
            {
              "TalkSentenceID": 201232315,
              "ProtectTime": 0.3
            },
            {
              "TalkSentenceID": 201232316,
              "ProtectTime": 0.3
            },
            {
              "TalkSentenceID": 201232317,
              "ProtectTime": 0.3
            },
            {
              "TalkSentenceID": 201232318,
              "ProtectTime": 0.3
            },
            {
              "TalkSentenceID": 201232319,
              "ProtectTime": 0.3
            },
            {
              "TalkSentenceID": 201232320,
              "ProtectTime": 0.3
            },
            {
              "TalkSentenceID": 201232321,
              "ProtectTime": 0.3
            },
            {
              "TalkSentenceID": 201232322,
              "ProtectTime": 0.3
            },
            {
              "TalkSentenceID": 201232323,
              "ProtectTime": 0.3
            }
          ]
        },
        {
          "$type": "RPG.GameCore.WaitSimpleTalkFinish"
        },
        {
          "$type": "RPG.GameCore.PlayOptionTalk",
          "OptionList": [
            {
              "TalkSentenceID": 201232324,
              "OptionIconType": "ChatIcon",
              "TriggerCustomString": "TalkSentence_201232324"
            },
            {
              "TalkSentenceID": 201232326,
              "OptionIconType": "ChatIcon",
              "TriggerCustomString": "TalkSentence_201232326"
            },
            {
              "TalkSentenceID": 201232328,
              "OptionIconType": "ChatIcon",
              "TriggerCustomString": "TalkSentence_201232328"
            }
          ],
          "HideSelected": true
        }
      ]
    },
    {
      "TaskList": [
        {
          "$type": "RPG.GameCore.WaitCustomString",
          "CustomString": {
            "Value": "TalkSentence_201232324"
          }
        },
        {
          "$type": "RPG.GameCore.PlaySimpleTalk",
          "BlackMask": true,
          "SimpleTalkList": [
            {
              "TalkSentenceID": 201232325,
              "ProtectTime": 0.3
            }
          ]
        },
        {
          "$type": "RPG.GameCore.WaitSimpleTalkFinish"
        },
        {
          "$type": "RPG.GameCore.TriggerCustomString",
          "CustomString": {
            "Value": "TalkSentence_201232330"
          }
        }
      ]
    },
    {
      "TaskList": [
        {
          "$type": "RPG.GameCore.WaitCustomString",
          "CustomString": {
            "Value": "TalkSentence_201232326"
          }
        },
        {
          "$type": "RPG.GameCore.PlaySimpleTalk",
          "BlackMask": true,
          "SimpleTalkList": [
            {
              "TalkSentenceID": 201232327,
              "ProtectTime": 0.3
            }
          ]
        },
        {
          "$type": "RPG.GameCore.WaitSimpleTalkFinish"
        },
        {
          "$type": "RPG.GameCore.TriggerCustomString",
          "CustomString": {
            "Value": "TalkSentence_201232330"
          }
        }
      ]
    },
    {
      "TaskList": [
        {
          "$type": "RPG.GameCore.WaitCustomString",
          "CustomString": {
            "Value": "TalkSentence_201232328"
          }
        },
        {
          "$type": "RPG.GameCore.PlaySimpleTalk",
          "BlackMask": true,
          "SimpleTalkList": [
            {
              "TalkSentenceID": 201232329,
              "ProtectTime": 0.3
            }
          ]
        },
        {
          "$type": "RPG.GameCore.WaitSimpleTalkFinish"
        },
        {
          "$type": "RPG.GameCore.TriggerCustomString",
          "CustomString": {
            "Value": "TalkSentence_201232330"
          }
        }
      ]
    },
    {
      "TaskList": [
        {
          "$type": "RPG.GameCore.WaitCustomString",
          "CustomString": {
            "Value": "TalkSentence_201232330"
          }
        },
        {
          "$type": "RPG.GameCore.PlaySimpleTalk",
          "BlackMask": true,
          "SimpleTalkList": [
            {
              "TalkSentenceID": 201232330,
              "ProtectTime": 0.3
            },
            {
              "TalkSentenceID": 201232331,
              "ProtectTime": 0.3
            },
            {
              "TalkSentenceID": 201232332,
              "ProtectTime": 0.3
            },
            {
              "TalkSentenceID": 201232333,
              "ProtectTime": 0.3
            }
          ]
        },
        {
          "$type": "RPG.GameCore.WaitSimpleTalkFinish"
        },
        {
          "$type": "RPG.GameCore.EndPerformance"
        }
      ]
    },
    {
      "TaskList": [
        {
          "$type": "RPG.GameCore.WaitPerformanceEnd"
        },
        {
          "$type": "RPG.GameCore.FinishLevelGraph"
        }
      ]
    }
  ]
}