{
  "OnInitSequece": [],
  "OnStartSequece": [
    {
      "TaskList": [
        {
          "$type": "RPG.GameCore.LevelPerformanceInitialize",
          "PerformanceType": "E",
          "LockCamera": false,
          "CreateCharacterList": [],
          "EntityVisiableList": [],
          "StreamingCentersInBlackMask": [],
          "StreamingCentersAfterBlackMask": []
        },
        {
          "$type": "RPG.GameCore.PlaySimpleTalk",
          "SimpleTalkList": [
            {
              "TalkSentenceID": 201233901,
              "ProtectTime": 0.3
            },
            {
              "TalkSentenceID": 201233902,
              "ProtectTime": 0.3
            },
            {
              "TalkSentenceID": 201233903,
              "ProtectTime": 0.3
            },
            {
              "TalkSentenceID": 201233904,
              "ProtectTime": 0.3
            },
            {
              "TalkSentenceID": 201233905,
              "ProtectTime": 0.3
            },
            {
              "TalkSentenceID": 201233906,
              "ProtectTime": 0.3
            },
            {
              "TalkSentenceID": 201233907,
              "ProtectTime": 0.3
            },
            {
              "TalkSentenceID": 201233908,
              "ProtectTime": 0.3
            },
            {
              "TalkSentenceID": 201233909,
              "ProtectTime": 0.3
            },
            {
              "TalkSentenceID": 201233910,
              "ProtectTime": 0.3
            },
            {
              "TalkSentenceID": 201233911,
              "ProtectTime": 0.3
            },
            {
              "TalkSentenceID": 201233912,
              "ProtectTime": 0.3
            }
          ]
        },
        {
          "$type": "RPG.GameCore.WaitSimpleTalkFinish"
        },
        {
          "$type": "RPG.GameCore.EndPerformance"
        }
      ]
    },
    {
      "TaskList": [
        {
          "$type": "RPG.GameCore.WaitPerformanceEnd"
        },
        {
          "$type": "RPG.GameCore.FinishLevelGraph"
        }
      ]
    }
  ]
}