{
  "OnInitSequece": [],
  "OnStartSequece": [
    {
      "TaskList": [
        {
          "$type": "RPG.GameCore.LevelPerformanceInitialize",
          "PerformanceType": "E",
          "LockCamera": false,
          "CreateCharacterList": [],
          "EntityVisiableList": [],
          "StreamingCentersInBlackMask": [],
          "StreamingCentersAfterBlackMask": []
        },
        {
          "$type": "RPG.GameCore.AdvEnablePropDialogMode",
          "LockPlayerControl": false,
          "TargetType": {
            "$type": "RPG.GameCore.TargetFetchAdvPropEx",
            "FetchType": "SinglePropByPropID",
            "SinglePropID": {
              "GroupID": {
                "IsDynamic": false,
                "FixedValue": {
                  "Value": 9
                }
              },
              "ID": {
                "IsDynamic": false,
                "FixedValue": {
                  "Value": 300002
                }
              }
            }
          }
        },
        {
          "$type": "RPG.GameCore.PlaySimpleTalk",
          "SimpleTalkList": [
            {
              "TalkSentenceID": 201231207,
              "ProtectTime": 0.3
            },
            {
              "TalkSentenceID": 201231208,
              "ProtectTime": 0.3
            }
          ]
        },
        {
          "$type": "RPG.GameCore.WaitSimpleTalkFinish"
        },
        {
          "$type": "RPG.GameCore.PlayOptionTalk",
          "OptionList": [
            {
              "TalkSentenceID": 201231209,
              "OptionIconType": "ChatContinueIcon",
              "TriggerCustomString": "TalkSentence_201231209",
              "FinishKey": "0"
            },
            {
              "TalkSentenceID": 201231215,
              "OptionIconType": "ChatContinueIcon",
              "TriggerCustomString": "TalkSentence_201231209",
              "FinishKey": "0"
            },
            {
              "TalkSentenceID": 201231221,
              "OptionIconType": "ChatContinueIcon",
              "TriggerCustomString": "TalkSentence_201231221",
              "FinishKey": "0"
            },
            {
              "TalkSentenceID": 201231231,
              "OptionIconType": "ChatOutIcon",
              "TriggerCustomString": "TalkSentence_201231231",
              "FinishKey": "0"
            }
          ]
        }
      ]
    },
    {
      "TaskList": [
        {
          "$type": "RPG.GameCore.WaitCustomString",
          "CustomString": {
            "Value": "TalkSentence_201231231"
          }
        },
        {
          "$type": "RPG.GameCore.PlaySimpleTalk",
          "SimpleTalkList": [
            {
              "TalkSentenceID": 201231232,
              "ProtectTime": 0.3
            }
          ]
        },
        {
          "$type": "RPG.GameCore.WaitSimpleTalkFinish"
        },
        {
          "$type": "RPG.GameCore.AdvEnablePropDialogMode",
          "Enable": false,
          "PlayerFaceToProp": false,
          "EnablePropCamera": false,
          "LockPlayerControl": false,
          "TargetType": {
            "$type": "RPG.GameCore.TargetFetchAdvPropEx",
            "FetchType": "SinglePropByPropID",
            "SinglePropID": {
              "GroupID": {
                "IsDynamic": false,
                "FixedValue": {
                  "Value": 9
                }
              },
              "ID": {
                "IsDynamic": false,
                "FixedValue": {
                  "Value": 300002
                }
              }
            }
          }
        },
        {
          "$type": "RPG.GameCore.EndPerformance"
        },
        {
          "$type": "RPG.GameCore.FinishLevelGraph"
        }
      ]
    },
    {
      "TaskList": [
        {
          "$type": "RPG.GameCore.WaitCustomString",
          "CustomString": {
            "Value": "TalkSentence_201231221"
          }
        },
        {
          "$type": "RPG.GameCore.PlaySimpleTalk",
          "SimpleTalkList": [
            {
              "TalkSentenceID": 201231222,
              "ProtectTime": 0.3
            },
            {
              "TalkSentenceID": 201231223
            }
          ]
        },
        {
          "$type": "RPG.GameCore.WaitSimpleTalkFinish"
        },
        {
          "$type": "RPG.GameCore.PlayOptionTalk",
          "OptionList": [
            {
              "TalkSentenceID": 201231224,
              "OptionIconType": "ChatContinueIcon",
              "TriggerCustomString": "TalkSentence_201231224",
              "FinishKey": "0"
            },
            {
              "TalkSentenceID": 201231227,
              "OptionIconType": "ChatContinueIcon",
              "TriggerCustomString": "TalkSentence_201231227",
              "FinishKey": "0"
            }
          ]
        }
      ]
    },
    {
      "TaskList": [
        {
          "$type": "RPG.GameCore.WaitCustomString",
          "CustomString": {
            "Value": "TalkSentence_201231224"
          }
        },
        {
          "$type": "RPG.GameCore.PlaySimpleTalk",
          "SimpleTalkList": [
            {
              "TalkSentenceID": 201231225,
              "ProtectTime": 0.3
            },
            {
              "TalkSentenceID": 201231226
            }
          ]
        },
        {
          "$type": "RPG.GameCore.WaitSimpleTalkFinish"
        },
        {
          "$type": "RPG.GameCore.TriggerSound",
          "SoundName": "Ev_sfx_belobog_robot_stamp",
          "EmitterType": "LocalPlayer"
        },
        {
          "$type": "RPG.GameCore.PlaySimpleTalk",
          "SimpleTalkList": [
            {
              "TalkSentenceID": 201231229
            },
            {
              "TalkSentenceID": 201231230
            }
          ]
        },
        {
          "$type": "RPG.GameCore.WaitSimpleTalkFinish"
        },
        {
          "$type": "RPG.GameCore.AdvEnablePropDialogMode",
          "Enable": false,
          "PlayerFaceToProp": false,
          "EnablePropCamera": false,
          "LockPlayerControl": false,
          "TargetType": {
            "$type": "RPG.GameCore.TargetFetchAdvPropEx",
            "FetchType": "SinglePropByPropID",
            "SinglePropID": {
              "GroupID": {
                "IsDynamic": false,
                "FixedValue": {
                  "Value": 9
                }
              },
              "ID": {
                "IsDynamic": false,
                "FixedValue": {
                  "Value": 300002
                }
              }
            }
          }
        },
        {
          "$type": "RPG.GameCore.EndPerformance"
        },
        {
          "$type": "RPG.GameCore.TriggerCustomString",
          "CustomString": {
            "Value": "1010904_F"
          }
        },
        {
          "$type": "RPG.GameCore.TriggerCustomString",
          "CustomString": {
            "Value": "101090205_F"
          }
        },
        {
          "$type": "RPG.GameCore.FinishLevelGraph"
        }
      ]
    },
    {
      "TaskList": [
        {
          "$type": "RPG.GameCore.WaitCustomString",
          "CustomString": {
            "Value": "TalkSentence_201231227"
          }
        },
        {
          "$type": "RPG.GameCore.PlaySimpleTalk",
          "SimpleTalkList": [
            {
              "TalkSentenceID": 201231228,
              "ProtectTime": 0.3
            }
          ]
        },
        {
          "$type": "RPG.GameCore.WaitSimpleTalkFinish"
        },
        {
          "$type": "RPG.GameCore.TriggerSound",
          "SoundName": "Ev_sfx_belobog_robot_stamp"
        },
        {
          "$type": "RPG.GameCore.PlaySimpleTalk",
          "SimpleTalkList": [
            {
              "TalkSentenceID": 201231229
            },
            {
              "TalkSentenceID": 201231230
            }
          ]
        },
        {
          "$type": "RPG.GameCore.WaitSimpleTalkFinish"
        },
        {
          "$type": "RPG.GameCore.AdvEnablePropDialogMode",
          "Enable": false,
          "PlayerFaceToProp": false,
          "EnablePropCamera": false,
          "LockPlayerControl": false,
          "TargetType": {
            "$type": "RPG.GameCore.TargetFetchAdvPropEx",
            "FetchType": "SinglePropByPropID",
            "SinglePropID": {
              "GroupID": {
                "IsDynamic": false,
                "FixedValue": {
                  "Value": 9
                }
              },
              "ID": {
                "IsDynamic": false,
                "FixedValue": {
                  "Value": 300002
                }
              }
            }
          }
        },
        {
          "$type": "RPG.GameCore.EndPerformance"
        },
        {
          "$type": "RPG.GameCore.TriggerCustomString",
          "CustomString": {
            "Value": "1010904_F"
          }
        },
        {
          "$type": "RPG.GameCore.TriggerCustomString",
          "CustomString": {
            "Value": "101090205_F"
          }
        },
        {
          "$type": "RPG.GameCore.FinishLevelGraph"
        }
      ]
    },
    {
      "TaskList": [
        {
          "$type": "RPG.GameCore.WaitCustomString",
          "CustomString": {
            "Value": "TalkSentence_201231209"
          }
        },
        {
          "$type": "RPG.GameCore.PlaySimpleTalk",
          "SimpleTalkList": [
            {
              "TalkSentenceID": 201231216,
              "ProtectTime": 0.3
            },
            {
              "TalkSentenceID": 201231217,
              "ProtectTime": 0.3
            },
            {
              "TalkSentenceID": 201231218,
              "ProtectTime": 0.3
            },
            {
              "TalkSentenceID": 201231219,
              "ProtectTime": 0.3
            },
            {
              "TalkSentenceID": 201231220,
              "ProtectTime": 0.3
            }
          ]
        },
        {
          "$type": "RPG.GameCore.WaitSimpleTalkFinish"
        },
        {
          "$type": "RPG.GameCore.PlayScreenCrack",
          "EffectPath": "Effects/Eff_Prefab/Eff_Common/Eff_ScreenCrack.prefab",
          "UniqueEffectName": "ScreenCrack",
          "ExecuteOnSkip": true
        },
        {
          "$type": "RPG.GameCore.EndPerformance"
        },
        {
          "$type": "RPG.GameCore.TriggerCustomString",
          "CustomString": {
            "Value": "101090203_b"
          }
        },
        {
          "$type": "RPG.GameCore.FinishLevelGraph"
        }
      ]
    }
  ]
}