{
  "OnInitSequece": [],
  "OnStartSequece": [
    {
      "TaskList": [
        {
          "$type": "RPG.GameCore.LevelPerformanceInitialize",
          "PerformanceType": "D",
          "CreateCharacterList": [],
          "EntityVisiableList": [],
          "MarkStreamingItems": []
        },
        {
          "$type": "RPG.GameCore.PerformanceTransition",
          "SwitchInTime": 0,
          "SwitchOutTime": 0,
          "CreateNpcList": [],
          "DestroyNpcList": [],
          "ActiveVirtualCamera": {
            "AreaName": "1010701_temp",
            "AnchorName": "Camera_101070119"
          },
          "SwitchCharacterAnchor": {
            "IsLocalPlayer": true,
            "AreaName": {
              "Value": "LevelArea_P20122_F20122001_G23"
            },
            "AnchorName": {
              "Value": "Anchor1"
            }
          }
        },
        {
          "$type": "RPG.GameCore.CaptureNPCToCharacter",
          "GroupID": {
            "IsDynamic": false,
            "FixedValue": {
              "Value": 23
            }
          },
          "GroupNpcID": {
            "IsDynamic": false,
            "FixedValue": {
              "Value": 400001
            }
          },
          "CharacterUniqueName": {
            "Value": "Seele_101070119"
          }
        },
        {
          "$type": "RPG.GameCore.CharacterTriggerFreeStyle",
          "CharacterUniqueName": "Seele_101070119",
          "StoryAvatarID": "NPC_Avatar_Maid_Seele_00",
          "StartMotion": "Akimbo01HandBS",
          "StoryMotionID": 1102032
        },
        {
          "$type": "RPG.GameCore.PlaySimpleTalk",
          "SimpleTalkList": [
            {
              "TalkSentenceID": 201220901,
              "ProtectTime": 0.3
            },
            {
              "TalkSentenceID": 201220902,
              "ProtectTime": 0.3
            },
            {
              "TalkSentenceID": 201220903,
              "ProtectTime": 0.3
            },
            {
              "TalkSentenceID": 201220904,
              "ProtectTime": 0.3
            },
            {
              "TalkSentenceID": 201220905,
              "ProtectTime": 0.3
            },
            {
              "TalkSentenceID": 201220906,
              "ProtectTime": 0.3
            },
            {
              "TalkSentenceID": 201220907,
              "ProtectTime": 0.3
            },
            {
              "TalkSentenceID": 201220908,
              "ProtectTime": 0.3
            },
            {
              "TalkSentenceID": 201220909,
              "ProtectTime": 0.3
            }
          ]
        },
        {
          "$type": "RPG.GameCore.WaitSimpleTalkFinish"
        },
        {
          "$type": "RPG.GameCore.PerformanceTransition",
          "CreateNpcList": [],
          "CaptureNpcList": [],
          "DestroyNpcList": [
            {
              "GroupID": 23,
              "GroupNpcID": 400001
            },
            {
              "GroupID": 23,
              "GroupNpcID": 400002
            }
          ],
          "ActiveVirtualCamera": {
            "AreaName": "1010701_temp",
            "AnchorName": "Camera_101070119",
            "IsActive": false
          },
          "SwitchCharacterAnchor": {
            "IsLocalPlayer": true,
            "AreaName": {
              "Value": "LevelArea_P20122_F20122001_G23"
            },
            "AnchorName": {
              "Value": "Anchor1"
            },
            "TaskEnabled": false
          }
        },
        {
          "$type": "RPG.GameCore.EndPerformance"
        }
      ]
    },
    {
      "TaskList": [
        {
          "$type": "RPG.GameCore.WaitPerformanceEnd"
        },
        {
          "$type": "RPG.GameCore.FinishLevelGraph"
        }
      ]
    }
  ]
}