{
  "MainMissionID": 2020304,
  "StartSubMissionList": [
    202030401
  ],
  "FinishSubMissionList": [
    202030401
  ],
  "SubMissionList": [
    {
      "MainMissionID": 2020304,
      "TakeType": "Auto",
      "ID": 202030401,
      "FinishType": "MessageSectionFinish",
      "ParamType": "Equal",
      "ParamInt1": 1210302,
      "ParamItemList": [],
      "Progress": 1,
      "IsBackTrack": true
    }
  ]
}