{
  "MainMissionID": 2000111,
  "StartSubMissionList": [
    200011002,
    200011020,
    200011021
  ],
  "FinishSubMissionList": [
    200011009
  ],
  "SubMissionList": [
    {
      "MainMissionID": 2000111,
      "MissionJsonPath": "Config/Level/Mission/2000110/Mission_200011002.json",
      "TakeType": "Auto",
      "ID": 200011002,
      "FinishType": "Talk",
      "ParamType": "Equal",
      "ParamStr1": "Mission_200011002",
      "ParamItemList": [],
      "Progress": 1
    },
    {
      "MainMissionID": 2000111,
      "MissionJsonPath": "Config/Level/Mission/2000110/Mission_200011003.json",
      "TakeType": "AnySequence",
      "TakeParamIntList": [
        200011002
      ],
      "ID": 200011003,
      "FinishType": "Talk",
      "ParamType": "Equal",
      "ParamStr1": "Mission_200011003",
      "ParamItemList": [],
      "Progress": 1
    },
    {
      "MainMissionID": 2000111,
      "MissionJsonPath": "Config/Level/Mission/2000110/Mission_200011004.json",
      "TakeType": "AnySequence",
      "TakeParamIntList": [
        200011002
      ],
      "ID": 200011004,
      "FinishType": "Talk",
      "ParamType": "Equal",
      "ParamStr1": "Mission_200011004",
      "ParamItemList": [],
      "Progress": 1
    },
    {
      "MainMissionID": 2000111,
      "MissionJsonPath": "Config/Level/Mission/2000110/Mission_200011005.json",
      "TakeType": "MultiSequence",
      "TakeParamIntList": [
        200011003,
        200011004
      ],
      "ID": 200011005,
      "FinishType": "ConsumeMissionItem",
      "ParamType": "Equal",
      "ParamItemList": [
        {
          "ItemID": 140071,
          "ItemNum": 2
        }
      ],
      "Progress": 1
    },
    {
      "MainMissionID": 2000111,
      "MissionJsonPath": "Config/Level/Mission/2000110/Mission_200011006.json",
      "TakeType": "AnySequence",
      "TakeParamIntList": [
        200011005
      ],
      "ID": 200011006,
      "FinishType": "Talk",
      "ParamType": "Equal",
      "ParamStr1": "Mission_200011006",
      "ParamItemList": [],
      "Progress": 1
    },
    {
      "MainMissionID": 2000111,
      "MissionJsonPath": "Config/Level/Mission/2000110/Mission_200011007.json",
      "TakeType": "AnySequence",
      "TakeParamIntList": [
        200011006
      ],
      "ID": 200011007,
      "FinishType": "Talk",
      "ParamType": "Equal",
      "ParamStr1": "Mission_200011007",
      "ParamItemList": [],
      "Progress": 1
    },
    {
      "MainMissionID": 2000111,
      "MissionJsonPath": "Config/Level/Mission/2000110/Mission_200011008.json",
      "TakeType": "AnySequence",
      "TakeParamIntList": [
        200011018
      ],
      "ID": 200011008,
      "FinishType": "Talk",
      "ParamType": "Equal",
      "ParamStr1": "Mission_200011008",
      "ParamItemList": [],
      "Progress": 1
    },
    {
      "MainMissionID": 2000111,
      "MissionJsonPath": "Config/Level/Mission/2000110/Mission_200011009.json",
      "TakeType": "AnySequence",
      "TakeParamIntList": [
        200011008
      ],
      "ID": 200011009,
      "FinishType": "SubMissionFinishCnt",
      "ParamType": "ListContain",
      "ParamIntList": [
        200011012,
        200011013
      ],
      "ParamItemList": [],
      "Progress": 1
    },
    {
      "MainMissionID": 2000111,
      "MissionJsonPath": "Config/Level/Mission/2000110/Mission_200011010.json",
      "TakeType": "AnySequence",
      "TakeParamIntList": [
        200011008
      ],
      "ID": 200011010,
      "FinishType": "ConsumeMissionItem",
      "ParamType": "Equal",
      "ParamItemList": [
        {
          "ItemID": 140072,
          "ItemNum": 1
        }
      ],
      "Progress": 1
    },
    {
      "MainMissionID": 2000111,
      "MissionJsonPath": "Config/Level/Mission/2000110/Mission_200011011.json",
      "TakeType": "AnySequence",
      "TakeParamIntList": [
        200011008
      ],
      "ID": 200011011,
      "FinishType": "ConsumeMissionItem",
      "ParamType": "Equal",
      "ParamItemList": [
        {
          "ItemID": 140073,
          "ItemNum": 1
        }
      ],
      "Progress": 1
    },
    {
      "MainMissionID": 2000111,
      "MissionJsonPath": "Config/Level/Mission/2000110/Mission_200011012.json",
      "TakeType": "AnySequence",
      "TakeParamIntList": [
        200011010
      ],
      "ID": 200011012,
      "FinishType": "Talk",
      "ParamType": "Equal",
      "ParamStr1": "Mission_200011012",
      "ParamItemList": [],
      "Progress": 1
    },
    {
      "MainMissionID": 2000111,
      "MissionJsonPath": "Config/Level/Mission/2000110/Mission_200011013.json",
      "TakeType": "AnySequence",
      "TakeParamIntList": [
        200011011
      ],
      "ID": 200011013,
      "FinishType": "Talk",
      "ParamType": "Equal",
      "ParamStr1": "Mission_200011013",
      "ParamItemList": [],
      "Progress": 1
    },
    {
      "MainMissionID": 2000111,
      "TakeType": "AnySequence",
      "TakeParamIntList": [
        200011018
      ],
      "ID": 200011017,
      "FinishType": "SubMissionFinishCnt",
      "ParamType": "ListContain",
      "ParamIntList": [
        200011008
      ],
      "ParamItemList": [],
      "Progress": 1
    },
    {
      "MainMissionID": 2000111,
      "MissionJsonPath": "Config/Level/Mission/2000110/Mission_200011018.json",
      "TakeType": "AnySequence",
      "TakeParamIntList": [
        200011007
      ],
      "ID": 200011018,
      "FinishType": "ConsumeMissionItem",
      "ParamType": "Equal",
      "ParamItemList": [
        {
          "ItemID": 140074,
          "ItemNum": 1
        }
      ],
      "Progress": 1
    },
    {
      "MainMissionID": 2000111,
      "TakeType": "Auto",
      "ID": 200011020,
      "MazePlaneID": 10001,
      "MazeFloorID": 10001001,
      "FinishType": "PropState",
      "ParamType": "Equal",
      "ParamInt1": 17,
      "ParamInt2": 300001,
      "ParamInt3": 19,
      "ParamItemList": [],
      "Progress": 1
    },
    {
      "MainMissionID": 2000111,
      "MissionJsonPath": "Config/Level/Mission/2000110/Mission_200011021.json",
      "TakeType": "Auto",
      "ID": 200011021,
      "FinishType": "Talk",
      "ParamType": "Equal",
      "ParamStr1": "Mission_200011021",
      "ParamItemList": [],
      "Progress": 1
    },
    {
      "MainMissionID": 2000111,
      "MissionJsonPath": "Config/Level/Mission/2000110/Mission_200011022.json",
      "TakeType": "AnySequence",
      "TakeParamIntList": [
        200011020
      ],
      "ID": 200011022,
      "FinishType": "Talk",
      "ParamType": "Equal",
      "ParamStr1": "Mission_200011022",
      "ParamItemList": [],
      "Progress": 1
    }
  ]
}