{
  "AvatarId": 1101,
  "KeyLevelConfigList": [
    {
      "Level": 1
    },
    {
      "Level": 10,
      "EquipmentConfigList": [
        {
          "Id": 20005,
          "Level": 1,
          "Rank": 1
        }
      ]
    },
    {
      "Level": 20,
      "EquipmentConfigList": [
        {
          "Id": 20005,
          "Level": 20,
          "Rank": 1
        }
      ],
      "RelicPropertyTypeList": [
        3102500
      ]
    },
    {
      "Level": 30,
      "Promotion": 1,
      "SkillTreePointPreset": "W0_Standard_20-30",
      "EquipmentConfigList": [
        {
          "Id": 20005,
          "Level": 30,
          "Rank": 1
        }
      ],
      "RelicPropertyTypeList": [
        4102500
      ]
    },
    {
      "Level": 40,
      "Promotion": 2,
      "SkillTreePointPreset": "W1_Standard_30-40",
      "EquipmentConfigList": [
        {
          "Id": 21018,
          "Level": 40,
          "Rank": 1
        }
      ],
      "RelicPropertyTypeList": [
        4102503
      ]
    },
    {
      "Level": 50,
      "Promotion": 3,
      "SkillTreePointPreset": "W2_Standard_40-50",
      "EquipmentConfigList": [
        {
          "Id": 21018,
          "Level": 50,
          "Rank": 1
        }
      ],
      "RelicPropertyTypeList": [
        5102503,
        5302903
      ]
    },
    {
      "Level": 60,
      "Promotion": 4,
      "SkillTreePointPreset": "W3_Standard_50-60",
      "EquipmentConfigList": [
        {
          "Id": 21018,
          "Level": 60,
          "Rank": 1
        }
      ],
      "RelicPropertyTypeList": [
        5102509,
        5302909
      ]
    },
    {
      "Level": 70,
      "Promotion": 5,
      "SkillTreePointPreset": "W4_Standard_60-70",
      "EquipmentConfigList": [
        {
          "Id": 21018,
          "Level": 70,
          "Rank": 2
        }
      ],
      "RelicPropertyTypeList": [
        6102509,
        6302909
      ]
    },
    {
      "Level": 79,
      "Promotion": 6,
      "SkillTreePointPreset": "W5_Standard_70-80",
      "EquipmentConfigList": [
        {
          "Id": 21018,
          "Level": 79,
          "Rank": 3
        }
      ],
      "RelicPropertyTypeList": [
        6102512,
        6302912
      ]
    },
    {
      "Level": 80,
      "Promotion": 6,
      "Rank": 1,
      "SkillTreePointPreset": "LvMax",
      "EquipmentConfigList": [
        {
          "Id": 23003,
          "Level": 80,
          "Rank": 1
        }
      ],
      "RelicPropertyTypeList": [
        6102515,
        6302915
      ]
    }
  ]
}