{
  "MainMissionID": 9099910,
  "StartSubMissionList": [
    909991001
  ],
  "FinishSubMissionList": [
    909991001
  ],
  "SubMissionList": [
    {
      "MainMissionID": 9099910,
      "TakeType": "Auto",
      "ID": 909991001,
      "FinishType": "GetItem",
      "ParamType": "Equal",
      "ParamInt1": 221,
      "ParamItemList": [],
      "Progress": 20
    }
  ]
}