{
  "MainMissionID": 99904,
  "StartSubMissionList": [
    9990401
  ],
  "FinishSubMissionList": [
    9990401
  ],
  "SubMissionList": [
    {
      "MainMissionID": 99904,
      "TakeType": "Auto",
      "ID": 9990401,
      "FinishType": "Talk",
      "ParamType": "Equal",
      "ParamStr1": "Mission_9990401",
      "ParamItemList": [],
      "Progress": 1
    }
  ]
}