{
  "GroupsMap": {
    "AddNP_Common_BPSkill": {
      "Factors": [
        {
          "Source": {
            "$type": "RPG.GameCore.ComplexSkillAIBattleGlobalData",
            "DataType": "TeamBoostPoint"
          },
          "Mapper": {
            "$type": "RPG.GameCore.ComplexSkillAIMapperMultiRange",
            "Ranges": [
              {
                "ymin": {
                  "Value": -10000
                },
                "xmax": {
                  "Value": 0.5000000004656613
                },
                "ymax": {
                  "Value": -10000
                }
              },
              {
                "xmin": {
                  "Value": 0.5000000004656613
                },
                "ymin": {
                  "Value": 50
                },
                "xmax": {
                  "Value": 1.5000000004656613
                },
                "ymax": {
                  "Value": 50
                }
              },
              {
                "xmin": {
                  "Value": 1.5000000004656613
                },
                "ymin": {
                  "Value": 100
                },
                "xmax": {
                  "Value": 2.5000000004656613
                },
                "ymax": {
                  "Value": 100
                }
              },
              {
                "xmin": {
                  "Value": 2.5000000004656613
                },
                "ymin": {
                  "Value": 200
                },
                "xmax": {
                  "Value": 3.5000000004656613
                },
                "ymax": {
                  "Value": 200
                }
              },
              {
                "xmin": {
                  "Value": 3.5000000004656613
                },
                "ymin": {
                  "Value": 500
                },
                "xmax": {
                  "Value": 4
                },
                "ymax": {
                  "Value": 500
                }
              }
            ]
          }
        }
      ],
      "IsBpGroup": true
    },
    "BasePp_Common_NormalAttack": {
      "Factors": [
        {
          "Source": {
            "$type": "RPG.GameCore.ComplexSkillAIGetStrengthLevel"
          },
          "Mapper": {
            "$type": "RPG.GameCore.ComplexSkillAIMapperMultiRange",
            "Ranges": [
              {
                "ymin": {
                  "Value": 100
                },
                "xmax": {
                  "Value": 0.20000000018626451
                },
                "ymax": {
                  "Value": 100
                }
              },
              {
                "xmin": {
                  "Value": 0.20000000018626451
                },
                "ymin": {
                  "Value": 100
                },
                "xmax": {
                  "Value": 1
                },
                "ymax": {
                  "Value": 1
                }
              }
            ]
          }
        }
      ]
    },
    "BasePp_Common_SingleAttack": {
      "Factors": [
        {
          "Source": {
            "$type": "RPG.GameCore.ComplexSkillAISourcePropertyCompareRatio",
            "PropertyTypeA": "CurrentHP",
            "PropertyTypeB": "MaxHP"
          },
          "Mapper": {
            "$type": "RPG.GameCore.ComplexSkillAIMapperMultiRange",
            "Ranges": [
              {
                "ymin": {
                  "Value": 100
                },
                "xmax": {
                  "Value": 0.20000000018626451
                },
                "ymax": {
                  "Value": 100
                }
              },
              {
                "xmin": {
                  "Value": 0.20000000018626451
                },
                "ymin": {
                  "Value": 100
                },
                "xmax": {
                  "Value": 1
                },
                "ymax": {
                  "Value": 1
                }
              }
            ]
          }
        },
        {
          "CombineOperator": "Mul",
          "Source": {
            "$type": "RPG.GameCore.ComplexSkillAIGetStrengthLevel"
          },
          "Mapper": {
            "$type": "RPG.GameCore.ComplexSkillAIMapperMultiRange",
            "Ranges": [
              {
                "ymin": {
                  "Value": 1
                },
                "xmax": {
                  "Value": 1
                },
                "ymax": {
                  "Value": 1.2500000002328306
                }
              },
              {
                "xmin": {
                  "Value": 1
                },
                "ymin": {
                  "Value": 1.2500000002328306
                },
                "xmax": {
                  "Value": 2
                },
                "ymax": {
                  "Value": 1.1000000000931323
                }
              },
              {
                "xmin": {
                  "Value": 2
                },
                "ymin": {
                  "Value": 1.1000000000931323
                },
                "xmax": {
                  "Value": 3
                },
                "ymax": {
                  "Value": 0.9000000008381903
                }
              },
              {
                "xmin": {
                  "Value": 3
                },
                "ymin": {
                  "Value": 0.9000000008381903
                },
                "xmax": {
                  "Value": 5
                },
                "ymax": {
                  "Value": 0.5000000004656613
                }
              }
            ]
          }
        }
      ]
    },
    "AddNP_Sushang_BPSkill_Break": {
      "Factors": [
        {
          "Source": {
            "$type": "RPG.GameCore.ComplexSkillAISourceContainBehaviorFlag",
            "BehaviorFlag": "Break"
          },
          "Mapper": {
            "$type": "RPG.GameCore.ComplexSkillAIMapperMultiRange",
            "Ranges": [
              {
                "ymin": {
                  "Value": 30
                },
                "xmax": {
                  "Value": 1
                },
                "ymax": {
                  "Value": 100
                }
              }
            ]
          }
        }
      ]
    },
    "BasePp_Common_WeakBreak": {
      "Factors": [
        {
          "Source": {
            "$type": "RPG.GameCore.ComplexSkillAISourceContainBehaviorFlag",
            "BehaviorFlag": "Break"
          },
          "Mapper": {
            "$type": "RPG.GameCore.ComplexSkillAIMapperMultiRange",
            "Ranges": [
              {
                "xmax": {
                  "Value": 1
                },
                "ymax": {
                  "Value": 50
                }
              }
            ]
          }
        },
        {
          "Source": {
            "$type": "RPG.GameCore.ComplexSkillAISourceWeaknessCompare"
          },
          "Mapper": {
            "$type": "RPG.GameCore.ComplexSkillAIMapperMultiRange",
            "Ranges": [
              {
                "xmax": {
                  "Value": 1
                },
                "ymax": {
                  "Value": 50
                }
              }
            ]
          }
        }
      ]
    },
    "Base_Natasha_SingleHeal": {
      "Factors": [
        {
          "Source": {
            "$type": "RPG.GameCore.ComplexSkillAISourcePropertyCompareRatio",
            "PropertyTypeA": "CurrentHP",
            "PropertyTypeB": "MaxHP"
          },
          "Mapper": {
            "$type": "RPG.GameCore.ComplexSkillAIMapperMultiRange",
            "Ranges": [
              {
                "ymin": {
                  "Value": 100
                },
                "xmax": {
                  "Value": 0.20000000018626451
                },
                "ymax": {
                  "Value": 100
                }
              },
              {
                "xmin": {
                  "Value": 0.20000000018626451
                },
                "ymin": {
                  "Value": 100
                },
                "xmax": {
                  "Value": 0.6000000005587935
                },
                "ymax": {
                  "Value": 60
                }
              },
              {
                "xmin": {
                  "Value": 0.6000000005587935
                },
                "ymin": {
                  "Value": 60
                },
                "xmax": {
                  "Value": 0.8000000007450581
                }
              },
              {
                "xmin": {
                  "Value": 0.8000000007450581
                },
                "xmax": {
                  "Value": 1
                }
              }
            ]
          }
        }
      ]
    },
    "AddPp_Ren_BpSkillHPPercent": {
      "Factors": [
        {
          "Source": {
            "$type": "RPG.GameCore.ComplexSkillAISourcePropertyCompareRatio",
            "PropertyTypeA": "CurrentHP",
            "PropertyTypeB": "MaxHP"
          },
          "Mapper": {
            "$type": "RPG.GameCore.ComplexSkillAIMapperMultiRange",
            "Ranges": [
              {
                "ymin": {
                  "Value": -100
                },
                "xmax": {
                  "Value": 0.3000000002793968
                }
              },
              {
                "xmin": {
                  "Value": 0.3000000002793968
                },
                "xmax": {
                  "Value": 0.5000000004656613
                },
                "ymax": {
                  "Value": 100
                }
              },
              {
                "xmin": {
                  "Value": 0.5000000004656613
                },
                "ymin": {
                  "Value": 100
                },
                "xmax": {
                  "Value": 0.8000000007450581
                },
                "ymax": {
                  "Value": 200
                }
              },
              {
                "xmin": {
                  "Value": 0.8000000007450581
                },
                "ymin": {
                  "Value": 200
                },
                "xmax": {
                  "Value": 1
                },
                "ymax": {
                  "Value": 200
                }
              }
            ]
          }
        }
      ]
    },
    "Base_Mar7th_SingleShield": {
      "Factors": [
        {
          "Source": {
            "$type": "RPG.GameCore.ComplexSkillAISourcePropertyCompareRatio",
            "PropertyTypeA": "CurrentHP",
            "PropertyTypeB": "MaxHP"
          },
          "Mapper": {
            "$type": "RPG.GameCore.ComplexSkillAIMapperMultiRange",
            "Ranges": [
              {
                "ymin": {
                  "Value": 100
                },
                "xmax": {
                  "Value": 0.5000000004656613
                },
                "ymax": {
                  "Value": 100
                }
              },
              {
                "xmin": {
                  "Value": 0.5000000004656613
                },
                "ymin": {
                  "Value": 100
                },
                "xmax": {
                  "Value": 0.7500000006984919
                },
                "ymax": {
                  "Value": 75
                }
              },
              {
                "xmin": {
                  "Value": 0.7500000006984919
                },
                "ymin": {
                  "Value": 50
                },
                "xmax": {
                  "Value": 1
                }
              }
            ]
          }
        },
        {
          "CombineOperator": "Mul",
          "Source": {
            "$type": "RPG.GameCore.ComplexSkillAIContainModifier",
            "ModifilerName": "MAvatar_March7th_00_BPSkill_Shield"
          },
          "Mapper": {
            "$type": "RPG.GameCore.ComplexSkillAIMapperMultiRange",
            "Ranges": [
              {
                "ymin": {
                  "Value": 1
                },
                "xmax": {
                  "Value": 0.5000000004656613
                },
                "ymax": {
                  "Value": 1
                }
              },
              {
                "xmin": {
                  "Value": 0.5000000004656613
                },
                "ymin": {
                  "Value": 0.20000000018626451
                },
                "xmax": {
                  "Value": 1
                },
                "ymax": {
                  "Value": 0.20000000018626451
                }
              }
            ]
          }
        }
      ]
    },
    "Add01_Common_CompareTeamSP": {
      "Factors": [
        {
          "Source": {
            "$type": "RPG.GameCore.ComplexSkillAISourceValueInTeamRatio",
            "ValueType": "SPRatio"
          },
          "Mapper": {
            "$type": "RPG.GameCore.ComplexSkillAIMapperMultiRange",
            "Ranges": [
              {
                "xmin": {
                  "Value": 1
                },
                "xmax": {
                  "Value": 1
                }
              },
              {
                "xmax": {
                  "Value": 1
                },
                "ymax": {
                  "Value": 100
                }
              }
            ]
          }
        }
      ]
    },
    "Add01_Broyan_CompareActionDelay": {
      "Factors": [
        {
          "Source": {
            "$type": "RPG.GameCore.ComplexSkillAISourceValueInTeamRatio",
            "ValueType": "ActionDelay"
          },
          "Mapper": {
            "$type": "RPG.GameCore.ComplexSkillAIMapperMultiRange",
            "Ranges": [
              {
                "xmax": {
                  "Value": 1
                },
                "ymax": {
                  "Value": 100
                }
              }
            ]
          },
          "PostProcess": {
            "$type": "RPG.GameCore.ComplexSkillAIPostProcessBreak",
            "CompareType": "Equal",
            "IsOverrideFinalScore": true
          }
        }
      ]
    },
    "Add10_Seele_BuffSelfSpeedUp": {
      "Factors": [
        {
          "Source": {
            "$type": "RPG.GameCore.ComplexSkillAIContainModifier",
            "IsTarget": false,
            "ModifilerName": "MAvatar_Seele_00_BPSkill_SpeedUp"
          },
          "Mapper": {
            "$type": "RPG.GameCore.ComplexSkillAIMapperMultiRange",
            "Ranges": [
              {
                "ymin": {
                  "Value": 100
                },
                "xmax": {
                  "Value": 0.5000000004656613
                },
                "ymax": {
                  "Value": 100
                }
              },
              {
                "xmin": {
                  "Value": 0.5000000004656613
                },
                "xmax": {
                  "Value": 1
                }
              }
            ]
          }
        }
      ]
    },
    "Add01_Common_CompareEnemyDPT": {
      "Factors": [
        {
          "Source": {
            "$type": "RPG.GameCore.ComplexSkillAISourceValueInTeamRatio",
            "ValueType": "DPT"
          },
          "Mapper": {
            "$type": "RPG.GameCore.ComplexSkillAIMapperMultiRange",
            "Ranges": [
              {
                "xmax": {
                  "Value": 1
                },
                "ymax": {
                  "Value": 100
                }
              }
            ]
          }
        }
      ]
    },
    "Add01_Danheng_BuffSpeedDown": {
      "Factors": [
        {
          "Source": {
            "$type": "RPG.GameCore.ComplexSkillAIContainModifier",
            "ModifilerName": "DanHeng_Skill02_CheckCritical_Modifier"
          },
          "Mapper": {
            "$type": "RPG.GameCore.ComplexSkillAIMapperMultiRange",
            "Ranges": [
              {
                "xmax": {
                  "Value": 0.5000000004656613
                }
              },
              {
                "xmin": {
                  "Value": 0.5000000004656613
                },
                "ymin": {
                  "Value": 100
                },
                "xmax": {
                  "Value": 1
                },
                "ymax": {
                  "Value": 100
                }
              }
            ]
          }
        }
      ]
    },
    "Add10_Common_BuffBurn": {
      "Factors": [
        {
          "Source": {
            "$type": "RPG.GameCore.ComplexSkillAIContainModifier",
            "ModifilerName": "MCommon_DOT_Burn"
          },
          "Mapper": {
            "$type": "RPG.GameCore.ComplexSkillAIMapperMultiRange",
            "Ranges": [
              {
                "ymin": {
                  "Value": 100
                },
                "xmax": {
                  "Value": 0.5000000004656613
                },
                "ymax": {
                  "Value": 100
                }
              },
              {
                "xmin": {
                  "Value": 0.5000000004656613
                },
                "xmax": {
                  "Value": 1
                }
              }
            ]
          }
        }
      ]
    },
    "Add01_Common_BuffEnemyElectric": {
      "Factors": [
        {
          "Source": {
            "$type": "RPG.GameCore.ComplexSkillAIContainModifier",
            "ModifilerName": "MCommon_DOT_Electric"
          },
          "Mapper": {
            "$type": "RPG.GameCore.ComplexSkillAIMapperMultiRange",
            "Ranges": [
              {
                "xmax": {
                  "Value": 0.5000000004656613
                }
              },
              {
                "xmin": {
                  "Value": 0.5000000004656613
                },
                "ymin": {
                  "Value": 100
                },
                "xmax": {
                  "Value": 1
                },
                "ymax": {
                  "Value": 100
                }
              }
            ]
          }
        }
      ]
    },
    "Add10_Common_BuffFrozen": {
      "Factors": [
        {
          "Source": {
            "$type": "RPG.GameCore.ComplexSkillAIContainModifier",
            "IsTarget": false,
            "ModifilerName": "MCommon_CTRL_Frozen"
          },
          "Mapper": {
            "$type": "RPG.GameCore.ComplexSkillAIMapperMultiRange",
            "Ranges": [
              {
                "ymin": {
                  "Value": 100
                },
                "xmax": {
                  "Value": 0.5000000004656613
                },
                "ymax": {
                  "Value": 100
                }
              },
              {
                "xmin": {
                  "Value": 0.5000000004656613
                },
                "xmax": {
                  "Value": 1
                }
              }
            ]
          }
        }
      ]
    },
    "Add01_Common_BuffDOT": {
      "Factors": [
        {
          "Source": {
            "$type": "RPG.GameCore.ComplexSkillAISourceContainBehaviorFlag",
            "BehaviorFlag": "STAT_DOT"
          },
          "Mapper": {
            "$type": "RPG.GameCore.ComplexSkillAIMapperMultiRange",
            "Ranges": [
              {
                "xmax": {
                  "Value": 0.5000000004656613
                }
              },
              {
                "xmin": {
                  "Value": 0.5000000004656613
                },
                "ymin": {
                  "Value": 100
                },
                "xmax": {
                  "Value": 1
                },
                "ymax": {
                  "Value": 100
                }
              }
            ]
          }
        }
      ]
    },
    "Add_Arlan_HpEffect": {
      "Factors": [
        {
          "Source": {
            "$type": "RPG.GameCore.ComplexSkillAISourcePropertyCompareRatio",
            "PropertyTypeA": "CurrentHP",
            "PropertyTypeB": "MaxHP"
          },
          "Mapper": {
            "$type": "RPG.GameCore.ComplexSkillAIMapperMultiRange",
            "Ranges": [
              {
                "xmax": {
                  "Value": 0.1500000001396984
                }
              },
              {
                "xmin": {
                  "Value": 0.1500000001396984
                },
                "xmax": {
                  "Value": 0.3000000002793968
                },
                "ymax": {
                  "Value": 70
                }
              },
              {
                "xmin": {
                  "Value": 0.3000000002793968
                },
                "ymin": {
                  "Value": 70
                },
                "xmax": {
                  "Value": 0.5000000004656613
                },
                "ymax": {
                  "Value": 100
                }
              },
              {
                "xmin": {
                  "Value": 0.5000000004656613
                },
                "ymin": {
                  "Value": 100
                },
                "xmax": {
                  "Value": 1
                },
                "ymax": {
                  "Value": 100
                }
              }
            ]
          }
        }
      ]
    },
    "Base_Bronya_CompareDPT": {
      "Factors": [
        {
          "Source": {
            "$type": "RPG.GameCore.ComplexSkillAISourceValueInTeamRatio",
            "ValueType": "DPT"
          },
          "Mapper": {
            "$type": "RPG.GameCore.ComplexSkillAIMapperMultiRange",
            "Ranges": [
              {
                "xmax": {
                  "Value": 0.7500000006984919
                },
                "ymax": {
                  "Value": 20
                }
              },
              {
                "xmin": {
                  "Value": 0.7500000006984919
                },
                "ymin": {
                  "Value": 20
                },
                "xmax": {
                  "Value": 1
                },
                "ymax": {
                  "Value": 100
                }
              }
            ]
          }
        },
        {
          "CombineOperator": "Mul",
          "Source": {
            "$type": "RPG.GameCore.ComplexSkillAIGetAvatarBaseType"
          },
          "Mapper": {
            "$type": "RPG.GameCore.ComplexSkillAIMapperMultiRange",
            "Ranges": [
              {
                "ymin": {
                  "Value": 1
                },
                "xmax": {
                  "Value": 0.5000000004656613
                },
                "ymax": {
                  "Value": 1
                }
              },
              {
                "xmin": {
                  "Value": 0.5000000004656613
                },
                "ymin": {
                  "Value": 1.400000000372529
                },
                "xmax": {
                  "Value": 1.5000000004656613
                },
                "ymax": {
                  "Value": 1.400000000372529
                }
              },
              {
                "xmin": {
                  "Value": 1.5000000004656613
                },
                "ymin": {
                  "Value": 1.5000000004656613
                },
                "xmax": {
                  "Value": 2.5000000004656613
                },
                "ymax": {
                  "Value": 1.5000000004656613
                }
              },
              {
                "xmin": {
                  "Value": 2.5000000004656613
                },
                "ymin": {
                  "Value": 1.3000000002793968
                },
                "xmax": {
                  "Value": 3.5000000004656613
                },
                "ymax": {
                  "Value": 1.3000000002793968
                }
              },
              {
                "xmin": {
                  "Value": 3.5000000004656613
                },
                "ymin": {
                  "Value": 0.8000000007450581
                },
                "xmax": {
                  "Value": 4.500000000465661
                },
                "ymax": {
                  "Value": 0.8000000007450581
                }
              },
              {
                "xmin": {
                  "Value": 4.500000000465661
                },
                "ymin": {
                  "Value": 1
                },
                "xmax": {
                  "Value": 5.500000000465661
                },
                "ymax": {
                  "Value": 1
                }
              },
              {
                "xmin": {
                  "Value": 5.500000000465661
                },
                "ymin": {
                  "Value": 0.5000000004656613
                },
                "xmax": {
                  "Value": 6.500000000465661
                },
                "ymax": {
                  "Value": 0.5000000004656613
                }
              },
              {
                "xmin": {
                  "Value": 6.500000000465661
                },
                "ymin": {
                  "Value": 0.5000000004656613
                },
                "xmax": {
                  "Value": 7.500000000465661
                },
                "ymax": {
                  "Value": 0.5000000004656613
                }
              }
            ]
          }
        }
      ]
    },
    "Base_Common_BaseTypeFactor": {
      "CombineOperator": "Mul",
      "Factors": [
        {
          "CombineOperator": "Mul",
          "Source": {
            "$type": "RPG.GameCore.ComplexSkillAIGetAvatarBaseType"
          },
          "Mapper": {
            "$type": "RPG.GameCore.ComplexSkillAIMapperMultiRange",
            "Ranges": [
              {
                "ymin": {
                  "Value": 1
                },
                "xmax": {
                  "Value": 0.5000000004656613
                },
                "ymax": {
                  "Value": 1
                }
              },
              {
                "xmin": {
                  "Value": 0.5000000004656613
                },
                "ymin": {
                  "Value": 1.400000000372529
                },
                "xmax": {
                  "Value": 1.5000000004656613
                },
                "ymax": {
                  "Value": 1.400000000372529
                }
              },
              {
                "xmin": {
                  "Value": 1.5000000004656613
                },
                "ymin": {
                  "Value": 1.5000000004656613
                },
                "xmax": {
                  "Value": 2.5000000004656613
                },
                "ymax": {
                  "Value": 1.5000000004656613
                }
              },
              {
                "xmin": {
                  "Value": 2.5000000004656613
                },
                "ymin": {
                  "Value": 1.3000000002793968
                },
                "xmax": {
                  "Value": 3.5000000004656613
                },
                "ymax": {
                  "Value": 1.3000000002793968
                }
              },
              {
                "xmin": {
                  "Value": 3.5000000004656613
                },
                "ymin": {
                  "Value": 0.8000000007450581
                },
                "xmax": {
                  "Value": 4.500000000465661
                },
                "ymax": {
                  "Value": 0.8000000007450581
                }
              },
              {
                "xmin": {
                  "Value": 4.500000000465661
                },
                "ymin": {
                  "Value": 1
                },
                "xmax": {
                  "Value": 5.500000000465661
                },
                "ymax": {
                  "Value": 1
                }
              },
              {
                "xmin": {
                  "Value": 5.500000000465661
                },
                "ymin": {
                  "Value": 0.5000000004656613
                },
                "xmax": {
                  "Value": 6.500000000465661
                },
                "ymax": {
                  "Value": 0.5000000004656613
                }
              },
              {
                "xmin": {
                  "Value": 6.500000000465661
                },
                "ymin": {
                  "Value": 0.5000000004656613
                },
                "xmax": {
                  "Value": 7.500000000465661
                },
                "ymax": {
                  "Value": 0.5000000004656613
                }
              }
            ]
          }
        }
      ]
    },
    "AddpP_Common_SelfNeighbour": {
      "Factors": [
        {
          "Source": {
            "$type": "RPG.GameCore.ComplexSkillAIBattleGlobalData",
            "DataType": "TargetNeighbourCount"
          },
          "Mapper": {
            "$type": "RPG.GameCore.ComplexSkillAIMapperMultiRange",
            "Ranges": [
              {
                "ymin": {
                  "Value": 10
                },
                "xmax": {
                  "Value": 0.5000000004656613
                },
                "ymax": {
                  "Value": 10
                }
              },
              {
                "xmin": {
                  "Value": 0.5000000004656613
                },
                "ymin": {
                  "Value": 10
                },
                "xmax": {
                  "Value": 1.5000000004656613
                },
                "ymax": {
                  "Value": 10
                }
              },
              {
                "xmin": {
                  "Value": 1.5000000004656613
                },
                "ymin": {
                  "Value": 100
                },
                "xmax": {
                  "Value": 2.5000000004656613
                },
                "ymax": {
                  "Value": 100
                }
              }
            ]
          }
        }
      ]
    },
    "Add01_Pela_CompareEnemyED": {
      "Factors": [
        {
          "Source": {
            "$type": "RPG.GameCore.ComplexSkillAISourceValueInTeamRatio",
            "ValueType": "ED"
          },
          "Mapper": {
            "$type": "RPG.GameCore.ComplexSkillAIMapperMultiRange",
            "Ranges": [
              {
                "xmax": {
                  "Value": 1
                },
                "ymax": {
                  "Value": 100
                }
              }
            ]
          }
        }
      ]
    },
    "Add10_Pela_BuffPelaBPSkill": {
      "Factors": [
        {
          "Source": {
            "$type": "RPG.GameCore.ComplexSkillAIContainModifier",
            "IsTarget": false,
            "ModifilerName": "MAvatar_Pela_00_BPSkill_Fatigue"
          },
          "Mapper": {
            "$type": "RPG.GameCore.ComplexSkillAIMapperMultiRange",
            "Ranges": [
              {
                "ymin": {
                  "Value": 100
                },
                "xmax": {
                  "Value": 0.5000000004656613
                },
                "ymax": {
                  "Value": 100
                }
              },
              {
                "xmin": {
                  "Value": 0.5000000004656613
                },
                "xmax": {
                  "Value": 1
                }
              }
            ]
          }
        }
      ]
    },
    "Add01_Common_EnemysNumber": {
      "Factors": [
        {
          "Source": {
            "$type": "RPG.GameCore.ComplexSkillAIBattleGlobalData",
            "DataType": "EnemyAlive"
          },
          "Mapper": {
            "$type": "RPG.GameCore.ComplexSkillAIMapperMultiRange",
            "Ranges": [
              {
                "xmax": {
                  "Value": 5
                },
                "ymax": {
                  "Value": 100
                }
              }
            ]
          }
        }
      ]
    },
    "Add01_JingYuan_BpSkillEnemysNumber": {
      "Factors": [
        {
          "Source": {
            "$type": "RPG.GameCore.ComplexSkillAIBattleGlobalData",
            "DataType": "EnemyAlive"
          },
          "Mapper": {
            "$type": "RPG.GameCore.ComplexSkillAIMapperMultiRange",
            "Ranges": [
              {
                "xmax": {
                  "Value": 1
                },
                "ymax": {
                  "Value": 30
                }
              },
              {
                "xmin": {
                  "Value": 2
                },
                "ymin": {
                  "Value": 60
                },
                "xmax": {
                  "Value": 5
                },
                "ymax": {
                  "Value": 100
                }
              }
            ]
          }
        },
        {
          "CombineOperator": "Mul",
          "Source": {
            "$type": "RPG.GameCore.ComplexSkillAIGetStrengthLevel"
          },
          "Mapper": {
            "$type": "RPG.GameCore.ComplexSkillAIMapperMultiRange",
            "Ranges": [
              {
                "ymin": {
                  "Value": 0.5000000004656613
                },
                "xmax": {
                  "Value": 1
                },
                "ymax": {
                  "Value": 0.6000000005587935
                }
              },
              {
                "xmin": {
                  "Value": 1
                },
                "ymin": {
                  "Value": 0.6000000005587935
                },
                "xmax": {
                  "Value": 2
                },
                "ymax": {
                  "Value": 0.8000000007450581
                }
              },
              {
                "xmin": {
                  "Value": 2
                },
                "ymin": {
                  "Value": 1
                },
                "xmax": {
                  "Value": 3
                },
                "ymax": {
                  "Value": 1.2000000001862645
                }
              },
              {
                "xmin": {
                  "Value": 3
                },
                "ymin": {
                  "Value": 1.2000000001862645
                },
                "xmax": {
                  "Value": 5
                },
                "ymax": {
                  "Value": 2
                }
              }
            ]
          }
        }
      ]
    },
    "Add01_Klara_BuffRevenge": {
      "Factors": [
        {
          "Source": {
            "$type": "RPG.GameCore.ComplexSkillAIAllTargetCombine",
            "Evaluator": {
              "$type": "RPG.GameCore.ComplexSkillAIContainModifier",
              "ModifilerName": "MAvatar_Klara_00_BPSkill_Revenge"
            }
          },
          "Mapper": {
            "$type": "RPG.GameCore.ComplexSkillAIMapperMultiRange",
            "Ranges": [
              {
                "xmax": {
                  "Value": 1
                },
                "ymax": {
                  "Value": 50
                }
              },
              {
                "xmin": {
                  "Value": 1
                },
                "ymin": {
                  "Value": 50
                },
                "xmax": {
                  "Value": 3
                },
                "ymax": {
                  "Value": 150
                }
              },
              {
                "xmin": {
                  "Value": 3
                },
                "ymin": {
                  "Value": 100
                },
                "xmax": {
                  "Value": 5
                },
                "ymax": {
                  "Value": 200
                }
              }
            ]
          }
        }
      ]
    },
    "Add01_Silwolf_DebuffNumber": {
      "Factors": [
        {
          "Source": {
            "$type": "RPG.GameCore.ComplexSkillAIModifierTypeNumber",
            "ModifierType": "Debuff"
          },
          "Mapper": {
            "$type": "RPG.GameCore.ComplexSkillAIMapperMultiRange",
            "Ranges": [
              {
                "xmax": {
                  "Value": 5
                },
                "ymax": {
                  "Value": 100
                }
              }
            ]
          }
        }
      ]
    },
    "Add01_Yukong_FlowerCheck": {
      "Factors": [
        {
          "Source": {
            "$type": "RPG.GameCore.ComplexSkillAIContainModifier",
            "IsTarget": false,
            "ModifilerName": "MAvatar_Yukong_00_Flower"
          },
          "Mapper": {
            "$type": "RPG.GameCore.ComplexSkillAIMapperMultiRange",
            "Ranges": [
              {
                "ymin": {
                  "Value": 100
                },
                "xmax": {
                  "Value": 0.5000000004656613
                },
                "ymax": {
                  "Value": 100
                }
              },
              {
                "xmin": {
                  "Value": 0.5000000004656613
                },
                "xmax": {
                  "Value": 1
                }
              }
            ]
          },
          "PostProcess": {
            "$type": "RPG.GameCore.ComplexSkillAIPostProcessBreak",
            "CompareType": "LessEqual",
            "CompareValue": {
              "Value": 10
            },
            "IsOverrideFinalScore": true
          }
        }
      ]
    },
    "Add_Cocollia_ICEPoint": {
      "Factors": [
        {
          "Source": {
            "$type": "RPG.GameCore.ComplexSkillAISourceDynamicValue",
            "IsTarget": false,
            "DynamicValueKey": "ICEPoint"
          },
          "Mapper": {
            "$type": "RPG.GameCore.ComplexSkillAIMapperMultiRange",
            "Ranges": [
              {
                "xmax": {
                  "Value": 3
                },
                "ymax": {
                  "Value": 100
                }
              },
              {
                "xmin": {
                  "Value": 3
                },
                "ymin": {
                  "Value": 100
                },
                "xmax": {
                  "Value": 5
                },
                "ymax": {
                  "Value": 200
                }
              }
            ]
          }
        }
      ]
    },
    "Add_Player01_WeaponChargePoint": {
      "Factors": [
        {
          "Source": {
            "$type": "RPG.GameCore.ComplexSkillAISourceDynamicValue",
            "IsTarget": false,
            "DynamicValueKey": "MDF_Energy_Count"
          },
          "Mapper": {
            "$type": "RPG.GameCore.ComplexSkillAIMapperMultiRange",
            "Ranges": [
              {
                "xmax": {
                  "Value": 3.5000000004656613
                },
                "ymax": {
                  "Value": 30
                }
              },
              {
                "xmin": {
                  "Value": 3.5000000004656613
                },
                "ymin": {
                  "Value": 350
                },
                "xmax": {
                  "Value": 8
                },
                "ymax": {
                  "Value": 800
                }
              }
            ]
          }
        },
        {
          "Source": {
            "$type": "RPG.GameCore.ComplexSkillAIContainModifier",
            "IsTarget": false,
            "ModifilerName": "MWAvatar_PlayerGirl_10_WeaponCharge_Free"
          },
          "Mapper": {
            "$type": "RPG.GameCore.ComplexSkillAIMapperMultiRange",
            "Ranges": [
              {
                "xmax": {
                  "Value": 0.5000000004656613
                }
              },
              {
                "xmin": {
                  "Value": 1
                },
                "ymin": {
                  "Value": 1000
                },
                "xmax": {
                  "Value": 1
                },
                "ymax": {
                  "Value": 1000
                }
              }
            ]
          }
        },
        {
          "Source": {
            "$type": "RPG.GameCore.ComplexSkillAIContainModifier",
            "IsTarget": false,
            "ModifilerName": "MAvatar_PlayerBoy_10_WeaponCharge_Free"
          },
          "Mapper": {
            "$type": "RPG.GameCore.ComplexSkillAIMapperMultiRange",
            "Ranges": [
              {
                "xmax": {
                  "Value": 0.5000000004656613
                }
              },
              {
                "xmin": {
                  "Value": 1
                },
                "ymin": {
                  "Value": 1000
                },
                "xmax": {
                  "Value": 1
                },
                "ymax": {
                  "Value": 1000
                }
              }
            ]
          }
        }
      ]
    },
    "Mul_Player01_BpSkillBuffWeight": {
      "CombineOperator": "Mul",
      "Factors": [
        {
          "CombineOperator": "Mul",
          "Source": {
            "$type": "RPG.GameCore.ComplexSkillAIContainModifier",
            "IsTarget": false,
            "ModifilerName": "MWAvatar_PlayerBoy_10_DamageResistance"
          },
          "Mapper": {
            "$type": "RPG.GameCore.ComplexSkillAIMapperMultiRange",
            "Ranges": [
              {
                "ymin": {
                  "Value": 100
                },
                "xmax": {
                  "Value": 0.5000000004656613
                },
                "ymax": {
                  "Value": 100
                }
              },
              {
                "xmin": {
                  "Value": 1
                },
                "xmax": {
                  "Value": 1
                }
              }
            ]
          }
        },
        {
          "CombineOperator": "Mul",
          "Source": {
            "$type": "RPG.GameCore.ComplexSkillAIContainModifier",
            "IsTarget": false,
            "ModifilerName": "MWAvatar_PlayerGirl_10_DamageResistance"
          },
          "Mapper": {
            "$type": "RPG.GameCore.ComplexSkillAIMapperMultiRange",
            "Ranges": [
              {
                "ymin": {
                  "Value": 100
                },
                "xmax": {
                  "Value": 0.5000000004656613
                },
                "ymax": {
                  "Value": 100
                }
              },
              {
                "xmin": {
                  "Value": 1
                },
                "xmax": {
                  "Value": 1
                }
              }
            ]
          }
        }
      ]
    },
    "Add10_Fuxuan_BuffBPSkill": {
      "Factors": [
        {
          "Source": {
            "$type": "RPG.GameCore.ComplexSkillAIContainModifier",
            "IsTarget": false,
            "ModifilerName": "MAvatar_FuXuan_00_ListenLifeTime"
          },
          "Mapper": {
            "$type": "RPG.GameCore.ComplexSkillAIMapperMultiRange",
            "Ranges": [
              {
                "ymin": {
                  "Value": 100
                },
                "xmax": {
                  "Value": 0.5000000004656613
                },
                "ymax": {
                  "Value": 100
                }
              },
              {
                "xmin": {
                  "Value": 0.5000000004656613
                },
                "xmax": {
                  "Value": 1
                }
              }
            ]
          }
        }
      ]
    },
    "Add10_TingYun_BuffBPSkill": {
      "CombineOperator": "Mul",
      "Factors": [
        {
          "Source": {
            "$type": "RPG.GameCore.ComplexSkillAIContainModifier",
            "ModifilerName": "MWAvatar_TingYun_00_BPSkill_AttackDelta"
          },
          "Mapper": {
            "$type": "RPG.GameCore.ComplexSkillAIMapperMultiRange",
            "Ranges": [
              {
                "ymin": {
                  "Value": 100
                },
                "xmax": {
                  "Value": 0.5000000004656613
                },
                "ymax": {
                  "Value": 100
                }
              },
              {
                "xmin": {
                  "Value": 0.5000000004656613
                },
                "xmax": {
                  "Value": 1
                }
              }
            ]
          },
          "PostProcess": {
            "$type": "RPG.GameCore.ComplexSkillAIPostProcessBreak",
            "CompareType": "Equal",
            "IsOverrideFinalScore": true
          }
        }
      ]
    },
    "Add10_FuXuan_BuffBPSkill": {
      "CombineOperator": "Mul",
      "Factors": [
        {
          "Source": {
            "$type": "RPG.GameCore.ComplexSkillAIContainModifier",
            "IsTarget": false,
            "ModifilerName": "MAvatar_FuXuan_00_ListenLifeTime"
          },
          "Mapper": {
            "$type": "RPG.GameCore.ComplexSkillAIMapperMultiRange",
            "Ranges": [
              {
                "ymin": {
                  "Value": 100
                },
                "xmax": {
                  "Value": 0.5000000004656613
                },
                "ymax": {
                  "Value": 100
                }
              },
              {
                "xmin": {
                  "Value": 0.5000000004656613
                },
                "xmax": {
                  "Value": 1
                }
              }
            ]
          }
        }
      ]
    },
    "Add01_Common_TauntBuffShieldTaunt": {
      "Factors": [
        {
          "Source": {
            "$type": "RPG.GameCore.ComplexSkillAIContainModifier",
            "ModifilerName": "Monster_Gepard_Attack_Sign"
          },
          "Mapper": {
            "$type": "RPG.GameCore.ComplexSkillAIMapperMultiRange",
            "Ranges": [
              {
                "xmax": {
                  "Value": 0.5000000004656613
                }
              },
              {
                "xmin": {
                  "Value": 0.5000000004656613
                },
                "ymin": {
                  "Value": 100
                },
                "xmax": {
                  "Value": 1
                },
                "ymax": {
                  "Value": 100
                }
              }
            ]
          }
        },
        {
          "Source": {
            "$type": "RPG.GameCore.ComplexSkillAIContainModifier",
            "ModifilerName": "Sign_W1_Mecha02"
          },
          "Mapper": {
            "$type": "RPG.GameCore.ComplexSkillAIMapperMultiRange",
            "Ranges": [
              {
                "xmax": {
                  "Value": 0.5000000004656613
                }
              },
              {
                "xmin": {
                  "Value": 0.5000000004656613
                },
                "ymin": {
                  "Value": 100
                },
                "xmax": {
                  "Value": 1
                },
                "ymax": {
                  "Value": 100
                }
              }
            ]
          }
        }
      ]
    },
    "Add_QingQue_MajiangBuffLayer": {
      "Factors": [
        {
          "Source": {
            "$type": "RPG.GameCore.ComplexSkillAISourceDynamicValue",
            "IsTarget": false,
            "DynamicValueKey": "QingQue_Tong"
          },
          "Mapper": {
            "$type": "RPG.GameCore.ComplexSkillAIMapperMultiRange",
            "Ranges": [
              {
                "xmin": {
                  "Value": 2.5000000004656613
                },
                "ymin": {
                  "Value": 100
                },
                "xmax": {
                  "Value": 4
                },
                "ymax": {
                  "Value": 100
                }
              },
              {
                "xmin": {
                  "Value": 1.5000000004656613
                },
                "ymin": {
                  "Value": 20
                },
                "xmax": {
                  "Value": 2.5000000004656613
                },
                "ymax": {
                  "Value": 20
                }
              },
              {
                "xmax": {
                  "Value": 1.5000000004656613
                }
              }
            ]
          }
        },
        {
          "Source": {
            "$type": "RPG.GameCore.ComplexSkillAISourceDynamicValue",
            "IsTarget": false,
            "DynamicValueKey": "QingQue_Tiao"
          },
          "Mapper": {
            "$type": "RPG.GameCore.ComplexSkillAIMapperMultiRange",
            "Ranges": [
              {
                "xmin": {
                  "Value": 2.5000000004656613
                },
                "ymin": {
                  "Value": 100
                },
                "xmax": {
                  "Value": 4
                },
                "ymax": {
                  "Value": 100
                }
              },
              {
                "xmin": {
                  "Value": 1.5000000004656613
                },
                "ymin": {
                  "Value": 20
                },
                "xmax": {
                  "Value": 2.5000000004656613
                },
                "ymax": {
                  "Value": 20
                }
              },
              {
                "xmax": {
                  "Value": 1.5000000004656613
                }
              }
            ]
          }
        },
        {
          "Source": {
            "$type": "RPG.GameCore.ComplexSkillAISourceDynamicValue",
            "IsTarget": false,
            "DynamicValueKey": "QingQue_Wan"
          },
          "Mapper": {
            "$type": "RPG.GameCore.ComplexSkillAIMapperMultiRange",
            "Ranges": [
              {
                "xmin": {
                  "Value": 2.5000000004656613
                },
                "ymin": {
                  "Value": 100
                },
                "xmax": {
                  "Value": 4
                },
                "ymax": {
                  "Value": 100
                }
              },
              {
                "xmin": {
                  "Value": 1.5000000004656613
                },
                "ymin": {
                  "Value": 20
                },
                "xmax": {
                  "Value": 2.5000000004656613
                },
                "ymax": {
                  "Value": 20
                }
              },
              {
                "xmax": {
                  "Value": 1.5000000004656613
                }
              }
            ]
          }
        }
      ]
    },
    "BaseWeight": {
      "Factors": [
        {
          "Source": {
            "$type": "RPG.GameCore.ComplexSkillAIBattleGlobalData",
            "DataType": "TargetNeighbourCount"
          },
          "Mapper": {
            "$type": "RPG.GameCore.ComplexSkillAIMapperMultiRange",
            "Ranges": [
              {
                "xmin": {
                  "Value": -999
                },
                "ymin": {
                  "Value": 100
                },
                "xmax": {
                  "Value": 999
                },
                "ymax": {
                  "Value": 100
                }
              }
            ]
          },
          "PostProcess": {
            "$type": "RPG.GameCore.ComplexSkillAIPostProcessClamp",
            "minValue": {
              "Value": 100
            },
            "maxValue": {
              "Value": 100
            }
          }
        }
      ]
    },
    "Ultra_Common_ImmediateRelease": {
      "Factors": [
        {
          "Source": {
            "$type": "RPG.GameCore.ComplexSkillAISourceSPNeedRatio"
          },
          "Mapper": {
            "$type": "RPG.GameCore.ComplexSkillAIMapperMultiRange",
            "Ranges": [
              {
                "xmin": {
                  "Value": 1
                },
                "ymin": {
                  "Value": 100
                },
                "xmax": {
                  "Value": 1
                },
                "ymax": {
                  "Value": 100
                }
              },
              {
                "xmax": {
                  "Value": 1
                }
              }
            ]
          }
        }
      ]
    },
    "Ultra_Natasha_TeamHPCheck": {
      "Factors": [
        {
          "Source": {
            "$type": "RPG.GameCore.ComplexSkillAIAllTargetCombine",
            "Evaluator": {
              "$type": "RPG.GameCore.ComplexSkillAISourcePropertyCompareRatio",
              "PropertyTypeA": "CurrentHP",
              "PropertyTypeB": "MaxHP"
            },
            "ListCombineType": "Min"
          },
          "Mapper": {
            "$type": "RPG.GameCore.ComplexSkillAIMapperMultiRange",
            "Ranges": [
              {
                "xmax": {
                  "Value": 1
                },
                "ymax": {
                  "Value": 100
                }
              }
            ]
          },
          "PostProcess": {
            "$type": "RPG.GameCore.ComplexSkillAIPostProcessBreak",
            "CompareType": "GreaterEqual",
            "CompareValue": {
              "Value": 50
            },
            "IsOverrideFinalScore": true
          }
        }
      ]
    },
    "Ultra_BattleEvent123_TeamHPCheck": {
      "Factors": [
        {
          "Source": {
            "$type": "RPG.GameCore.ComplexSkillAIAllTargetCombine",
            "Evaluator": {
              "$type": "RPG.GameCore.ComplexSkillAISourcePropertyCompareRatio",
              "PropertyTypeA": "CurrentHP",
              "PropertyTypeB": "MaxHP"
            },
            "ListCombineType": "Min"
          },
          "Mapper": {
            "$type": "RPG.GameCore.ComplexSkillAIMapperMultiRange",
            "Ranges": [
              {
                "xmax": {
                  "Value": 1
                },
                "ymax": {
                  "Value": 100
                }
              }
            ]
          },
          "PostProcess": {
            "$type": "RPG.GameCore.ComplexSkillAIPostProcessBreak",
            "CompareType": "GreaterEqual",
            "CompareValue": {
              "Value": 75
            },
            "IsOverrideFinalScore": true
          }
        }
      ]
    },
    "Ultra_Tingyun_RemoveSelf": {
      "Factors": [
        {
          "Source": {
            "$type": "RPG.GameCore.ComplexSkillAISourceTargetIsActor"
          },
          "Mapper": {
            "$type": "RPG.GameCore.ComplexSkillAIMapperMultiRange",
            "Ranges": [
              {
                "ymin": {
                  "Value": 100
                },
                "xmax": {
                  "Value": 0.5000000004656613
                },
                "ymax": {
                  "Value": 100
                }
              },
              {
                "xmin": {
                  "Value": 0.5000000004656613
                },
                "ymin": {
                  "Value": -10000
                },
                "xmax": {
                  "Value": 1
                },
                "ymax": {
                  "Value": -10000
                }
              }
            ]
          }
        }
      ]
    },
    "Ultra_Tingyun_RemoveFullSP": {
      "Factors": [
        {
          "Source": {
            "$type": "RPG.GameCore.ComplexSkillAISourceSPNeedRatio"
          },
          "Mapper": {
            "$type": "RPG.GameCore.ComplexSkillAIMapperMultiRange",
            "Ranges": [
              {
                "ymin": {
                  "Value": 100
                },
                "xmax": {
                  "Value": 0.9900000009220093
                },
                "ymax": {
                  "Value": 100
                }
              },
              {
                "xmin": {
                  "Value": 0.9900000009220093
                },
                "xmax": {
                  "Value": 1
                }
              }
            ]
          }
        }
      ]
    },
    "Ultra_Common_SingleAttack": {
      "Factors": [
        {
          "Source": {
            "$type": "RPG.GameCore.ComplexSkillAISourcePropertyCompareRatio",
            "PropertyTypeA": "CurrentHP",
            "PropertyTypeB": "MaxHP"
          },
          "Mapper": {
            "$type": "RPG.GameCore.ComplexSkillAIMapperMultiRange",
            "Ranges": [
              {
                "xmax": {
                  "Value": 0.20000000018626451
                },
                "ymax": {
                  "Value": 50
                }
              },
              {
                "xmin": {
                  "Value": 0.20000000018626451
                },
                "ymin": {
                  "Value": 50
                },
                "xmax": {
                  "Value": 0.5000000004656613
                },
                "ymax": {
                  "Value": 100
                }
              },
              {
                "xmin": {
                  "Value": 0.5000000004656613
                },
                "ymin": {
                  "Value": 100
                },
                "xmax": {
                  "Value": 1
                },
                "ymax": {
                  "Value": 50
                }
              }
            ]
          }
        }
      ]
    },
    "Global_SingleDamageSkill": {
      "Factors": [
        {
          "Source": {
            "$type": "RPG.GameCore.ComplexSkillAIContainModifier",
            "ModifilerName": "Monster_W1_GSMecha_01_Initiate"
          },
          "Mapper": {
            "$type": "RPG.GameCore.ComplexSkillAIMapperMultiRange",
            "Ranges": [
              {
                "xmax": {
                  "Value": 0.5000000004656613
                }
              },
              {
                "xmin": {
                  "Value": 0.5000000004656613
                },
                "ymin": {
                  "Value": 50
                },
                "xmax": {
                  "Value": 1
                },
                "ymax": {
                  "Value": 50
                }
              }
            ]
          }
        }
      ]
    },
    "DefaultCommonSkill": {},
    "DefaultBPSkill": {}
  }
}