{
  "AbilityList": [
    {
      "Name": "Avatar_Himeko_Skill01_Phase01",
      "TargetInfo": {
        "TargetType": "SkillTargetEntityList"
      },
      "OnStart": [
        {
          "$type": "RPG.GameCore.TriggerAbility",
          "TargetType": {
            "$type": "RPG.GameCore.TargetAlias",
            "Alias": "Caster"
          },
          "AbilityName": "Avatar_Himeko_00_Skill01_Camera",
          "IsSkillPerform": true
        },
        {
          "$type": "RPG.GameCore.TriggerAbility",
          "TargetType": {
            "$type": "RPG.GameCore.TargetAlias",
            "Alias": "Caster"
          },
          "AbilityName": "Avatar_Himeko_Skill01_Phase02",
          "IsSkillPerform": true
        },
        {
          "$type": "RPG.GameCore.LookAt",
          "PerformerType": {
            "$type": "RPG.GameCore.TargetAlias",
            "Alias": "Caster"
          },
          "TargetType": "AbilityTargetEntity"
        },
        {
          "$type": "RPG.GameCore.TriggerAnimStateWithMove",
          "TargetType": {
            "$type": "RPG.GameCore.TargetAlias",
            "Alias": "Caster"
          },
          "AnimStateName": "Skill01",
          "MovingRangeList": [
            {
              "TargetType": {
                "$type": "RPG.GameCore.TargetAlias",
                "Alias": "AbilityTargetEntity"
              },
              "OffsetTargetDistance": {
                "IsDynamic": false,
                "FixedValue": {
                  "Value": 2.5000000004656613
                }
              },
              "NormalizedTimeStart": {
                "IsDynamic": false,
                "FixedValue": {
                  "Value": 0.07099999999627471
                }
              },
              "NormalizedTimeEnd": {
                "IsDynamic": false,
                "FixedValue": {
                  "Value": 0.15799999958835542
                }
              }
            },
            {
              "TargetType": {
                "$type": "RPG.GameCore.TargetAlias",
                "Alias": "TeamFormation"
              },
              "OffsetTargetDistance": {
                "IsDynamic": false,
                "FixedValue": {
                  "Value": 0
                }
              },
              "NormalizedTimeStart": {
                "IsDynamic": false,
                "FixedValue": {
                  "Value": 0.7290000000502914
                }
              },
              "NormalizedTimeEnd": {
                "IsDynamic": false,
                "FixedValue": {
                  "Value": 0.8370000002905726
                }
              }
            }
          ]
        },
        {
          "$type": "RPG.GameCore.WaitAnimState",
          "TargetType": {
            "$type": "RPG.GameCore.TargetAlias",
            "Alias": "Caster"
          },
          "AnimStateName": "Skill01",
          "NormalizedTimeEnd": {
            "IsDynamic": false,
            "FixedValue": {
              "Value": 0.7700000007171184
            }
          }
        },
        {
          "$type": "RPG.GameCore.MoveToTargetPosition",
          "PerformerType": {
            "$type": "RPG.GameCore.TargetAlias",
            "Alias": "Caster"
          },
          "TargetType": {
            "$type": "RPG.GameCore.TargetAlias",
            "Alias": "TeamFormation"
          },
          "IgnoreRadius": true,
          "OffsetTargetDistance": {
            "IsDynamic": false,
            "FixedValue": {
              "Value": 0
            }
          }
        },
        {
          "$type": "RPG.GameCore.AnimSetParameter",
          "TargetType": {
            "$type": "RPG.GameCore.TargetAlias",
            "Alias": "Caster"
          },
          "ParameterName": "Skill_ID",
          "ParameterType": "Int"
        }
      ]
    },
    {
      "Name": "Avatar_Himeko_Skill01_Phase02",
      "TargetInfo": {
        "TargetType": "SkillTargetEntityList"
      },
      "OnStart": [
        {
          "$type": "RPG.GameCore.WaitAnimState",
          "TargetType": {
            "$type": "RPG.GameCore.TargetAlias",
            "Alias": "Caster"
          },
          "AnimStateName": "Skill01",
          "NormalizedTimeEnd": {
            "IsDynamic": false,
            "FixedValue": {
              "Value": 0.07499999972060323
            }
          }
        },
        {
          "$type": "RPG.GameCore.RadialBlurEffect",
          "TargetType": {
            "$type": "RPG.GameCore.TargetAlias",
            "Alias": "AbilityTargetEntity"
          },
          "BlurRadius": 0.8,
          "Iteration": 4,
          "BlurFeather": 0.2
        },
        {
          "$type": "RPG.GameCore.WaitAnimState",
          "TargetType": {
            "$type": "RPG.GameCore.TargetAlias",
            "Alias": "Caster"
          },
          "AnimStateName": "Skill01",
          "NormalizedTimeEnd": {
            "IsDynamic": false,
            "FixedValue": {
              "Value": 0.15799999958835542
            }
          }
        },
        {
          "$type": "RPG.GameCore.RadialBlurEffect",
          "TargetType": {
            "$type": "RPG.GameCore.TargetAlias",
            "Alias": "AbilityTargetEntity"
          },
          "Active": false
        },
        {
          "$type": "RPG.GameCore.WaitAnimState",
          "TargetType": {
            "$type": "RPG.GameCore.TargetAlias",
            "Alias": "Caster"
          },
          "AnimStateName": "Skill01",
          "NormalizedTimeEnd": {
            "IsDynamic": false,
            "FixedValue": {
              "Value": 0.20200000004842877
            }
          }
        },
        {
          "$type": "RPG.GameCore.DamageByAttackProperty",
          "TargetType": {
            "$type": "RPG.GameCore.TargetAlias",
            "Alias": "AbilityTargetEntity"
          },
          "AttackProperty": {
            "DamageType": "Fire",
            "DamagePercentage": {
              "IsDynamic": true,
              "Expressions": [
                {
                  "Type": "DynamicNumber",
                  "DynamicHash": -1126825319
                }
              ]
            },
            "StanceValue": {
              "IsDynamic": true,
              "Expressions": [
                {
                  "Type": "DynamicNumber",
                  "DynamicHash": 1659254037
                }
              ]
            },
            "HitSplitRatio": {
              "IsDynamic": false,
              "FixedValue": {
                "Value": 0.40000000037252903
              }
            },
            "SPHitRatio": {
              "IsDynamic": false,
              "FixedValue": {
                "Value": 1
              }
            },
            "HitAnimation": "Hit",
            "HitEffect": "Effects/Eff_Prefab/Eff_Avatar/Eff_Himeko/Eff_Avatar_Himeko_00_Skill01_Hit01.prefab",
            "HitEffectHeight": 0.7,
            "HitTimeSlowType": "Slash",
            "HitPosHeight": 1.2,
            "HitAngleHorizontal": 70,
            "HitAngleVertical": 30
          }
        },
        {
          "$type": "RPG.GameCore.WaitAnimState",
          "TargetType": {
            "$type": "RPG.GameCore.TargetAlias",
            "Alias": "Caster"
          },
          "AnimStateName": "Skill01",
          "NormalizedTimeEnd": {
            "IsDynamic": false,
            "FixedValue": {
              "Value": 0.3289999996777624
            }
          }
        },
        {
          "$type": "RPG.GameCore.DamageByAttackProperty",
          "TargetType": {
            "$type": "RPG.GameCore.TargetAlias",
            "Alias": "AbilityTargetEntity"
          },
          "AttackProperty": {
            "DamageType": "Fire",
            "DamagePercentage": {
              "IsDynamic": true,
              "Expressions": [
                {
                  "Type": "DynamicNumber",
                  "DynamicHash": -1126825319
                }
              ]
            },
            "StanceValue": {
              "IsDynamic": true,
              "Expressions": [
                {
                  "Type": "DynamicNumber",
                  "DynamicHash": 1659254037
                }
              ]
            },
            "HitSplitRatio": {
              "IsDynamic": false,
              "FixedValue": {
                "Value": 0.6000000005587935
              }
            },
            "SPHitRatio": {
              "IsDynamic": false,
              "FixedValue": {
                "Value": 1
              }
            },
            "HitAnimation": "Hit",
            "HitEffect": "Effects/Eff_Prefab/Eff_Avatar/Eff_Himeko/Eff_Avatar_Himeko_00_Skill01_Hit02.prefab",
            "HitEffectHeight": 1.2,
            "HitTimeSlowType": "Slash",
            "HitTimeSlowIntensity": "Heavy",
            "HitPosHeight": 1.4,
            "HitAngleHorizontal": -80,
            "HitAngleVertical": 20
          },
          "CanTriggerLastKill": true
        },
        {
          "$type": "RPG.GameCore.DamagePerformFinish"
        },
        {
          "$type": "RPG.GameCore.SkillPerformFinish"
        }
      ]
    },
    {
      "Name": "Avatar_Himeko_Skill02_Phase01",
      "TargetInfo": {
        "TargetType": "SkillTargetEntityList"
      },
      "OnStart": [
        {
          "$type": "RPG.GameCore.TriggerAbility",
          "TargetType": {
            "$type": "RPG.GameCore.TargetAlias",
            "Alias": "Caster"
          },
          "AbilityName": "Avatar_Himeko_00_Skill02_Camera",
          "IsSkillPerform": true
        },
        {
          "$type": "RPG.GameCore.TriggerAbility",
          "TargetType": {
            "$type": "RPG.GameCore.TargetAlias",
            "Alias": "Caster"
          },
          "AbilityName": "Avatar_Himeko_Skill02_Phase02",
          "IsSkillPerform": true
        },
        {
          "$type": "RPG.GameCore.LookAt",
          "PerformerType": {
            "$type": "RPG.GameCore.TargetAlias",
            "Alias": "Caster"
          },
          "TargetType": "AbilityTargetEntity"
        },
        {
          "$type": "RPG.GameCore.TriggerAnimStateWithMove",
          "TargetType": {
            "$type": "RPG.GameCore.TargetAlias",
            "Alias": "Caster"
          },
          "AnimStateName": "Skill02",
          "MovingRangeList": [
            {
              "TargetType": {
                "$type": "RPG.GameCore.TargetAlias",
                "Alias": "AbilityTargetEntity"
              },
              "OffsetTargetDistance": {
                "IsDynamic": false,
                "FixedValue": {
                  "Value": 3.5000000004656613
                }
              },
              "NormalizedTimeStart": {
                "IsDynamic": false,
                "FixedValue": {
                  "Value": 0.04599999962374568
                }
              },
              "NormalizedTimeEnd": {
                "IsDynamic": false,
                "FixedValue": {
                  "Value": 0.11599999968893826
                }
              }
            },
            {
              "TargetType": {
                "$type": "RPG.GameCore.TargetAlias",
                "Alias": "TeamFormation"
              },
              "OffsetTargetDistance": {
                "IsDynamic": false,
                "FixedValue": {
                  "Value": 0
                }
              },
              "NormalizedTimeStart": {
                "IsDynamic": false,
                "FixedValue": {
                  "Value": 0.775000000372529
                }
              },
              "NormalizedTimeEnd": {
                "IsDynamic": false,
                "FixedValue": {
                  "Value": 0.8720000006724149
                }
              }
            }
          ]
        },
        {
          "$type": "RPG.GameCore.WaitAnimState",
          "TargetType": {
            "$type": "RPG.GameCore.TargetAlias",
            "Alias": "Caster"
          },
          "AnimStateName": "Skill02",
          "NormalizedTimeEnd": {
            "IsDynamic": false,
            "FixedValue": {
              "Value": 0.06599999964237213
            }
          }
        },
        {
          "$type": "RPG.GameCore.RadialBlurEffect",
          "TargetType": {
            "$type": "RPG.GameCore.TargetAlias",
            "Alias": "AbilityTargetEntity"
          },
          "BlurRadius": 0.8,
          "Iteration": 4,
          "BlurFeather": 0.2
        },
        {
          "$type": "RPG.GameCore.WaitAnimState",
          "TargetType": {
            "$type": "RPG.GameCore.TargetAlias",
            "Alias": "Caster"
          },
          "AnimStateName": "Skill02",
          "NormalizedTimeEnd": {
            "IsDynamic": false,
            "FixedValue": {
              "Value": 0.11599999968893826
            }
          }
        },
        {
          "$type": "RPG.GameCore.RadialBlurEffect",
          "TargetType": {
            "$type": "RPG.GameCore.TargetAlias",
            "Alias": "AbilityTargetEntity"
          },
          "Active": false
        },
        {
          "$type": "RPG.GameCore.WaitAnimState",
          "TargetType": {
            "$type": "RPG.GameCore.TargetAlias",
            "Alias": "Caster"
          },
          "AnimStateName": "Skill02",
          "NormalizedTimeEnd": {
            "IsDynamic": false,
            "FixedValue": {
              "Value": 1
            }
          }
        },
        {
          "$type": "RPG.GameCore.AnimSetParameter",
          "TargetType": {
            "$type": "RPG.GameCore.TargetAlias",
            "Alias": "Caster"
          },
          "ParameterName": "Skill_ID",
          "ParameterType": "Int"
        }
      ]
    },
    {
      "Modifiers": {
        "Avatar_Himeko_SkillBurnDamageUP": {
          "OnBeforeHit": [
            {
              "$type": "RPG.GameCore.PredicateTaskList",
              "Predicate": {
                "$type": "RPG.GameCore.ByAnd",
                "PredicateList": [
                  {
                    "$type": "RPG.GameCore.ByContainBehaviorFlag",
                    "TargetType": {
                      "$type": "RPG.GameCore.TargetAlias",
                      "Alias": "DamageDefenderEntity"
                    },
                    "Flag": "STAT_DOT_Burn"
                  },
                  {
                    "$type": "RPG.GameCore.ByCurrentSkillType",
                    "SkillType": "Skill"
                  }
                ]
              },
              "SuccessTaskList": [
                {
                  "$type": "RPG.GameCore.ModifyDamageData",
                  "Attacker_AllDamageTypeAddedRatio": {
                    "IsDynamic": true,
                    "Expressions": [
                      {
                        "Type": "DynamicNumber",
                        "DynamicHash": 1953698797
                      }
                    ]
                  }
                }
              ]
            }
          ]
        }
      },
      "Name": "Avatar_Himeko_Skill02_Phase02",
      "TargetInfo": {
        "TargetType": "SkillTargetEntityList"
      },
      "OnStart": [
        {
          "$type": "RPG.GameCore.PredicateTaskList",
          "Predicate": {
            "$type": "RPG.GameCore.BySkillPointActivated",
            "PointTriggerKey": {
              "Hash": 1455742904
            }
          },
          "SuccessTaskList": [
            {
              "$type": "RPG.GameCore.AddModifier",
              "TargetType": {
                "$type": "RPG.GameCore.TargetAlias",
                "Alias": "Caster"
              },
              "ModifierName": "Avatar_Himeko_SkillBurnDamageUP"
            }
          ]
        },
        {
          "$type": "RPG.GameCore.WaitAnimState",
          "TargetType": {
            "$type": "RPG.GameCore.TargetAlias",
            "Alias": "Caster"
          },
          "AnimStateName": "Skill02",
          "NormalizedTimeEnd": {
            "IsDynamic": false,
            "FixedValue": {
              "Value": 0.1939999999012798
            }
          }
        },
        {
          "$type": "RPG.GameCore.DamageByAttackProperty",
          "TargetType": {
            "$type": "RPG.GameCore.TargetAlias",
            "Alias": "AbilityTargetEntity"
          },
          "AttackProperty": {
            "DamageType": "Fire",
            "DamagePercentage": {
              "IsDynamic": true,
              "Expressions": [
                {
                  "Type": "DynamicNumber",
                  "DynamicHash": -1847083384
                }
              ]
            },
            "StanceValue": {
              "IsDynamic": true,
              "Expressions": [
                {
                  "Type": "DynamicNumber",
                  "DynamicHash": 1659254037
                }
              ]
            },
            "HitSplitRatio": {
              "IsDynamic": false,
              "FixedValue": {
                "Value": 0.20000000018626451
              }
            },
            "SPHitRatio": {
              "IsDynamic": false,
              "FixedValue": {
                "Value": 1
              }
            },
            "HitAnimation": "Hit",
            "HitEffectHeight": 1.2,
            "HitTimeSlowType": "Puncture",
            "HitTimeSlowIntensity": "Middle",
            "HitPosHeight": 1,
            "HitAngleHorizontal": 80
          },
          "SpecialHitSoundEvent": "Ev_sfx_avatar_skill_hit_himeko"
        },
        {
          "$type": "RPG.GameCore.DamageByAttackProperty",
          "TargetType": {
            "$type": "RPG.GameCore.TargetAlias",
            "Alias": "AbilityTargetAdjoinEntity"
          },
          "AttackProperty": {
            "DamageType": "Fire",
            "DamagePercentage": {
              "IsDynamic": true,
              "Expressions": [
                {
                  "Type": "DynamicNumber",
                  "DynamicHash": -1055926903
                }
              ]
            },
            "StanceValue": {
              "IsDynamic": true,
              "Expressions": [
                {
                  "Type": "DynamicNumber",
                  "DynamicHash": -1315627076
                }
              ]
            },
            "HitSplitRatio": {
              "IsDynamic": false,
              "FixedValue": {
                "Value": 0.20000000018626451
              }
            },
            "HitAnimation": "Hit",
            "HitPosHeight": 1,
            "HitAngleHorizontal": 80
          }
        },
        {
          "$type": "RPG.GameCore.WaitAnimState",
          "TargetType": {
            "$type": "RPG.GameCore.TargetAlias",
            "Alias": "Caster"
          },
          "AnimStateName": "Skill02",
          "NormalizedTimeEnd": {
            "IsDynamic": false,
            "FixedValue": {
              "Value": 0.2679999996908009
            }
          }
        },
        {
          "$type": "RPG.GameCore.DamageByAttackProperty",
          "TargetType": {
            "$type": "RPG.GameCore.TargetAlias",
            "Alias": "AbilityTargetEntity"
          },
          "AttackProperty": {
            "DamageType": "Fire",
            "DamagePercentage": {
              "IsDynamic": true,
              "Expressions": [
                {
                  "Type": "DynamicNumber",
                  "DynamicHash": -1847083384
                }
              ]
            },
            "StanceValue": {
              "IsDynamic": true,
              "Expressions": [
                {
                  "Type": "DynamicNumber",
                  "DynamicHash": 1659254037
                }
              ]
            },
            "HitSplitRatio": {
              "IsDynamic": false,
              "FixedValue": {
                "Value": 0.20000000018626451
              }
            },
            "SPHitRatio": {
              "IsDynamic": false,
              "FixedValue": {
                "Value": 1
              }
            },
            "HitAnimation": "Hit",
            "HitEffectHeight": 1.2,
            "HitTimeSlowType": "Puncture",
            "HitTimeSlowIntensity": "Middle",
            "HitPosHeight": 1,
            "HitAngleHorizontal": -80
          },
          "SpecialHitSoundEvent": "Ev_sfx_avatar_skill_hit_himeko"
        },
        {
          "$type": "RPG.GameCore.DamageByAttackProperty",
          "TargetType": {
            "$type": "RPG.GameCore.TargetAlias",
            "Alias": "AbilityTargetAdjoinEntity"
          },
          "AttackProperty": {
            "DamageType": "Fire",
            "DamagePercentage": {
              "IsDynamic": true,
              "Expressions": [
                {
                  "Type": "DynamicNumber",
                  "DynamicHash": -1055926903
                }
              ]
            },
            "StanceValue": {
              "IsDynamic": true,
              "Expressions": [
                {
                  "Type": "DynamicNumber",
                  "DynamicHash": -1315627076
                }
              ]
            },
            "HitSplitRatio": {
              "IsDynamic": false,
              "FixedValue": {
                "Value": 0.20000000018626451
              }
            },
            "HitAnimation": "Hit",
            "HitPosHeight": 1,
            "HitAngleHorizontal": -80
          }
        },
        {
          "$type": "RPG.GameCore.WaitAnimState",
          "TargetType": {
            "$type": "RPG.GameCore.TargetAlias",
            "Alias": "Caster"
          },
          "AnimStateName": "Skill02",
          "NormalizedTimeEnd": {
            "IsDynamic": false,
            "FixedValue": {
              "Value": 0.4679999998770654
            }
          }
        },
        {
          "$type": "RPG.GameCore.LoopExecuteTaskList",
          "MaxLoopCount": {
            "IsDynamic": false,
            "FixedValue": {
              "Value": 4
            }
          },
          "TaskList": [
            {
              "$type": "RPG.GameCore.DamageByAttackProperty",
              "TargetType": {
                "$type": "RPG.GameCore.TargetAlias",
                "Alias": "AbilityTargetEntity"
              },
              "AttackProperty": {
                "DamageType": "Fire",
                "DamagePercentage": {
                  "IsDynamic": true,
                  "Expressions": [
                    {
                      "Type": "DynamicNumber",
                      "DynamicHash": -1847083384
                    }
                  ]
                },
                "StanceValue": {
                  "IsDynamic": true,
                  "Expressions": [
                    {
                      "Type": "DynamicNumber",
                      "DynamicHash": 1659254037
                    }
                  ]
                },
                "HitSplitRatio": {
                  "IsDynamic": false,
                  "FixedValue": {
                    "Value": 0.05000000004656613
                  }
                },
                "SPHitRatio": {
                  "IsDynamic": false,
                  "FixedValue": {
                    "Value": 1
                  }
                },
                "HitAnimation": "Hit",
                "HitEffectHeight": 1.2,
                "HitPosHeight": 1.2
              },
              "SpecialHitSoundEvent": "Ev_sfx_avatar_skill_hit_himeko"
            },
            {
              "$type": "RPG.GameCore.WaitSecond",
              "WaitTime": 0.01
            }
          ]
        },
        {
          "$type": "RPG.GameCore.WaitAnimState",
          "TargetType": {
            "$type": "RPG.GameCore.TargetAlias",
            "Alias": "Caster"
          }
        },
        {
          "$type": "RPG.GameCore.WaitAnimState",
          "TargetType": {
            "$type": "RPG.GameCore.TargetAlias",
            "Alias": "Caster"
          },
          "AnimStateName": "Skill02",
          "NormalizedTimeEnd": {
            "IsDynamic": false,
            "FixedValue": {
              "Value": 0.6500000006053597
            }
          }
        },
        {
          "$type": "RPG.GameCore.DamageByAttackProperty",
          "TargetType": {
            "$type": "RPG.GameCore.TargetAlias",
            "Alias": "AbilityTargetEntity"
          },
          "AttackProperty": {
            "DamageType": "Fire",
            "DamagePercentage": {
              "IsDynamic": true,
              "Expressions": [
                {
                  "Type": "DynamicNumber",
                  "DynamicHash": -1847083384
                }
              ]
            },
            "StanceValue": {
              "IsDynamic": true,
              "Expressions": [
                {
                  "Type": "DynamicNumber",
                  "DynamicHash": 1659254037
                }
              ]
            },
            "HitSplitRatio": {
              "IsDynamic": false,
              "FixedValue": {
                "Value": 0.40000000037252903
              }
            },
            "SPHitRatio": {
              "IsDynamic": false,
              "FixedValue": {
                "Value": 1
              }
            },
            "HitAnimation": "Hit_H",
            "HitEffectHeight": 1.2,
            "HitTimeSlowType": "Impact",
            "HitTimeSlowIntensity": "Middle",
            "HitMotion": {
              "Offset": {
                "X": 0,
                "Y": 3.5,
                "Z": 0
              },
              "RiseTime": 0.2,
              "HangTime": 0.58,
              "FallTime": 0.1,
              "HangPeakTime": 0.2,
              "HangBeginHeightRatio": 0.57
            },
            "HitPosHeight": 1.2,
            "HitAngleVertical": -30
          },
          "SpecialHitSoundEvent": "Ev_sfx_avatar_skill_hit_hvy_himeko",
          "CanTriggerLastKill": true
        },
        {
          "$type": "RPG.GameCore.DamageByAttackProperty",
          "TargetType": {
            "$type": "RPG.GameCore.TargetAlias",
            "Alias": "AbilityTargetAdjoinEntity"
          },
          "AttackProperty": {
            "DamageType": "Fire",
            "DamagePercentage": {
              "IsDynamic": true,
              "Expressions": [
                {
                  "Type": "DynamicNumber",
                  "DynamicHash": -1055926903
                }
              ]
            },
            "StanceValue": {
              "IsDynamic": true,
              "Expressions": [
                {
                  "Type": "DynamicNumber",
                  "DynamicHash": -1315627076
                }
              ]
            },
            "HitSplitRatio": {
              "IsDynamic": false,
              "FixedValue": {
                "Value": 0.6000000005587935
              }
            },
            "HitAnimation": "Hit_H",
            "HitPosHeight": 1,
            "HitSource": {
              "$type": "RPG.GameCore.TargetAlias",
              "Alias": "SkillTargetEntityList"
            }
          },
          "CanTriggerLastKill": true
        },
        {
          "$type": "RPG.GameCore.DamagePerformFinish"
        },
        {
          "$type": "RPG.GameCore.PredicateTaskList",
          "Predicate": {
            "$type": "RPG.GameCore.BySkillPointActivated",
            "PointTriggerKey": {
              "Hash": 1455742903
            }
          },
          "SuccessTaskList": [
            {
              "$type": "RPG.GameCore.RemoveModifier",
              "TargetType": {
                "$type": "RPG.GameCore.TargetAlias",
                "Alias": "Caster"
              },
              "ModifierName": "Avatar_Himeko_SkillBurnDamageUP"
            }
          ]
        },
        {
          "$type": "RPG.GameCore.SkillPerformFinish"
        }
      ]
    },
    {
      "Name": "Avatar_Himeko_Skill03_EnterReady",
      "TargetInfo": {
        "TargetType": "InherentTargetEntity"
      },
      "OnStart": [
        {
          "$type": "RPG.GameCore.WaitSecond",
          "WaitTime": 0.4
        },
        {
          "$type": "RPG.GameCore.AlignTargetToTeamCenter",
          "TargetType": {
            "$type": "RPG.GameCore.TargetAlias",
            "Alias": "Caster"
          }
        },
        {
          "$type": "RPG.GameCore.WaitSecond",
          "WaitTime": 0.1
        },
        {
          "$type": "RPG.GameCore.LookAt",
          "PerformerType": {
            "$type": "RPG.GameCore.TargetAlias",
            "Alias": "Caster"
          },
          "TargetType": "DarkTeamCenter"
        },
        {
          "$type": "RPG.GameCore.HeadLookAt",
          "PerformerType": {
            "$type": "RPG.GameCore.TargetAlias",
            "Alias": "AllDarkTeam"
          },
          "TargetType": {
            "$type": "RPG.GameCore.TargetAlias",
            "Alias": "Caster"
          },
          "DoRootRotate": true
        },
        {
          "$type": "RPG.GameCore.VCameraConfigChange",
          "CameraConfig": {
            "NormalConfig": {
              "CameraState": "SelectDarkTeamEntity",
              "AnchorTargetType": {
                "$type": "RPG.GameCore.TargetAlias",
                "Alias": "Caster"
              },
              "IsLocalOffset": true,
              "AnchorOffset": {
                "X": -0.62,
                "Y": -0.44,
                "Z": -0.37
              },
              "AimTargetType": {
                "$type": "RPG.GameCore.TargetAlias",
                "Alias": "AbilityTargetEntity"
              },
              "AimOffset": {
                "X": -1.6,
                "Y": 2.16,
                "Z": 0.17
              },
              "FollowRadius": 0.9,
              "AnchorToAimAngle": 13,
              "FollowDamp": 0.5,
              "AimDamp": 0.5,
              "Dutch": 4.5,
              "FOV": 90
            },
            "BlendConfig": {
              "BlendType": "Cut"
            },
            "ShowEntityConfig": {
              "ShowTargetType": {
                "$type": "RPG.GameCore.TargetAlias",
                "Alias": "CasterWithAllEnemy"
              }
            }
          }
        },
        {
          "$type": "RPG.GameCore.WaitSecond",
          "WaitTime": 0.5
        },
        {
          "$type": "RPG.GameCore.VCameraConfigChange",
          "CameraConfig": {
            "NormalConfig": {
              "CameraState": "SelectDarkTeamEntity",
              "AnchorTargetType": {
                "$type": "RPG.GameCore.TargetAlias",
                "Alias": "Caster"
              },
              "IsLocalOffset": true,
              "AnchorOffset": {
                "X": 0.7,
                "Y": -0.34,
                "Z": -0.31
              },
              "AimTargetType": {
                "$type": "RPG.GameCore.TargetAlias",
                "Alias": "AbilityTargetEntity"
              },
              "AimOffset": {
                "X": -3.33,
                "Y": 2,
                "Z": 0
              },
              "FollowRadius": 0.9,
              "AnchorToAimAngle": 26,
              "Dutch": 4.5,
              "FOV": 70
            },
            "BlendConfig": {
              "BlendType": "Custom",
              "CustomCurveName": "Blend_UltraReady",
              "BlendTime": 1.5
            },
            "ShowEntityConfig": {
              "ShowTargetType": {
                "$type": "RPG.GameCore.TargetAlias",
                "Alias": "CasterWithAllEnemy"
              }
            }
          }
        }
      ]
    },
    {
      "Name": "Avatar_Himeko_Skill03_Phase01",
      "TargetInfo": {
        "TargetType": "AllEnemy"
      },
      "OnStart": [
        {
          "$type": "RPG.GameCore.TriggerAbility",
          "TargetType": {
            "$type": "RPG.GameCore.TargetAlias",
            "Alias": "Caster"
          },
          "AbilityName": "Avatar_Himeko_00_Skill03_Camera",
          "IsSkillPerform": true
        },
        {
          "$type": "RPG.GameCore.TriggerAbility",
          "TargetType": {
            "$type": "RPG.GameCore.TargetAlias",
            "Alias": "Caster"
          },
          "AbilityName": "Avatar_Himeko_Skill03_Phase02",
          "IsSkillPerform": true
        },
        {
          "$type": "RPG.GameCore.ShowBattleUI"
        },
        {
          "$type": "RPG.GameCore.HideLevelStage",
          "IsHide": true
        },
        {
          "$type": "RPG.GameCore.TriggerAnimState",
          "TargetType": {
            "$type": "RPG.GameCore.TargetAlias",
            "Alias": "Caster"
          },
          "AnimStateName": "Skill03"
        },
        {
          "$type": "RPG.GameCore.WaitTimelineFinish",
          "TimelineName": "Character_Himeko_00_Skill03_Timeline"
        },
        {
          "$type": "RPG.GameCore.HideLevelStage"
        },
        {
          "$type": "RPG.GameCore.GlobalMainIntensityEffect",
          "IsRevert": true,
          "FadeDuration": 1
        },
        {
          "$type": "RPG.GameCore.SetTeamFormation",
          "Team": "TeamDark",
          "FormationType": "DarkTeamNormal",
          "CustomCenterTargetType": {
            "$type": "RPG.GameCore.TargetAlias",
            "Alias": "None"
          }
        },
        {
          "$type": "RPG.GameCore.ShowBattleUI",
          "IsShow": true
        },
        {
          "$type": "RPG.GameCore.AnimSetParameter",
          "TargetType": {
            "$type": "RPG.GameCore.TargetAlias",
            "Alias": "Caster"
          },
          "ParameterName": "Skill_ID",
          "ParameterType": "Int"
        }
      ]
    },
    {
      "Modifiers": {
        "Avatar_Himeko_Skill03_Modifier": {
          "OnTriggerDeath": [
            {
              "$type": "RPG.GameCore.ModifySPNew",
              "TargetType": {
                "$type": "RPG.GameCore.TargetAlias",
                "Alias": "ModifierOwnerEntity"
              },
              "AddValue": {
                "IsDynamic": true,
                "Expressions": [
                  {
                    "Type": "DynamicNumber",
                    "DynamicHash": 886788558
                  }
                ]
              }
            }
          ],
          "Stacking": "ReplaceByCaster"
        }
      },
      "Name": "Avatar_Himeko_Skill03_Phase02",
      "TargetInfo": {
        "TargetType": "AllEnemy"
      },
      "OnStart": [
        {
          "$type": "RPG.GameCore.WaitAnimState",
          "TargetType": {
            "$type": "RPG.GameCore.TargetAlias",
            "Alias": "Caster"
          },
          "AnimStateName": "Skill03",
          "NormalizedTimeEnd": {
            "IsDynamic": false,
            "FixedValue": {
              "Value": 0.8380000002216548
            }
          }
        },
        {
          "$type": "RPG.GameCore.AddModifier",
          "TargetType": {
            "$type": "RPG.GameCore.TargetAlias",
            "Alias": "Caster"
          },
          "ModifierName": "Avatar_Himeko_Skill03_Modifier"
        },
        {
          "$type": "RPG.GameCore.DamageByAttackProperty",
          "TargetType": {
            "$type": "RPG.GameCore.TargetAlias",
            "Alias": "AllEnemy"
          },
          "AttackProperty": {
            "DamageType": "Fire",
            "DamagePercentage": {
              "IsDynamic": true,
              "Expressions": [
                {
                  "Type": "DynamicNumber",
                  "DynamicHash": -56289053
                }
              ]
            },
            "StanceValue": {
              "IsDynamic": true,
              "Expressions": [
                {
                  "Type": "DynamicNumber",
                  "DynamicHash": 1182064154
                }
              ]
            },
            "SPHitRatio": {
              "IsDynamic": false,
              "FixedValue": {
                "Value": 1
              }
            },
            "HitAnimation": "Hit"
          },
          "CanTriggerLastKill": true
        },
        {
          "$type": "RPG.GameCore.PredicateTaskList",
          "Predicate": {
            "$type": "RPG.GameCore.ByRankActivated",
            "TriggerKey": {
              "Hash": -1445815962
            }
          },
          "SuccessTaskList": [
            {
              "$type": "RPG.GameCore.WaitAnimState",
              "TargetType": {
                "$type": "RPG.GameCore.TargetAlias",
                "Alias": "Caster"
              },
              "AnimStateName": "Skill03",
              "NormalizedTimeEnd": {
                "IsDynamic": false,
                "FixedValue": {
                  "Value": 0.9000000008381903
                }
              }
            },
            {
              "$type": "RPG.GameCore.LoopExecuteTaskList",
              "MaxLoopCount": {
                "IsDynamic": false,
                "FixedValue": {
                  "Value": 2
                }
              },
              "TaskList": [
                {
                  "$type": "RPG.GameCore.Retarget",
                  "TargetType": {
                    "$type": "RPG.GameCore.TargetAlias",
                    "Alias": "AllEnemy"
                  },
                  "MaxNumber": {
                    "IsDynamic": false,
                    "FixedValue": {
                      "Value": 1
                    }
                  },
                  "TaskList": [
                    {
                      "$type": "RPG.GameCore.DamageByAttackProperty",
                      "TargetType": {
                        "$type": "RPG.GameCore.TargetAlias",
                        "Alias": "ParamEntity"
                      },
                      "AttackProperty": {
                        "DamageType": "Fire",
                        "DamagePercentage": {
                          "IsDynamic": true,
                          "Expressions": [
                            {
                              "Type": "DynamicNumber",
                              "DynamicHash": -56289053
                            },
                            {
                              "Type": "DynamicNumber",
                              "DynamicHash": 1663462312
                            },
                            {
                              "Type": "Mul"
                            }
                          ]
                        },
                        "HitAnimation": "Hit"
                      },
                      "CanTriggerLastKill": true
                    }
                  ]
                }
              ]
            }
          ],
          "FailedTaskList": []
        },
        {
          "$type": "RPG.GameCore.DamagePerformFinish"
        },
        {
          "$type": "RPG.GameCore.RemoveModifier",
          "TargetType": {
            "$type": "RPG.GameCore.TargetAlias",
            "Alias": "Caster"
          },
          "ModifierName": "Avatar_Himeko_Skill03_Modifier"
        },
        {
          "$type": "RPG.GameCore.TriggerSkipDeadHandler"
        },
        {
          "$type": "RPG.GameCore.SkillPerformFinish"
        }
      ]
    },
    {
      "Modifiers": {
        "Avatar_Himeko_Passive1_Modifier": {
          "OnListenAfterAttack": [
            {
              "$type": "RPG.GameCore.PredicateTaskList",
              "Predicate": {
                "$type": "RPG.GameCore.ByAnd",
                "PredicateList": [
                  {
                    "$type": "RPG.GameCore.ByTargetTeam",
                    "TargetType": {
                      "$type": "RPG.GameCore.TargetAlias",
                      "Alias": "ParamEntity"
                    },
                    "Team": "TeamLight"
                  },
                  {
                    "$type": "RPG.GameCore.ByCompareDynamicValue",
                    "TargetType": {
                      "$type": "RPG.GameCore.TargetAlias",
                      "Alias": "Caster"
                    },
                    "DynamicKey": "_Himeko_Attack",
                    "CompareType": "Equal",
                    "CompareValue": {
                      "IsDynamic": false,
                      "FixedValue": {
                        "Value": 1
                      }
                    }
                  }
                ]
              },
              "SuccessTaskList": [
                {
                  "$type": "RPG.GameCore.PredicateTaskList",
                  "Predicate": {
                    "$type": "RPG.GameCore.ByCompareDynamicValue",
                    "TargetType": {
                      "$type": "RPG.GameCore.TargetAlias",
                      "Alias": "Caster"
                    },
                    "DynamicKey": "MDF_Pursuit_Layer",
                    "CompareType": "Equal",
                    "CompareValue": {
                      "IsDynamic": true,
                      "Expressions": [
                        {
                          "Type": "DynamicNumber",
                          "DynamicHash": -54401499
                        }
                      ]
                    }
                  },
                  "SuccessTaskList": [
                    {
                      "$type": "RPG.GameCore.PredicateTaskList",
                      "Predicate": {
                        "$type": "RPG.GameCore.ByAnd",
                        "PredicateList": [
                          {
                            "$type": "RPG.GameCore.ByHaveEnemyAlive",
                            "TargetType": {
                              "$type": "RPG.GameCore.TargetAlias",
                              "Alias": "Caster"
                            }
                          },
                          {
                            "$type": "RPG.GameCore.ByContainBehaviorFlag",
                            "TargetType": {
                              "$type": "RPG.GameCore.TargetAlias",
                              "Alias": "ModifierOwnerEntity"
                            },
                            "Flag": "STAT_CTRL",
                            "Inverse": true
                          },
                          {
                            "$type": "RPG.GameCore.ByContainBehaviorFlag",
                            "TargetType": {
                              "$type": "RPG.GameCore.TargetAlias",
                              "Alias": "ModifierOwnerEntity"
                            },
                            "Flag": "DisableAction",
                            "Inverse": true
                          }
                        ]
                      },
                      "SuccessTaskList": [
                        {
                          "$type": "RPG.GameCore.TurnInsertAbility",
                          "AbilityName": "Avatar_Himeko_Passive1Atk_Ability",
                          "TargetType": {
                            "$type": "RPG.GameCore.TargetAlias",
                            "Alias": "Caster"
                          },
                          "AbilityTarget": {
                            "$type": "RPG.GameCore.TargetAlias",
                            "Alias": "AllEnemy"
                          },
                          "AbortBehaviorFlags": [
                            "STAT_CTRL",
                            "DisableAction"
                          ],
                          "InsertAbilityPriority": "AvatarInsertAttackSelf",
                          "ShowInActionBar": true
                        },
                        {
                          "$type": "RPG.GameCore.SetDynamicValue",
                          "TargetType": {
                            "$type": "RPG.GameCore.TargetAlias",
                            "Alias": "Caster"
                          },
                          "DynamicKey": "_Himeko_Attack",
                          "Value": {
                            "IsDynamic": false,
                            "FixedValue": {
                              "Value": 0
                            }
                          }
                        },
                        {
                          "$type": "RPG.GameCore.PredicateTaskList",
                          "Predicate": {
                            "$type": "RPG.GameCore.ByContainBehaviorFlag",
                            "TargetType": {
                              "$type": "RPG.GameCore.TargetAlias",
                              "Alias": "Caster"
                            },
                            "Flag": "STAT_CTRL"
                          },
                          "SuccessTaskList": [
                            {
                              "$type": "RPG.GameCore.SetDynamicValue",
                              "TargetType": {
                                "$type": "RPG.GameCore.TargetAlias",
                                "Alias": "Caster"
                              },
                              "DynamicKey": "Is_CTRL",
                              "Value": {
                                "IsDynamic": false,
                                "FixedValue": {
                                  "Value": 1
                                }
                              }
                            }
                          ]
                        }
                      ],
                      "FailedTaskList": [
                        {
                          "$type": "RPG.GameCore.SetDynamicValue",
                          "TargetType": {
                            "$type": "RPG.GameCore.TargetAlias",
                            "Alias": "Caster"
                          },
                          "DynamicKey": "Is_CTRL",
                          "Value": {
                            "IsDynamic": false,
                            "FixedValue": {
                              "Value": 1
                            }
                          }
                        }
                      ]
                    }
                  ],
                  "FailedTaskList": []
                }
              ]
            }
          ],
          "EnterBattlePriority": "AvatarInsertAbility",
          "OnEnterBattle": [
            {
              "$type": "RPG.GameCore.PredicateTaskList",
              "Predicate": {
                "$type": "RPG.GameCore.ByAnd",
                "PredicateList": [
                  {
                    "$type": "RPG.GameCore.ByCompareWaveCount",
                    "CompareType": "Equal",
                    "CompareValue": {
                      "IsDynamic": false,
                      "FixedValue": {
                        "Value": 1
                      }
                    }
                  },
                  {
                    "$type": "RPG.GameCore.ByCompareDynamicValue",
                    "TargetType": {
                      "$type": "RPG.GameCore.TargetAlias",
                      "Alias": "Caster"
                    },
                    "DynamicKey": "_Himeko_Attack",
                    "CompareType": "Equal",
                    "CompareValue": {
                      "IsDynamic": false,
                      "FixedValue": {
                        "Value": 1
                      }
                    }
                  }
                ]
              },
              "SuccessTaskList": [
                {
                  "$type": "RPG.GameCore.PredicateTaskList",
                  "Predicate": {
                    "$type": "RPG.GameCore.ByCompareDynamicValue",
                    "TargetType": {
                      "$type": "RPG.GameCore.TargetAlias",
                      "Alias": "Caster"
                    },
                    "DynamicKey": "MDF_Pursuit_Layer",
                    "CompareType": "Equal",
                    "CompareValue": {
                      "IsDynamic": true,
                      "Expressions": [
                        {
                          "Type": "DynamicNumber",
                          "DynamicHash": -54401499
                        }
                      ]
                    }
                  },
                  "SuccessTaskList": [
                    {
                      "$type": "RPG.GameCore.PredicateTaskList",
                      "Predicate": {
                        "$type": "RPG.GameCore.ByHaveEnemyAlive",
                        "TargetType": {
                          "$type": "RPG.GameCore.TargetAlias",
                          "Alias": "Caster"
                        }
                      },
                      "SuccessTaskList": [
                        {
                          "$type": "RPG.GameCore.TurnInsertAbility",
                          "AbilityName": "Avatar_Himeko_Passive1Atk_Ability",
                          "TargetType": {
                            "$type": "RPG.GameCore.TargetAlias",
                            "Alias": "Caster"
                          },
                          "AbilityTarget": {
                            "$type": "RPG.GameCore.TargetAlias",
                            "Alias": "AllEnemy"
                          },
                          "AbortBehaviorFlags": [
                            "STAT_CTRL",
                            "DisableAction"
                          ],
                          "InsertAbilityPriority": "AvatarInsertAttackSelf",
                          "ShowInActionBar": true
                        },
                        {
                          "$type": "RPG.GameCore.SetDynamicValue",
                          "TargetType": {
                            "$type": "RPG.GameCore.TargetAlias",
                            "Alias": "Caster"
                          },
                          "DynamicKey": "_Himeko_Attack",
                          "Value": {
                            "IsDynamic": false,
                            "FixedValue": {
                              "Value": 0
                            }
                          }
                        }
                      ],
                      "FailedTaskList": []
                    }
                  ],
                  "FailedTaskList": []
                }
              ]
            }
          ],
          "OnListenBreak": [
            {
              "$type": "RPG.GameCore.PredicateTaskList",
              "Predicate": {
                "$type": "RPG.GameCore.ByCompareMonsterRank",
                "TargetType": {
                  "$type": "RPG.GameCore.TargetAlias",
                  "Alias": "ParamEntity"
                },
                "CompareType": "GreaterEqual",
                "CompareValue": 3
              },
              "SuccessTaskList": [
                {
                  "$type": "RPG.GameCore.AddModifier",
                  "TargetType": {
                    "$type": "RPG.GameCore.TargetAlias",
                    "Alias": "Caster"
                  },
                  "ModifierName": "MAvatar_Himeko_00_Passive_Pursuit",
                  "MaxLayer": {
                    "IsDynamic": true,
                    "Expressions": [
                      {
                        "Type": "DynamicNumber",
                        "DynamicHash": -54401499
                      }
                    ]
                  },
                  "LayerAddWhenStack": {
                    "IsDynamic": true,
                    "Expressions": [
                      {
                        "Type": "DynamicNumber",
                        "DynamicHash": -54401499
                      }
                    ]
                  }
                }
              ],
              "FailedTaskList": [
                {
                  "$type": "RPG.GameCore.PredicateTaskList",
                  "Predicate": {
                    "$type": "RPG.GameCore.ByAnd",
                    "PredicateList": [
                      {
                        "$type": "RPG.GameCore.ByRankActivated",
                        "TriggerKey": {
                          "Hash": 1686351920
                        }
                      },
                      {
                        "$type": "RPG.GameCore.ByIsTurnActionEntity",
                        "TargetType": {
                          "$type": "RPG.GameCore.TargetAlias",
                          "Alias": "Caster"
                        }
                      },
                      {
                        "$type": "RPG.GameCore.ByCurrentSkillType",
                        "SkillType": "Skill"
                      }
                    ]
                  },
                  "SuccessTaskList": [
                    {
                      "$type": "RPG.GameCore.AddModifier",
                      "TargetType": {
                        "$type": "RPG.GameCore.TargetAlias",
                        "Alias": "Caster"
                      },
                      "ModifierName": "MAvatar_Himeko_00_Passive_Pursuit",
                      "MaxLayer": {
                        "IsDynamic": true,
                        "Expressions": [
                          {
                            "Type": "DynamicNumber",
                            "DynamicHash": -54401499
                          }
                        ]
                      },
                      "LayerAddWhenStack": {
                        "IsDynamic": true,
                        "Expressions": [
                          {
                            "Type": "FixedNumber",
                            "FixedValue": {
                              "Value": 1
                            }
                          },
                          {
                            "Type": "DynamicNumber",
                            "DynamicHash": 495656571
                          },
                          {
                            "Type": "Add"
                          }
                        ]
                      }
                    }
                  ],
                  "FailedTaskList": [
                    {
                      "$type": "RPG.GameCore.AddModifier",
                      "TargetType": {
                        "$type": "RPG.GameCore.TargetAlias",
                        "Alias": "Caster"
                      },
                      "ModifierName": "MAvatar_Himeko_00_Passive_Pursuit",
                      "MaxLayer": {
                        "IsDynamic": true,
                        "Expressions": [
                          {
                            "Type": "DynamicNumber",
                            "DynamicHash": -54401499
                          }
                        ]
                      },
                      "LayerAddWhenStack": {
                        "IsDynamic": false,
                        "FixedValue": {
                          "Value": 1
                        }
                      }
                    }
                  ]
                }
              ]
            }
          ],
          "OnListenModifierRemove": [
            {
              "$type": "RPG.GameCore.PredicateTaskList",
              "Predicate": {
                "$type": "RPG.GameCore.ByAnd",
                "PredicateList": [
                  {
                    "$type": "RPG.GameCore.ByTargetTeam",
                    "TargetType": {
                      "$type": "RPG.GameCore.TargetAlias",
                      "Alias": "ParamEntity"
                    },
                    "Team": "TeamLight"
                  },
                  {
                    "$type": "RPG.GameCore.ByCompareDynamicValue",
                    "TargetType": {
                      "$type": "RPG.GameCore.TargetAlias",
                      "Alias": "Caster"
                    },
                    "DynamicKey": "_Himeko_Attack",
                    "CompareType": "Equal",
                    "CompareValue": {
                      "IsDynamic": false,
                      "FixedValue": {
                        "Value": 1
                      }
                    }
                  },
                  {
                    "$type": "RPG.GameCore.ByCompareDynamicValue",
                    "TargetType": {
                      "$type": "RPG.GameCore.TargetAlias",
                      "Alias": "Caster"
                    },
                    "DynamicKey": "Is_CTRL",
                    "CompareType": "Equal",
                    "CompareValue": {
                      "IsDynamic": false,
                      "FixedValue": {
                        "Value": 1
                      }
                    }
                  },
                  {
                    "$type": "RPG.GameCore.ByNot",
                    "Predicate": {
                      "$type": "RPG.GameCore.ByContainBehaviorFlag",
                      "TargetType": {
                        "$type": "RPG.GameCore.TargetAlias",
                        "Alias": "Caster"
                      },
                      "Flag": "STAT_CTRL"
                    }
                  }
                ]
              },
              "SuccessTaskList": [
                {
                  "$type": "RPG.GameCore.PredicateTaskList",
                  "Predicate": {
                    "$type": "RPG.GameCore.ByCompareDynamicValue",
                    "TargetType": {
                      "$type": "RPG.GameCore.TargetAlias",
                      "Alias": "Caster"
                    },
                    "DynamicKey": "MDF_Pursuit_Layer",
                    "CompareType": "Equal",
                    "CompareValue": {
                      "IsDynamic": true,
                      "Expressions": [
                        {
                          "Type": "DynamicNumber",
                          "DynamicHash": -54401499
                        }
                      ]
                    }
                  },
                  "SuccessTaskList": [
                    {
                      "$type": "RPG.GameCore.PredicateTaskList",
                      "Predicate": {
                        "$type": "RPG.GameCore.ByHaveEnemyAlive",
                        "TargetType": {
                          "$type": "RPG.GameCore.TargetAlias",
                          "Alias": "Caster"
                        }
                      },
                      "SuccessTaskList": [
                        {
                          "$type": "RPG.GameCore.TurnInsertAbility",
                          "AbilityName": "Avatar_Himeko_Passive1Atk_Ability",
                          "TargetType": {
                            "$type": "RPG.GameCore.TargetAlias",
                            "Alias": "Caster"
                          },
                          "AbilityTarget": {
                            "$type": "RPG.GameCore.TargetAlias",
                            "Alias": "AllEnemy"
                          },
                          "AbortBehaviorFlags": [
                            "STAT_CTRL",
                            "DisableAction"
                          ],
                          "InsertAbilityPriority": "AvatarInsertAttackSelf",
                          "ShowInActionBar": true
                        },
                        {
                          "$type": "RPG.GameCore.SetDynamicValue",
                          "TargetType": {
                            "$type": "RPG.GameCore.TargetAlias",
                            "Alias": "Caster"
                          },
                          "DynamicKey": "_Himeko_Attack",
                          "Value": {
                            "IsDynamic": false,
                            "FixedValue": {
                              "Value": 0
                            }
                          }
                        },
                        {
                          "$type": "RPG.GameCore.SetDynamicValue",
                          "TargetType": {
                            "$type": "RPG.GameCore.TargetAlias",
                            "Alias": "Caster"
                          },
                          "DynamicKey": "Is_CTRL",
                          "Value": {
                            "IsDynamic": false,
                            "FixedValue": {
                              "Value": 0
                            }
                          }
                        }
                      ],
                      "FailedTaskList": []
                    }
                  ],
                  "FailedTaskList": []
                }
              ]
            }
          ],
          "OnWaveMonster": [
            {
              "$type": "RPG.GameCore.PredicateTaskList",
              "Predicate": {
                "$type": "RPG.GameCore.ByCompareDynamicValue",
                "TargetType": {
                  "$type": "RPG.GameCore.TargetAlias",
                  "Alias": "Caster"
                },
                "DynamicKey": "_Himeko_Attack",
                "CompareType": "Equal",
                "CompareValue": {
                  "IsDynamic": false,
                  "FixedValue": {
                    "Value": 1
                  }
                }
              },
              "SuccessTaskList": [
                {
                  "$type": "RPG.GameCore.PredicateTaskList",
                  "Predicate": {
                    "$type": "RPG.GameCore.ByCompareDynamicValue",
                    "TargetType": {
                      "$type": "RPG.GameCore.TargetAlias",
                      "Alias": "Caster"
                    },
                    "DynamicKey": "MDF_Pursuit_Layer",
                    "CompareType": "Equal",
                    "CompareValue": {
                      "IsDynamic": true,
                      "Expressions": [
                        {
                          "Type": "DynamicNumber",
                          "DynamicHash": -54401499
                        }
                      ]
                    }
                  },
                  "SuccessTaskList": [
                    {
                      "$type": "RPG.GameCore.PredicateTaskList",
                      "Predicate": {
                        "$type": "RPG.GameCore.ByAnd",
                        "PredicateList": [
                          {
                            "$type": "RPG.GameCore.ByHaveEnemyAlive",
                            "TargetType": {
                              "$type": "RPG.GameCore.TargetAlias",
                              "Alias": "Caster"
                            }
                          },
                          {
                            "$type": "RPG.GameCore.ByContainBehaviorFlag",
                            "TargetType": {
                              "$type": "RPG.GameCore.TargetAlias",
                              "Alias": "ModifierOwnerEntity"
                            },
                            "Flag": "STAT_CTRL",
                            "Inverse": true
                          },
                          {
                            "$type": "RPG.GameCore.ByContainBehaviorFlag",
                            "TargetType": {
                              "$type": "RPG.GameCore.TargetAlias",
                              "Alias": "ModifierOwnerEntity"
                            },
                            "Flag": "DisableAction",
                            "Inverse": true
                          }
                        ]
                      },
                      "SuccessTaskList": [
                        {
                          "$type": "RPG.GameCore.TurnInsertAbility",
                          "AbilityName": "Avatar_Himeko_Passive1Atk_Ability",
                          "TargetType": {
                            "$type": "RPG.GameCore.TargetAlias",
                            "Alias": "Caster"
                          },
                          "AbilityTarget": {
                            "$type": "RPG.GameCore.TargetAlias",
                            "Alias": "AllEnemy"
                          },
                          "AbortBehaviorFlags": [
                            "STAT_CTRL",
                            "DisableAction"
                          ],
                          "InsertAbilityPriority": "AvatarInsertAttackSelf",
                          "ShowInActionBar": true
                        },
                        {
                          "$type": "RPG.GameCore.SetDynamicValue",
                          "TargetType": {
                            "$type": "RPG.GameCore.TargetAlias",
                            "Alias": "Caster"
                          },
                          "DynamicKey": "_Himeko_Attack",
                          "Value": {
                            "IsDynamic": false,
                            "FixedValue": {
                              "Value": 0
                            }
                          }
                        }
                      ],
                      "FailedTaskList": [
                        {
                          "$type": "RPG.GameCore.SetDynamicValue",
                          "TargetType": {
                            "$type": "RPG.GameCore.TargetAlias",
                            "Alias": "Caster"
                          },
                          "DynamicKey": "Is_CTRL",
                          "Value": {
                            "IsDynamic": false,
                            "FixedValue": {
                              "Value": 1
                            }
                          }
                        }
                      ]
                    }
                  ],
                  "FailedTaskList": []
                }
              ]
            }
          ],
          "OnInsertAbilityFinish": [
            {
              "$type": "RPG.GameCore.SetDynamicValue",
              "TargetType": {
                "$type": "RPG.GameCore.TargetAlias",
                "Alias": "Caster"
              },
              "DynamicKey": "_Himeko_Attack",
              "Value": {
                "IsDynamic": false,
                "FixedValue": {
                  "Value": 1
                }
              }
            }
          ],
          "Stacking": "ReplaceByCaster"
        },
        "MAvatar_Himeko_00_Passive_PursuitCD": {
          "LifeTime": 1,
          "LifeStepMoment": "ModifierPhase1End",
          "OnDestroy": [
            {
              "$type": "RPG.GameCore.AddModifier",
              "TargetType": {
                "$type": "RPG.GameCore.TargetAlias",
                "Alias": "Caster"
              },
              "ModifierName": "MAvatar_Himeko_00_Passive_Pursuit"
            }
          ],
          "UIConfig": {
            "UIPosition": "UI_Middle",
            "ModifierUIPriority": "Counter"
          },
          "Stacking": "ReplaceByCaster"
        },
        "MAvatar_Himeko_00_Passive_Pursuit": {
          "MaxLayer": 3,
          "LayerAddWhenStack": {
            "IsDynamic": false,
            "FixedValue": {
              "Value": 1
            }
          },
          "OnDestroy": [
            {
              "$type": "RPG.GameCore.SetDynamicValue",
              "TargetType": {
                "$type": "RPG.GameCore.TargetAlias",
                "Alias": "ModifierOwnerEntity"
              },
              "DynamicKey": "MDF_Pursuit_Layer",
              "Value": {
                "IsDynamic": false,
                "FixedValue": {
                  "Value": 0
                }
              }
            },
            {
              "$type": "RPG.GameCore.SetEnergyBarState",
              "TargetType": {
                "$type": "RPG.GameCore.TargetAlias",
                "Alias": "Caster"
              },
              "Active": "True",
              "BarType": 2,
              "CurrentState": "Normal",
              "CD": {
                "IsDynamic": false,
                "FixedValue": {
                  "Value": 0
                }
              },
              "IconPath": "SpriteOutput/BuffIcon/Inlevel/Icon1003Passive.png",
              "MaxCount": {
                "IsDynamic": true,
                "Expressions": [
                  {
                    "Type": "DynamicNumber",
                    "DynamicHash": -54401499
                  }
                ]
              },
              "CurrentCount": {
                "IsDynamic": true,
                "Expressions": [
                  {
                    "Type": "DynamicNumber",
                    "DynamicHash": 221707612
                  }
                ]
              }
            }
          ],
          "OnStack": [
            {
              "$type": "RPG.GameCore.SetDynamicValueByModifierValue",
              "ReadTargetType": {
                "$type": "RPG.GameCore.TargetAlias",
                "Alias": "ModifierOwnerEntity"
              },
              "ValueType": "Layer",
              "Multiplier": {
                "IsDynamic": false,
                "FixedValue": {
                  "Value": 1
                }
              },
              "DynamicKey": "MDF_Pursuit_Layer"
            },
            {
              "$type": "RPG.GameCore.PredicateTaskList",
              "Predicate": {
                "$type": "RPG.GameCore.ByCompareDynamicValue",
                "TargetType": {
                  "$type": "RPG.GameCore.TargetAlias",
                  "Alias": "ModifierOwnerEntity"
                },
                "DynamicKey": "MDF_Pursuit_Layer",
                "CompareType": "Equal",
                "CompareValue": {
                  "IsDynamic": true,
                  "Expressions": [
                    {
                      "Type": "DynamicNumber",
                      "DynamicHash": -54401499
                    }
                  ]
                }
              },
              "SuccessTaskList": [
                {
                  "$type": "RPG.GameCore.TriggerEnergyBarEffect",
                  "TargetType": {
                    "$type": "RPG.GameCore.TargetAlias",
                    "Alias": "Caster"
                  }
                },
                {
                  "$type": "RPG.GameCore.SetEnergyBarState",
                  "TargetType": {
                    "$type": "RPG.GameCore.TargetAlias",
                    "Alias": "Caster"
                  },
                  "Active": "True",
                  "BarType": 2,
                  "CurrentState": "Active",
                  "CD": {
                    "IsDynamic": false,
                    "FixedValue": {
                      "Value": 0
                    }
                  },
                  "IconPath": "SpriteOutput/BuffIcon/Inlevel/Icon1003Passive.png",
                  "MaxCount": {
                    "IsDynamic": true,
                    "Expressions": [
                      {
                        "Type": "DynamicNumber",
                        "DynamicHash": -54401499
                      }
                    ]
                  },
                  "CurrentCount": {
                    "IsDynamic": true,
                    "Expressions": [
                      {
                        "Type": "DynamicNumber",
                        "DynamicHash": 221707612
                      }
                    ]
                  }
                }
              ],
              "FailedTaskList": [
                {
                  "$type": "RPG.GameCore.SetEnergyBarState",
                  "TargetType": {
                    "$type": "RPG.GameCore.TargetAlias",
                    "Alias": "Caster"
                  },
                  "Active": "True",
                  "BarType": 2,
                  "CurrentState": "Normal",
                  "CD": {
                    "IsDynamic": false,
                    "FixedValue": {
                      "Value": 0
                    }
                  },
                  "IconPath": "SpriteOutput/BuffIcon/Inlevel/Icon1003Passive.png",
                  "MaxCount": {
                    "IsDynamic": true,
                    "Expressions": [
                      {
                        "Type": "DynamicNumber",
                        "DynamicHash": -54401499
                      }
                    ]
                  },
                  "CurrentCount": {
                    "IsDynamic": true,
                    "Expressions": [
                      {
                        "Type": "DynamicNumber",
                        "DynamicHash": 221707612
                      }
                    ]
                  }
                }
              ]
            }
          ],
          "UIConfig": {
            "UIPosition": "UI_Middle",
            "ModifierUIPriority": "Counter"
          },
          "Stacking": "ReplaceByCaster",
          "DynamicValues": {
            "Values": {
              "931685943": {}
            }
          }
        }
      },
      "Name": "Avatar_Himeko_PassiveSkill01",
      "TargetInfo": {
        "TargetType": "Caster"
      },
      "OnStart": [
        {
          "$type": "RPG.GameCore.AddModifier",
          "TargetType": {
            "$type": "RPG.GameCore.TargetAlias",
            "Alias": "Caster"
          },
          "ModifierName": "Avatar_Himeko_Passive1_Modifier"
        },
        {
          "$type": "RPG.GameCore.AddModifier",
          "TargetType": {
            "$type": "RPG.GameCore.TargetAlias",
            "Alias": "Caster"
          },
          "ModifierName": "MAvatar_Himeko_00_Passive_Pursuit",
          "MaxLayer": {
            "IsDynamic": true,
            "Expressions": [
              {
                "Type": "DynamicNumber",
                "DynamicHash": -54401499
              }
            ]
          },
          "LayerAddWhenStack": {
            "IsDynamic": false,
            "FixedValue": {
              "Value": 1
            }
          }
        },
        {
          "$type": "RPG.GameCore.SetEnergyBarState",
          "TargetType": {
            "$type": "RPG.GameCore.TargetAlias",
            "Alias": "Caster"
          },
          "Active": "True",
          "BarType": 2,
          "CurrentState": "Normal",
          "CD": {
            "IsDynamic": false,
            "FixedValue": {
              "Value": 0
            }
          },
          "IconPath": "SpriteOutput/BuffIcon/Inlevel/Icon1003Passive.png",
          "MaxCount": {
            "IsDynamic": true,
            "Expressions": [
              {
                "Type": "DynamicNumber",
                "DynamicHash": -54401499
              }
            ]
          },
          "CurrentCount": {
            "IsDynamic": true,
            "Expressions": [
              {
                "Type": "DynamicNumber",
                "DynamicHash": 221707612
              }
            ]
          }
        },
        {
          "$type": "RPG.GameCore.SetDynamicValue",
          "TargetType": {
            "$type": "RPG.GameCore.TargetAlias",
            "Alias": "Caster"
          },
          "DynamicKey": "Is_CTRL",
          "Value": {
            "IsDynamic": false,
            "FixedValue": {
              "Value": 0
            }
          }
        }
      ]
    },
    {
      "Name": "Avatar_Himeko_Passive1Atk_Ability",
      "TargetInfo": {
        "TargetType": "InherentTargetEntity"
      },
      "OnStart": [
        {
          "$type": "RPG.GameCore.PredicateTaskList",
          "Predicate": {
            "$type": "RPG.GameCore.ByHaveEnemyAlive",
            "TargetType": {
              "$type": "RPG.GameCore.TargetAlias",
              "Alias": "Caster"
            }
          },
          "SuccessTaskList": [
            {
              "$type": "RPG.GameCore.ShowBonusUIEffect",
              "UIPrefabPath": "UI/Battle/SpecialAction/SpecialAction_1003.prefab",
              "TitleTextID": {
                "Hash": 933226214
              }
            },
            {
              "$type": "RPG.GameCore.SetTeamRootOffset",
              "Team": "TeamDark",
              "Reset": true
            },
            {
              "$type": "RPG.GameCore.SetTeamFormation",
              "Team": "TeamDark",
              "FormationType": "DarkTeamNormal",
              "RemoveDying": true,
              "CustomCenterTargetType": {
                "$type": "RPG.GameCore.TargetAlias",
                "Alias": "None"
              }
            },
            {
              "$type": "RPG.GameCore.GlobalMainIntensityEffect",
              "TargetIntensity": 0.3,
              "FadeDuration": 0.55
            },
            {
              "$type": "RPG.GameCore.LookAt",
              "PerformerType": {
                "$type": "RPG.GameCore.TargetAlias",
                "Alias": "Caster"
              },
              "TargetType": "Caster"
            },
            {
              "$type": "RPG.GameCore.TriggerAbility",
              "TargetType": {
                "$type": "RPG.GameCore.TargetAlias",
                "Alias": "Caster"
              },
              "AbilityName": "Avatar_Himeko_Passive1Atk_Ability_Camera",
              "IsSkillPerform": true
            },
            {
              "$type": "RPG.GameCore.TriggerAbility",
              "TargetType": {
                "$type": "RPG.GameCore.TargetAlias",
                "Alias": "Caster"
              },
              "AbilityName": "Avatar_Himeko_Passive1Atk02_Ability",
              "IsSkillPerform": true
            },
            {
              "$type": "RPG.GameCore.TriggerAnimState",
              "TargetType": {
                "$type": "RPG.GameCore.TargetAlias",
                "Alias": "Caster"
              },
              "AnimStateName": "Skill_Passive01"
            },
            {
              "$type": "RPG.GameCore.WaitAnimState",
              "AnimStateName": "Skill_Passive01",
              "NormalizedTimeEnd": {
                "IsDynamic": false,
                "FixedValue": {
                  "Value": 0.5000000004656613
                }
              }
            },
            {
              "$type": "RPG.GameCore.WaitTimelineFinish",
              "TimelineName": "Character_Himeko_00_PassiveSkill_TimeLine"
            },
            {
              "$type": "RPG.GameCore.RemoveEffect",
              "TargetType": {
                "$type": "RPG.GameCore.TargetAlias",
                "Alias": "Caster"
              },
              "EffectPath": "Effects/Eff_Prefab/Eff_Avatar/Eff_Himeko/Eff_Avatar_Himeko_00_Passive_Hit02.prefab"
            },
            {
              "$type": "RPG.GameCore.GlobalMainIntensityEffect",
              "IsRevert": true,
              "FadeDuration": 1
            },
            {
              "$type": "RPG.GameCore.MoveStageOnTargetForward",
              "TargetType": {
                "$type": "RPG.GameCore.TargetAlias",
                "Alias": "Caster"
              }
            },
            {
              "$type": "RPG.GameCore.SetTeamFormation",
              "Team": "TeamDark",
              "FormationType": "DarkTeamNormal",
              "CustomCenterTargetType": {
                "$type": "RPG.GameCore.TargetAlias",
                "Alias": "None"
              }
            },
            {
              "$type": "RPG.GameCore.AnimSetParameter",
              "TargetType": {
                "$type": "RPG.GameCore.TargetAlias",
                "Alias": "Caster"
              },
              "ParameterName": "Skill_ID",
              "ParameterType": "Int"
            },
            {
              "$type": "RPG.GameCore.SetTeamRootOffset",
              "Team": "TeamLight",
              "Reset": true
            },
            {
              "$type": "RPG.GameCore.SetTeamFormation",
              "Team": "TeamLight",
              "FormationType": "LightTeamNormal",
              "CustomCenterTargetType": {
                "$type": "RPG.GameCore.TargetAlias",
                "Alias": "None"
              }
            }
          ],
          "FailedTaskList": []
        }
      ]
    },
    {
      "Modifiers": {
        "MAvatar_Himeko_00_SkillRank01_SpeedUP": {
          "BehaviorFlagList": [
            "STAT_SpeedUp"
          ],
          "OnStack": [
            {
              "$type": "RPG.GameCore.StackProperty",
              "TargetType": {
                "$type": "RPG.GameCore.TargetAlias",
                "Alias": "ModifierOwnerEntity"
              },
              "Property": "SpeedAddedRatio",
              "PropertyValue": {
                "IsDynamic": true,
                "Expressions": [
                  {
                    "Type": "DynamicNumber",
                    "DynamicHash": 2128130574
                  }
                ]
              }
            }
          ],
          "Stacking": "ReplaceByCaster",
          "DynamicValues": {
            "Values": {
              "2128130574": {}
            }
          }
        }
      },
      "Name": "Avatar_Himeko_Passive1Atk02_Ability",
      "TargetInfo": {
        "TargetType": "Caster"
      },
      "OnStart": [
        {
          "$type": "RPG.GameCore.RemoveModifier",
          "TargetType": {
            "$type": "RPG.GameCore.TargetAlias",
            "Alias": "Caster"
          },
          "ModifierName": "MAvatar_Himeko_00_Passive_Pursuit"
        },
        {
          "$type": "RPG.GameCore.PredicateTaskList",
          "Predicate": {
            "$type": "RPG.GameCore.ByRankActivated",
            "TriggerKey": {
              "Hash": 2089636447
            }
          },
          "SuccessTaskList": [
            {
              "$type": "RPG.GameCore.AddModifier",
              "TargetType": {
                "$type": "RPG.GameCore.TargetAlias",
                "Alias": "Caster"
              },
              "ModifierName": "MAvatar_Himeko_00_SkillRank01_SpeedUP",
              "LifeTime": {
                "IsDynamic": true,
                "Expressions": [
                  {
                    "Type": "DynamicNumber",
                    "DynamicHash": 683348877
                  }
                ]
              },
              "DynamicValues": {
                "MDF_PropertyValue": {
                  "IsDynamic": true,
                  "Expressions": [
                    {
                      "Type": "DynamicNumber",
                      "DynamicHash": 677975207
                    }
                  ]
                }
              }
            }
          ],
          "FailedTaskList": []
        },
        {
          "$type": "RPG.GameCore.WaitAnimState",
          "TargetType": {
            "$type": "RPG.GameCore.TargetAlias",
            "Alias": "Caster"
          },
          "AnimStateName": "Skill_Passive01",
          "NormalizedTimeEnd": {
            "IsDynamic": false,
            "FixedValue": {
              "Value": 0.3720000002067536
            }
          }
        },
        {
          "$type": "RPG.GameCore.MoveStageOnTargetForward",
          "TargetType": {
            "$type": "RPG.GameCore.TargetAlias",
            "Alias": "Caster"
          },
          "StageRootOffset": 15
        },
        {
          "$type": "RPG.GameCore.WaitAnimState",
          "TargetType": {
            "$type": "RPG.GameCore.TargetAlias",
            "Alias": "Caster"
          },
          "AnimStateName": "Skill_Passive01",
          "NormalizedTimeEnd": {
            "IsDynamic": false,
            "FixedValue": {
              "Value": 0.6180000000167638
            }
          }
        },
        {
          "$type": "RPG.GameCore.LoopExecuteTaskList",
          "MaxLoopCount": {
            "IsDynamic": false,
            "FixedValue": {
              "Value": 3
            }
          },
          "TaskList": [
            {
              "$type": "RPG.GameCore.DamageByAttackProperty",
              "TargetType": {
                "$type": "RPG.GameCore.TargetAlias",
                "Alias": "AllEnemy"
              },
              "AttackProperty": {
                "DamageType": "Fire",
                "DamagePercentage": {
                  "IsDynamic": true,
                  "Expressions": [
                    {
                      "Type": "DynamicNumber",
                      "DynamicHash": 1246667513
                    }
                  ]
                },
                "StanceValue": {
                  "IsDynamic": true,
                  "Expressions": [
                    {
                      "Type": "DynamicNumber",
                      "DynamicHash": 1182064154
                    }
                  ]
                },
                "HitSplitRatio": {
                  "IsDynamic": false,
                  "FixedValue": {
                    "Value": 0.20000000018626451
                  }
                },
                "SPHitRatio": {
                  "IsDynamic": false,
                  "FixedValue": {
                    "Value": 1
                  }
                },
                "AttackType": "Insert",
                "HitAnimation": "Hit_H",
                "HitMotion": {
                  "Offset": {
                    "X": 0,
                    "Y": 2,
                    "Z": 0
                  },
                  "RiseTime": 0.3,
                  "HangTime": 0.5,
                  "FallTime": 0.3
                },
                "HitAngleHorizontal": 80
              }
            },
            {
              "$type": "RPG.GameCore.WaitSecond",
              "WaitTime": 0.1
            }
          ]
        },
        {
          "$type": "RPG.GameCore.WaitAnimState",
          "TargetType": {
            "$type": "RPG.GameCore.TargetAlias",
            "Alias": "Caster"
          },
          "AnimStateName": "Skill_Passive01",
          "NormalizedTimeEnd": {
            "IsDynamic": false,
            "FixedValue": {
              "Value": 0.8490000001620501
            }
          }
        },
        {
          "$type": "RPG.GameCore.DamageByAttackProperty",
          "TargetType": {
            "$type": "RPG.GameCore.TargetAlias",
            "Alias": "AllEnemy"
          },
          "AttackProperty": {
            "DamageType": "Fire",
            "DamagePercentage": {
              "IsDynamic": true,
              "Expressions": [
                {
                  "Type": "DynamicNumber",
                  "DynamicHash": 1246667513
                }
              ]
            },
            "StanceValue": {
              "IsDynamic": true,
              "Expressions": [
                {
                  "Type": "DynamicNumber",
                  "DynamicHash": 1182064154
                }
              ]
            },
            "HitSplitRatio": {
              "IsDynamic": false,
              "FixedValue": {
                "Value": 0.40000000037252903
              }
            },
            "SPHitRatio": {
              "IsDynamic": false,
              "FixedValue": {
                "Value": 1
              }
            },
            "AttackType": "Insert",
            "HitAnimation": "Hit_H",
            "HitMotion": {
              "Offset": {
                "X": 0,
                "Y": 3.5,
                "Z": 0
              },
              "RiseTime": 0.2,
              "HangTime": 0.68,
              "FallTime": 0.1,
              "HangPeakTime": 0.2,
              "HangBeginHeightRatio": 0.57
            },
            "HitAngleHorizontal": 80
          },
          "CanTriggerLastKill": true
        },
        {
          "$type": "RPG.GameCore.DamagePerformFinish"
        }
      ]
    },
    {
      "Modifiers": {
        "StageAbility_Maze_Himeko_Modifier": {
          "EnterBattlePriority": "CharacterBuff",
          "OnEnterBattle": [
            {
              "$type": "RPG.GameCore.PredicateTaskList",
              "Predicate": {
                "$type": "RPG.GameCore.ByAnd",
                "PredicateList": [
                  {
                    "$type": "RPG.GameCore.ByIsMazeSkillAffectCurrentWave"
                  }
                ]
              },
              "SuccessTaskList": [
                {
                  "$type": "RPG.GameCore.AddModifier",
                  "TargetType": {
                    "$type": "RPG.GameCore.TargetAlias",
                    "Alias": "AllEnemy"
                  },
                  "ModifierName": "MAvatar_Himeko_00_FireTakenRatio",
                  "Chance": {
                    "IsDynamic": true,
                    "Expressions": [
                      {
                        "Type": "DynamicNumber",
                        "DynamicHash": 3128993
                      }
                    ]
                  },
                  "LifeTime": {
                    "IsDynamic": true,
                    "Expressions": [
                      {
                        "Type": "DynamicNumber",
                        "DynamicHash": -1628945030
                      }
                    ]
                  },
                  "DynamicValues": {
                    "MDF_PropertyValue": {
                      "IsDynamic": true,
                      "Expressions": [
                        {
                          "Type": "DynamicNumber",
                          "DynamicHash": -1639385221
                        }
                      ]
                    }
                  }
                }
              ],
              "FailedTaskList": []
            }
          ]
        }
      },
      "Name": "Avatar_Himeko_SkillMazeInLevel",
      "TargetInfo": {
        "TargetType": "Caster"
      },
      "OnStart": [
        {
          "$type": "RPG.GameCore.AddModifier",
          "TargetType": {
            "$type": "RPG.GameCore.TargetAlias",
            "Alias": "Caster"
          },
          "ModifierName": "StageAbility_Maze_Himeko_Modifier"
        }
      ]
    },
    {
      "Modifiers": {
        "MAvatar_Himeko_SkillTree01": {
          "OnAfterAttack": [
            {
              "$type": "RPG.GameCore.AddModifier",
              "TargetType": {
                "$type": "RPG.GameCore.TargetAlias",
                "Alias": "AbilityAttackTargetList"
              },
              "ModifierName": "MCommon_DOT_Burn",
              "Chance": {
                "IsDynamic": true,
                "Expressions": [
                  {
                    "Type": "DynamicNumber",
                    "DynamicHash": -1761699449
                  }
                ]
              },
              "LifeTime": {
                "IsDynamic": true,
                "Expressions": [
                  {
                    "Type": "DynamicNumber",
                    "DynamicHash": -826297499
                  }
                ]
              },
              "DynamicValues": {
                "Modifier_Burn_DamagePercentage": {
                  "IsDynamic": true,
                  "Expressions": [
                    {
                      "Type": "DynamicNumber",
                      "DynamicHash": -741625860
                    }
                  ]
                }
              }
            }
          ]
        }
      },
      "Name": "Avatar_Himeko_SkillTree01",
      "TargetInfo": {
        "TargetType": "Caster"
      },
      "OnStart": [
        {
          "$type": "RPG.GameCore.AddModifier",
          "TargetType": {
            "$type": "RPG.GameCore.TargetAlias",
            "Alias": "Caster"
          },
          "ModifierName": "MAvatar_Himeko_SkillTree01"
        }
      ]
    },
    {
      "Modifiers": {
        "MAvatar_Himeko_SkillTree03": {
          "OnStack": [
            {
              "$type": "RPG.GameCore.PredicateTaskList",
              "Predicate": {
                "$type": "RPG.GameCore.ByCompareHPRatio",
                "TargetType": {
                  "$type": "RPG.GameCore.TargetAlias",
                  "Alias": "ModifierOwnerEntity"
                },
                "CompareType": "GreaterEqual",
                "CompareValue": {
                  "IsDynamic": true,
                  "Expressions": [
                    {
                      "Type": "DynamicNumber",
                      "DynamicHash": 1184440484
                    }
                  ]
                }
              },
              "SuccessTaskList": [
                {
                  "$type": "RPG.GameCore.AddModifier",
                  "TargetType": {
                    "$type": "RPG.GameCore.TargetAlias",
                    "Alias": "ModifierOwnerEntity"
                  },
                  "ModifierName": "MAvatar_Himeko_CriticalChance",
                  "DynamicValues": {
                    "MDF_PropertyValue": {
                      "IsDynamic": true,
                      "Expressions": [
                        {
                          "Type": "DynamicNumber",
                          "DynamicHash": 1544968477
                        }
                      ]
                    }
                  }
                }
              ]
            }
          ],
          "OnHPChange": [
            {
              "$type": "RPG.GameCore.PredicateTaskList",
              "Predicate": {
                "$type": "RPG.GameCore.ByCompareHPRatio",
                "TargetType": {
                  "$type": "RPG.GameCore.TargetAlias",
                  "Alias": "ModifierOwnerEntity"
                },
                "CompareType": "GreaterEqual",
                "CompareValue": {
                  "IsDynamic": true,
                  "Expressions": [
                    {
                      "Type": "DynamicNumber",
                      "DynamicHash": 1184440484
                    }
                  ]
                }
              },
              "SuccessTaskList": [
                {
                  "$type": "RPG.GameCore.AddModifier",
                  "TargetType": {
                    "$type": "RPG.GameCore.TargetAlias",
                    "Alias": "ModifierOwnerEntity"
                  },
                  "ModifierName": "MAvatar_Himeko_CriticalChance",
                  "DynamicValues": {
                    "MDF_PropertyValue": {
                      "IsDynamic": true,
                      "Expressions": [
                        {
                          "Type": "DynamicNumber",
                          "DynamicHash": 1544968477
                        }
                      ]
                    }
                  }
                }
              ],
              "FailedTaskList": [
                {
                  "$type": "RPG.GameCore.RemoveModifier",
                  "TargetType": {
                    "$type": "RPG.GameCore.TargetAlias",
                    "Alias": "ModifierOwnerEntity"
                  },
                  "ModifierName": "MAvatar_Himeko_CriticalChance"
                }
              ]
            }
          ]
        },
        "MAvatar_Himeko_CriticalChance": {
          "OnStack": [
            {
              "$type": "RPG.GameCore.StackProperty",
              "TargetType": {
                "$type": "RPG.GameCore.TargetAlias",
                "Alias": "ModifierOwnerEntity"
              },
              "Property": "CriticalChanceBase",
              "PropertyValue": {
                "IsDynamic": true,
                "Expressions": [
                  {
                    "Type": "DynamicNumber",
                    "DynamicHash": 2128130574
                  }
                ]
              }
            }
          ],
          "Stacking": "ReplaceByCaster",
          "DynamicValues": {
            "Values": {
              "2128130574": {}
            }
          }
        }
      },
      "Name": "Avatar_Himeko_SkillTree03",
      "TargetInfo": {
        "TargetType": "Caster"
      },
      "OnStart": [
        {
          "$type": "RPG.GameCore.AddModifier",
          "TargetType": {
            "$type": "RPG.GameCore.TargetAlias",
            "Alias": "Caster"
          },
          "ModifierName": "MAvatar_Himeko_SkillTree03"
        }
      ]
    },
    {
      "Modifiers": {
        "MAvatar_Himeko_00_Rank02_DamageUP": {
          "OnBeforeHitAll": [
            {
              "$type": "RPG.GameCore.PredicateTaskList",
              "Predicate": {
                "$type": "RPG.GameCore.ByCompareHPRatio",
                "TargetType": {
                  "$type": "RPG.GameCore.TargetAlias",
                  "Alias": "ParamEntity"
                },
                "CompareType": "LessEqual",
                "CompareValue": {
                  "IsDynamic": true,
                  "Expressions": [
                    {
                      "Type": "DynamicNumber",
                      "DynamicHash": 350792237
                    }
                  ]
                }
              },
              "SuccessTaskList": [
                {
                  "$type": "RPG.GameCore.ModifyDamageData",
                  "Attacker_AllDamageTypeAddedRatio": {
                    "IsDynamic": true,
                    "Expressions": [
                      {
                        "Type": "DynamicNumber",
                        "DynamicHash": 2128130574
                      }
                    ]
                  }
                }
              ]
            }
          ],
          "DynamicValues": {
            "Values": {
              "350792237": {},
              "2128130574": {}
            }
          }
        }
      },
      "Name": "Avatar_Himeko_Rank02",
      "TargetInfo": {
        "TargetType": "Caster"
      },
      "OnStart": [
        {
          "$type": "RPG.GameCore.AddModifier",
          "TargetType": {
            "$type": "RPG.GameCore.TargetAlias",
            "Alias": "Caster"
          },
          "ModifierName": "MAvatar_Himeko_00_Rank02_DamageUP",
          "DynamicValues": {
            "MDF_HPRatio": {
              "IsDynamic": true,
              "Expressions": [
                {
                  "Type": "DynamicNumber",
                  "DynamicHash": -830117969
                }
              ]
            },
            "MDF_PropertyValue": {
              "IsDynamic": true,
              "Expressions": [
                {
                  "Type": "DynamicNumber",
                  "DynamicHash": 610040915
                }
              ]
            }
          }
        }
      ]
    }
  ]
}