{
  "AbilityList": [
    {
      "Name": "Avatar_TingYun_Skill01_Phase01",
      "TargetInfo": {
        "TargetType": "SkillTargetEntityList"
      },
      "OnStart": [
        {
          "$type": "RPG.GameCore.TriggerAbility",
          "TargetType": {
            "$type": "RPG.GameCore.TargetAlias",
            "Alias": "Caster"
          },
          "AbilityName": "Avatar_Tingyun_Skill01_Camera",
          "IsSkillPerform": true
        },
        {
          "$type": "RPG.GameCore.TriggerAbility",
          "TargetType": {
            "$type": "RPG.GameCore.TargetAlias",
            "Alias": "Caster"
          },
          "AbilityName": "Avatar_TingYun_Skill01_Phase02",
          "IsSkillPerform": true
        },
        {
          "$type": "RPG.GameCore.LookAt",
          "PerformerType": {
            "$type": "RPG.GameCore.TargetAlias",
            "Alias": "Caster"
          },
          "TargetType": "AbilityTargetEntity"
        },
        {
          "$type": "RPG.GameCore.TriggerAnimStateWithMove",
          "TargetType": {
            "$type": "RPG.GameCore.TargetAlias",
            "Alias": "Caster"
          },
          "AnimStateName": "Skill01",
          "NormalizedTimeStart": {
            "IsDynamic": false,
            "FixedValue": {
              "Value": 0.010000000009313226
            }
          },
          "MovingRangeList": [
            {
              "TargetType": {
                "$type": "RPG.GameCore.TargetAlias",
                "Alias": "AbilityTargetEntity"
              },
              "OffsetTargetDistance": {
                "IsDynamic": false,
                "FixedValue": {
                  "Value": 2
                }
              },
              "NormalizedTimeStart": {
                "IsDynamic": false,
                "FixedValue": {
                  "Value": 0.06799999950453639
                }
              },
              "NormalizedTimeEnd": {
                "IsDynamic": false,
                "FixedValue": {
                  "Value": 0.14000000013038516
                }
              }
            },
            {
              "TargetType": {
                "$type": "RPG.GameCore.TargetAlias",
                "Alias": "TeamFormation"
              },
              "OffsetTargetDistance": {
                "IsDynamic": false,
                "FixedValue": {
                  "Value": 0
                }
              },
              "NormalizedTimeStart": {
                "IsDynamic": false,
                "FixedValue": {
                  "Value": 0.7600000007078052
                }
              },
              "NormalizedTimeEnd": {
                "IsDynamic": false,
                "FixedValue": {
                  "Value": 0.8800000008195639
                }
              }
            }
          ]
        },
        {
          "$type": "RPG.GameCore.WaitAnimState",
          "AnimStateName": "Skill01",
          "NormalizedTimeEnd": {
            "IsDynamic": false,
            "FixedValue": {
              "Value": 0.9200000008568168
            }
          }
        }
      ]
    },
    {
      "Modifiers": {
        "MAvatar_Tingyun_Skill01_SkillTree_B2": {
          "OnBeforeHit": [
            {
              "$type": "RPG.GameCore.PredicateTaskList",
              "Predicate": {
                "$type": "RPG.GameCore.BySkillPointActivated",
                "PointTriggerKey": {
                  "Hash": 1455742904
                }
              },
              "SuccessTaskList": [
                {
                  "$type": "RPG.GameCore.ModifyDamageData",
                  "Attacker_AllDamageTypeAddedRatio": {
                    "IsDynamic": true,
                    "Expressions": [
                      {
                        "Type": "DynamicNumber",
                        "DynamicHash": 1953698797
                      }
                    ]
                  }
                }
              ],
              "FailedTaskList": []
            }
          ],
          "DynamicValues": {
            "Values": {
              "-1610876898": {}
            }
          }
        }
      },
      "Name": "Avatar_TingYun_Skill01_Phase02",
      "TargetInfo": {
        "TargetType": "SkillTargetEntityList"
      },
      "OnStart": [
        {
          "$type": "RPG.GameCore.AddModifier",
          "TargetType": {
            "$type": "RPG.GameCore.TargetAlias",
            "Alias": "Caster"
          },
          "ModifierName": "MAvatar_Tingyun_Skill01_SkillTree_B2"
        },
        {
          "$type": "RPG.GameCore.WaitAnimState",
          "AnimStateName": "Skill01",
          "NormalizedTimeEnd": {
            "IsDynamic": false,
            "FixedValue": {
              "Value": 0.2679999996908009
            }
          }
        },
        {
          "$type": "RPG.GameCore.DamageByAttackProperty",
          "TargetType": {
            "$type": "RPG.GameCore.TargetAlias",
            "Alias": "AbilityTargetEntity"
          },
          "AttackProperty": {
            "DamageType": "Thunder",
            "DamagePercentage": {
              "IsDynamic": true,
              "Expressions": [
                {
                  "Type": "DynamicNumber",
                  "DynamicHash": -1126825319
                }
              ]
            },
            "StanceValue": {
              "IsDynamic": true,
              "Expressions": [
                {
                  "Type": "DynamicNumber",
                  "DynamicHash": 1659254037
                }
              ]
            },
            "HitSplitRatio": {
              "IsDynamic": false,
              "FixedValue": {
                "Value": 0.3000000002793968
              }
            },
            "SPHitRatio": {
              "IsDynamic": false,
              "FixedValue": {
                "Value": 1
              }
            },
            "HitAnimation": "Hit",
            "HitEffect": "Effects/Eff_Prefab/Eff_Avatar/Eff_Tingyun/Eff_Avatar_Tingyun_00_Skill01_Hit_02.prefab",
            "HitEffectHeight": 1.2
          },
          "CanTriggerLastKill": true
        },
        {
          "$type": "RPG.GameCore.WaitAnimState",
          "AnimStateName": "Skill01",
          "NormalizedTimeEnd": {
            "IsDynamic": false,
            "FixedValue": {
              "Value": 0.3479999997653067
            }
          }
        },
        {
          "$type": "RPG.GameCore.DamageByAttackProperty",
          "TargetType": {
            "$type": "RPG.GameCore.TargetAlias",
            "Alias": "AbilityTargetEntity"
          },
          "AttackProperty": {
            "DamageType": "Thunder",
            "DamagePercentage": {
              "IsDynamic": true,
              "Expressions": [
                {
                  "Type": "DynamicNumber",
                  "DynamicHash": -1126825319
                }
              ]
            },
            "StanceValue": {
              "IsDynamic": true,
              "Expressions": [
                {
                  "Type": "DynamicNumber",
                  "DynamicHash": 1659254037
                }
              ]
            },
            "HitSplitRatio": {
              "IsDynamic": false,
              "FixedValue": {
                "Value": 0.7000000006519258
              }
            },
            "SPHitRatio": {
              "IsDynamic": false,
              "FixedValue": {
                "Value": 1
              }
            },
            "HitAnimation": "Hit",
            "HitEffect": "Effects/Eff_Prefab/Eff_Avatar/Eff_Tingyun/Eff_Avatar_Tingyun_00_Skill01_Hit_03.prefab",
            "HitEffectHeight": 1.2
          },
          "CanTriggerLastKill": true
        },
        {
          "$type": "RPG.GameCore.DamagePerformFinish"
        },
        {
          "$type": "RPG.GameCore.RemoveModifier",
          "TargetType": {
            "$type": "RPG.GameCore.TargetAlias",
            "Alias": "Caster"
          },
          "ModifierName": "MAvatar_Tingyun_Skill01_SkillTree_B2"
        },
        {
          "$type": "RPG.GameCore.SkillPerformFinish"
        }
      ]
    },
    {
      "Name": "Avatar_TingYun_Skill02_Phase01",
      "TargetInfo": {
        "TargetType": "SkillTargetEntityList"
      },
      "OnStart": [
        {
          "$type": "RPG.GameCore.SyncCharLightAndCameraDir"
        },
        {
          "$type": "RPG.GameCore.TriggerAbility",
          "TargetType": {
            "$type": "RPG.GameCore.TargetAlias",
            "Alias": "Caster"
          },
          "AbilityName": "Avatar_TingYun_Skill02_Phase02",
          "IsSkillPerform": true
        },
        {
          "$type": "RPG.GameCore.PredicateTaskList",
          "Predicate": {
            "$type": "RPG.GameCore.ByIsTurnActionEntity",
            "TargetType": {
              "$type": "RPG.GameCore.TargetAlias",
              "Alias": "AbilityTargetEntity"
            }
          },
          "SuccessTaskList": [
            {
              "$type": "RPG.GameCore.TriggerAbility",
              "TargetType": {
                "$type": "RPG.GameCore.TargetAlias",
                "Alias": "Caster"
              },
              "AbilityName": "Avatar_Tingyun_Skill02_Camera_Self",
              "IsSkillPerform": true
            }
          ],
          "FailedTaskList": [
            {
              "$type": "RPG.GameCore.TriggerAbility",
              "TargetType": {
                "$type": "RPG.GameCore.TargetAlias",
                "Alias": "Caster"
              },
              "AbilityName": "Avatar_Tingyun_Skill02_Camera_Others",
              "IsSkillPerform": true
            },
            {
              "$type": "RPG.GameCore.SetCameraRootFollow",
              "TargetType": {
                "$type": "RPG.GameCore.TargetAlias",
                "Alias": "AbilityTargetEntity"
              },
              "PointName": "SelectRoot"
            }
          ]
        },
        {
          "$type": "RPG.GameCore.TriggerAnimState",
          "TargetType": {
            "$type": "RPG.GameCore.TargetAlias",
            "Alias": "Caster"
          },
          "AnimStateName": "Skill02",
          "NormalizedTimeEnd": {
            "IsDynamic": false,
            "FixedValue": {
              "Value": 1
            }
          }
        },
        {
          "$type": "RPG.GameCore.SyncCharLightAndCameraDir",
          "IsSync": false
        }
      ]
    },
    {
      "Name": "Avatar_TingYun_Skill02_Phase02",
      "TargetInfo": {
        "TargetType": "SkillTargetEntityList"
      },
      "OnStart": [
        {
          "$type": "RPG.GameCore.WaitAnimState",
          "AnimStateName": "Skill02",
          "NormalizedTimeEnd": {
            "IsDynamic": false,
            "FixedValue": {
              "Value": 0.6100000005681068
            }
          }
        },
        {
          "$type": "RPG.GameCore.TriggerEffect",
          "TargetType": {
            "$type": "RPG.GameCore.TargetAlias",
            "Alias": "AbilityTargetEntity"
          },
          "EffectPath": "Effects/Eff_Prefab/Eff_Avatar/Eff_Tingyun/Eff_Avatar_Tingyun_00_Skill02_Buff.prefab"
        },
        {
          "$type": "RPG.GameCore.PredicateTaskList",
          "Predicate": {
            "$type": "RPG.GameCore.BySkillPointActivated",
            "PointTriggerKey": {
              "Hash": 1455742903
            }
          },
          "SuccessTaskList": [
            {
              "$type": "RPG.GameCore.AddModifier",
              "TargetType": {
                "$type": "RPG.GameCore.TargetAlias",
                "Alias": "Caster"
              },
              "ModifierName": "MAvatar_Tingyun_00_SkillTree_B1_SpeedUp",
              "LifeTime": {
                "IsDynamic": false,
                "FixedValue": {
                  "Value": 1
                }
              },
              "DynamicValues": {
                "Tingyun_SpeedUP_Ratio": {
                  "IsDynamic": true,
                  "Expressions": [
                    {
                      "Type": "DynamicNumber",
                      "DynamicHash": 376156435
                    }
                  ]
                }
              }
            }
          ],
          "FailedTaskList": []
        },
        {
          "$type": "RPG.GameCore.SetDynamicValueByProperty",
          "DynamicKey": "MDF_Target_CurrentAttack",
          "ReadTargetType": {
            "$type": "RPG.GameCore.TargetAlias",
            "Alias": "AbilityTargetEntity"
          },
          "Value": "BaseAttack"
        },
        {
          "$type": "RPG.GameCore.SetDynamicValueByProperty",
          "DynamicKey": "MDF_Tingyun_Attack",
          "ReadTargetType": {
            "$type": "RPG.GameCore.TargetAlias",
            "Alias": "Caster"
          },
          "Value": "Attack"
        },
        {
          "$type": "RPG.GameCore.SetDynamicValue",
          "TargetType": {
            "$type": "RPG.GameCore.TargetAlias",
            "Alias": "Caster"
          },
          "DynamicKey": "MDF_Target_CurrentAttack",
          "Value": {
            "IsDynamic": true,
            "Expressions": [
              {
                "Type": "DynamicNumber",
                "DynamicHash": 1105114375
              },
              {
                "Type": "DynamicNumber",
                "DynamicHash": -1829192421
              },
              {
                "Type": "Mul"
              }
            ]
          }
        },
        {
          "$type": "RPG.GameCore.SetDynamicValue",
          "TargetType": {
            "$type": "RPG.GameCore.TargetAlias",
            "Alias": "Caster"
          },
          "DynamicKey": "MDF_Tingyun_Attack",
          "Value": {
            "IsDynamic": true,
            "Expressions": [
              {
                "Type": "DynamicNumber",
                "DynamicHash": -19417079
              },
              {
                "Type": "DynamicNumber",
                "DynamicHash": 645810140
              },
              {
                "Type": "Mul"
              }
            ]
          }
        },
        {
          "$type": "RPG.GameCore.PredicateTaskList",
          "Predicate": {
            "$type": "RPG.GameCore.ByCompareDynamicValue",
            "TargetType": {
              "$type": "RPG.GameCore.TargetAlias",
              "Alias": "Caster"
            },
            "DynamicKey": "MDF_Target_CurrentAttack",
            "CompareType": "Greater",
            "CompareValue": {
              "IsDynamic": true,
              "Expressions": [
                {
                  "Type": "DynamicNumber",
                  "DynamicHash": -19417079
                }
              ]
            }
          },
          "SuccessTaskList": [
            {
              "$type": "RPG.GameCore.SetDynamicValue",
              "TargetType": {
                "$type": "RPG.GameCore.TargetAlias",
                "Alias": "Caster"
              },
              "DynamicKey": "MDF_Skill02_Attack",
              "Value": {
                "IsDynamic": true,
                "Expressions": [
                  {
                    "Type": "DynamicNumber",
                    "DynamicHash": -19417079
                  }
                ]
              }
            }
          ],
          "FailedTaskList": [
            {
              "$type": "RPG.GameCore.SetDynamicValue",
              "TargetType": {
                "$type": "RPG.GameCore.TargetAlias",
                "Alias": "Caster"
              },
              "DynamicKey": "MDF_Skill02_Attack",
              "Value": {
                "IsDynamic": true,
                "Expressions": [
                  {
                    "Type": "DynamicNumber",
                    "DynamicHash": 1105114375
                  }
                ]
              }
            }
          ]
        },
        {
          "$type": "RPG.GameCore.RemoveModifier",
          "TargetType": {
            "$type": "RPG.GameCore.TargetConcat",
            "Targets": [
              {
                "$type": "RPG.GameCore.TargetAlias",
                "Alias": "AllTeamMember"
              },
              {
                "$type": "RPG.GameCore.TargetAlias",
                "Alias": "AllUnselectable"
              }
            ]
          },
          "ModifierName": "MWAvatar_TingYun_00_BPSkill_AttackDelta"
        },
        {
          "$type": "RPG.GameCore.SetDynamicValue",
          "TargetType": {
            "$type": "RPG.GameCore.TargetAlias",
            "Alias": "Caster"
          },
          "DynamicKey": "TingYun_EnergyBarLayer",
          "Value": {
            "IsDynamic": false,
            "FixedValue": {
              "Value": 3
            }
          }
        },
        {
          "$type": "RPG.GameCore.TriggerEnergyBarEffect",
          "TargetType": {
            "$type": "RPG.GameCore.TargetAlias",
            "Alias": "Caster"
          }
        },
        {
          "$type": "RPG.GameCore.PredicateTaskList",
          "Predicate": {
            "$type": "RPG.GameCore.ByRankActivated",
            "TriggerKey": {
              "Hash": 2089636447
            }
          },
          "SuccessTaskList": [
            {
              "$type": "RPG.GameCore.AddModifier",
              "TargetType": {
                "$type": "RPG.GameCore.TargetAlias",
                "Alias": "AbilityTargetEntity"
              },
              "ModifierName": "MWAvatar_TingYun_00_BPSkill_AttackDelta",
              "LifeTime": {
                "IsDynamic": true,
                "Expressions": [
                  {
                    "Type": "DynamicNumber",
                    "DynamicHash": -1019407308
                  }
                ]
              },
              "DynamicValues": {
                "MDF_AttackDelta": {
                  "IsDynamic": true,
                  "Expressions": [
                    {
                      "Type": "DynamicNumber",
                      "DynamicHash": -1581832284
                    }
                  ]
                },
                "MDF_Rank01_SpeedUp": {
                  "IsDynamic": true,
                  "Expressions": [
                    {
                      "Type": "DynamicNumber",
                      "DynamicHash": -1958874189
                    }
                  ]
                },
                "MDF_Rank01_Count": {
                  "IsDynamic": false,
                  "FixedValue": {
                    "Value": 1
                  }
                }
              }
            }
          ],
          "FailedTaskList": [
            {
              "$type": "RPG.GameCore.AddModifier",
              "TargetType": {
                "$type": "RPG.GameCore.TargetAlias",
                "Alias": "AbilityTargetEntity"
              },
              "ModifierName": "MWAvatar_TingYun_00_BPSkill_AttackDelta",
              "LifeTime": {
                "IsDynamic": true,
                "Expressions": [
                  {
                    "Type": "DynamicNumber",
                    "DynamicHash": -1019407308
                  }
                ]
              },
              "DynamicValues": {
                "MDF_AttackDelta": {
                  "IsDynamic": true,
                  "Expressions": [
                    {
                      "Type": "DynamicNumber",
                      "DynamicHash": -1581832284
                    }
                  ]
                },
                "MDF_Rank01_SpeedUp": {
                  "IsDynamic": true,
                  "Expressions": [
                    {
                      "Type": "DynamicNumber",
                      "DynamicHash": -1958874189
                    }
                  ]
                },
                "MDF_Rank01_Count": {
                  "IsDynamic": false,
                  "FixedValue": {
                    "Value": 0
                  }
                }
              }
            }
          ]
        },
        {
          "$type": "RPG.GameCore.RemoveModifier",
          "TargetType": {
            "$type": "RPG.GameCore.TargetConcat",
            "Targets": [
              {
                "$type": "RPG.GameCore.TargetAlias",
                "Alias": "AllTeamMember"
              },
              {
                "$type": "RPG.GameCore.TargetAlias",
                "Alias": "AllUnselectable"
              }
            ]
          },
          "ModifierName": "MAvatar_TingYun_00_Passive_LeiLing"
        },
        {
          "$type": "RPG.GameCore.RemoveModifier",
          "TargetType": {
            "$type": "RPG.GameCore.TargetConcat",
            "Targets": [
              {
                "$type": "RPG.GameCore.TargetAlias",
                "Alias": "AllTeamMember"
              },
              {
                "$type": "RPG.GameCore.TargetAlias",
                "Alias": "AllUnselectable"
              }
            ]
          },
          "ModifierName": "MAvatar_TingYun_00_Passive_LeiLing_Rank01"
        },
        {
          "$type": "RPG.GameCore.RemoveModifier",
          "TargetType": {
            "$type": "RPG.GameCore.TargetConcat",
            "Targets": [
              {
                "$type": "RPG.GameCore.TargetAlias",
                "Alias": "AllTeamMember"
              },
              {
                "$type": "RPG.GameCore.TargetAlias",
                "Alias": "AllUnselectable"
              }
            ]
          },
          "ModifierName": "MAvatar_TingYun_00_Passive_LeiLing_Rank02"
        },
        {
          "$type": "RPG.GameCore.RemoveModifier",
          "TargetType": {
            "$type": "RPG.GameCore.TargetConcat",
            "Targets": [
              {
                "$type": "RPG.GameCore.TargetAlias",
                "Alias": "AllTeamMember"
              },
              {
                "$type": "RPG.GameCore.TargetAlias",
                "Alias": "AllUnselectable"
              }
            ]
          },
          "ModifierName": "MAvatar_TingYun_00_Passive_LeiLing_Rank04"
        },
        {
          "$type": "RPG.GameCore.PredicateTaskList",
          "Predicate": {
            "$type": "RPG.GameCore.ByRankActivated",
            "TriggerKey": {
              "Hash": 1686351920
            }
          },
          "SuccessTaskList": [
            {
              "$type": "RPG.GameCore.AddModifier",
              "TargetType": {
                "$type": "RPG.GameCore.TargetAlias",
                "Alias": "AbilityTargetEntity"
              },
              "ModifierName": "MAvatar_TingYun_00_Passive_LeiLing_Rank04",
              "LifeTime": {
                "IsDynamic": true,
                "Expressions": [
                  {
                    "Type": "DynamicNumber",
                    "DynamicHash": -1019407308
                  }
                ]
              },
              "DynamicValues": {
                "MDF_Passive_DamagePercentage": {
                  "IsDynamic": true,
                  "Expressions": [
                    {
                      "Type": "DynamicNumber",
                      "DynamicHash": -1847083384
                    }
                  ]
                },
                "MDF_Passive_DamagePercentageSelf": {
                  "IsDynamic": true,
                  "Expressions": [
                    {
                      "Type": "DynamicNumber",
                      "DynamicHash": 1246667513
                    }
                  ]
                },
                "MDF_Rank01_SpeedUp": {
                  "IsDynamic": true,
                  "Expressions": [
                    {
                      "Type": "DynamicNumber",
                      "DynamicHash": -1958874189
                    }
                  ]
                },
                "MDF_Rank02_SPAdd": {
                  "IsDynamic": true,
                  "Expressions": [
                    {
                      "Type": "DynamicNumber",
                      "DynamicHash": -1919300542
                    }
                  ]
                },
                "MDF_Rank04_DamagePercentage": {
                  "IsDynamic": true,
                  "Expressions": [
                    {
                      "Type": "DynamicNumber",
                      "DynamicHash": -815613313
                    }
                  ]
                },
                "MDF_AttackDelta": {
                  "IsDynamic": true,
                  "Expressions": [
                    {
                      "Type": "DynamicNumber",
                      "DynamicHash": -1581832284
                    }
                  ]
                }
              },
              "InheritCaster": "TargetSelf"
            }
          ],
          "FailedTaskList": [
            {
              "$type": "RPG.GameCore.PredicateTaskList",
              "Predicate": {
                "$type": "RPG.GameCore.ByRankActivated",
                "TriggerKey": {
                  "Hash": 523552506
                }
              },
              "SuccessTaskList": [
                {
                  "$type": "RPG.GameCore.AddModifier",
                  "TargetType": {
                    "$type": "RPG.GameCore.TargetAlias",
                    "Alias": "AbilityTargetEntity"
                  },
                  "ModifierName": "MAvatar_TingYun_00_Passive_LeiLing_Rank02",
                  "LifeTime": {
                    "IsDynamic": true,
                    "Expressions": [
                      {
                        "Type": "DynamicNumber",
                        "DynamicHash": -1019407308
                      }
                    ]
                  },
                  "DynamicValues": {
                    "MDF_Passive_DamagePercentage": {
                      "IsDynamic": true,
                      "Expressions": [
                        {
                          "Type": "DynamicNumber",
                          "DynamicHash": -1847083384
                        }
                      ]
                    },
                    "MDF_Passive_DamagePercentageSelf": {
                      "IsDynamic": true,
                      "Expressions": [
                        {
                          "Type": "DynamicNumber",
                          "DynamicHash": 1246667513
                        }
                      ]
                    },
                    "MDF_Rank01_SpeedUp": {
                      "IsDynamic": true,
                      "Expressions": [
                        {
                          "Type": "DynamicNumber",
                          "DynamicHash": -1958874189
                        }
                      ]
                    },
                    "MDF_Rank02_SPAdd": {
                      "IsDynamic": true,
                      "Expressions": [
                        {
                          "Type": "DynamicNumber",
                          "DynamicHash": -1919300542
                        }
                      ]
                    },
                    "MDF_AttackDelta": {
                      "IsDynamic": true,
                      "Expressions": [
                        {
                          "Type": "DynamicNumber",
                          "DynamicHash": -1581832284
                        }
                      ]
                    }
                  },
                  "InheritCaster": "TargetSelf"
                }
              ],
              "FailedTaskList": [
                {
                  "$type": "RPG.GameCore.PredicateTaskList",
                  "Predicate": {
                    "$type": "RPG.GameCore.ByRankActivated",
                    "TriggerKey": {
                      "Hash": 2089636447
                    }
                  },
                  "SuccessTaskList": [
                    {
                      "$type": "RPG.GameCore.AddModifier",
                      "TargetType": {
                        "$type": "RPG.GameCore.TargetAlias",
                        "Alias": "AbilityTargetEntity"
                      },
                      "ModifierName": "MAvatar_TingYun_00_Passive_LeiLing_Rank01",
                      "LifeTime": {
                        "IsDynamic": true,
                        "Expressions": [
                          {
                            "Type": "DynamicNumber",
                            "DynamicHash": -1019407308
                          }
                        ]
                      },
                      "DynamicValues": {
                        "MDF_Passive_DamagePercentage": {
                          "IsDynamic": true,
                          "Expressions": [
                            {
                              "Type": "DynamicNumber",
                              "DynamicHash": -1847083384
                            }
                          ]
                        },
                        "MDF_Passive_DamagePercentageSelf": {
                          "IsDynamic": true,
                          "Expressions": [
                            {
                              "Type": "DynamicNumber",
                              "DynamicHash": 1246667513
                            }
                          ]
                        },
                        "MDF_Rank01_SpeedUp": {
                          "IsDynamic": true,
                          "Expressions": [
                            {
                              "Type": "DynamicNumber",
                              "DynamicHash": -1958874189
                            }
                          ]
                        },
                        "MDF_AttackDelta": {
                          "IsDynamic": true,
                          "Expressions": [
                            {
                              "Type": "DynamicNumber",
                              "DynamicHash": -1581832284
                            }
                          ]
                        }
                      },
                      "InheritCaster": "TargetSelf"
                    }
                  ],
                  "FailedTaskList": [
                    {
                      "$type": "RPG.GameCore.AddModifier",
                      "TargetType": {
                        "$type": "RPG.GameCore.TargetAlias",
                        "Alias": "AbilityTargetEntity"
                      },
                      "ModifierName": "MAvatar_TingYun_00_Passive_LeiLing",
                      "LifeTime": {
                        "IsDynamic": true,
                        "Expressions": [
                          {
                            "Type": "DynamicNumber",
                            "DynamicHash": -1019407308
                          }
                        ]
                      },
                      "DynamicValues": {
                        "MDF_Passive_DamagePercentage": {
                          "IsDynamic": true,
                          "Expressions": [
                            {
                              "Type": "DynamicNumber",
                              "DynamicHash": -1847083384
                            }
                          ]
                        },
                        "MDF_Passive_DamagePercentageSelf": {
                          "IsDynamic": true,
                          "Expressions": [
                            {
                              "Type": "DynamicNumber",
                              "DynamicHash": 1246667513
                            }
                          ]
                        },
                        "MDF_AttackDelta": {
                          "IsDynamic": true,
                          "Expressions": [
                            {
                              "Type": "DynamicNumber",
                              "DynamicHash": -1581832284
                            }
                          ]
                        }
                      },
                      "InheritCaster": "TargetSelf"
                    }
                  ]
                }
              ]
            }
          ]
        },
        {
          "$type": "RPG.GameCore.SetEnergyBarState",
          "TargetType": {
            "$type": "RPG.GameCore.TargetAlias",
            "Alias": "Caster"
          },
          "Active": "True",
          "BarType": 3,
          "CurrentState": "Active",
          "IconPath": "SpriteOutput/BuffIcon/Inlevel/Icon1202Passive.png",
          "MaxCount": {
            "IsDynamic": false,
            "FixedValue": {
              "Value": 3
            }
          },
          "CurrentCount": {
            "IsDynamic": true,
            "Expressions": [
              {
                "Type": "DynamicNumber",
                "DynamicHash": -616190875
              }
            ]
          }
        },
        {
          "$type": "RPG.GameCore.ModifySPNew",
          "TargetType": {
            "$type": "RPG.GameCore.TargetAlias",
            "Alias": "Caster"
          },
          "AddRatio": {
            "IsDynamic": false,
            "FixedValue": {
              "Value": 1
            }
          }
        },
        {
          "$type": "RPG.GameCore.SkillPerformFinish"
        }
      ]
    },
    {
      "Name": "Avatar_TingYun_Skill03_EnterReady",
      "TargetInfo": {
        "TargetType": "Caster"
      },
      "OnStart": [
        {
          "$type": "RPG.GameCore.SyncCharLightAndCameraDir"
        },
        {
          "$type": "RPG.GameCore.WaitSecond",
          "WaitTime": 0.5
        },
        {
          "$type": "RPG.GameCore.TriggerAnimState",
          "TargetType": {
            "$type": "RPG.GameCore.TargetAlias",
            "Alias": "AllTeammate"
          },
          "AnimLogicState": "Idle",
          "AnimStateName": "StandBy"
        },
        {
          "$type": "RPG.GameCore.IncludeGlobalTaskListTemplate",
          "Name": "PositionConfigByFormationIndex"
        },
        {
          "$type": "RPG.GameCore.VCameraConfigChange",
          "CameraConfig": {
            "NormalConfig": {
              "CameraState": "UseSkillPerform",
              "AnchorTargetType": {
                "$type": "RPG.GameCore.TargetAlias",
                "Alias": "Caster"
              },
              "IsLocalOffset": true,
              "AnchorOffset": {
                "X": 0,
                "Y": 0.5,
                "Z": 0.2
              },
              "AimTargetType": {
                "$type": "RPG.GameCore.TargetAlias",
                "Alias": "Caster"
              },
              "AimOffset": {
                "X": 0,
                "Y": 1.5,
                "Z": 0
              },
              "FollowPoleAngle": 20,
              "FollowRadius": 3,
              "FOV": 60
            },
            "BlendConfig": {
              "BlendType": "Cut"
            }
          }
        },
        {
          "$type": "RPG.GameCore.WaitSecond",
          "WaitTime": 0.6
        },
        {
          "$type": "RPG.GameCore.IncludeGlobalTaskListTemplate",
          "Name": "CameraConfigByFormationIndex"
        }
      ]
    },
    {
      "Name": "Avatar_TingYun_Skill03_Phase01",
      "TargetInfo": {
        "TargetType": "SkillTargetEntityList"
      },
      "OnStart": [
        {
          "$type": "RPG.GameCore.SyncCharLightAndCameraDir",
          "IsSync": false
        },
        {
          "$type": "RPG.GameCore.GlobalMainIntensityEffect",
          "TargetIntensity": 0.05,
          "FadeDuration": 0.55
        },
        {
          "$type": "RPG.GameCore.AlignTargetToTeamCenter",
          "TargetType": {
            "$type": "RPG.GameCore.TargetAlias",
            "Alias": "Caster"
          }
        },
        {
          "$type": "RPG.GameCore.LookAt",
          "PerformerType": {
            "$type": "RPG.GameCore.TargetAlias",
            "Alias": "Caster"
          },
          "TargetType": "AbilityTargetEntity"
        },
        {
          "$type": "RPG.GameCore.TriggerAbility",
          "TargetType": {
            "$type": "RPG.GameCore.TargetAlias",
            "Alias": "Caster"
          },
          "AbilityName": "Avatar_Tingyun_00_Skill03_Camera",
          "IsSkillPerform": true
        },
        {
          "$type": "RPG.GameCore.TriggerAbility",
          "TargetType": {
            "$type": "RPG.GameCore.TargetAlias",
            "Alias": "Caster"
          },
          "AbilityName": "Avatar_TingYun_Skill03_Phase02",
          "IsSkillPerform": true
        },
        {
          "$type": "RPG.GameCore.ShowBattleUI"
        },
        {
          "$type": "RPG.GameCore.TriggerAnimState",
          "TargetType": {
            "$type": "RPG.GameCore.TargetAlias",
            "Alias": "Caster"
          },
          "AnimStateName": "Skill03"
        },
        {
          "$type": "RPG.GameCore.WaitAnimState",
          "AnimStateName": "Skill03",
          "NormalizedTimeEnd": {
            "IsDynamic": false,
            "FixedValue": {
              "Value": 0.6400000005960464
            }
          }
        },
        {
          "$type": "RPG.GameCore.TriggerUINotify",
          "NotifyTypeName": "BattleTryShowAvatarPanel"
        },
        {
          "$type": "RPG.GameCore.WaitAnimState",
          "AnimStateName": "Skill03",
          "NormalizedTimeEnd": {
            "IsDynamic": false,
            "FixedValue": {
              "Value": 0.9200000008568168
            }
          }
        },
        {
          "$type": "RPG.GameCore.GlobalMainIntensityEffect",
          "IsRevert": true,
          "FadeDuration": 1
        },
        {
          "$type": "RPG.GameCore.WaitAnimState",
          "AnimStateName": "Skill03",
          "NormalizedTimeEnd": {
            "IsDynamic": false,
            "FixedValue": {
              "Value": 1
            }
          }
        },
        {
          "$type": "RPG.GameCore.ShowBattleUI",
          "IsShow": true
        }
      ]
    },
    {
      "Modifiers": {
        "MAvatar_TingYun_00_Skill03DamageUp": {
          "OnStack": [
            {
              "$type": "RPG.GameCore.StackProperty",
              "TargetType": {
                "$type": "RPG.GameCore.TargetAlias",
                "Alias": "ModifierOwnerEntity"
              },
              "Property": "AllDamageTypeAddedRatio",
              "PropertyValue": {
                "IsDynamic": true,
                "Expressions": [
                  {
                    "Type": "DynamicNumber",
                    "DynamicHash": 625640552
                  }
                ]
              }
            }
          ],
          "Stacking": "ReplaceByCaster",
          "DynamicValues": {
            "Values": {
              "625640552": {}
            }
          }
        }
      },
      "Name": "Avatar_TingYun_Skill03_Phase02",
      "TargetInfo": {
        "TargetType": "SkillTargetEntityList"
      },
      "OnStart": [
        {
          "$type": "RPG.GameCore.WaitAnimState",
          "AnimStateName": "Skill03",
          "NormalizedTimeEnd": {
            "IsDynamic": false,
            "FixedValue": {
              "Value": 0.6450000002514571
            }
          }
        },
        {
          "$type": "RPG.GameCore.SetTeamFormation",
          "Team": "TeamLight",
          "CustomFormationName": "Tingyun_00_Skill03_Effect",
          "CustomCenterTargetType": {
            "$type": "RPG.GameCore.TargetAlias",
            "Alias": "Caster"
          }
        },
        {
          "$type": "RPG.GameCore.WaitAnimState",
          "AnimStateName": "Skill03",
          "NormalizedTimeEnd": {
            "IsDynamic": false,
            "FixedValue": {
              "Value": 0.6400000005960464
            }
          }
        },
        {
          "$type": "RPG.GameCore.TriggerEffect",
          "TargetType": {
            "$type": "RPG.GameCore.TargetAlias",
            "Alias": "AbilityTargetEntity"
          },
          "EffectPath": "Effects/Eff_Prefab/Eff_Avatar/Eff_Tingyun/Eff_Avatar_Tingyun_00_Skill03_Buff.prefab"
        },
        {
          "$type": "RPG.GameCore.WaitAnimState",
          "AnimStateName": "Skill03",
          "NormalizedTimeEnd": {
            "IsDynamic": false,
            "FixedValue": {
              "Value": 0.7400000006891787
            }
          }
        },
        {
          "$type": "RPG.GameCore.ShowEntityFloatMessage",
          "TargetType": {
            "$type": "RPG.GameCore.TargetAlias",
            "Alias": "AbilityTargetEntity"
          },
          "ContentID": {
            "Hash": -199816092
          }
        },
        {
          "$type": "RPG.GameCore.TriggerEffect",
          "TargetType": {
            "$type": "RPG.GameCore.TargetAlias",
            "Alias": "AbilityTargetEntity"
          },
          "EffectPath": "Effects/Eff_Prefab/Eff_Common/Eff_Common_MAZ_RecoverSP.prefab"
        },
        {
          "$type": "RPG.GameCore.PredicateTaskList",
          "Predicate": {
            "$type": "RPG.GameCore.ByRankActivated",
            "TriggerKey": {
              "Hash": -1445815962
            }
          },
          "SuccessTaskList": [
            {
              "$type": "RPG.GameCore.ModifySPNew",
              "TargetType": {
                "$type": "RPG.GameCore.TargetAlias",
                "Alias": "AbilityTargetEntity"
              },
              "FixedAddValue": {
                "IsDynamic": true,
                "Expressions": [
                  {
                    "Type": "DynamicNumber",
                    "DynamicHash": -1349665456
                  },
                  {
                    "Type": "DynamicNumber",
                    "DynamicHash": -1752447704
                  },
                  {
                    "Type": "Add"
                  }
                ]
              }
            }
          ],
          "FailedTaskList": [
            {
              "$type": "RPG.GameCore.ModifySPNew",
              "TargetType": {
                "$type": "RPG.GameCore.TargetAlias",
                "Alias": "AbilityTargetEntity"
              },
              "FixedAddValue": {
                "IsDynamic": true,
                "Expressions": [
                  {
                    "Type": "DynamicNumber",
                    "DynamicHash": -1349665456
                  }
                ]
              }
            }
          ]
        },
        {
          "$type": "RPG.GameCore.WaitAnimState",
          "AnimStateName": "Skill03",
          "NormalizedTimeEnd": {
            "IsDynamic": false,
            "FixedValue": {
              "Value": 0.8000000007450581
            }
          }
        },
        {
          "$type": "RPG.GameCore.AddModifier",
          "TargetType": {
            "$type": "RPG.GameCore.TargetAlias",
            "Alias": "AbilityTargetEntity"
          },
          "ModifierName": "MAvatar_TingYun_00_Skill03DamageUp",
          "LifeStepImmediately": true,
          "LifeTime": {
            "IsDynamic": true,
            "Expressions": [
              {
                "Type": "DynamicNumber",
                "DynamicHash": 242053466
              }
            ]
          },
          "DynamicValues": {
            "MDF_DamageAddedRatio": {
              "IsDynamic": true,
              "Expressions": [
                {
                  "Type": "DynamicNumber",
                  "DynamicHash": 1621744260
                }
              ]
            }
          }
        },
        {
          "$type": "RPG.GameCore.ModifySPNew",
          "TargetType": {
            "$type": "RPG.GameCore.TargetAlias",
            "Alias": "Caster"
          },
          "AddRatio": {
            "IsDynamic": false,
            "FixedValue": {
              "Value": 1
            }
          }
        },
        {
          "$type": "RPG.GameCore.WaitAnimState",
          "TargetType": {
            "$type": "RPG.GameCore.TargetAlias",
            "Alias": "Caster"
          },
          "AnimStateName": "Skill03",
          "NormalizedTimeEnd": {
            "IsDynamic": false,
            "FixedValue": {
              "Value": 0.9900000009220093
            }
          }
        },
        {
          "$type": "RPG.GameCore.TryStartConnectUltraSkillFrameCapture"
        },
        {
          "$type": "RPG.GameCore.WaitTimelineFinish",
          "TimelineName": "Character_Tingyun_00_Skill03_TimeLine"
        },
        {
          "$type": "RPG.GameCore.WaitAnimState",
          "AnimStateName": "Skill03",
          "NormalizedTimeEnd": {
            "IsDynamic": false,
            "FixedValue": {
              "Value": 0.9980000003706664
            }
          }
        },
        {
          "$type": "RPG.GameCore.SkillPerformFinish"
        }
      ],
      "DynamicValues": {
        "Values": {}
      }
    },
    {
      "Name": "Avatar_TingYun_PassiveSkill01",
      "TargetInfo": {
        "TargetType": "Caster"
      },
      "OnStart": [
        {
          "$type": "RPG.GameCore.AddModifier",
          "TargetType": {
            "$type": "RPG.GameCore.TargetAlias",
            "Alias": "Caster"
          },
          "ModifierName": "MAvatar_TingYun_ByIsTingYun"
        },
        {
          "$type": "RPG.GameCore.SetEnergyBarState",
          "TargetType": {
            "$type": "RPG.GameCore.TargetAlias",
            "Alias": "Caster"
          },
          "Active": "True",
          "BarType": 3,
          "CurrentState": "Normal",
          "IconPath": "SpriteOutput/BuffIcon/Inlevel/Icon1202Passive.png",
          "MaxCount": {
            "IsDynamic": false,
            "FixedValue": {
              "Value": 3
            }
          },
          "CurrentCount": {
            "IsDynamic": false,
            "FixedValue": {
              "Value": 0
            }
          }
        }
      ]
    },
    {
      "Modifiers": {
        "MAvatar_Tingyun_Tree03": {
          "OnPhase1": [
            {
              "$type": "RPG.GameCore.ModifySPNew",
              "TargetType": {
                "$type": "RPG.GameCore.TargetAlias",
                "Alias": "Caster"
              },
              "AddValue": {
                "IsDynamic": true,
                "Expressions": [
                  {
                    "Type": "DynamicNumber",
                    "DynamicHash": -404659623
                  }
                ]
              }
            }
          ]
        }
      },
      "Name": "Avatar_Tingyun_SkillTree03",
      "TargetInfo": {
        "TargetType": "Caster"
      },
      "OnStart": [
        {
          "$type": "RPG.GameCore.AddModifier",
          "TargetType": {
            "$type": "RPG.GameCore.TargetAlias",
            "Alias": "Caster"
          },
          "ModifierName": "MAvatar_Tingyun_Tree03"
        }
      ]
    }
  ],
  "GlobalModifiers": {
    "MWAvatar_TingYun_00_BPSkill_AttackDelta": {
      "OnDestroy": [
        {
          "$type": "RPG.GameCore.RemoveModifier",
          "TargetType": {
            "$type": "RPG.GameCore.TargetAlias",
            "Alias": "ModifierOwnerEntity"
          },
          "ModifierName": "MAvatar_TingYun_00_Passive_LeiLing"
        },
        {
          "$type": "RPG.GameCore.RemoveModifier",
          "TargetType": {
            "$type": "RPG.GameCore.TargetAlias",
            "Alias": "ModifierOwnerEntity"
          },
          "ModifierName": "MAvatar_TingYun_00_Passive_LeiLing_Rank01"
        },
        {
          "$type": "RPG.GameCore.RemoveModifier",
          "TargetType": {
            "$type": "RPG.GameCore.TargetAlias",
            "Alias": "ModifierOwnerEntity"
          },
          "ModifierName": "MAvatar_TingYun_00_Passive_LeiLing_Rank02"
        },
        {
          "$type": "RPG.GameCore.RemoveModifier",
          "TargetType": {
            "$type": "RPG.GameCore.TargetAlias",
            "Alias": "ModifierOwnerEntity"
          },
          "ModifierName": "MAvatar_TingYun_00_Passive_LeiLing_Rank04"
        },
        {
          "$type": "RPG.GameCore.SetDynamicValue",
          "TargetType": {
            "$type": "RPG.GameCore.TargetAlias",
            "Alias": "Caster"
          },
          "DynamicKey": "TingYun_EnergyBarLayer",
          "Value": {
            "IsDynamic": false,
            "FixedValue": {
              "Value": 0
            }
          }
        },
        {
          "$type": "RPG.GameCore.SetEnergyBarState",
          "TargetType": {
            "$type": "RPG.GameCore.TargetAlias",
            "Alias": "Caster"
          },
          "Active": "True",
          "BarType": 3,
          "CurrentState": "Normal",
          "IconPath": "SpriteOutput/BuffIcon/Inlevel/Icon1202Passive.png",
          "MaxCount": {
            "IsDynamic": false,
            "FixedValue": {
              "Value": 3
            }
          },
          "CurrentCount": {
            "IsDynamic": true,
            "Expressions": [
              {
                "Type": "DynamicNumber",
                "DynamicHash": -616190875
              }
            ]
          }
        }
      ],
      "OnStack": [
        {
          "$type": "RPG.GameCore.PredicateTaskList",
          "Predicate": {
            "$type": "RPG.GameCore.ByCompareDynamicValue",
            "TargetType": {
              "$type": "RPG.GameCore.TargetAlias",
              "Alias": "Caster"
            },
            "DynamicKey": "MDF_Rank01_Count",
            "CompareType": "Equal",
            "CompareValue": {
              "IsDynamic": false,
              "FixedValue": {
                "Value": 1
              }
            }
          },
          "SuccessTaskList": [
            {
              "$type": "RPG.GameCore.StackStatusDesc",
              "TextID": {
                "Hash": -728159135
              }
            }
          ],
          "FailedTaskList": []
        }
      ]
    },
    "MAvatar_TingYun_00_Passive_LeiLing": {
      "OnDestroy": [
        {
          "$type": "RPG.GameCore.RemoveModifier",
          "TargetType": {
            "$type": "RPG.GameCore.TargetAlias",
            "Alias": "ModifierOwnerEntity"
          },
          "ModifierName": "MWAvatar_TingYun_00_BPSkill_AttackDelta"
        }
      ],
      "OnStack": [
        {
          "$type": "RPG.GameCore.ModifierAttachEffect",
          "TargetType": {
            "$type": "RPG.GameCore.TargetAlias",
            "Alias": "ModifierOwnerEntity"
          },
          "EffectPath": "Effects/Eff_Prefab/Eff_Avatar/Eff_Tingyun/Eff_Avatar_Tingyun_00_Skill02_Buff_Loop.prefab"
        },
        {
          "$type": "RPG.GameCore.StackProperty",
          "TargetType": {
            "$type": "RPG.GameCore.TargetAlias",
            "Alias": "ModifierOwnerEntity"
          },
          "Property": "AttackDelta",
          "PropertyValue": {
            "IsDynamic": true,
            "Expressions": [
              {
                "Type": "DynamicNumber",
                "DynamicHash": 1521339462
              }
            ]
          }
        }
      ],
      "OnAfterAttack": [
        {
          "$type": "RPG.GameCore.Retarget",
          "TargetType": {
            "$type": "RPG.GameCore.TargetAlias",
            "Alias": "AttackTargetList"
          },
          "MaxNumber": {
            "IsDynamic": false,
            "FixedValue": {
              "Value": 1
            }
          },
          "TaskList": [
            {
              "$type": "RPG.GameCore.DamageByAttackProperty",
              "TargetType": {
                "$type": "RPG.GameCore.TargetAlias",
                "Alias": "ParamEntity"
              },
              "AttackProperty": {
                "DamageType": "Thunder",
                "DamagePercentage": {
                  "IsDynamic": true,
                  "Expressions": [
                    {
                      "Type": "DynamicNumber",
                      "DynamicHash": -901161065
                    }
                  ]
                },
                "AttackType": "Pursued",
                "HitAnimation": "Hit",
                "HitEffect": "Effects/Eff_Prefab/Eff_Avatar/Eff_Tingyun/Eff_Avatar_Tingyun_00_Skill02_Hit_01.prefab"
              },
              "CanTriggerLastKill": true
            }
          ]
        }
      ],
      "OnListenAfterAttack": [
        {
          "$type": "RPG.GameCore.RemoveModifier",
          "TargetType": {
            "$type": "RPG.GameCore.TargetAlias",
            "Alias": "AllDarkTeam"
          },
          "ModifierName": "MAvatar_TingYun_PassiveFlag"
        },
        {
          "$type": "RPG.GameCore.PredicateTaskList",
          "Predicate": {
            "$type": "RPG.GameCore.ByIsContainModifier",
            "TargetType": {
              "$type": "RPG.GameCore.TargetAlias",
              "Alias": "ParamEntity"
            },
            "ModifierName": "MAvatar_TingYun_PassiveATK_Flag"
          },
          "SuccessTaskList": [
            {
              "$type": "RPG.GameCore.DamageByAttackProperty",
              "TargetType": {
                "$type": "RPG.GameCore.TargetAlias",
                "Alias": "TurnActionEntitySkillTarget"
              },
              "AttackProperty": {
                "DamageType": "Thunder",
                "DamagePercentage": {
                  "IsDynamic": true,
                  "Expressions": [
                    {
                      "Type": "DynamicNumber",
                      "DynamicHash": -526088753
                    }
                  ]
                },
                "AttackType": "Pursued",
                "HitAnimation": "Hit",
                "HitEffect": "Effects/Eff_Prefab/Eff_Avatar/Eff_Tingyun/Eff_Avatar_Tingyun_00_Skill02_Hit_01.prefab"
              },
              "CanTriggerLastKill": true
            },
            {
              "$type": "RPG.GameCore.RemoveModifier",
              "TargetType": {
                "$type": "RPG.GameCore.TargetAlias",
                "Alias": "Caster"
              },
              "ModifierName": "MAvatar_TingYun_PassiveATK_Flag"
            }
          ]
        }
      ],
      "OnListenBeforeSkillUse": [
        {
          "$type": "RPG.GameCore.PredicateTaskList",
          "Predicate": {
            "$type": "RPG.GameCore.ByAnd",
            "PredicateList": [
              {
                "$type": "RPG.GameCore.ByCurrentSkillType"
              },
              {
                "$type": "RPG.GameCore.ByIsContainModifier",
                "TargetType": {
                  "$type": "RPG.GameCore.TargetAlias",
                  "Alias": "CurrentTurnActionEntity"
                },
                "ModifierName": "MAvatar_TingYun_ByIsTingYun"
              }
            ]
          },
          "SuccessTaskList": [
            {
              "$type": "RPG.GameCore.AddModifier",
              "TargetType": {
                "$type": "RPG.GameCore.TargetAlias",
                "Alias": "ParamEntity"
              },
              "ModifierName": "MAvatar_TingYun_PassiveATK_Flag"
            }
          ]
        }
      ],
      "DynamicValues": {
        "Values": {
          "-526088753": {},
          "-901161065": {},
          "1521339462": {}
        }
      }
    },
    "MAvatar_TingYun_00_Passive_LeiLing_Rank01": {
      "OnDestroy": [
        {
          "$type": "RPG.GameCore.RemoveModifier",
          "TargetType": {
            "$type": "RPG.GameCore.TargetAlias",
            "Alias": "ModifierOwnerEntity"
          },
          "ModifierName": "MWAvatar_TingYun_00_BPSkill_AttackDelta"
        }
      ],
      "OnStack": [
        {
          "$type": "RPG.GameCore.ModifierAttachEffect",
          "TargetType": {
            "$type": "RPG.GameCore.TargetAlias",
            "Alias": "ModifierOwnerEntity"
          },
          "EffectPath": "Effects/Eff_Prefab/Eff_Avatar/Eff_Tingyun/Eff_Avatar_Tingyun_00_Skill02_Buff_Loop.prefab"
        },
        {
          "$type": "RPG.GameCore.StackProperty",
          "TargetType": {
            "$type": "RPG.GameCore.TargetAlias",
            "Alias": "ModifierOwnerEntity"
          },
          "Property": "AttackDelta",
          "PropertyValue": {
            "IsDynamic": true,
            "Expressions": [
              {
                "Type": "DynamicNumber",
                "DynamicHash": 1521339462
              }
            ]
          }
        }
      ],
      "OnAfterAttack": [
        {
          "$type": "RPG.GameCore.Retarget",
          "TargetType": {
            "$type": "RPG.GameCore.TargetAlias",
            "Alias": "AttackTargetList"
          },
          "MaxNumber": {
            "IsDynamic": false,
            "FixedValue": {
              "Value": 1
            }
          },
          "TaskList": [
            {
              "$type": "RPG.GameCore.DamageByAttackProperty",
              "TargetType": {
                "$type": "RPG.GameCore.TargetAlias",
                "Alias": "ParamEntity"
              },
              "AttackProperty": {
                "DamageType": "Thunder",
                "DamagePercentage": {
                  "IsDynamic": true,
                  "Expressions": [
                    {
                      "Type": "DynamicNumber",
                      "DynamicHash": -901161065
                    }
                  ]
                },
                "AttackType": "Pursued",
                "HitAnimation": "Hit",
                "HitEffect": "Effects/Eff_Prefab/Eff_Avatar/Eff_Tingyun/Eff_Avatar_Tingyun_00_Skill02_Hit_01.prefab"
              },
              "CanTriggerLastKill": true
            }
          ]
        }
      ],
      "OnListenAfterAttack": [
        {
          "$type": "RPG.GameCore.RemoveModifier",
          "TargetType": {
            "$type": "RPG.GameCore.TargetAlias",
            "Alias": "AllDarkTeam"
          },
          "ModifierName": "MAvatar_TingYun_PassiveFlag"
        },
        {
          "$type": "RPG.GameCore.PredicateTaskList",
          "Predicate": {
            "$type": "RPG.GameCore.ByIsContainModifier",
            "TargetType": {
              "$type": "RPG.GameCore.TargetAlias",
              "Alias": "ParamEntity"
            },
            "ModifierName": "MAvatar_TingYun_PassiveATK_Flag"
          },
          "SuccessTaskList": [
            {
              "$type": "RPG.GameCore.DamageByAttackProperty",
              "TargetType": {
                "$type": "RPG.GameCore.TargetAlias",
                "Alias": "TurnActionEntitySkillTarget"
              },
              "AttackProperty": {
                "DamageType": "Thunder",
                "DamagePercentage": {
                  "IsDynamic": true,
                  "Expressions": [
                    {
                      "Type": "DynamicNumber",
                      "DynamicHash": -526088753
                    }
                  ]
                },
                "AttackType": "Pursued",
                "HitAnimation": "Hit",
                "HitEffect": "Effects/Eff_Prefab/Eff_Avatar/Eff_Tingyun/Eff_Avatar_Tingyun_00_Skill02_Hit_01.prefab"
              },
              "CanTriggerLastKill": true
            },
            {
              "$type": "RPG.GameCore.RemoveModifier",
              "TargetType": {
                "$type": "RPG.GameCore.TargetAlias",
                "Alias": "Caster"
              },
              "ModifierName": "MAvatar_TingYun_PassiveATK_Flag"
            }
          ]
        }
      ],
      "OnListenBeforeSkillUse": [
        {
          "$type": "RPG.GameCore.PredicateTaskList",
          "Predicate": {
            "$type": "RPG.GameCore.ByAnd",
            "PredicateList": [
              {
                "$type": "RPG.GameCore.ByCurrentSkillType"
              },
              {
                "$type": "RPG.GameCore.ByIsContainModifier",
                "TargetType": {
                  "$type": "RPG.GameCore.TargetAlias",
                  "Alias": "CurrentTurnActionEntity"
                },
                "ModifierName": "MAvatar_TingYun_ByIsTingYun"
              }
            ]
          },
          "SuccessTaskList": [
            {
              "$type": "RPG.GameCore.AddModifier",
              "TargetType": {
                "$type": "RPG.GameCore.TargetAlias",
                "Alias": "ParamEntity"
              },
              "ModifierName": "MAvatar_TingYun_PassiveATK_Flag"
            }
          ]
        }
      ],
      "OnAfterSkillUse": [
        {
          "$type": "RPG.GameCore.PredicateTaskList",
          "Predicate": {
            "$type": "RPG.GameCore.ByCurrentSkillType",
            "SkillType": "Ultra"
          },
          "SuccessTaskList": [
            {
              "$type": "RPG.GameCore.AddModifier",
              "TargetType": {
                "$type": "RPG.GameCore.TargetAlias",
                "Alias": "Caster"
              },
              "ModifierName": "MAvatar_Tingyun_00_Rank01_SpeedUp",
              "LifeTime": {
                "IsDynamic": false,
                "FixedValue": {
                  "Value": 1
                }
              },
              "DynamicValues": {
                "MDF_Rank01_SpeedUp_01": {
                  "IsDynamic": true,
                  "Expressions": [
                    {
                      "Type": "DynamicNumber",
                      "DynamicHash": -2102294272
                    }
                  ]
                }
              }
            }
          ]
        }
      ],
      "DynamicValues": {
        "Values": {
          "-526088753": {},
          "-901161065": {},
          "1935276870": {},
          "1521339462": {}
        }
      }
    },
    "MAvatar_TingYun_00_Passive_LeiLing_Rank02": {
      "OnDestroy": [
        {
          "$type": "RPG.GameCore.RemoveModifier",
          "TargetType": {
            "$type": "RPG.GameCore.TargetAlias",
            "Alias": "ModifierOwnerEntity"
          },
          "ModifierName": "MWAvatar_TingYun_00_BPSkill_AttackDelta"
        }
      ],
      "OnAllowAction": [
        {
          "$type": "RPG.GameCore.RemoveModifier",
          "TargetType": {
            "$type": "RPG.GameCore.TargetAlias",
            "Alias": "Caster"
          },
          "ModifierName": "MAvatar_Tingyun_00_Rank02_CD"
        }
      ],
      "OnStack": [
        {
          "$type": "RPG.GameCore.ModifierAttachEffect",
          "TargetType": {
            "$type": "RPG.GameCore.TargetAlias",
            "Alias": "ModifierOwnerEntity"
          },
          "EffectPath": "Effects/Eff_Prefab/Eff_Avatar/Eff_Tingyun/Eff_Avatar_Tingyun_00_Skill02_Buff_Loop.prefab"
        },
        {
          "$type": "RPG.GameCore.StackProperty",
          "TargetType": {
            "$type": "RPG.GameCore.TargetAlias",
            "Alias": "ModifierOwnerEntity"
          },
          "Property": "AttackDelta",
          "PropertyValue": {
            "IsDynamic": true,
            "Expressions": [
              {
                "Type": "DynamicNumber",
                "DynamicHash": 1521339462
              }
            ]
          }
        }
      ],
      "OnTriggerDeath": [
        {
          "$type": "RPG.GameCore.PredicateTaskList",
          "Predicate": {
            "$type": "RPG.GameCore.ByIsContainModifier",
            "TargetType": {
              "$type": "RPG.GameCore.TargetAlias",
              "Alias": "Caster"
            },
            "ModifierName": "MAvatar_Tingyun_00_Rank02_CD"
          },
          "FailedTaskList": [
            {
              "$type": "RPG.GameCore.ModifySPNew",
              "TargetType": {
                "$type": "RPG.GameCore.TargetAlias",
                "Alias": "Caster"
              },
              "AddValue": {
                "IsDynamic": true,
                "Expressions": [
                  {
                    "Type": "DynamicNumber",
                    "DynamicHash": -1008919655
                  }
                ]
              }
            },
            {
              "$type": "RPG.GameCore.AddModifier",
              "TargetType": {
                "$type": "RPG.GameCore.TargetAlias",
                "Alias": "Caster"
              },
              "ModifierName": "MAvatar_Tingyun_00_Rank02_CD"
            }
          ]
        }
      ],
      "OnAfterAttack": [
        {
          "$type": "RPG.GameCore.Retarget",
          "TargetType": {
            "$type": "RPG.GameCore.TargetAlias",
            "Alias": "AttackTargetList"
          },
          "MaxNumber": {
            "IsDynamic": false,
            "FixedValue": {
              "Value": 1
            }
          },
          "TaskList": [
            {
              "$type": "RPG.GameCore.DamageByAttackProperty",
              "TargetType": {
                "$type": "RPG.GameCore.TargetAlias",
                "Alias": "ParamEntity"
              },
              "AttackProperty": {
                "DamageType": "Thunder",
                "DamagePercentage": {
                  "IsDynamic": true,
                  "Expressions": [
                    {
                      "Type": "DynamicNumber",
                      "DynamicHash": -901161065
                    }
                  ]
                },
                "AttackType": "Pursued",
                "HitAnimation": "Hit",
                "HitEffect": "Effects/Eff_Prefab/Eff_Avatar/Eff_Tingyun/Eff_Avatar_Tingyun_00_Skill02_Hit_01.prefab"
              },
              "CanTriggerLastKill": true
            }
          ]
        }
      ],
      "OnListenAfterAttack": [
        {
          "$type": "RPG.GameCore.RemoveModifier",
          "TargetType": {
            "$type": "RPG.GameCore.TargetAlias",
            "Alias": "AllDarkTeam"
          },
          "ModifierName": "MAvatar_TingYun_PassiveFlag"
        },
        {
          "$type": "RPG.GameCore.PredicateTaskList",
          "Predicate": {
            "$type": "RPG.GameCore.ByIsContainModifier",
            "TargetType": {
              "$type": "RPG.GameCore.TargetAlias",
              "Alias": "ParamEntity"
            },
            "ModifierName": "MAvatar_TingYun_PassiveATK_Flag"
          },
          "SuccessTaskList": [
            {
              "$type": "RPG.GameCore.DamageByAttackProperty",
              "TargetType": {
                "$type": "RPG.GameCore.TargetAlias",
                "Alias": "TurnActionEntitySkillTarget"
              },
              "AttackProperty": {
                "DamageType": "Thunder",
                "DamagePercentage": {
                  "IsDynamic": true,
                  "Expressions": [
                    {
                      "Type": "DynamicNumber",
                      "DynamicHash": -526088753
                    }
                  ]
                },
                "AttackType": "Pursued",
                "HitAnimation": "Hit",
                "HitEffect": "Effects/Eff_Prefab/Eff_Avatar/Eff_Tingyun/Eff_Avatar_Tingyun_00_Skill02_Hit_01.prefab"
              },
              "CanTriggerLastKill": true
            },
            {
              "$type": "RPG.GameCore.RemoveModifier",
              "TargetType": {
                "$type": "RPG.GameCore.TargetAlias",
                "Alias": "Caster"
              },
              "ModifierName": "MAvatar_TingYun_PassiveATK_Flag"
            }
          ]
        }
      ],
      "OnListenBeforeSkillUse": [
        {
          "$type": "RPG.GameCore.PredicateTaskList",
          "Predicate": {
            "$type": "RPG.GameCore.ByAnd",
            "PredicateList": [
              {
                "$type": "RPG.GameCore.ByCurrentSkillType"
              },
              {
                "$type": "RPG.GameCore.ByIsContainModifier",
                "TargetType": {
                  "$type": "RPG.GameCore.TargetAlias",
                  "Alias": "CurrentTurnActionEntity"
                },
                "ModifierName": "MAvatar_TingYun_ByIsTingYun"
              }
            ]
          },
          "SuccessTaskList": [
            {
              "$type": "RPG.GameCore.AddModifier",
              "TargetType": {
                "$type": "RPG.GameCore.TargetAlias",
                "Alias": "ParamEntity"
              },
              "ModifierName": "MAvatar_TingYun_PassiveATK_Flag"
            }
          ]
        }
      ],
      "OnAfterSkillUse": [
        {
          "$type": "RPG.GameCore.PredicateTaskList",
          "Predicate": {
            "$type": "RPG.GameCore.ByCurrentSkillType",
            "SkillType": "Ultra"
          },
          "SuccessTaskList": [
            {
              "$type": "RPG.GameCore.AddModifier",
              "TargetType": {
                "$type": "RPG.GameCore.TargetAlias",
                "Alias": "Caster"
              },
              "ModifierName": "MAvatar_Tingyun_00_Rank01_SpeedUp",
              "LifeTime": {
                "IsDynamic": false,
                "FixedValue": {
                  "Value": 1
                }
              },
              "DynamicValues": {
                "MDF_Rank01_SpeedUp_01": {
                  "IsDynamic": true,
                  "Expressions": [
                    {
                      "Type": "DynamicNumber",
                      "DynamicHash": -2102294272
                    }
                  ]
                }
              }
            }
          ]
        }
      ],
      "DynamicValues": {
        "Values": {
          "-526088753": {},
          "-901161065": {},
          "1935276870": {},
          "-1008919655": {},
          "1521339462": {}
        }
      }
    },
    "MAvatar_TingYun_00_Passive_LeiLing_Rank04": {
      "OnDestroy": [
        {
          "$type": "RPG.GameCore.RemoveModifier",
          "TargetType": {
            "$type": "RPG.GameCore.TargetAlias",
            "Alias": "ModifierOwnerEntity"
          },
          "ModifierName": "MWAvatar_TingYun_00_BPSkill_AttackDelta"
        }
      ],
      "OnAllowAction": [
        {
          "$type": "RPG.GameCore.RemoveModifier",
          "TargetType": {
            "$type": "RPG.GameCore.TargetAlias",
            "Alias": "Caster"
          },
          "ModifierName": "MAvatar_Tingyun_00_Rank02_CD"
        }
      ],
      "OnStack": [
        {
          "$type": "RPG.GameCore.ModifierAttachEffect",
          "TargetType": {
            "$type": "RPG.GameCore.TargetAlias",
            "Alias": "ModifierOwnerEntity"
          },
          "EffectPath": "Effects/Eff_Prefab/Eff_Avatar/Eff_Tingyun/Eff_Avatar_Tingyun_00_Skill02_Buff_Loop.prefab"
        },
        {
          "$type": "RPG.GameCore.StackProperty",
          "TargetType": {
            "$type": "RPG.GameCore.TargetAlias",
            "Alias": "ModifierOwnerEntity"
          },
          "Property": "AttackDelta",
          "PropertyValue": {
            "IsDynamic": true,
            "Expressions": [
              {
                "Type": "DynamicNumber",
                "DynamicHash": 1521339462
              }
            ]
          }
        }
      ],
      "OnTriggerDeath": [
        {
          "$type": "RPG.GameCore.PredicateTaskList",
          "Predicate": {
            "$type": "RPG.GameCore.ByIsContainModifier",
            "TargetType": {
              "$type": "RPG.GameCore.TargetAlias",
              "Alias": "Caster"
            },
            "ModifierName": "MAvatar_Tingyun_00_Rank02_CD"
          },
          "FailedTaskList": [
            {
              "$type": "RPG.GameCore.ModifySPNew",
              "TargetType": {
                "$type": "RPG.GameCore.TargetAlias",
                "Alias": "Caster"
              },
              "AddValue": {
                "IsDynamic": true,
                "Expressions": [
                  {
                    "Type": "DynamicNumber",
                    "DynamicHash": -1008919655
                  }
                ]
              }
            },
            {
              "$type": "RPG.GameCore.AddModifier",
              "TargetType": {
                "$type": "RPG.GameCore.TargetAlias",
                "Alias": "Caster"
              },
              "ModifierName": "MAvatar_Tingyun_00_Rank02_CD"
            }
          ]
        }
      ],
      "OnAfterAttack": [
        {
          "$type": "RPG.GameCore.Retarget",
          "TargetType": {
            "$type": "RPG.GameCore.TargetAlias",
            "Alias": "AttackTargetList"
          },
          "MaxNumber": {
            "IsDynamic": false,
            "FixedValue": {
              "Value": 1
            }
          },
          "TaskList": [
            {
              "$type": "RPG.GameCore.DamageByAttackProperty",
              "TargetType": {
                "$type": "RPG.GameCore.TargetAlias",
                "Alias": "ParamEntity"
              },
              "AttackProperty": {
                "DamageType": "Thunder",
                "DamagePercentage": {
                  "IsDynamic": true,
                  "Expressions": [
                    {
                      "Type": "DynamicNumber",
                      "DynamicHash": -901161065
                    },
                    {
                      "Type": "DynamicNumber",
                      "DynamicHash": 722079702
                    },
                    {
                      "Type": "Add"
                    }
                  ]
                },
                "AttackType": "Pursued",
                "HitAnimation": "Hit",
                "HitEffect": "Effects/Eff_Prefab/Eff_Avatar/Eff_Tingyun/Eff_Avatar_Tingyun_00_Skill02_Hit_01.prefab"
              },
              "CanTriggerLastKill": true
            }
          ]
        }
      ],
      "OnListenAfterAttack": [
        {
          "$type": "RPG.GameCore.RemoveModifier",
          "TargetType": {
            "$type": "RPG.GameCore.TargetAlias",
            "Alias": "AllDarkTeam"
          },
          "ModifierName": "MAvatar_TingYun_PassiveFlag"
        },
        {
          "$type": "RPG.GameCore.PredicateTaskList",
          "Predicate": {
            "$type": "RPG.GameCore.ByIsContainModifier",
            "TargetType": {
              "$type": "RPG.GameCore.TargetAlias",
              "Alias": "ParamEntity"
            },
            "ModifierName": "MAvatar_TingYun_PassiveATK_Flag"
          },
          "SuccessTaskList": [
            {
              "$type": "RPG.GameCore.DamageByAttackProperty",
              "TargetType": {
                "$type": "RPG.GameCore.TargetAlias",
                "Alias": "TurnActionEntitySkillTarget"
              },
              "AttackProperty": {
                "DamageType": "Thunder",
                "DamagePercentage": {
                  "IsDynamic": true,
                  "Expressions": [
                    {
                      "Type": "DynamicNumber",
                      "DynamicHash": -526088753
                    }
                  ]
                },
                "AttackType": "Pursued",
                "HitAnimation": "Hit",
                "HitEffect": "Effects/Eff_Prefab/Eff_Avatar/Eff_Tingyun/Eff_Avatar_Tingyun_00_Skill02_Hit_01.prefab"
              },
              "CanTriggerLastKill": true
            },
            {
              "$type": "RPG.GameCore.RemoveModifier",
              "TargetType": {
                "$type": "RPG.GameCore.TargetAlias",
                "Alias": "Caster"
              },
              "ModifierName": "MAvatar_TingYun_PassiveATK_Flag"
            }
          ]
        }
      ],
      "OnListenBeforeSkillUse": [
        {
          "$type": "RPG.GameCore.PredicateTaskList",
          "Predicate": {
            "$type": "RPG.GameCore.ByAnd",
            "PredicateList": [
              {
                "$type": "RPG.GameCore.ByCurrentSkillType"
              },
              {
                "$type": "RPG.GameCore.ByIsContainModifier",
                "TargetType": {
                  "$type": "RPG.GameCore.TargetAlias",
                  "Alias": "CurrentTurnActionEntity"
                },
                "ModifierName": "MAvatar_TingYun_ByIsTingYun"
              }
            ]
          },
          "SuccessTaskList": [
            {
              "$type": "RPG.GameCore.AddModifier",
              "TargetType": {
                "$type": "RPG.GameCore.TargetAlias",
                "Alias": "ParamEntity"
              },
              "ModifierName": "MAvatar_TingYun_PassiveATK_Flag"
            }
          ]
        }
      ],
      "OnAfterSkillUse": [
        {
          "$type": "RPG.GameCore.PredicateTaskList",
          "Predicate": {
            "$type": "RPG.GameCore.ByCurrentSkillType",
            "SkillType": "Ultra"
          },
          "SuccessTaskList": [
            {
              "$type": "RPG.GameCore.AddModifier",
              "TargetType": {
                "$type": "RPG.GameCore.TargetAlias",
                "Alias": "Caster"
              },
              "ModifierName": "MAvatar_Tingyun_00_Rank01_SpeedUp",
              "LifeTime": {
                "IsDynamic": false,
                "FixedValue": {
                  "Value": 1
                }
              },
              "DynamicValues": {
                "MDF_Rank01_SpeedUp_01": {
                  "IsDynamic": true,
                  "Expressions": [
                    {
                      "Type": "DynamicNumber",
                      "DynamicHash": -2102294272
                    }
                  ]
                }
              }
            }
          ]
        }
      ],
      "DynamicValues": {
        "Values": {
          "-526088753": {},
          "-901161065": {},
          "-2102294272": {},
          "-1008919655": {},
          "722079702": {},
          "1521339462": {}
        }
      }
    },
    "MAvatar_TingYun_ByIsTingYun": {
      "OnListenTurnEnd": [
        {
          "$type": "RPG.GameCore.Retarget",
          "TargetType": {
            "$type": "RPG.GameCore.TargetAlias",
            "Alias": "AllLightTeam"
          },
          "Predicate": {
            "$type": "RPG.GameCore.ByIsContainModifier",
            "TargetType": {
              "$type": "RPG.GameCore.TargetAlias",
              "Alias": "ParamEntity"
            },
            "ModifierName": "MWAvatar_TingYun_00_BPSkill_AttackDelta"
          },
          "MaxNumber": {
            "IsDynamic": false,
            "FixedValue": {
              "Value": 1
            }
          },
          "TaskList": [
            {
              "$type": "RPG.GameCore.SetDynamicValueByModifierValue",
              "ReadTargetType": {
                "$type": "RPG.GameCore.TargetAlias",
                "Alias": "ParamEntity"
              },
              "ModifierName": "MWAvatar_TingYun_00_BPSkill_AttackDelta",
              "ValueType": "LifeTime",
              "Multiplier": {
                "IsDynamic": false,
                "FixedValue": {
                  "Value": 1
                }
              },
              "DynamicKey": "TingYun_EnergyBarLayer"
            },
            {
              "$type": "RPG.GameCore.PredicateTaskList",
              "Predicate": {
                "$type": "RPG.GameCore.ByCompareDynamicValue",
                "TargetType": {
                  "$type": "RPG.GameCore.TargetAlias",
                  "Alias": "Caster"
                },
                "DynamicKey": "TingYun_EnergyBarLayer",
                "CompareType": "Equal",
                "CompareValue": {
                  "IsDynamic": false,
                  "FixedValue": {
                    "Value": 0
                  }
                }
              },
              "SuccessTaskList": [
                {
                  "$type": "RPG.GameCore.SetEnergyBarState",
                  "TargetType": {
                    "$type": "RPG.GameCore.TargetAlias",
                    "Alias": "Caster"
                  },
                  "Active": "True",
                  "BarType": 3,
                  "CurrentState": "Normal",
                  "IconPath": "SpriteOutput/BuffIcon/Inlevel/Icon1202Passive.png",
                  "MaxCount": {
                    "IsDynamic": false,
                    "FixedValue": {
                      "Value": 3
                    }
                  },
                  "CurrentCount": {
                    "IsDynamic": true,
                    "Expressions": [
                      {
                        "Type": "DynamicNumber",
                        "DynamicHash": -616190875
                      }
                    ]
                  }
                }
              ],
              "FailedTaskList": [
                {
                  "$type": "RPG.GameCore.SetEnergyBarState",
                  "TargetType": {
                    "$type": "RPG.GameCore.TargetAlias",
                    "Alias": "Caster"
                  },
                  "Active": "True",
                  "BarType": 3,
                  "CurrentState": "Active",
                  "IconPath": "SpriteOutput/BuffIcon/Inlevel/Icon1202Passive.png",
                  "MaxCount": {
                    "IsDynamic": false,
                    "FixedValue": {
                      "Value": 3
                    }
                  },
                  "CurrentCount": {
                    "IsDynamic": true,
                    "Expressions": [
                      {
                        "Type": "DynamicNumber",
                        "DynamicHash": -616190875
                      }
                    ]
                  }
                }
              ]
            }
          ]
        }
      ]
    },
    "MAvatar_TingYun_PassiveATK_Flag": {},
    "MAvatar_TingYun_PassiveFlag": {},
    "MAvatar_Tingyun_00_Rank01_SpeedUp": {
      "LifeStepMoment": "ModifierPhase1End",
      "BehaviorFlagList": [
        "STAT_SpeedUp"
      ],
      "OnStack": [
        {
          "$type": "RPG.GameCore.StackProperty",
          "TargetType": {
            "$type": "RPG.GameCore.TargetAlias",
            "Alias": "ModifierOwnerEntity"
          },
          "Property": "SpeedAddedRatio",
          "PropertyValue": {
            "IsDynamic": true,
            "Expressions": [
              {
                "Type": "DynamicNumber",
                "DynamicHash": 1935276870
              }
            ]
          }
        }
      ],
      "Stacking": "ReplaceByCaster",
      "DynamicValues": {
        "Values": {
          "1935276870": {}
        }
      }
    },
    "MAvatar_Tingyun_00_SkillTree_B1_SpeedUp": {
      "LifeStepMoment": "ModifierPhase1End",
      "BehaviorFlagList": [
        "STAT_SpeedUp"
      ],
      "OnStack": [
        {
          "$type": "RPG.GameCore.StackProperty",
          "TargetType": {
            "$type": "RPG.GameCore.TargetAlias",
            "Alias": "ModifierOwnerEntity"
          },
          "Property": "SpeedAddedRatio",
          "PropertyValue": {
            "IsDynamic": true,
            "Expressions": [
              {
                "Type": "DynamicNumber",
                "DynamicHash": 784892657
              }
            ]
          }
        }
      ],
      "Stacking": "ReplaceByCaster",
      "DynamicValues": {
        "Values": {
          "784892657": {}
        }
      }
    },
    "MAvatar_Tingyun_00_Rank02_CD": {}
  }
}