{
  "AbilityList": [
    {
      "Name": "Avatar_Herta_Skill01_Phase01",
      "TargetInfo": {
        "TargetType": "SkillTargetEntityList"
      },
      "OnStart": [
        {
          "$type": "RPG.GameCore.LookAt",
          "PerformerType": {
            "$type": "RPG.GameCore.TargetAlias",
            "Alias": "Caster"
          },
          "TargetType": "AbilityTargetEntity"
        },
        {
          "$type": "RPG.GameCore.TriggerAbility",
          "TargetType": {
            "$type": "RPG.GameCore.TargetAlias",
            "Alias": "Caster"
          },
          "AbilityName": "Avatar_Herta_Skill01_Phase02",
          "IsSkillPerform": true
        },
        {
          "$type": "RPG.GameCore.TriggerAbility",
          "TargetType": {
            "$type": "RPG.GameCore.TargetAlias",
            "Alias": "Caster"
          },
          "AbilityName": "Avatar_Herta_Skill01_Camera",
          "IsSkillPerform": true
        },
        {
          "$type": "RPG.GameCore.TriggerAnimStateWithMove",
          "TargetType": {
            "$type": "RPG.GameCore.TargetAlias",
            "Alias": "Caster"
          },
          "AnimStateName": "Skill01",
          "MovingRangeList": [
            {
              "TargetType": {
                "$type": "RPG.GameCore.TargetAlias",
                "Alias": "AbilityTargetEntity"
              },
              "OffsetTargetDistance": {
                "IsDynamic": false,
                "FixedValue": {
                  "Value": 1.5000000004656613
                }
              },
              "NormalizedTimeStart": {
                "IsDynamic": false,
                "FixedValue": {
                  "Value": 0.060000000055879354
                }
              },
              "NormalizedTimeEnd": {
                "IsDynamic": false,
                "FixedValue": {
                  "Value": 0.20000000018626451
                }
              }
            },
            {
              "TargetType": {
                "$type": "RPG.GameCore.TargetAlias",
                "Alias": "TeamFormation"
              },
              "OffsetTargetDistance": {
                "IsDynamic": false,
                "FixedValue": {
                  "Value": 0
                }
              },
              "NormalizedTimeStart": {
                "IsDynamic": false,
                "FixedValue": {
                  "Value": 0.7860000003129244
                }
              },
              "NormalizedTimeEnd": {
                "IsDynamic": false,
                "FixedValue": {
                  "Value": 0.8200000007636845
                }
              }
            }
          ],
          "ForceStart": true
        },
        {
          "$type": "RPG.GameCore.WaitAnimState",
          "AnimStateName": "Skill01",
          "NormalizedTimeEnd": {
            "IsDynamic": false,
            "FixedValue": {
              "Value": 1
            }
          }
        }
      ]
    },
    {
      "Modifiers": {
        "MAvatar_Herta_Skill01_CheckHp": {
          "OnBeforeHit": [
            {
              "$type": "RPG.GameCore.SetDynamicValueByProperty",
              "DynamicKey": "MDF_MaxHP",
              "ReadTargetType": {
                "$type": "RPG.GameCore.TargetAlias",
                "Alias": "ParamEntity"
              },
              "Value": "MaxHP"
            },
            {
              "$type": "RPG.GameCore.PredicateTaskList",
              "Predicate": {
                "$type": "RPG.GameCore.ByCompareAbilityProperty",
                "TargetType": {
                  "$type": "RPG.GameCore.TargetAlias",
                  "Alias": "ParamEntity"
                },
                "Property": "CurrentHP",
                "CompareType": "LessEqual",
                "CompareValue": {
                  "IsDynamic": true,
                  "Expressions": [
                    {
                      "Type": "DynamicNumber",
                      "DynamicHash": -1610876898
                    },
                    {
                      "Type": "DynamicNumber",
                      "DynamicHash": -873920944
                    },
                    {
                      "Type": "Mul"
                    }
                  ]
                }
              },
              "SuccessTaskList": [
                {
                  "$type": "RPG.GameCore.SetDynamicValue",
                  "TargetType": {
                    "$type": "RPG.GameCore.TargetAlias",
                    "Alias": "Caster"
                  },
                  "DynamicKey": "Herta_Skill01_Count",
                  "Value": {
                    "IsDynamic": false,
                    "FixedValue": {
                      "Value": 1
                    }
                  }
                }
              ]
            }
          ],
          "DynamicValues": {
            "Values": {
              "-1610876898": {}
            }
          }
        }
      },
      "Name": "Avatar_Herta_Skill01_Phase02",
      "TargetInfo": {
        "TargetType": "SkillTargetEntityList"
      },
      "OnStart": [
        {
          "$type": "RPG.GameCore.PlayTimeline",
          "TimelineName": "Effects/Eff_Prefab/Eff_Avatar/Eff_Herta/Eff_Avatar_Herta_00_Skill01_Timeline.playable"
        },
        {
          "$type": "RPG.GameCore.PredicateTaskList",
          "Predicate": {
            "$type": "RPG.GameCore.ByRankActivated",
            "TriggerKey": {
              "Hash": 2089636447
            }
          },
          "SuccessTaskList": [
            {
              "$type": "RPG.GameCore.AddModifier",
              "TargetType": {
                "$type": "RPG.GameCore.TargetAlias",
                "Alias": "Caster"
              },
              "ModifierName": "MAvatar_Herta_Skill01_CheckHp"
            }
          ]
        },
        {
          "$type": "RPG.GameCore.WaitAnimState",
          "TargetType": {
            "$type": "RPG.GameCore.TargetAlias",
            "Alias": "Caster"
          },
          "AnimStateName": "Skill01",
          "NormalizedTimeEnd": {
            "IsDynamic": false,
            "FixedValue": {
              "Value": 0.25000000023283064
            }
          }
        },
        {
          "$type": "RPG.GameCore.PredicateTaskList",
          "Predicate": {
            "$type": "RPG.GameCore.ByRankActivated",
            "TriggerKey": {
              "Hash": 2089636447
            }
          },
          "SuccessTaskList": [
            {
              "$type": "RPG.GameCore.DamageByAttackProperty",
              "TargetType": {
                "$type": "RPG.GameCore.TargetAlias",
                "Alias": "AbilityTargetEntity"
              },
              "AttackProperty": {
                "DamageType": "Ice",
                "DamagePercentage": {
                  "IsDynamic": true,
                  "Expressions": [
                    {
                      "Type": "DynamicNumber",
                      "DynamicHash": -1126825319
                    }
                  ]
                },
                "StanceValue": {
                  "IsDynamic": true,
                  "Expressions": [
                    {
                      "Type": "DynamicNumber",
                      "DynamicHash": 1659254037
                    }
                  ]
                },
                "SPHitRatio": {
                  "IsDynamic": false,
                  "FixedValue": {
                    "Value": 1
                  }
                },
                "HitAnimation": "Hit",
                "HitEffect": "Effects/Eff_Prefab/Eff_Avatar/Eff_Herta/Eff_Avatar_Herta_00_Skill01_Hit01.prefab",
                "HitTimeSlowType": "Impact",
                "HitPosHeight": 1.2,
                "HitAngleHorizontal": 70,
                "HitAngleVertical": 30
              },
              "SpecialHitSoundEvent": "Ev_sfx_avatar_atk_cast_hit_herta",
              "CanTriggerLastKill": true
            },
            {
              "$type": "RPG.GameCore.PredicateTaskList",
              "Predicate": {
                "$type": "RPG.GameCore.ByCompareDynamicValue",
                "TargetType": {
                  "$type": "RPG.GameCore.TargetAlias",
                  "Alias": "Caster"
                },
                "DynamicKey": "Herta_Skill01_Count",
                "CompareType": "Equal",
                "CompareValue": {
                  "IsDynamic": false,
                  "FixedValue": {
                    "Value": 1
                  }
                }
              },
              "SuccessTaskList": [
                {
                  "$type": "RPG.GameCore.WaitAnimState",
                  "TargetType": {
                    "$type": "RPG.GameCore.TargetAlias",
                    "Alias": "Caster"
                  },
                  "AnimStateName": "Skill01",
                  "NormalizedTimeEnd": {
                    "IsDynamic": false,
                    "FixedValue": {
                      "Value": 0.2700000002514571
                    }
                  }
                },
                {
                  "$type": "RPG.GameCore.TriggerEffect",
                  "TargetType": {
                    "$type": "RPG.GameCore.TargetAlias",
                    "Alias": "AbilityTargetEntity"
                  },
                  "EffectPath": "Effects/Eff_Prefab/Eff_Avatar/Eff_Herta/Eff_Avatar_Herta_00_Skill02_DeBuff_Hit.prefab"
                },
                {
                  "$type": "RPG.GameCore.WaitSecond",
                  "WaitTime": 0.55
                },
                {
                  "$type": "RPG.GameCore.DamageByAttackProperty",
                  "TargetType": {
                    "$type": "RPG.GameCore.TargetAlias",
                    "Alias": "AbilityTargetEntity"
                  },
                  "AttackProperty": {
                    "DamageType": "Ice",
                    "DamagePercentage": {
                      "IsDynamic": true,
                      "Expressions": [
                        {
                          "Type": "DynamicNumber",
                          "DynamicHash": -130136279
                        }
                      ]
                    },
                    "AttackType": "Pursued",
                    "HitAnimation": "Hit"
                  },
                  "SpecialHitSoundEvent": "Ev_sfx_avatar_atk_cast_hit_herta",
                  "CanTriggerLastKill": true
                }
              ]
            },
            {
              "$type": "RPG.GameCore.DamagePerformFinish"
            }
          ],
          "FailedTaskList": [
            {
              "$type": "RPG.GameCore.DamageByAttackProperty",
              "TargetType": {
                "$type": "RPG.GameCore.TargetAlias",
                "Alias": "AbilityTargetEntity"
              },
              "AttackProperty": {
                "DamageType": "Ice",
                "DamagePercentage": {
                  "IsDynamic": true,
                  "Expressions": [
                    {
                      "Type": "DynamicNumber",
                      "DynamicHash": -1126825319
                    }
                  ]
                },
                "StanceValue": {
                  "IsDynamic": true,
                  "Expressions": [
                    {
                      "Type": "DynamicNumber",
                      "DynamicHash": 1659254037
                    }
                  ]
                },
                "SPHitRatio": {
                  "IsDynamic": false,
                  "FixedValue": {
                    "Value": 1
                  }
                },
                "HitAnimation": "Hit",
                "HitEffect": "Effects/Eff_Prefab/Eff_Avatar/Eff_Herta/Eff_Avatar_Herta_00_Skill01_Hit01.prefab",
                "HitTimeSlowType": "Impact",
                "HitPosHeight": 1.2,
                "HitAngleHorizontal": 70,
                "HitAngleVertical": 30
              },
              "SpecialHitSoundEvent": "Ev_sfx_avatar_atk_cast_hit_herta",
              "CanTriggerLastKill": true
            },
            {
              "$type": "RPG.GameCore.DamagePerformFinish"
            }
          ]
        },
        {
          "$type": "RPG.GameCore.RemoveModifier",
          "TargetType": {
            "$type": "RPG.GameCore.TargetAlias",
            "Alias": "Caster"
          },
          "ModifierName": "MAvatar_Herta_Skill01_CheckHp"
        },
        {
          "$type": "RPG.GameCore.WaitAnimState",
          "AnimStateName": "Skill01",
          "NormalizedTimeEnd": {
            "IsDynamic": false,
            "FixedValue": {
              "Value": 1
            }
          }
        },
        {
          "$type": "RPG.GameCore.SetDynamicValue",
          "TargetType": {
            "$type": "RPG.GameCore.TargetAlias",
            "Alias": "Caster"
          },
          "DynamicKey": "Herta_Skill01_Count",
          "Value": {
            "IsDynamic": false,
            "FixedValue": {
              "Value": 0
            }
          }
        },
        {
          "$type": "RPG.GameCore.SkillPerformFinish"
        }
      ]
    },
    {
      "Name": "Avatar_Herta_Skill02_Phase01",
      "TargetInfo": {
        "TargetType": "AllEnemy"
      },
      "OnStart": [
        {
          "$type": "RPG.GameCore.LookAt",
          "PerformerType": {
            "$type": "RPG.GameCore.TargetAlias",
            "Alias": "Caster"
          },
          "TargetType": "AbilityTargetEntity",
          "Duration": 5
        },
        {
          "$type": "RPG.GameCore.TriggerAbility",
          "TargetType": {
            "$type": "RPG.GameCore.TargetAlias",
            "Alias": "Caster"
          },
          "AbilityName": "Avatar_Herta_Skill02_Phase02",
          "IsSkillPerform": true
        },
        {
          "$type": "RPG.GameCore.TriggerAbility",
          "TargetType": {
            "$type": "RPG.GameCore.TargetAlias",
            "Alias": "Caster"
          },
          "AbilityName": "Avatar_Herta_Skill02_Camera",
          "IsSkillPerform": true
        },
        {
          "$type": "RPG.GameCore.LookAt",
          "PerformerType": {
            "$type": "RPG.GameCore.TargetAlias",
            "Alias": "Caster"
          },
          "TargetType": "DarkTeamCenter"
        },
        {
          "$type": "RPG.GameCore.TriggerAnimStateWithMove",
          "TargetType": {
            "$type": "RPG.GameCore.TargetAlias",
            "Alias": "Caster"
          },
          "AnimStateName": "Skill02",
          "MovingRangeList": [
            {
              "TargetType": {
                "$type": "RPG.GameCore.TargetAlias",
                "Alias": "DarkTeamCenter"
              },
              "OffsetTargetDistance": {
                "IsDynamic": false,
                "FixedValue": {
                  "Value": 4.300000000279397
                }
              },
              "NormalizedTimeStart": {
                "IsDynamic": false,
                "FixedValue": {
                  "Value": 0.05000000004656613
                }
              },
              "NormalizedTimeEnd": {
                "IsDynamic": false,
                "FixedValue": {
                  "Value": 0.1500000001396984
                }
              }
            }
          ],
          "ForceStart": true
        },
        {
          "$type": "RPG.GameCore.WaitAnimState",
          "TargetType": {
            "$type": "RPG.GameCore.TargetAlias",
            "Alias": "Caster"
          },
          "AnimStateName": "Skill02",
          "NormalizedTimeEnd": {
            "IsDynamic": false,
            "FixedValue": {
              "Value": 1
            }
          }
        }
      ]
    },
    {
      "Modifiers": {
        "MAvatar_Herta_Skill02_CheckHp": {
          "OnBeforeHit": [
            {
              "$type": "RPG.GameCore.SetDynamicValueByProperty",
              "DynamicKey": "MDF_MaxHP",
              "ReadTargetType": {
                "$type": "RPG.GameCore.TargetAlias",
                "Alias": "ParamEntity"
              },
              "Value": "MaxHP"
            },
            {
              "$type": "RPG.GameCore.PredicateTaskList",
              "Predicate": {
                "$type": "RPG.GameCore.ByCompareAbilityProperty",
                "TargetType": {
                  "$type": "RPG.GameCore.TargetAlias",
                  "Alias": "ParamEntity"
                },
                "Property": "CurrentHP",
                "CompareType": "GreaterEqual",
                "CompareValue": {
                  "IsDynamic": true,
                  "Expressions": [
                    {
                      "Type": "DynamicNumber",
                      "DynamicHash": -1610876898
                    },
                    {
                      "Type": "DynamicNumber",
                      "DynamicHash": 401320331
                    },
                    {
                      "Type": "Mul"
                    }
                  ]
                }
              },
              "SuccessTaskList": [
                {
                  "$type": "RPG.GameCore.PredicateTaskList",
                  "Predicate": {
                    "$type": "RPG.GameCore.BySkillPointActivated",
                    "PointTriggerKey": {
                      "Hash": 1455742903
                    }
                  },
                  "SuccessTaskList": [
                    {
                      "$type": "RPG.GameCore.ModifyDamageData",
                      "Attacker_AllDamageTypeAddedRatio": {
                        "IsDynamic": true,
                        "Expressions": [
                          {
                            "Type": "DynamicNumber",
                            "DynamicHash": 178367017
                          },
                          {
                            "Type": "DynamicNumber",
                            "DynamicHash": 698462076
                          },
                          {
                            "Type": "Add"
                          }
                        ]
                      }
                    }
                  ],
                  "FailedTaskList": [
                    {
                      "$type": "RPG.GameCore.ModifyDamageData",
                      "Attacker_AllDamageTypeAddedRatio": {
                        "IsDynamic": true,
                        "Expressions": [
                          {
                            "Type": "DynamicNumber",
                            "DynamicHash": 178367017
                          }
                        ]
                      }
                    }
                  ]
                }
              ]
            }
          ],
          "DynamicValues": {
            "Values": {
              "-1610876898": {}
            }
          }
        }
      },
      "Name": "Avatar_Herta_Skill02_Phase02",
      "TargetInfo": {
        "TargetType": "AllEnemy"
      },
      "OnStart": [
        {
          "$type": "RPG.GameCore.PlayTimeline",
          "TimelineName": "Effects/Eff_Prefab/Eff_Avatar/Eff_Herta/Eff_Avatar_Herta_00_Skill02_Timeline.playable"
        },
        {
          "$type": "RPG.GameCore.AddModifier",
          "TargetType": {
            "$type": "RPG.GameCore.TargetAlias",
            "Alias": "Caster"
          },
          "ModifierName": "MAvatar_Herta_Skill02_CheckHp"
        },
        {
          "$type": "RPG.GameCore.GlobalMainIntensityEffect",
          "TargetIntensity": 0.1,
          "FadeDuration": 0.4
        },
        {
          "$type": "RPG.GameCore.WaitAnimState",
          "TargetType": {
            "$type": "RPG.GameCore.TargetAlias",
            "Alias": "Caster"
          },
          "AnimStateName": "Skill02",
          "NormalizedTimeEnd": {
            "IsDynamic": false,
            "FixedValue": {
              "Value": 0.33000000030733645
            }
          }
        },
        {
          "$type": "RPG.GameCore.DamageByAttackProperty",
          "TargetType": {
            "$type": "RPG.GameCore.TargetAlias",
            "Alias": "AllEnemy"
          },
          "AttackProperty": {
            "DamageType": "Ice",
            "DamagePercentage": {
              "IsDynamic": true,
              "Expressions": [
                {
                  "Type": "DynamicNumber",
                  "DynamicHash": -1847083384
                }
              ]
            },
            "StanceValue": {
              "IsDynamic": true,
              "Expressions": [
                {
                  "Type": "DynamicNumber",
                  "DynamicHash": 1182064154
                }
              ]
            },
            "HitSplitRatio": {
              "IsDynamic": false,
              "FixedValue": {
                "Value": 0.3000000002793968
              }
            },
            "SPHitRatio": {
              "IsDynamic": false,
              "FixedValue": {
                "Value": 1
              }
            },
            "HitAnimation": "Hit",
            "HitEffect": "Effects/Eff_Prefab/Eff_Avatar/Eff_Herta/Eff_Avatar_Herta_00_Skill02_Hit02.prefab"
          },
          "SpecialHitSoundEvent": "Ev_sfx_avatar_skill_cast_hit_herta",
          "CanTriggerLastKill": true
        },
        {
          "$type": "RPG.GameCore.WaitAnimState",
          "TargetType": {
            "$type": "RPG.GameCore.TargetAlias",
            "Alias": "Caster"
          },
          "AnimStateName": "Skill02",
          "NormalizedTimeEnd": {
            "IsDynamic": false,
            "FixedValue": {
              "Value": 0.4200000003911555
            }
          }
        },
        {
          "$type": "RPG.GameCore.DamageByAttackProperty",
          "TargetType": {
            "$type": "RPG.GameCore.TargetAlias",
            "Alias": "AllEnemy"
          },
          "AttackProperty": {
            "DamageType": "Ice",
            "DamagePercentage": {
              "IsDynamic": true,
              "Expressions": [
                {
                  "Type": "DynamicNumber",
                  "DynamicHash": -1847083384
                }
              ]
            },
            "StanceValue": {
              "IsDynamic": true,
              "Expressions": [
                {
                  "Type": "DynamicNumber",
                  "DynamicHash": 1182064154
                }
              ]
            },
            "HitSplitRatio": {
              "IsDynamic": false,
              "FixedValue": {
                "Value": 0.7000000006519258
              }
            },
            "SPHitRatio": {
              "IsDynamic": false,
              "FixedValue": {
                "Value": 1
              }
            },
            "HitAnimation": "Hit",
            "HitEffect": "Effects/Eff_Prefab/Eff_Avatar/Eff_Herta/Eff_Avatar_Herta_00_Skill02_Hit01.prefab",
            "HitTimeSlowType": "Puncture"
          },
          "SpecialHitSoundEvent": "Ev_sfx_avatar_skill_cast_hit_herta",
          "CanTriggerLastKill": true
        },
        {
          "$type": "RPG.GameCore.DamagePerformFinish"
        },
        {
          "$type": "RPG.GameCore.WaitAnimState",
          "TargetType": {
            "$type": "RPG.GameCore.TargetAlias",
            "Alias": "Caster"
          },
          "AnimStateName": "Skill02",
          "NormalizedTimeEnd": {
            "IsDynamic": false,
            "FixedValue": {
              "Value": 0.5000000004656613
            }
          }
        },
        {
          "$type": "RPG.GameCore.GlobalMainIntensityEffect",
          "IsRevert": true,
          "FadeDuration": 1
        },
        {
          "$type": "RPG.GameCore.RemoveModifier",
          "TargetType": {
            "$type": "RPG.GameCore.TargetAlias",
            "Alias": "Caster"
          },
          "ModifierName": "MAvatar_Herta_Skill02_CheckHp"
        },
        {
          "$type": "RPG.GameCore.WaitAnimState",
          "TargetType": {
            "$type": "RPG.GameCore.TargetAlias",
            "Alias": "Caster"
          },
          "AnimStateName": "Skill02",
          "NormalizedTimeEnd": {
            "IsDynamic": false,
            "FixedValue": {
              "Value": 1
            }
          }
        },
        {
          "$type": "RPG.GameCore.SkillPerformFinish"
        }
      ]
    },
    {
      "Name": "Avatar_Herta_00_Skill03_EnterReady",
      "TargetInfo": {
        "TargetType": "InherentTargetEntity"
      },
      "OnStart": [
        {
          "$type": "RPG.GameCore.WaitSecond",
          "WaitTime": 0.4
        },
        {
          "$type": "RPG.GameCore.AlignTargetToTeamCenter",
          "TargetType": {
            "$type": "RPG.GameCore.TargetAlias",
            "Alias": "Caster"
          }
        },
        {
          "$type": "RPG.GameCore.WaitSecond",
          "WaitTime": 0.1
        },
        {
          "$type": "RPG.GameCore.LookAt",
          "PerformerType": {
            "$type": "RPG.GameCore.TargetAlias",
            "Alias": "Caster"
          },
          "TargetType": "DarkTeamCenter"
        },
        {
          "$type": "RPG.GameCore.HeadLookAt",
          "PerformerType": {
            "$type": "RPG.GameCore.TargetAlias",
            "Alias": "AllDarkTeam"
          },
          "TargetType": {
            "$type": "RPG.GameCore.TargetAlias",
            "Alias": "Caster"
          },
          "DoRootRotate": true
        },
        {
          "$type": "RPG.GameCore.VCameraConfigChange",
          "CameraConfig": {
            "NormalConfig": {
              "CameraState": "SelectDarkTeamEntity",
              "AttackType": "RangeAttack",
              "AnchorTargetType": {
                "$type": "RPG.GameCore.TargetAlias",
                "Alias": "Caster"
              },
              "IsLocalOffset": true,
              "AnchorOffset": {
                "X": -0.16,
                "Y": -0.4,
                "Z": 0.29
              },
              "AimTargetType": {
                "$type": "RPG.GameCore.TargetAlias",
                "Alias": "AbilityTargetEntity"
              },
              "AimOffset": {
                "X": -1,
                "Y": 1.22,
                "Z": 0
              },
              "AimRatio": 1,
              "FollowRadius": 1.8,
              "AnchorToAimAngle": 26,
              "FollowDamp": 1.5,
              "AimDamp": 1.5,
              "Dutch": 4,
              "FOV": 30,
              "ForbidDynamicOffset": false
            },
            "BlendConfig": {
              "BlendType": "Cut"
            },
            "ShowEntityConfig": {
              "ShowTargetType": {
                "$type": "RPG.GameCore.TargetAlias",
                "Alias": "CasterWithAllEnemy"
              }
            }
          }
        },
        {
          "$type": "RPG.GameCore.WaitSecond",
          "WaitTime": 0.5
        },
        {
          "$type": "RPG.GameCore.VCameraConfigChange",
          "CameraConfig": {
            "NormalConfig": {
              "CameraState": "SelectDarkTeamEntity",
              "AnchorTargetType": {
                "$type": "RPG.GameCore.TargetAlias",
                "Alias": "Caster"
              },
              "IsLocalOffset": true,
              "AnchorOffset": {
                "X": 0.3,
                "Y": -0.35,
                "Z": -0.17
              },
              "AimTargetType": {
                "$type": "RPG.GameCore.TargetAlias",
                "Alias": "AbilityTargetEntity"
              },
              "AimOffset": {
                "X": -2.6,
                "Y": 1.22,
                "Z": 0
              },
              "AimRatio": 1,
              "FollowRadius": 1.8,
              "AnchorToAimAngle": 26,
              "FollowDamp": 1.5,
              "AimDamp": 1.5,
              "Dutch": 4,
              "FOV": 60,
              "ForbidDynamicOffset": false
            },
            "BlendConfig": {
              "BlendType": "Custom",
              "CustomCurveName": "Blend_UltraReady",
              "BlendTime": 1.5
            },
            "ShowEntityConfig": {
              "ShowTargetType": {
                "$type": "RPG.GameCore.TargetAlias",
                "Alias": "CasterWithAllEnemy"
              }
            }
          }
        }
      ]
    },
    {
      "Name": "Avatar_Herta_Skill03_Phase01",
      "TargetInfo": {
        "TargetType": "AllEnemy"
      },
      "OnStart": [
        {
          "$type": "RPG.GameCore.AlignTargetToTeamCenter",
          "TargetType": {
            "$type": "RPG.GameCore.TargetAlias",
            "Alias": "Caster"
          }
        },
        {
          "$type": "RPG.GameCore.LookAt",
          "PerformerType": {
            "$type": "RPG.GameCore.TargetAlias",
            "Alias": "Caster"
          },
          "TargetType": "AbilityTargetEntity"
        },
        {
          "$type": "RPG.GameCore.TriggerAbility",
          "TargetType": {
            "$type": "RPG.GameCore.TargetAlias",
            "Alias": "Caster"
          },
          "AbilityName": "Avatar_Herta_00_Skill03_Camera",
          "IsSkillPerform": true
        },
        {
          "$type": "RPG.GameCore.TriggerAbility",
          "TargetType": {
            "$type": "RPG.GameCore.TargetAlias",
            "Alias": "Caster"
          },
          "AbilityName": "Avatar_Herta_Skill03_Phase02",
          "IsSkillPerform": true
        },
        {
          "$type": "RPG.GameCore.ShowBattleUI"
        },
        {
          "$type": "RPG.GameCore.TriggerAnimState",
          "TargetType": {
            "$type": "RPG.GameCore.TargetAlias",
            "Alias": "Caster"
          },
          "AnimStateName": "Skill03"
        },
        {
          "$type": "RPG.GameCore.GlobalMainIntensityEffect",
          "TargetIntensity": 0.15,
          "FadeDuration": 0.2
        },
        {
          "$type": "RPG.GameCore.WaitAnimState",
          "TargetType": {
            "$type": "RPG.GameCore.TargetAlias",
            "Alias": "Caster"
          },
          "AnimStateName": "Skill03",
          "NormalizedTimeEnd": {
            "IsDynamic": false,
            "FixedValue": {
              "Value": 0.0800000000745058
            }
          }
        },
        {
          "$type": "RPG.GameCore.HideLevelStage",
          "IsHide": true
        },
        {
          "$type": "RPG.GameCore.GlobalMainIntensityEffect",
          "IsRevert": true,
          "FadeDuration": 1
        },
        {
          "$type": "RPG.GameCore.WaitAnimState",
          "TargetType": {
            "$type": "RPG.GameCore.TargetAlias",
            "Alias": "Caster"
          },
          "AnimStateName": "Skill03",
          "NormalizedTimeEnd": {
            "IsDynamic": false,
            "FixedValue": {
              "Value": 0.22699999972246587
            }
          }
        },
        {
          "$type": "RPG.GameCore.HideLevelStage"
        },
        {
          "$type": "RPG.GameCore.WaitAnimState",
          "TargetType": {
            "$type": "RPG.GameCore.TargetAlias",
            "Alias": "Caster"
          },
          "AnimStateName": "Skill03",
          "NormalizedTimeEnd": {
            "IsDynamic": false,
            "FixedValue": {
              "Value": 0.3000000002793968
            }
          }
        },
        {
          "$type": "RPG.GameCore.HideLevelStage",
          "IsHide": true
        },
        {
          "$type": "RPG.GameCore.WaitAnimState",
          "TargetType": {
            "$type": "RPG.GameCore.TargetAlias",
            "Alias": "Caster"
          },
          "AnimStateName": "Skill03",
          "NormalizedTimeEnd": {
            "IsDynamic": false,
            "FixedValue": {
              "Value": 0.710000000661239
            }
          }
        },
        {
          "$type": "RPG.GameCore.HideLevelStage"
        },
        {
          "$type": "RPG.GameCore.WaitAnimState",
          "TargetType": {
            "$type": "RPG.GameCore.TargetAlias",
            "Alias": "Caster"
          },
          "AnimStateName": "Skill03",
          "NormalizedTimeEnd": {
            "IsDynamic": false,
            "FixedValue": {
              "Value": 0.758000000147149
            }
          }
        },
        {
          "$type": "RPG.GameCore.HideLevelStage",
          "IsHide": true
        },
        {
          "$type": "RPG.GameCore.WaitAnimState",
          "TargetType": {
            "$type": "RPG.GameCore.TargetAlias",
            "Alias": "Caster"
          },
          "AnimStateName": "Skill03",
          "NormalizedTimeEnd": {
            "IsDynamic": false,
            "FixedValue": {
              "Value": 1
            }
          }
        },
        {
          "$type": "RPG.GameCore.HideLevelStage"
        },
        {
          "$type": "RPG.GameCore.ShowBattleUI",
          "IsShow": true
        },
        {
          "$type": "RPG.GameCore.MoveToTargetPosition",
          "PerformerType": {
            "$type": "RPG.GameCore.TargetAlias",
            "Alias": "Caster"
          },
          "TargetType": {
            "$type": "RPG.GameCore.TargetAlias",
            "Alias": "TeamFormation"
          },
          "IgnoreRadius": true,
          "OffsetTargetDistance": {
            "IsDynamic": false,
            "FixedValue": {
              "Value": 0
            }
          }
        }
      ]
    },
    {
      "Modifiers": {
        "MAvatar_Herta_SkillTree03_AddDamageUp": {
          "OnBeforeBeingHit": [
            {
              "$type": "RPG.GameCore.ModifyDamageData",
              "Attacker_AllDamageTypeAddedRatio": {
                "IsDynamic": true,
                "Expressions": [
                  {
                    "Type": "DynamicNumber",
                    "DynamicHash": -1602738012
                  }
                ]
              }
            }
          ],
          "Stacking": "ReplaceByCaster",
          "DynamicValues": {
            "Values": {
              "-1602738012": {}
            }
          }
        },
        "MAvatar_Herta_SkillRank06_AttackUP": {
          "OnStack": [
            {
              "$type": "RPG.GameCore.StackProperty",
              "TargetType": {
                "$type": "RPG.GameCore.TargetAlias",
                "Alias": "Caster"
              },
              "Property": "AttackAddedRatio",
              "PropertyValue": {
                "IsDynamic": true,
                "Expressions": [
                  {
                    "Type": "DynamicNumber",
                    "DynamicHash": 68164246
                  }
                ]
              }
            }
          ],
          "Stacking": "ReplaceByCaster",
          "DynamicValues": {
            "Values": {
              "68164246": {}
            }
          }
        }
      },
      "Name": "Avatar_Herta_Skill03_Phase02",
      "TargetInfo": {
        "TargetType": "AllEnemy"
      },
      "OnStart": [
        {
          "$type": "RPG.GameCore.PredicateTaskList",
          "Predicate": {
            "$type": "RPG.GameCore.BySkillPointActivated",
            "PointTriggerKey": {
              "Hash": 1455742905
            }
          },
          "SuccessTaskList": [
            {
              "$type": "RPG.GameCore.Retarget",
              "TargetType": {
                "$type": "RPG.GameCore.TargetAlias",
                "Alias": "AllEnemy"
              },
              "TaskList": [
                {
                  "$type": "RPG.GameCore.PredicateTaskList",
                  "Predicate": {
                    "$type": "RPG.GameCore.ByContainBehaviorFlag",
                    "TargetType": {
                      "$type": "RPG.GameCore.TargetAlias",
                      "Alias": "ParamEntity"
                    },
                    "Flag": "STAT_CTRL_Frozen"
                  },
                  "SuccessTaskList": [
                    {
                      "$type": "RPG.GameCore.AddModifier",
                      "TargetType": {
                        "$type": "RPG.GameCore.TargetAlias",
                        "Alias": "ParamEntity"
                      },
                      "ModifierName": "MAvatar_Herta_SkillTree03_AddDamageUp",
                      "DynamicValues": {
                        "MDF_AllDamageTakenRatio": {
                          "IsDynamic": true,
                          "Expressions": [
                            {
                              "Type": "DynamicNumber",
                              "DynamicHash": -1040794963
                            }
                          ]
                        }
                      }
                    }
                  ]
                }
              ]
            }
          ]
        },
        {
          "$type": "RPG.GameCore.WaitAnimState",
          "TargetType": {
            "$type": "RPG.GameCore.TargetAlias",
            "Alias": "Caster"
          },
          "AnimStateName": "Skill03",
          "NormalizedTimeEnd": {
            "IsDynamic": false,
            "FixedValue": {
              "Value": 0.8600000008009374
            }
          }
        },
        {
          "$type": "RPG.GameCore.DamageByAttackProperty",
          "TargetType": {
            "$type": "RPG.GameCore.TargetAlias",
            "Alias": "AllEnemy"
          },
          "AttackProperty": {
            "DamageType": "Ice",
            "DamagePercentage": {
              "IsDynamic": true,
              "Expressions": [
                {
                  "Type": "DynamicNumber",
                  "DynamicHash": -56289053
                }
              ]
            },
            "StanceValue": {
              "IsDynamic": true,
              "Expressions": [
                {
                  "Type": "DynamicNumber",
                  "DynamicHash": 1182064154
                }
              ]
            },
            "SPHitRatio": {
              "IsDynamic": false,
              "FixedValue": {
                "Value": 1
              }
            },
            "HitAnimation": "Hit",
            "HitPosHeight": 0.8
          },
          "CanTriggerLastKill": true
        },
        {
          "$type": "RPG.GameCore.DamagePerformFinish"
        },
        {
          "$type": "RPG.GameCore.PredicateTaskList",
          "Predicate": {
            "$type": "RPG.GameCore.ByRankActivated",
            "TriggerKey": {
              "Hash": -1445815962
            }
          },
          "SuccessTaskList": [
            {
              "$type": "RPG.GameCore.AddModifier",
              "TargetType": {
                "$type": "RPG.GameCore.TargetAlias",
                "Alias": "Caster"
              },
              "ModifierName": "MAvatar_Herta_SkillRank06_AttackUP",
              "LifeStepImmediately": true,
              "LifeTime": {
                "IsDynamic": true,
                "Expressions": [
                  {
                    "Type": "DynamicNumber",
                    "DynamicHash": -1302466360
                  }
                ]
              },
              "DynamicValues": {
                "MDF_AttackAddRatio": {
                  "IsDynamic": true,
                  "Expressions": [
                    {
                      "Type": "DynamicNumber",
                      "DynamicHash": -1112163038
                    }
                  ]
                }
              }
            }
          ]
        },
        {
          "$type": "RPG.GameCore.TriggerSkipDeadHandler"
        },
        {
          "$type": "RPG.GameCore.RemoveModifier",
          "TargetType": {
            "$type": "RPG.GameCore.TargetAlias",
            "Alias": "AllEnemy"
          },
          "ModifierName": "MAvatar_Herta_SkillTree03_AddDamageUp"
        },
        {
          "$type": "RPG.GameCore.WaitTimelineFinish",
          "TimelineName": "Character_Herta_00_Skill03_TimeLine"
        },
        {
          "$type": "RPG.GameCore.WaitAnimState",
          "TargetType": {
            "$type": "RPG.GameCore.TargetAlias",
            "Alias": "Caster"
          },
          "AnimStateName": "Skill03",
          "NormalizedTimeEnd": {
            "IsDynamic": false,
            "FixedValue": {
              "Value": 0.9900000009220093
            }
          }
        },
        {
          "$type": "RPG.GameCore.SkillPerformFinish"
        }
      ]
    },
    {
      "Modifiers": {
        "MAvatar_Herta_Passive": {
          "OnListenHPChange": [
            {
              "$type": "RPG.GameCore.SetDynamicValueByProperty",
              "DynamicKey": "MDF_MaxHP",
              "ReadTargetType": {
                "$type": "RPG.GameCore.TargetAlias",
                "Alias": "ParamEntity"
              },
              "Value": "MaxHP"
            },
            {
              "$type": "RPG.GameCore.PredicateTaskList",
              "Predicate": {
                "$type": "RPG.GameCore.ByCompareAbilityProperty",
                "TargetType": {
                  "$type": "RPG.GameCore.TargetAlias",
                  "Alias": "ParamEntity"
                },
                "Property": "CurrentHP",
                "CompareType": "LessEqual",
                "CompareValue": {
                  "IsDynamic": true,
                  "Expressions": [
                    {
                      "Type": "DynamicNumber",
                      "DynamicHash": -1610876898
                    },
                    {
                      "Type": "DynamicNumber",
                      "DynamicHash": 1052225967
                    },
                    {
                      "Type": "Mul"
                    }
                  ]
                }
              },
              "SuccessTaskList": [
                {
                  "$type": "RPG.GameCore.PredicateTaskList",
                  "Predicate": {
                    "$type": "RPG.GameCore.ByAnd",
                    "PredicateList": [
                      {
                        "$type": "RPG.GameCore.ByTargetTeam",
                        "TargetType": {
                          "$type": "RPG.GameCore.TargetAlias",
                          "Alias": "ParamEntity2"
                        },
                        "Team": "TeamLight"
                      },
                      {
                        "$type": "RPG.GameCore.ByIsEnemy",
                        "TargetTypeA": {
                          "$type": "RPG.GameCore.TargetAlias",
                          "Alias": "ParamEntity"
                        },
                        "TargetTypeB": {
                          "$type": "RPG.GameCore.TargetAlias",
                          "Alias": "Caster"
                        }
                      },
                      {
                        "$type": "RPG.GameCore.ByCompareDynamicValue",
                        "TargetType": {
                          "$type": "RPG.GameCore.TargetAlias",
                          "Alias": "ParamEntity"
                        },
                        "DynamicKey": "MAvatar_Herta_Passive_CoolDown",
                        "CompareType": "Equal",
                        "CompareValue": {
                          "IsDynamic": true,
                          "Expressions": [
                            {
                              "Type": "FixedNumber",
                              "FixedValue": {
                                "Value": 0
                              }
                            }
                          ]
                        }
                      },
                      {
                        "$type": "RPG.GameCore.ByNot",
                        "Predicate": {
                          "$type": "RPG.GameCore.ByContainBehaviorFlag",
                          "TargetType": {
                            "$type": "RPG.GameCore.TargetAlias",
                            "Alias": "Caster"
                          },
                          "Flag": "STAT_CTRL"
                        }
                      }
                    ]
                  },
                  "SuccessTaskList": [
                    {
                      "$type": "RPG.GameCore.PredicateTaskList",
                      "Predicate": {
                        "$type": "RPG.GameCore.ByHaveEnemyAlive",
                        "TargetType": {
                          "$type": "RPG.GameCore.TargetAlias",
                          "Alias": "Caster"
                        }
                      },
                      "SuccessTaskList": [
                        {
                          "$type": "RPG.GameCore.AddModifier",
                          "TargetType": {
                            "$type": "RPG.GameCore.TargetAlias",
                            "Alias": "Caster"
                          },
                          "ModifierName": "MAvatar_Herta_Passive_ATK"
                        },
                        {
                          "$type": "RPG.GameCore.DefineDynamicValue",
                          "TargetType": {
                            "$type": "RPG.GameCore.TargetAlias",
                            "Alias": "ParamEntity"
                          },
                          "DynamicKey": "MAvatar_Herta_Passive_CoolDown",
                          "ResetValue": {
                            "IsDynamic": false,
                            "FixedValue": {
                              "Value": 1
                            }
                          },
                          "ContextScope": "TargetEntity"
                        },
                        {
                          "$type": "RPG.GameCore.SetDynamicValue",
                          "TargetType": {
                            "$type": "RPG.GameCore.TargetAlias",
                            "Alias": "Caster"
                          },
                          "DynamicKey": "Herta_Count",
                          "Value": {
                            "IsDynamic": true,
                            "Expressions": [
                              {
                                "Type": "DynamicNumber",
                                "DynamicHash": 1365782798
                              },
                              {
                                "Type": "FixedNumber",
                                "FixedValue": {
                                  "Value": 1
                                }
                              },
                              {
                                "Type": "Add"
                              }
                            ]
                          }
                        }
                      ],
                      "FailedTaskList": [
                        {
                          "$type": "RPG.GameCore.SetDynamicValue",
                          "TargetType": {
                            "$type": "RPG.GameCore.TargetAlias",
                            "Alias": "Caster"
                          },
                          "DynamicKey": "Herta_Count",
                          "Value": {
                            "IsDynamic": false,
                            "FixedValue": {
                              "Value": 0
                            }
                          }
                        },
                        {
                          "$type": "RPG.GameCore.SetDynamicValue",
                          "TargetType": {
                            "$type": "RPG.GameCore.TargetAlias",
                            "Alias": "Caster"
                          },
                          "DynamicKey": "Scoring_Herta_Count",
                          "Value": {
                            "IsDynamic": false,
                            "FixedValue": {
                              "Value": 0
                            }
                          }
                        }
                      ]
                    }
                  ],
                  "FailedTaskList": [
                    {
                      "$type": "RPG.GameCore.DefineDynamicValue",
                      "TargetType": {
                        "$type": "RPG.GameCore.TargetAlias",
                        "Alias": "ParamEntity"
                      },
                      "DynamicKey": "MAvatar_Herta_Passive_CoolDown",
                      "ResetValue": {
                        "IsDynamic": false,
                        "FixedValue": {
                          "Value": 1
                        }
                      },
                      "ContextScope": "TargetEntity"
                    }
                  ]
                }
              ]
            },
            {
              "$type": "RPG.GameCore.PredicateTaskList",
              "Predicate": {
                "$type": "RPG.GameCore.ByAnd",
                "PredicateList": [
                  {
                    "$type": "RPG.GameCore.ByCompareAbilityProperty",
                    "TargetType": {
                      "$type": "RPG.GameCore.TargetAlias",
                      "Alias": "ParamEntity"
                    },
                    "Property": "CurrentHP",
                    "CompareType": "Greater",
                    "CompareValue": {
                      "IsDynamic": true,
                      "Expressions": [
                        {
                          "Type": "DynamicNumber",
                          "DynamicHash": -1610876898
                        },
                        {
                          "Type": "DynamicNumber",
                          "DynamicHash": 1052225967
                        },
                        {
                          "Type": "Mul"
                        }
                      ]
                    }
                  }
                ]
              },
              "SuccessTaskList": [
                {
                  "$type": "RPG.GameCore.DefineDynamicValue",
                  "TargetType": {
                    "$type": "RPG.GameCore.TargetAlias",
                    "Alias": "ParamEntity"
                  },
                  "DynamicKey": "MAvatar_Herta_Passive_CoolDown",
                  "ContextScope": "TargetEntity"
                }
              ]
            }
          ],
          "OnWaveMonster": [
            {
              "$type": "RPG.GameCore.SetDynamicValue",
              "TargetType": {
                "$type": "RPG.GameCore.TargetAlias",
                "Alias": "Caster"
              },
              "DynamicKey": "Herta_Count",
              "Value": {
                "IsDynamic": false,
                "FixedValue": {
                  "Value": 0
                }
              }
            },
            {
              "$type": "RPG.GameCore.SetDynamicValue",
              "TargetType": {
                "$type": "RPG.GameCore.TargetAlias",
                "Alias": "Caster"
              },
              "DynamicKey": "Scoring_Herta_Count",
              "Value": {
                "IsDynamic": false,
                "FixedValue": {
                  "Value": 0
                }
              }
            },
            {
              "$type": "RPG.GameCore.SetDynamicValue",
              "TargetType": {
                "$type": "RPG.GameCore.TargetAlias",
                "Alias": "Caster"
              },
              "DynamicKey": "Herta_Count_ATK",
              "Value": {
                "IsDynamic": false,
                "FixedValue": {
                  "Value": 0
                }
              }
            },
            {
              "$type": "RPG.GameCore.RemoveModifier",
              "TargetType": {
                "$type": "RPG.GameCore.TargetAlias",
                "Alias": "Caster"
              },
              "ModifierName": "MAvatar_Herta_Passive_ATK"
            }
          ],
          "DynamicValues": {
            "Values": {
              "-1826473127": {}
            }
          }
        }
      },
      "Name": "Avatar_Herta_PassiveSkill01",
      "TargetInfo": {
        "TargetType": "Caster"
      },
      "OnStart": [
        {
          "$type": "RPG.GameCore.AddModifier",
          "TargetType": {
            "$type": "RPG.GameCore.TargetAlias",
            "Alias": "Caster"
          },
          "ModifierName": "MAvatar_Herta_Passive"
        },
        {
          "$type": "RPG.GameCore.SetDynamicValue",
          "TargetType": {
            "$type": "RPG.GameCore.TargetAlias",
            "Alias": "Caster"
          },
          "DynamicKey": "Herta_Count",
          "Value": {
            "IsDynamic": false,
            "FixedValue": {
              "Value": 0
            }
          }
        },
        {
          "$type": "RPG.GameCore.SetDynamicValue",
          "TargetType": {
            "$type": "RPG.GameCore.TargetAlias",
            "Alias": "Caster"
          },
          "DynamicKey": "Scoring_Herta_Count",
          "Value": {
            "IsDynamic": false,
            "FixedValue": {
              "Value": 0
            }
          }
        },
        {
          "$type": "RPG.GameCore.SetDynamicValue",
          "TargetType": {
            "$type": "RPG.GameCore.TargetAlias",
            "Alias": "Caster"
          },
          "DynamicKey": "Herta_Skill01_Count",
          "Value": {
            "IsDynamic": false,
            "FixedValue": {
              "Value": 0
            }
          }
        },
        {
          "$type": "RPG.GameCore.SetDynamicValue",
          "TargetType": {
            "$type": "RPG.GameCore.TargetAlias",
            "Alias": "Caster"
          },
          "DynamicKey": "Herta_Count_ATK",
          "Value": {
            "IsDynamic": false,
            "FixedValue": {
              "Value": 0
            }
          }
        }
      ]
    },
    {
      "Modifiers": {
        "MAvatar_Herta_SkillRank02_CriticalChance": {
          "LayerAddWhenStack": {
            "IsDynamic": false,
            "FixedValue": {
              "Value": 1
            }
          },
          "OnStack": [
            {
              "$type": "RPG.GameCore.SetDynamicValueByModifierValue",
              "ReadTargetType": {
                "$type": "RPG.GameCore.TargetAlias",
                "Alias": "ModifierOwnerEntity"
              },
              "ValueType": "Layer",
              "Multiplier": {
                "IsDynamic": false,
                "FixedValue": {
                  "Value": 1
                }
              },
              "DynamicKey": "MDF_Count"
            },
            {
              "$type": "RPG.GameCore.StackProperty",
              "TargetType": {
                "$type": "RPG.GameCore.TargetAlias",
                "Alias": "Caster"
              },
              "Property": "CriticalChanceBase",
              "PropertyValue": {
                "IsDynamic": true,
                "Expressions": [
                  {
                    "Type": "DynamicNumber",
                    "DynamicHash": -1154995983
                  },
                  {
                    "Type": "DynamicNumber",
                    "DynamicHash": -2027709849
                  },
                  {
                    "Type": "Mul"
                  }
                ]
              }
            }
          ],
          "Stacking": "ReplaceByCaster",
          "DynamicValues": {
            "Values": {
              "-2027709849": {},
              "-1154995983": {}
            }
          }
        },
        "MAvatar_Herta_SkillRank04_DamageUp": {
          "OnBeforeHit": [
            {
              "$type": "RPG.GameCore.ModifyDamageData",
              "Attacker_AllDamageTypeAddedRatio": {
                "IsDynamic": true,
                "Expressions": [
                  {
                    "Type": "DynamicNumber",
                    "DynamicHash": -524558114
                  }
                ]
              }
            }
          ]
        }
      },
      "Name": "Avatar_Herta_00_PassiveAtkReady_Ability",
      "TargetInfo": {
        "TargetType": "Caster"
      },
      "OnStart": [
        {
          "$type": "RPG.GameCore.PlayTimeline",
          "TimelineName": "Effects/Eff_Prefab/Eff_Avatar/Eff_Herta/Eff_Avatar_Herta_00_Passive_Timeline.playable"
        },
        {
          "$type": "RPG.GameCore.ShowBonusUIEffect",
          "UIPrefabPath": "UI/Battle/SpecialAction/SpecialAction_1013.prefab",
          "TitleTextID": {
            "Hash": 666909237
          }
        },
        {
          "$type": "RPG.GameCore.SetTeamRootOffset",
          "Team": "TeamDark",
          "Reset": true
        },
        {
          "$type": "RPG.GameCore.SetTeamFormation",
          "Team": "TeamDark",
          "FormationType": "DarkTeamNormal",
          "RemoveDying": true,
          "CustomCenterTargetType": {
            "$type": "RPG.GameCore.TargetAlias",
            "Alias": "None"
          }
        },
        {
          "$type": "RPG.GameCore.TriggerAbility",
          "TargetType": {
            "$type": "RPG.GameCore.TargetAlias",
            "Alias": "Caster"
          },
          "AbilityName": "Avatar_Herta_Passive1Atk_Ability_Camera",
          "IsSkillPerform": true
        },
        {
          "$type": "RPG.GameCore.TriggerAnimStateWithMove",
          "TargetType": {
            "$type": "RPG.GameCore.TargetAlias",
            "Alias": "Caster"
          },
          "AnimStateName": "Skill_Passive01",
          "MovingRangeList": [
            {
              "TargetType": {
                "$type": "RPG.GameCore.TargetAlias",
                "Alias": "DarkTeamCenter"
              },
              "OffsetTargetDistance": {
                "IsDynamic": false,
                "FixedValue": {
                  "Value": 3.800000000745058
                }
              },
              "NormalizedTimeStart": {
                "IsDynamic": false,
                "FixedValue": {
                  "Value": 0
                }
              },
              "NormalizedTimeEnd": {
                "IsDynamic": false,
                "FixedValue": {
                  "Value": 0.5000000004656613
                }
              }
            }
          ]
        },
        {
          "$type": "RPG.GameCore.WaitAnimState",
          "TargetType": {
            "$type": "RPG.GameCore.TargetAlias",
            "Alias": "Caster"
          },
          "AnimStateName": "Skill_Passive01",
          "NormalizedTimeEnd": {
            "IsDynamic": false,
            "FixedValue": {
              "Value": 1
            }
          }
        },
        {
          "$type": "RPG.GameCore.ConditionLoopExecuteTaskList",
          "Predicate": {
            "$type": "RPG.GameCore.ByAnd",
            "PredicateList": [
              {
                "$type": "RPG.GameCore.ByCompareDynamicValue",
                "TargetType": {
                  "$type": "RPG.GameCore.TargetAlias",
                  "Alias": "Caster"
                },
                "DynamicKey": "Herta_Count",
                "CompareType": "Greater",
                "CompareValue": {
                  "IsDynamic": false,
                  "FixedValue": {
                    "Value": 0
                  }
                }
              },
              {
                "$type": "RPG.GameCore.ByHaveEnemyAlive",
                "TargetType": {
                  "$type": "RPG.GameCore.TargetAlias",
                  "Alias": "Caster"
                }
              }
            ]
          },
          "TaskList": [
            {
              "$type": "RPG.GameCore.SetDynamicValue",
              "TargetType": {
                "$type": "RPG.GameCore.TargetAlias",
                "Alias": "Caster"
              },
              "DynamicKey": "Herta_Count",
              "Value": {
                "IsDynamic": true,
                "Expressions": [
                  {
                    "Type": "DynamicNumber",
                    "DynamicHash": 1365782798
                  },
                  {
                    "Type": "FixedNumber",
                    "FixedValue": {
                      "Value": 1
                    }
                  },
                  {
                    "Type": "Sub"
                  }
                ]
              }
            },
            {
              "$type": "RPG.GameCore.SetDynamicValue",
              "TargetType": {
                "$type": "RPG.GameCore.TargetAlias",
                "Alias": "Caster"
              },
              "DynamicKey": "Scoring_Herta_Count",
              "Value": {
                "IsDynamic": true,
                "Expressions": [
                  {
                    "Type": "DynamicNumber",
                    "DynamicHash": 1926845408
                  },
                  {
                    "Type": "FixedNumber",
                    "FixedValue": {
                      "Value": 1
                    }
                  },
                  {
                    "Type": "Add"
                  }
                ]
              }
            },
            {
              "$type": "RPG.GameCore.PredicateTaskList",
              "Predicate": {
                "$type": "RPG.GameCore.ByRankActivated",
                "TriggerKey": {
                  "Hash": 523552506
                }
              },
              "SuccessTaskList": [
                {
                  "$type": "RPG.GameCore.AddModifier",
                  "TargetType": {
                    "$type": "RPG.GameCore.TargetAlias",
                    "Alias": "Caster"
                  },
                  "ModifierName": "MAvatar_Herta_SkillRank02_CriticalChance",
                  "MaxLayer": {
                    "IsDynamic": true,
                    "Expressions": [
                      {
                        "Type": "DynamicNumber",
                        "DynamicHash": -1604531662
                      }
                    ]
                  },
                  "DynamicValues": {
                    "MDF_CriticalChance": {
                      "IsDynamic": true,
                      "Expressions": [
                        {
                          "Type": "DynamicNumber",
                          "DynamicHash": 306633367
                        }
                      ]
                    }
                  }
                }
              ]
            },
            {
              "$type": "RPG.GameCore.TriggerAnimState",
              "TargetType": {
                "$type": "RPG.GameCore.TargetAlias",
                "Alias": "Caster"
              },
              "AnimStateName": "Skill_Passive01_Loop1"
            },
            {
              "$type": "RPG.GameCore.WaitSecond",
              "WaitTime": 0.04
            },
            {
              "$type": "RPG.GameCore.PredicateTaskList",
              "Predicate": {
                "$type": "RPG.GameCore.ByRankActivated",
                "TriggerKey": {
                  "Hash": 1686351920
                }
              },
              "SuccessTaskList": [
                {
                  "$type": "RPG.GameCore.AddModifier",
                  "TargetType": {
                    "$type": "RPG.GameCore.TargetAlias",
                    "Alias": "Caster"
                  },
                  "ModifierName": "MAvatar_Herta_SkillRank04_DamageUp",
                  "DynamicValues": {
                    "SkillRank_Rank04_P1_DamagePercentage": {
                      "IsDynamic": true,
                      "Expressions": [
                        {
                          "Type": "DynamicNumber",
                          "DynamicHash": -815613313
                        }
                      ]
                    }
                  }
                }
              ]
            },
            {
              "$type": "RPG.GameCore.DamageByAttackProperty",
              "TargetType": {
                "$type": "RPG.GameCore.TargetAlias",
                "Alias": "AllEnemy"
              },
              "AttackProperty": {
                "DamageType": "Ice",
                "DamagePercentage": {
                  "IsDynamic": true,
                  "Expressions": [
                    {
                      "Type": "DynamicNumber",
                      "DynamicHash": 644848458
                    }
                  ]
                },
                "StanceValue": {
                  "IsDynamic": true,
                  "Expressions": [
                    {
                      "Type": "DynamicNumber",
                      "DynamicHash": 1182064154
                    }
                  ]
                },
                "SPHitRatio": {
                  "IsDynamic": false,
                  "FixedValue": {
                    "Value": 1
                  }
                },
                "AttackType": "Insert",
                "HitAnimation": "Hit",
                "HitEffect": "Effects/Eff_Prefab/Eff_Avatar/Eff_Herta/Eff_Avatar_Herta_00_Passive_Hit01.prefab",
                "HitPosHeight": 1,
                "HitAngleHorizontal": -80
              },
              "SpecialHitSoundEvent": "Ev_sfx_avatar_skill_bonus_cast_hit_herta",
              "CanTriggerLastKill": true,
              "CanOverkill": false
            },
            {
              "$type": "RPG.GameCore.PredicateTaskList",
              "Predicate": {
                "$type": "RPG.GameCore.ByNot",
                "Predicate": {
                  "$type": "RPG.GameCore.ByHaveEnemyAlive",
                  "TargetType": {
                    "$type": "RPG.GameCore.TargetAlias",
                    "Alias": "Caster"
                  }
                }
              },
              "SuccessTaskList": [
                {
                  "$type": "RPG.GameCore.DamagePerformFinish"
                },
                {
                  "$type": "RPG.GameCore.RemoveModifier",
                  "TargetType": {
                    "$type": "RPG.GameCore.TargetAlias",
                    "Alias": "Caster"
                  },
                  "ModifierName": "MAvatar_Herta_SkillRank04_DamageUp"
                },
                {
                  "$type": "RPG.GameCore.VCameraConfigChange",
                  "CameraConfig": {
                    "ShakeTemplateName": "Herta_Passive"
                  }
                },
                {
                  "$type": "RPG.GameCore.WaitAnimState",
                  "TargetType": {
                    "$type": "RPG.GameCore.TargetAlias",
                    "Alias": "Caster"
                  },
                  "AnimStateName": "Skill_Passive01_Loop1",
                  "NormalizedTimeEnd": {
                    "IsDynamic": false,
                    "FixedValue": {
                      "Value": 1
                    }
                  }
                },
                {
                  "$type": "RPG.GameCore.TriggerAnimStateWithMove",
                  "TargetType": {
                    "$type": "RPG.GameCore.TargetAlias",
                    "Alias": "Caster"
                  },
                  "AnimStateName": "Skill_Passive01_End",
                  "MovingRangeList": [
                    {
                      "TargetType": {
                        "$type": "RPG.GameCore.TargetAlias",
                        "Alias": "TeamFormation"
                      },
                      "OffsetTargetDistance": {
                        "IsDynamic": false,
                        "FixedValue": {
                          "Value": 0
                        }
                      },
                      "NormalizedTimeStart": {
                        "IsDynamic": false,
                        "FixedValue": {
                          "Value": 0.5000000004656613
                        }
                      },
                      "NormalizedTimeEnd": {
                        "IsDynamic": false,
                        "FixedValue": {
                          "Value": 0.6800000006332994
                        }
                      }
                    }
                  ]
                },
                {
                  "$type": "RPG.GameCore.WaitSecond",
                  "WaitTime": 0.05
                },
                {
                  "$type": "RPG.GameCore.RemoveEffect",
                  "TargetType": {
                    "$type": "RPG.GameCore.TargetAlias",
                    "Alias": "Caster"
                  },
                  "EffectPath": "Effects/Eff_Prefab/Eff_Avatar/Eff_Herta/Eff_Avatar_Herta_00_Passive_Loop01.prefab"
                },
                {
                  "$type": "RPG.GameCore.DefineDynamicValue",
                  "TargetType": {
                    "$type": "RPG.GameCore.TargetAlias",
                    "Alias": "Caster"
                  },
                  "DynamicKey": "Herta_Count",
                  "ContextScope": "TargetEntity"
                },
                {
                  "$type": "RPG.GameCore.SetDynamicValue",
                  "TargetType": {
                    "$type": "RPG.GameCore.TargetAlias",
                    "Alias": "Caster"
                  },
                  "DynamicKey": "Scoring_Herta_Count",
                  "Value": {
                    "IsDynamic": false,
                    "FixedValue": {
                      "Value": 0
                    }
                  }
                },
                {
                  "$type": "RPG.GameCore.DefineDynamicValue",
                  "TargetType": {
                    "$type": "RPG.GameCore.TargetAlias",
                    "Alias": "Caster"
                  },
                  "DynamicKey": "Herta_Count_ATK",
                  "ContextScope": "TargetEntity"
                },
                {
                  "$type": "RPG.GameCore.WaitAnimState",
                  "TargetType": {
                    "$type": "RPG.GameCore.TargetAlias",
                    "Alias": "Caster"
                  },
                  "AnimStateName": "Skill_Passive01_End",
                  "NormalizedTimeEnd": {
                    "IsDynamic": false,
                    "FixedValue": {
                      "Value": 1
                    }
                  }
                },
                {
                  "$type": "RPG.GameCore.RemoveModifier",
                  "TargetType": {
                    "$type": "RPG.GameCore.TargetAlias",
                    "Alias": "Caster"
                  },
                  "ModifierName": "MAvatar_Herta_Passive_ATK"
                }
              ],
              "FailedTaskList": [
                {
                  "$type": "RPG.GameCore.PredicateTaskList",
                  "Predicate": {
                    "$type": "RPG.GameCore.ByAnd",
                    "PredicateList": [
                      {
                        "$type": "RPG.GameCore.ByCompareDynamicValue",
                        "TargetType": {
                          "$type": "RPG.GameCore.TargetAlias",
                          "Alias": "Caster"
                        },
                        "DynamicKey": "Herta_Count",
                        "CompareType": "Equal",
                        "CompareValue": {
                          "IsDynamic": false,
                          "FixedValue": {
                            "Value": 0
                          }
                        }
                      }
                    ]
                  },
                  "SuccessTaskList": [
                    {
                      "$type": "RPG.GameCore.DamagePerformFinish"
                    },
                    {
                      "$type": "RPG.GameCore.RemoveModifier",
                      "TargetType": {
                        "$type": "RPG.GameCore.TargetAlias",
                        "Alias": "Caster"
                      },
                      "ModifierName": "MAvatar_Herta_SkillRank04_DamageUp"
                    },
                    {
                      "$type": "RPG.GameCore.VCameraConfigChange",
                      "CameraConfig": {
                        "ShakeTemplateName": "Herta_Passive"
                      }
                    },
                    {
                      "$type": "RPG.GameCore.WaitAnimState",
                      "TargetType": {
                        "$type": "RPG.GameCore.TargetAlias",
                        "Alias": "Caster"
                      },
                      "AnimStateName": "Skill_Passive01_Loop1",
                      "NormalizedTimeEnd": {
                        "IsDynamic": false,
                        "FixedValue": {
                          "Value": 1
                        }
                      }
                    },
                    {
                      "$type": "RPG.GameCore.TriggerAnimState",
                      "TargetType": {
                        "$type": "RPG.GameCore.TargetAlias",
                        "Alias": "Caster"
                      },
                      "AnimStateName": "Skill_Passive01_End",
                      "NormalizedTimeEnd": {
                        "IsDynamic": false,
                        "FixedValue": {
                          "Value": 1
                        }
                      },
                      "NormalizedTimeWait": {
                        "IsDynamic": false,
                        "FixedValue": {
                          "Value": 0.6530000003986061
                        }
                      }
                    },
                    {
                      "$type": "RPG.GameCore.RemoveModifier",
                      "TargetType": {
                        "$type": "RPG.GameCore.TargetAlias",
                        "Alias": "Caster"
                      },
                      "ModifierName": "MAvatar_Herta_Passive_ATK"
                    },
                    {
                      "$type": "RPG.GameCore.DefineDynamicValue",
                      "TargetType": {
                        "$type": "RPG.GameCore.TargetAlias",
                        "Alias": "Caster"
                      },
                      "DynamicKey": "Herta_Count_ATK",
                      "ContextScope": "TargetEntity"
                    },
                    {
                      "$type": "RPG.GameCore.DefineDynamicValue",
                      "TargetType": {
                        "$type": "RPG.GameCore.TargetAlias",
                        "Alias": "Caster"
                      },
                      "DynamicKey": "Herta_Count",
                      "ContextScope": "TargetEntity"
                    },
                    {
                      "$type": "RPG.GameCore.SetDynamicValue",
                      "TargetType": {
                        "$type": "RPG.GameCore.TargetAlias",
                        "Alias": "Caster"
                      },
                      "DynamicKey": "Scoring_Herta_Count",
                      "Value": {
                        "IsDynamic": false,
                        "FixedValue": {
                          "Value": 0
                        }
                      }
                    },
                    {
                      "$type": "RPG.GameCore.TriggerSkipDeadHandler"
                    },
                    {
                      "$type": "RPG.GameCore.DefineDynamicValue",
                      "TargetType": {
                        "$type": "RPG.GameCore.TargetAlias",
                        "Alias": "Caster"
                      },
                      "DynamicKey": "Herta_Count",
                      "ContextScope": "TargetEntity"
                    }
                  ],
                  "FailedTaskList": [
                    {
                      "$type": "RPG.GameCore.RemoveModifier",
                      "TargetType": {
                        "$type": "RPG.GameCore.TargetAlias",
                        "Alias": "Caster"
                      },
                      "ModifierName": "MAvatar_Herta_SkillRank04_DamageUp"
                    },
                    {
                      "$type": "RPG.GameCore.VCameraConfigChange",
                      "CameraConfig": {
                        "ShakeTemplateName": "Herta_Passive"
                      }
                    },
                    {
                      "$type": "RPG.GameCore.WaitAnimState",
                      "TargetType": {
                        "$type": "RPG.GameCore.TargetAlias",
                        "Alias": "Caster"
                      },
                      "AnimStateName": "Skill_Passive01_Loop1",
                      "NormalizedTimeEnd": {
                        "IsDynamic": false,
                        "FixedValue": {
                          "Value": 1
                        }
                      }
                    },
                    {
                      "$type": "RPG.GameCore.TriggerAnimState",
                      "TargetType": {
                        "$type": "RPG.GameCore.TargetAlias",
                        "Alias": "Caster"
                      },
                      "AnimStateName": "Skill_Passive01_Loop2"
                    },
                    {
                      "$type": "RPG.GameCore.WaitAnimState",
                      "TargetType": {
                        "$type": "RPG.GameCore.TargetAlias",
                        "Alias": "Caster"
                      },
                      "AnimStateName": "Skill_Passive01_Loop2",
                      "NormalizedTimeEnd": {
                        "IsDynamic": false,
                        "FixedValue": {
                          "Value": 1
                        }
                      }
                    }
                  ]
                }
              ]
            }
          ]
        }
      ]
    },
    {
      "Modifiers": {
        "SkillMaze_Herta_Modifier": {
          "EnterBattlePriority": "CharacterBuff",
          "OnEnterBattle": [
            {
              "$type": "RPG.GameCore.PredicateTaskList",
              "Predicate": {
                "$type": "RPG.GameCore.ByCompareWaveCount",
                "CompareType": "Equal",
                "CompareValue": {
                  "IsDynamic": false,
                  "FixedValue": {
                    "Value": 1
                  }
                }
              },
              "SuccessTaskList": [
                {
                  "$type": "RPG.GameCore.AddModifier",
                  "TargetType": {
                    "$type": "RPG.GameCore.TargetAlias",
                    "Alias": "Caster"
                  },
                  "ModifierName": "MAvatar_Herta_00_MazeSkill_AttackRatioUp",
                  "LifeTime": {
                    "IsDynamic": true,
                    "Expressions": [
                      {
                        "Type": "DynamicNumber",
                        "DynamicHash": -2081277152
                      }
                    ]
                  },
                  "DynamicValues": {
                    "MDF_PropertyValue": {
                      "IsDynamic": true,
                      "Expressions": [
                        {
                          "Type": "DynamicNumber",
                          "DynamicHash": -201412227
                        }
                      ]
                    }
                  }
                }
              ],
              "FailedTaskList": []
            }
          ]
        },
        "MAvatar_Herta_00_MazeSkill_AttackRatioUp": {
          "OnStack": [
            {
              "$type": "RPG.GameCore.StackProperty",
              "TargetType": {
                "$type": "RPG.GameCore.TargetAlias",
                "Alias": "ModifierOwnerEntity"
              },
              "Property": "AttackAddedRatio",
              "PropertyValue": {
                "IsDynamic": true,
                "Expressions": [
                  {
                    "Type": "DynamicNumber",
                    "DynamicHash": 2128130574
                  }
                ]
              }
            }
          ],
          "Stacking": "ReplaceByCaster",
          "DynamicValues": {
            "Values": {
              "2128130574": {}
            }
          }
        }
      },
      "Name": "Avatar_Herta_00_SkillMazeInLevel",
      "TargetInfo": {
        "TargetType": "Caster"
      },
      "OnStart": [
        {
          "$type": "RPG.GameCore.AddModifier",
          "TargetType": {
            "$type": "RPG.GameCore.TargetAlias",
            "Alias": "Caster"
          },
          "ModifierName": "SkillMaze_Herta_Modifier"
        }
      ]
    },
    {
      "Modifiers": {
        "MAvatar_Herta_SkillTree02_Resistance": {
          "OnStack": [
            {
              "$type": "RPG.GameCore.StackStatusResistance",
              "TargetType": {
                "$type": "RPG.GameCore.TargetAlias",
                "Alias": "Caster"
              },
              "BehaviorFlag": "STAT_CTRL",
              "Resistance": {
                "IsDynamic": true,
                "Expressions": [
                  {
                    "Type": "DynamicNumber",
                    "DynamicHash": 741349151
                  }
                ]
              }
            }
          ],
          "DynamicValues": {
            "Values": {
              "741349151": {}
            }
          }
        }
      },
      "Name": "Avatar_Herta_00_SkillTree02",
      "TargetInfo": {
        "TargetType": "Caster"
      },
      "OnStart": [
        {
          "$type": "RPG.GameCore.AddModifier",
          "TargetType": {
            "$type": "RPG.GameCore.TargetAlias",
            "Alias": "Caster"
          },
          "ModifierName": "MAvatar_Herta_SkillTree02_Resistance",
          "DynamicValues": {
            "MDF_Resistance": {
              "IsDynamic": true,
              "Expressions": [
                {
                  "Type": "DynamicNumber",
                  "DynamicHash": 481594005
                }
              ]
            }
          }
        }
      ]
    }
  ],
  "GlobalModifiers": {
    "MAvatar_Herta_Passive_Charge": {
      "MaxLayer": 4,
      "LayerAddWhenStack": {
        "IsDynamic": false,
        "FixedValue": {
          "Value": 1
        }
      },
      "OnStack": [
        {
          "$type": "RPG.GameCore.TriggerEffect",
          "TargetType": {
            "$type": "RPG.GameCore.TargetAlias",
            "Alias": "Caster"
          },
          "EffectPath": "Effects/Eff_Prefab/Eff_Avatar/Eff_Bronya/Eff_Avatar_Bronya_00_Skill03_Buff_Self.prefab"
        },
        {
          "$type": "RPG.GameCore.SetDynamicValueByModifierValue",
          "ReadTargetType": {
            "$type": "RPG.GameCore.TargetAlias",
            "Alias": "ModifierOwnerEntity"
          },
          "ValueType": "Layer",
          "Multiplier": {
            "IsDynamic": false,
            "FixedValue": {
              "Value": 1
            }
          },
          "DynamicKey": "MDF_Layer"
        }
      ],
      "UIConfig": {
        "UIPosition": "UI_Middle"
      },
      "Stacking": "ReplaceByCaster"
    },
    "MAvatar_Herta_Passive_ATK": {
      "OnListenAfterAttack": [
        {
          "$type": "RPG.GameCore.PredicateTaskList",
          "Predicate": {
            "$type": "RPG.GameCore.ByAnd",
            "PredicateList": [
              {
                "$type": "RPG.GameCore.ByCompareDynamicValue",
                "TargetType": {
                  "$type": "RPG.GameCore.TargetAlias",
                  "Alias": "Caster"
                },
                "DynamicKey": "Herta_Count_ATK",
                "CompareType": "Equal",
                "CompareValue": {
                  "IsDynamic": false,
                  "FixedValue": {
                    "Value": 0
                  }
                }
              },
              {
                "$type": "RPG.GameCore.ByCompareDynamicValue",
                "TargetType": {
                  "$type": "RPG.GameCore.TargetAlias",
                  "Alias": "Caster"
                },
                "DynamicKey": "Herta_Count",
                "CompareType": "Greater",
                "CompareValue": {
                  "IsDynamic": false,
                  "FixedValue": {
                    "Value": 0
                  }
                }
              },
              {
                "$type": "RPG.GameCore.ByTargetTeam",
                "TargetType": {
                  "$type": "RPG.GameCore.TargetAlias",
                  "Alias": "ParamEntity"
                },
                "Team": "TeamLight"
              }
            ]
          },
          "SuccessTaskList": [
            {
              "$type": "RPG.GameCore.PredicateTaskList",
              "Predicate": {
                "$type": "RPG.GameCore.ByAnd",
                "PredicateList": [
                  {
                    "$type": "RPG.GameCore.ByHaveEnemyAlive",
                    "TargetType": {
                      "$type": "RPG.GameCore.TargetAlias",
                      "Alias": "Caster"
                    }
                  }
                ]
              },
              "SuccessTaskList": [
                {
                  "$type": "RPG.GameCore.SetDynamicValue",
                  "TargetType": {
                    "$type": "RPG.GameCore.TargetAlias",
                    "Alias": "Caster"
                  },
                  "DynamicKey": "Herta_Count_ATK",
                  "Value": {
                    "IsDynamic": false,
                    "FixedValue": {
                      "Value": 1
                    }
                  }
                },
                {
                  "$type": "RPG.GameCore.TurnInsertAbility",
                  "AbilityName": "Avatar_Herta_00_PassiveAtkReady_Ability",
                  "TargetType": {
                    "$type": "RPG.GameCore.TargetAlias",
                    "Alias": "Caster"
                  },
                  "AbilityTarget": {
                    "$type": "RPG.GameCore.TargetAlias",
                    "Alias": "AllEnemy"
                  },
                  "AbortBehaviorFlags": [
                    "STAT_CTRL",
                    "DisableAction"
                  ],
                  "InsertAbilityPriority": "AvatarInsertAttackSelf",
                  "ShowInActionBar": true
                }
              ],
              "FailedTaskList": []
            }
          ]
        }
      ]
    }
  }
}