{
  "MainMissionID": 3011601,
  "StartSubMissionList": [
    301160101
  ],
  "FinishSubMissionList": [
    301160103
  ],
  "SubMissionList": [
    {
      "MainMissionID": 3011601,
      "MissionJsonPath": "Config/Level/Mission/3011601/Mission_301160101.json",
      "TakeType": "Auto",
      "ID": 301160101,
      "MazePlaneID": 20111,
      "MazeFloorID": 20111001,
      "FinishType": "InteractPropList",
      "ParamType": "ListContain",
      "ParamInt1": 75,
      "ParamIntList": [
        300001
      ],
      "ParamItemList": [],
      "Progress": 1
    },
    {
      "MainMissionID": 3011601,
      "MissionJsonPath": "Config/Level/Mission/3011601/Mission_301160102.json",
      "TakeType": "Auto",
      "ID": 301160102,
      "FinishType": "Talk",
      "ParamType": "Equal",
      "ParamStr1": "Mission_301160102",
      "ParamItemList": [],
      "Progress": 1
    },
    {
      "MainMissionID": 3011601,
      "MissionJsonPath": "Config/Level/Mission/3011601/Mission_301160103.json",
      "TakeType": "AnySequence",
      "TakeParamIntList": [
        301160101
      ],
      "ID": 301160103,
      "FinishType": "Talk",
      "ParamType": "Equal",
      "ParamStr1": "Mission_301160103",
      "ParamItemList": [],
      "Progress": 1
    }
  ]
}