{
  "MainMissionID": 1000204,
  "StartSubMissionList": [
    100020133
  ],
  "FinishSubMissionList": [
    100020133
  ],
  "SubMissionList": [
    {
      "MainMissionID": 1000204,
      "MissionJsonPath": "Config/Level/Mission/1000201/Mission_100020133.json",
      "TakeType": "Auto",
      "ID": 100020133,
      "FinishType": "Talk",
      "ParamType": "Equal",
      "ParamStr1": "Mission_100020133",
      "ParamItemList": [],
      "Progress": 1
    }
  ]
}