{
  "MainMissionID": 4050023,
  "StartSubMissionList": [
    405002301
  ],
  "FinishSubMissionList": [
    405002305
  ],
  "SubMissionList": [
    {
      "MainMissionID": 4050023,
      "MissionJsonPath": "Config/Level/Mission/4050023/Mission_405002301.json",
      "TakeType": "Auto",
      "ID": 405002301,
      "FinishType": "Talk",
      "ParamType": "Equal",
      "ParamStr1": "Mission_405002301",
      "ParamItemList": [],
      "Progress": 1
    },
    {
      "MainMissionID": 4050023,
      "MissionJsonPath": "Config/Level/Mission/4050023/Mission_405002302.json",
      "TakeType": "MultiSequence",
      "TakeParamIntList": [
        405002301
      ],
      "ID": 405002302,
      "FinishType": "Talk",
      "ParamType": "Equal",
      "ParamStr1": "Mission_405002302",
      "ParamItemList": [],
      "Progress": 1
    },
    {
      "MainMissionID": 4050023,
      "MissionJsonPath": "Config/Level/Mission/4050023/Mission_405002303.json",
      "TakeType": "MultiSequence",
      "TakeParamIntList": [
        405002301
      ],
      "ID": 405002303,
      "FinishType": "Talk",
      "ParamType": "Equal",
      "ParamStr1": "Mission_405002303",
      "ParamItemList": [],
      "Progress": 1
    },
    {
      "MainMissionID": 4050023,
      "MissionJsonPath": "Config/Level/Mission/4050023/Mission_405002304.json",
      "TakeType": "MultiSequence",
      "TakeParamIntList": [
        405002301
      ],
      "ID": 405002304,
      "FinishType": "Talk",
      "ParamType": "Equal",
      "ParamStr1": "Mission_405002304",
      "ParamItemList": [],
      "Progress": 1
    },
    {
      "MainMissionID": 4050023,
      "MissionJsonPath": "Config/Level/Mission/4050023/Mission_405002305.json",
      "TakeType": "MultiSequence",
      "TakeParamIntList": [
        405002306
      ],
      "ID": 405002305,
      "FinishType": "Talk",
      "ParamType": "Equal",
      "ParamStr1": "Mission_405002305",
      "ParamItemList": [],
      "Progress": 1
    },
    {
      "MainMissionID": 4050023,
      "TakeType": "MultiSequence",
      "TakeParamIntList": [
        405002301
      ],
      "ID": 405002306,
      "FinishType": "SubMissionFinishCnt",
      "ParamType": "ListContain",
      "ParamIntList": [
        405002304
      ],
      "ParamItemList": [],
      "Progress": 1
    }
  ]
}