{
  "MainMissionID": 9099918,
  "StartSubMissionList": [
    909991801,
    909991803
  ],
  "FinishSubMissionList": [
    909991802,
    909991804
  ],
  "SubMissionList": [
    {
      "MainMissionID": 9099918,
      "MissionJsonPath": "Config/Level/Mission/9099918/Mission_909991801.json",
      "TakeType": "Auto",
      "ID": 909991801,
      "FinishType": "GetItem",
      "ParamType": "Equal",
      "ParamInt1": 232,
      "ParamItemList": [],
      "Progress": 1
    },
    {
      "MainMissionID": 9099918,
      "MissionJsonPath": "Config/Level/Mission/9099918/Mission_909991802.json",
      "TakeType": "AnySequence",
      "TakeParamIntList": [
        909991801
      ],
      "ID": 909991802,
      "FinishType": "GetItem",
      "ParamType": "Equal",
      "ParamInt1": 232,
      "ParamItemList": [],
      "Progress": 1
    },
    {
      "MainMissionID": 9099918,
      "MissionJsonPath": "Config/Level/Mission/9099918/Mission_909991803.json",
      "TakeType": "Auto",
      "ID": 909991803,
      "FinishType": "GetItem",
      "ParamType": "Equal",
      "ParamInt1": 232,
      "ParamItemList": [],
      "Progress": 1
    },
    {
      "MainMissionID": 9099918,
      "MissionJsonPath": "Config/Level/Mission/9099918/Mission_909991804.json",
      "TakeType": "AnySequence",
      "TakeParamIntList": [
        909991803
      ],
      "ID": 909991804,
      "FinishType": "GetItem",
      "ParamType": "Equal",
      "ParamInt1": 232,
      "ParamItemList": [],
      "Progress": 1
    }
  ]
}