{
  "OnInitSequece": [],
  "OnStartSequece": [
    {
      "TaskList": [
        {
          "$type": "RPG.GameCore.LevelPerformanceInitialize",
          "LockCamera": false,
          "CreateCharacterList": [],
          "EntityVisiableList": []
        },
        {
          "$type": "RPG.GameCore.AdvNpcFaceToPlayer",
          "GroupID": 9,
          "GroupNpcID": 400002,
          "FinishImmadiate": true
        },
        {
          "$type": "RPG.GameCore.PlaySimpleTalk",
          "SimpleTalkList": [
            {
              "TalkSentenceID": 201221701,
              "ProtectTime": 0.3
            },
            {
              "TalkSentenceID": 201221702,
              "ProtectTime": 0.3
            },
            {
              "TalkSentenceID": 201221703,
              "ProtectTime": 0.3
            },
            {
              "TalkSentenceID": 201221704,
              "ProtectTime": 0.3
            },
            {
              "TalkSentenceID": 201221705,
              "ProtectTime": 0.3
            },
            {
              "TalkSentenceID": 201221706,
              "ProtectTime": 0.3
            },
            {
              "TalkSentenceID": 201221707,
              "ProtectTime": 0.3
            }
          ]
        },
        {
          "$type": "RPG.GameCore.WaitSimpleTalkFinish"
        },
        {
          "$type": "RPG.GameCore.TriggerCustomString",
          "CustomString": {
            "Value": "TalkSentence_201221707"
          }
        }
      ]
    },
    {
      "IsLoop": true,
      "TaskList": [
        {
          "$type": "RPG.GameCore.WaitCustomString",
          "CustomString": {
            "Value": "TalkSentence_201221707"
          }
        },
        {
          "$type": "RPG.GameCore.PlayOptionTalk",
          "OptionList": [
            {
              "TalkSentenceID": 201221708,
              "OptionIconType": "ChatIcon",
              "TriggerCustomString": "Story_201221708"
            },
            {
              "TalkSentenceID": 201221710,
              "OptionIconType": "ChatIcon",
              "TriggerCustomString": "Story_201221710"
            },
            {
              "TalkSentenceID": 201221714,
              "OptionIconType": "ChatIcon",
              "TriggerCustomString": "Story_201221714"
            },
            {
              "TalkSentenceID": 201221718,
              "OptionIconType": "ChatContinueIcon",
              "TriggerCustomString": "TalkSentence_201221718"
            }
          ],
          "HideSelected": true
        }
      ]
    },
    {
      "IsLoop": true,
      "TaskList": [
        {
          "$type": "RPG.GameCore.WaitCustomString",
          "CustomString": {
            "Value": "Story_201221708"
          },
          "WaitOwnerOnly": true
        },
        {
          "$type": "RPG.GameCore.PlaySimpleTalk",
          "SimpleTalkList": [
            {
              "TalkSentenceID": 201221709,
              "ProtectTime": 0.3
            }
          ]
        },
        {
          "$type": "RPG.GameCore.WaitSimpleTalkFinish"
        },
        {
          "$type": "RPG.GameCore.TriggerCustomString",
          "CustomString": {
            "Value": "TalkSentence_201221707"
          }
        }
      ]
    },
    {
      "IsLoop": true,
      "TaskList": [
        {
          "$type": "RPG.GameCore.WaitCustomString",
          "CustomString": {
            "Value": "Story_201221710"
          },
          "WaitOwnerOnly": true
        },
        {
          "$type": "RPG.GameCore.PlaySimpleTalk",
          "SimpleTalkList": [
            {
              "TalkSentenceID": 201221711,
              "ProtectTime": 0.3
            },
            {
              "TalkSentenceID": 201221712,
              "ProtectTime": 0.3
            },
            {
              "TalkSentenceID": 201221713,
              "ProtectTime": 0.3
            }
          ]
        },
        {
          "$type": "RPG.GameCore.WaitSimpleTalkFinish"
        },
        {
          "$type": "RPG.GameCore.TriggerCustomString",
          "CustomString": {
            "Value": "TalkSentence_201221707"
          }
        }
      ]
    },
    {
      "IsLoop": true,
      "TaskList": [
        {
          "$type": "RPG.GameCore.WaitCustomString",
          "CustomString": {
            "Value": "Story_201221714"
          },
          "WaitOwnerOnly": true
        },
        {
          "$type": "RPG.GameCore.PlaySimpleTalk",
          "SimpleTalkList": [
            {
              "TalkSentenceID": 201221715,
              "ProtectTime": 0.3
            },
            {
              "TalkSentenceID": 201221716,
              "ProtectTime": 0.3
            },
            {
              "TalkSentenceID": 201221717,
              "ProtectTime": 0.3
            }
          ]
        },
        {
          "$type": "RPG.GameCore.WaitSimpleTalkFinish"
        },
        {
          "$type": "RPG.GameCore.TriggerCustomString",
          "CustomString": {
            "Value": "TalkSentence_201221707"
          }
        }
      ]
    },
    {
      "TaskList": [
        {
          "$type": "RPG.GameCore.WaitCustomString",
          "CustomString": {
            "Value": "TalkSentence_201221718"
          },
          "WaitOwnerOnly": true
        },
        {
          "$type": "RPG.GameCore.PlaySimpleTalk",
          "SimpleTalkList": [
            {
              "TalkSentenceID": 201221719,
              "ProtectTime": 0.3
            },
            {
              "TalkSentenceID": 201221720,
              "ProtectTime": 0.3
            }
          ]
        },
        {
          "$type": "RPG.GameCore.WaitSimpleTalkFinish"
        },
        {
          "$type": "RPG.GameCore.EndPerformance"
        }
      ]
    },
    {
      "TaskList": [
        {
          "$type": "RPG.GameCore.WaitPerformanceEnd"
        },
        {
          "$type": "RPG.GameCore.FinishLevelGraph"
        }
      ]
    }
  ]
}