{
  "OnInitSequece": [],
  "OnStartSequece": [
    {
      "TaskList": [
        {
          "$type": "RPG.GameCore.LevelPerformanceInitialize",
          "PerformanceType": "C",
          "CreateCharacterList": [],
          "EntityVisiableList": [],
          "HideProp": true,
          "EnableRootMotion": false,
          "StreamingCentersInBlackMask": [],
          "StreamingCentersAfterBlackMask": [],
          "MarkStreamingItems": []
        },
        {
          "$type": "RPG.GameCore.TriggerCustomString",
          "CustomString": {
            "Value": "TalkSentence_202110602"
          }
        }
      ]
    },
    {
      "TaskList": [
        {
          "$type": "RPG.GameCore.WaitCustomString",
          "CustomString": {
            "Value": "TalkSentence_202110602"
          }
        },
        {
          "$type": "RPG.GameCore.PlaySimpleTalk",
          "BlackMask": true,
          "SimpleTalkList": [
            {
              "TalkSentenceID": 202110602,
              "ProtectTime": 0.3
            },
            {
              "TalkSentenceID": 202110603,
              "ProtectTime": 0.3
            },
            {
              "TalkSentenceID": 202110604,
              "ProtectTime": 0.3
            },
            {
              "TalkSentenceID": 202110605,
              "ProtectTime": 0.3
            },
            {
              "TalkSentenceID": 202110606,
              "ProtectTime": 0.3
            }
          ]
        },
        {
          "$type": "RPG.GameCore.WaitSimpleTalkFinish"
        },
        {
          "$type": "RPG.GameCore.TriggerCustomString",
          "CustomString": {
            "Value": "Wait_Option_102020104_111"
          }
        }
      ]
    },
    {
      "TaskList": [
        {
          "$type": "RPG.GameCore.WaitCustomString",
          "CustomString": {
            "Value": "Wait_Option_102020104_111"
          }
        },
        {
          "$type": "RPG.GameCore.PlayOptionTalk",
          "OptionList": [
            {
              "TalkSentenceID": 202110607,
              "OptionIconType": "ChatContinueIcon",
              "TriggerCustomString": "TalkSentence_202110620"
            },
            {
              "TalkSentenceID": 202110608,
              "OptionIconType": "ChatContinueIcon",
              "TriggerCustomString": "TalkSentence_202110609"
            },
            {
              "TalkSentenceID": 202110614,
              "OptionIconType": "ChatContinueIcon",
              "TriggerCustomString": "TalkSentence_202110615"
            }
          ]
        }
      ]
    },
    {
      "TaskList": [
        {
          "$type": "RPG.GameCore.WaitCustomString",
          "CustomString": {
            "Value": "TalkSentence_202110609"
          }
        },
        {
          "$type": "RPG.GameCore.PlaySimpleTalk",
          "BlackMask": true,
          "SimpleTalkList": [
            {
              "TalkSentenceID": 202110609,
              "ProtectTime": 0.3
            },
            {
              "TalkSentenceID": 202110610,
              "ProtectTime": 0.3
            }
          ]
        },
        {
          "$type": "RPG.GameCore.WaitSimpleTalkFinish"
        },
        {
          "$type": "RPG.GameCore.TriggerCustomString",
          "CustomString": {
            "Value": "Wait_Option_102020104_116"
          }
        }
      ]
    },
    {
      "TaskList": [
        {
          "$type": "RPG.GameCore.WaitCustomString",
          "CustomString": {
            "Value": "Wait_Option_102020104_116"
          }
        },
        {
          "$type": "RPG.GameCore.PlayOptionTalk",
          "OptionList": [
            {
              "TalkSentenceID": 202110611,
              "OptionIconType": "ChatContinueIcon",
              "TriggerCustomString": "TalkSentence_202110613"
            },
            {
              "TalkSentenceID": 202110612,
              "OptionIconType": "ChatContinueIcon",
              "TriggerCustomString": "TalkSentence_202110613"
            }
          ]
        }
      ]
    },
    {
      "TaskList": [
        {
          "$type": "RPG.GameCore.WaitCustomString",
          "CustomString": {
            "Value": "TalkSentence_202110613"
          }
        },
        {
          "$type": "RPG.GameCore.PlaySimpleTalk",
          "BlackMask": true,
          "SimpleTalkList": [
            {
              "TalkSentenceID": 202110613,
              "ProtectTime": 0.3
            }
          ]
        },
        {
          "$type": "RPG.GameCore.WaitSimpleTalkFinish"
        },
        {
          "$type": "RPG.GameCore.TriggerCustomString",
          "CustomString": {
            "Value": "TalkSentence_202110620"
          }
        }
      ]
    },
    {
      "TaskList": [
        {
          "$type": "RPG.GameCore.WaitCustomString",
          "CustomString": {
            "Value": "TalkSentence_202110615"
          }
        },
        {
          "$type": "RPG.GameCore.PlaySimpleTalk",
          "BlackMask": true,
          "SimpleTalkList": [
            {
              "TalkSentenceID": 202110615,
              "ProtectTime": 0.3
            },
            {
              "TalkSentenceID": 202110616,
              "ProtectTime": 0.3
            }
          ]
        },
        {
          "$type": "RPG.GameCore.WaitSimpleTalkFinish"
        },
        {
          "$type": "RPG.GameCore.TriggerCustomString",
          "CustomString": {
            "Value": "Wait_Option_102020104_124"
          }
        }
      ]
    },
    {
      "TaskList": [
        {
          "$type": "RPG.GameCore.WaitCustomString",
          "CustomString": {
            "Value": "Wait_Option_102020104_124"
          }
        },
        {
          "$type": "RPG.GameCore.PlayOptionTalk",
          "OptionList": [
            {
              "TalkSentenceID": 202110617,
              "OptionIconType": "ChatContinueIcon",
              "TriggerCustomString": "TalkSentence_202110619"
            },
            {
              "TalkSentenceID": 202110618,
              "OptionIconType": "ChatContinueIcon",
              "TriggerCustomString": "TalkSentence_202110619"
            }
          ]
        }
      ]
    },
    {
      "TaskList": [
        {
          "$type": "RPG.GameCore.WaitCustomString",
          "CustomString": {
            "Value": "TalkSentence_202110619"
          }
        },
        {
          "$type": "RPG.GameCore.PlaySimpleTalk",
          "BlackMask": true,
          "SimpleTalkList": [
            {
              "TalkSentenceID": 202110619,
              "ProtectTime": 0.3
            }
          ]
        },
        {
          "$type": "RPG.GameCore.WaitSimpleTalkFinish"
        },
        {
          "$type": "RPG.GameCore.TriggerCustomString",
          "CustomString": {
            "Value": "TalkSentence_202110620"
          }
        }
      ]
    },
    {
      "TaskList": [
        {
          "$type": "RPG.GameCore.WaitCustomString",
          "CustomString": {
            "Value": "TalkSentence_202110620"
          }
        },
        {
          "$type": "RPG.GameCore.PlaySimpleTalk",
          "BlackMask": true,
          "SimpleTalkList": [
            {
              "TalkSentenceID": 202110620,
              "ProtectTime": 0.3
            },
            {
              "TalkSentenceID": 202110621,
              "ProtectTime": 0.3
            },
            {
              "TalkSentenceID": 202110622,
              "ProtectTime": 0.3
            },
            {
              "TalkSentenceID": 202110623,
              "ProtectTime": 0.3
            },
            {
              "TalkSentenceID": 202110624,
              "ProtectTime": 0.3
            },
            {
              "TalkSentenceID": 202110625,
              "ProtectTime": 0.3
            },
            {
              "TalkSentenceID": 202110626,
              "ProtectTime": 0.3
            },
            {
              "TalkSentenceID": 202110627,
              "ProtectTime": 0.3
            },
            {
              "TalkSentenceID": 202110628,
              "ProtectTime": 0.3
            },
            {
              "TalkSentenceID": 202110629,
              "ProtectTime": 0.3
            },
            {
              "TalkSentenceID": 202110630,
              "ProtectTime": 0.3
            },
            {
              "TalkSentenceID": 202110631,
              "ProtectTime": 0.3
            },
            {
              "TalkSentenceID": 202110632,
              "ProtectTime": 0.3
            },
            {
              "TalkSentenceID": 202110633,
              "ProtectTime": 0.3
            }
          ]
        },
        {
          "$type": "RPG.GameCore.WaitSimpleTalkFinish"
        },
        {
          "$type": "RPG.GameCore.TriggerCustomString",
          "CustomString": {
            "Value": "ALL_TALK_END"
          }
        }
      ]
    },
    {
      "TaskList": [
        {
          "$type": "RPG.GameCore.WaitCustomString",
          "CustomString": {
            "Value": "ALL_TALK_END"
          }
        },
        {
          "$type": "RPG.GameCore.EndPerformance"
        }
      ]
    },
    {
      "TaskList": [
        {
          "$type": "RPG.GameCore.WaitPerformanceEnd"
        },
        {
          "$type": "RPG.GameCore.FinishLevelGraph"
        }
      ]
    }
  ]
}