{
  "OnInitSequece": [],
  "OnStartSequece": [
    {
      "IsLoop": true,
      "TaskList": [
        {
          "$type": "RPG.GameCore.WaitUINodeOpen",
          "NodeID": "MazeMainPage.4"
        },
        {
          "$type": "RPG.GameCore.ShowGuide",
          "ID": 101,
          "GuideResID": 1,
          "NodeID": "MazeMainPage.4",
          "Show": true,
          "CopyAnchorAndSale": true,
          "PCGuide": {},
          "AnimConfig": {}
        },
        {
          "$type": "RPG.GameCore.ShowGuideText",
          "ID": 201,
          "GuideResID": 15,
          "NodeID": "MazeMainPage.4",
          "Show": true,
          "Text": "TutorialTextmap_400201",
          "OffsetX": -75,
          "PCGuide": {
            "GuideResID": 15,
            "Path": "Page/MazeMainPage(Clone)/RightTopArea/MainIconItem4",
            "Text": "TutorialTextmap_300101_pc",
            "ControllerText": "TutorialTextmap_300101",
            "ActionName": "Maze_Avatar",
            "OffsetX": -75
          }
        },
        {
          "$type": "RPG.GameCore.WaitUINodeOpen",
          "NodeID": "MazeMainPage.4",
          "Reverse": true
        },
        {
          "$type": "RPG.GameCore.ShowGuideText",
          "ID": 201,
          "GuideResID": 5,
          "Path": "Page",
          "TextPath": "Contents/Text",
          "PCGuide": {
            "UsePCGuide": true,
            "GuideResID": 5,
            "Path": "Page",
            "TextPath": "Contents/Text",
            "ActionName": "Maze_Avatar"
          }
        },
        {
          "$type": "RPG.GameCore.ShowGuide",
          "ID": 101,
          "GuideResID": 1,
          "Path": "Page/MazeMainPage(Clone)/RightTopArea/MainIconItem4",
          "PCGuide": {}
        }
      ]
    },
    {
      "IsLoop": true,
      "TaskList": [
        {
          "$type": "RPG.GameCore.WaitUINodeOpen",
          "NodeID": "ShortCutItem.1"
        },
        {
          "$type": "RPG.GameCore.ShowGuide",
          "ID": 102,
          "GuideResID": 1,
          "NodeID": "ShortCutItem.1",
          "Show": true,
          "CopyAnchorAndSale": true,
          "UseOriginRatio": true,
          "Scale": 1.2,
          "PCGuide": {},
          "AnimConfig": {}
        },
        {
          "$type": "RPG.GameCore.ShowGuideText",
          "ID": 202,
          "GuideResID": 5,
          "Show": true,
          "TextPath": "Contents/Text",
          "Text": "TutorialTextmap_400201",
          "ActionName": "Maze_ShortCutWheel",
          "CopyAnchorAndSale": true,
          "PCGuide": {}
        },
        {
          "$type": "RPG.GameCore.WaitUINodeOpen",
          "NodeID": "ShortCutItem.1",
          "Reverse": true
        },
        {
          "$type": "RPG.GameCore.ShowGuide",
          "ID": 102,
          "GuideResID": 1,
          "NodeID": "MazeMainPage.ShortCut.4",
          "CopyAnchorAndSale": true,
          "UseOriginRatio": true,
          "PCGuide": {},
          "AnimConfig": {}
        },
        {
          "$type": "RPG.GameCore.ShowGuideText",
          "ID": 202,
          "GuideResID": 5,
          "TextPath": "Contents/Text",
          "Text": "TutorialTextmap_400100",
          "ActionName": "Maze_ShortCutWheel",
          "CopyAnchorAndSale": true,
          "PCGuide": {}
        }
      ]
    },
    {
      "IsLoop": true,
      "TaskList": [
        {
          "$type": "RPG.GameCore.WaitUINodeOpen",
          "NodeID": "MazeMainPage.25"
        },
        {
          "$type": "RPG.GameCore.WaitTutorial",
          "Event": "ActionPress",
          "Param": "Maze_ShortCutWheel"
        },
        {
          "$type": "RPG.GameCore.ShowGuide",
          "ID": 101,
          "GuideResID": 1,
          "NodeID": "MazeMainPage.25",
          "CopyAnchorAndSale": true,
          "PCGuide": {},
          "AnimConfig": {}
        },
        {
          "$type": "RPG.GameCore.ShowGuideText",
          "ID": 201,
          "GuideResID": 14,
          "NodeID": "MazeMainPage.25",
          "Text": "TutorialTextmap_100801",
          "OffsetX": 75,
          "PCGuide": {
            "UsePCGuide": true,
            "GuideResID": 14,
            "Path": "Page/MazeMainPage(Clone)/LeftUpInfo/FunctionBtn/AppIconPanel/MainIconItem25",
            "Text": "TutorialTextmap_100801",
            "ControllerText": "TutorialTextmap_100801",
            "OffsetX": 75
          }
        },
        {
          "$type": "RPG.GameCore.WaitTutorial",
          "Event": "ActionRelease",
          "Param": "Maze_ShortCutWheel"
        },
        {
          "$type": "RPG.GameCore.WaitUINodeOpen",
          "NodeID": "MazeMainPage.4"
        },
        {
          "$type": "RPG.GameCore.ShowGuide",
          "ID": 101,
          "GuideResID": 1,
          "NodeID": "MazeMainPage.4",
          "Show": true,
          "CopyAnchorAndSale": true,
          "PCGuide": {},
          "AnimConfig": {}
        },
        {
          "$type": "RPG.GameCore.ShowGuideText",
          "ID": 201,
          "GuideResID": 15,
          "NodeID": "MazeMainPage.4",
          "Show": true,
          "Text": "TutorialTextmap_400201",
          "OffsetX": -75,
          "PCGuide": {
            "GuideResID": 15,
            "Path": "Page/MazeMainPage(Clone)/RightTopArea/MainIconItem4",
            "Text": "TutorialTextmap_300101_pc",
            "ControllerText": "TutorialTextmap_300101",
            "ActionName": "Maze_Avatar",
            "OffsetX": -75
          }
        }
      ]
    },
    {
      "IsLoop": true,
      "TaskList": [
        {
          "$type": "RPG.GameCore.ShowTutorialUI"
        },
        {
          "$type": "RPG.GameCore.WaitUINodeOpen",
          "NodeID": "MobilePhonePage.App.4",
          "SkipCheck": true
        },
        {
          "$type": "RPG.GameCore.ShowTutorialUI",
          "AssociatedUIName": "MobilePhonePage"
        },
        {
          "$type": "RPG.GameCore.ShowGuide",
          "ID": 103,
          "GuideResID": 1,
          "NodeID": "MobilePhonePage.App.4",
          "Show": true,
          "CopyAnchorAndSale": true,
          "PCGuide": {},
          "AnimConfig": {}
        },
        {
          "$type": "RPG.GameCore.ShowGuideText",
          "ID": 203,
          "GuideResID": 15,
          "NodeID": "MobilePhonePage.App.4",
          "Show": true,
          "Text": "TutorialTextmap_400201",
          "OffsetX": -50,
          "OffsetY": -50,
          "PCGuide": {
            "GuideResID": 15,
            "Path": "Page/MazeMainPage(Clone)/RightTopArea/MainIconItem4",
            "Text": "TutorialTextmap_300101_pc",
            "ControllerText": "TutorialTextmap_300101",
            "ActionName": "Maze_Avatar",
            "OffsetX": -75
          }
        },
        {
          "$type": "RPG.GameCore.WaitUINodeOpen",
          "NodeID": "MobilePhonePage.App.4",
          "SkipCheck": true,
          "Reverse": true
        },
        {
          "$type": "RPG.GameCore.ShowGuideText",
          "ID": 203,
          "GuideResID": 5,
          "Path": "Page",
          "TextPath": "Contents/Text",
          "PCGuide": {
            "UsePCGuide": true,
            "GuideResID": 5,
            "Path": "Page",
            "TextPath": "Contents/Text",
            "ActionName": "Maze_Avatar"
          }
        },
        {
          "$type": "RPG.GameCore.ShowGuide",
          "ID": 103,
          "GuideResID": 1,
          "Path": "Page/MazeMainPage(Clone)/RightTopArea/MainIconItem4",
          "PCGuide": {}
        }
      ]
    },
    {
      "IsLoop": true,
      "TaskList": [
        {
          "$type": "RPG.GameCore.WaitUINodeOpen",
          "NodeID": "AvatarMainPage.BtnPromotion"
        },
        {
          "$type": "RPG.GameCore.ShowTutorialUI",
          "AssociatedUIName": "AvatarMainPage"
        },
        {
          "$type": "RPG.GameCore.ShowGuide",
          "ID": 104,
          "GuideResID": 2,
          "NodeID": "AvatarMainPage.BtnPromotion",
          "Show": true,
          "CopyAnchorAndSale": true,
          "PCGuide": {},
          "AnimConfig": {}
        },
        {
          "$type": "RPG.GameCore.ShowGuideText",
          "ID": 204,
          "GuideResID": 3,
          "NodeID": "AvatarMainPage.BtnPromotion",
          "Show": true,
          "Text": "TutorialTextmap_400301",
          "CopyAnchorAndSale": true,
          "OffsetY": 50,
          "PCGuide": {}
        },
        {
          "$type": "RPG.GameCore.WaitUINodeOpen",
          "NodeID": "AvatarMainPage.BtnPromotion",
          "Reverse": true
        },
        {
          "$type": "RPG.GameCore.ShowGuide",
          "ID": 104,
          "GuideResID": 2,
          "NodeID": "AvatarMainPage.BtnPromotion",
          "CopyAnchorAndSale": true,
          "PCGuide": {},
          "AnimConfig": {}
        },
        {
          "$type": "RPG.GameCore.ShowTutorialUIMask",
          "NodeID": "AvatarMainPage.BtnPromotion",
          "PCGuide": {
            "Path": "Page/AvatarMainPage(Clone)/AvatarTopListPanel/AvatarTopListPanel(Clone)/ScrollView/ViewPoint/Content/AvatarHeadIcon8002"
          },
          "AnimConfig": {
            "InitScale": 1.0001,
            "TotalTime": 0.25
          }
        },
        {
          "$type": "RPG.GameCore.ShowGuideText",
          "ID": 204,
          "GuideResID": 3,
          "NodeID": "AvatarMainPage.BtnPromotion",
          "Text": "TutorialTextmap_400301",
          "CopyAnchorAndSale": true,
          "OffsetY": 70,
          "PCGuide": {}
        },
        {
          "$type": "RPG.GameCore.ShowTutorialUI"
        }
      ]
    },
    {
      "IsLoop": true,
      "TaskList": [
        {
          "$type": "RPG.GameCore.WaitUINodeOpen",
          "NodeID": "AvatarMainPage.ViewPoint",
          "SkipCheck": true
        },
        {
          "$type": "RPG.GameCore.TutorialNotify",
          "Type": "SelectAvatarByLevel",
          "Param": "20"
        },
        {
          "$type": "RPG.GameCore.WaitUINodeOpen",
          "NodeID": "AvatarMainPage.ViewPoint",
          "Reverse": true
        }
      ]
    },
    {
      "TaskList": [
        {
          "$type": "RPG.GameCore.WaitUINodeOpen",
          "NodeID": "AvatarPromotion.PromotionPanel"
        },
        {
          "$type": "RPG.GameCore.ShowGuideText",
          "ID": 205,
          "GuideResID": 8,
          "NodeID": "AvatarPromotion.PromotionPanel",
          "Show": true,
          "Text": "TutorialTextmap_400302",
          "CopyAnchorAndSale": true,
          "OffsetX": 60,
          "OffsetY": -30,
          "PCGuide": {}
        },
        {
          "$type": "RPG.GameCore.ShowUINodes",
          "Nodes": [
            "AboveDialog/TutorialDialog(Clone)/FullScreenButton"
          ],
          "Open": true
        },
        {
          "$type": "RPG.GameCore.TriggerCustomString",
          "CustomString": {
            "Value": "tutorial_4003_1"
          }
        }
      ]
    },
    {
      "TaskList": [
        {
          "$type": "RPG.GameCore.WaitCustomString",
          "CustomString": {
            "Value": "tutorial_4003_1"
          }
        },
        {
          "$type": "RPG.GameCore.WaitUINodeOpen",
          "NodeID": "AvatarPromotion.PromotionPanel",
          "Reverse": true
        },
        {
          "$type": "RPG.GameCore.ShowUINodes",
          "Nodes": [
            "AboveDialog/TutorialDialog(Clone)/FullScreenButton"
          ]
        },
        {
          "$type": "RPG.GameCore.ShowTutorialUIMask",
          "NodeID": "AvatarMainPage.BtnPromotion",
          "PCGuide": {
            "Path": "Page/AvatarMainPage(Clone)/AvatarTopListPanel/AvatarTopListPanel(Clone)/ScrollView/ViewPoint/Content/AvatarHeadIcon8002"
          },
          "AnimConfig": {
            "InitScale": 1.0001,
            "TotalTime": 0.25
          }
        },
        {
          "$type": "RPG.GameCore.ShowGuideText",
          "ID": 205,
          "GuideResID": 3,
          "NodeID": "AvatarMainPage.BtnPromotion",
          "Text": "TutorialTextmap_400301",
          "CopyAnchorAndSale": true,
          "OffsetY": 70,
          "PCGuide": {}
        },
        {
          "$type": "RPG.GameCore.ShowTutorialUI",
          "IsHide": true
        },
        {
          "$type": "RPG.GameCore.TutorialFinish",
          "TutorialID": 4003
        }
      ]
    },
    {
      "TaskList": [
        {
          "$type": "RPG.GameCore.WaitCustomString",
          "CustomString": {
            "Value": "tutorial_4003_1"
          }
        },
        {
          "$type": "RPG.GameCore.WaitSecond",
          "WaitTime": 1
        },
        {
          "$type": "RPG.GameCore.WaitTutorial",
          "Event": "ActionPress",
          "OnSuccessImmediate": []
        },
        {
          "$type": "RPG.GameCore.ShowUINodes",
          "Nodes": [
            "AboveDialog/TutorialDialog(Clone)/FullScreenButton"
          ]
        },
        {
          "$type": "RPG.GameCore.ShowTutorialUIMask",
          "NodeID": "AvatarMainPage.BtnPromotion",
          "PCGuide": {
            "Path": "Page/AvatarMainPage(Clone)/AvatarTopListPanel/AvatarTopListPanel(Clone)/ScrollView/ViewPoint/Content/AvatarHeadIcon8002"
          },
          "AnimConfig": {
            "InitScale": 1.0001,
            "TotalTime": 0.25
          }
        },
        {
          "$type": "RPG.GameCore.ShowGuideText",
          "ID": 205,
          "GuideResID": 3,
          "NodeID": "AvatarMainPage.BtnPromotion",
          "Text": "TutorialTextmap_400301",
          "CopyAnchorAndSale": true,
          "OffsetY": 70,
          "PCGuide": {}
        },
        {
          "$type": "RPG.GameCore.ShowTutorialUI",
          "IsHide": true
        },
        {
          "$type": "RPG.GameCore.TutorialFinish",
          "TutorialID": 4003
        }
      ]
    }
  ]
}