{
  "OnInitSequece": [],
  "OnStartSequece": [
    {
      "TaskList": [
        {
          "$type": "RPG.GameCore.ShowTutorialUI",
          "AssociatedUIName": "BattleGamePageContext"
        },
        {
          "$type": "RPG.GameCore.ByIsTargetValid",
          "TargetType": {
            "$type": "RPG.GameCore.TargetFetchUniqueNameEntity",
            "UniqueName": "BattleEvent_41001"
          }
        },
        {
          "$type": "RPG.GameCore.TriggerCustomString",
          "CustomString": {
            "Value": "tutorial_9012_1"
          }
        }
      ]
    },
    {
      "TaskList": [
        {
          "$type": "RPG.GameCore.ShowTutorialUI",
          "AssociatedUIName": "BattleGamePageContext"
        },
        {
          "$type": "RPG.GameCore.ByIsTargetValid",
          "TargetType": {
            "$type": "RPG.GameCore.TargetFetchUniqueNameEntity",
            "UniqueName": "BattleEvent_41002"
          }
        },
        {
          "$type": "RPG.GameCore.TriggerCustomString",
          "CustomString": {
            "Value": "tutorial_9012_1"
          }
        }
      ]
    },
    {
      "TaskList": [
        {
          "$type": "RPG.GameCore.ShowTutorialUI",
          "AssociatedUIName": "BattleGamePageContext"
        },
        {
          "$type": "RPG.GameCore.ByIsTargetValid",
          "TargetType": {
            "$type": "RPG.GameCore.TargetFetchUniqueNameEntity",
            "UniqueName": "BattleEvent_41003"
          }
        },
        {
          "$type": "RPG.GameCore.TriggerCustomString",
          "CustomString": {
            "Value": "tutorial_9012_1"
          }
        }
      ]
    },
    {
      "TaskList": [
        {
          "$type": "RPG.GameCore.ShowTutorialUI",
          "AssociatedUIName": "BattleGamePageContext"
        },
        {
          "$type": "RPG.GameCore.ByIsTargetValid",
          "TargetType": {
            "$type": "RPG.GameCore.TargetFetchUniqueNameEntity",
            "UniqueName": "BattleEvent_41004"
          }
        },
        {
          "$type": "RPG.GameCore.TriggerCustomString",
          "CustomString": {
            "Value": "tutorial_9012_1"
          }
        }
      ]
    },
    {
      "TaskList": [
        {
          "$type": "RPG.GameCore.ShowTutorialUI",
          "AssociatedUIName": "BattleGamePageContext"
        },
        {
          "$type": "RPG.GameCore.ByIsTargetValid",
          "TargetType": {
            "$type": "RPG.GameCore.TargetFetchUniqueNameEntity",
            "UniqueName": "BattleEvent_41005"
          }
        },
        {
          "$type": "RPG.GameCore.TriggerCustomString",
          "CustomString": {
            "Value": "tutorial_9012_1"
          }
        }
      ]
    },
    {
      "TaskList": [
        {
          "$type": "RPG.GameCore.ShowTutorialUI",
          "AssociatedUIName": "BattleGamePageContext"
        },
        {
          "$type": "RPG.GameCore.ByIsTargetValid",
          "TargetType": {
            "$type": "RPG.GameCore.TargetFetchUniqueNameEntity",
            "UniqueName": "BattleEvent_41006"
          }
        },
        {
          "$type": "RPG.GameCore.TriggerCustomString",
          "CustomString": {
            "Value": "tutorial_9012_1"
          }
        }
      ]
    },
    {
      "TaskList": [
        {
          "$type": "RPG.GameCore.ShowTutorialUI",
          "AssociatedUIName": "BattleGamePageContext"
        },
        {
          "$type": "RPG.GameCore.ByIsTargetValid",
          "TargetType": {
            "$type": "RPG.GameCore.TargetFetchUniqueNameEntity",
            "UniqueName": "BattleEvent_41007"
          }
        },
        {
          "$type": "RPG.GameCore.TriggerCustomString",
          "CustomString": {
            "Value": "tutorial_9012_1"
          }
        }
      ]
    },
    {
      "TaskList": [
        {
          "$type": "RPG.GameCore.ShowTutorialUI",
          "AssociatedUIName": "BattleGamePageContext"
        },
        {
          "$type": "RPG.GameCore.WaitCustomString",
          "CustomString": {
            "Value": "tutorial_9012_1"
          }
        },
        {
          "$type": "RPG.GameCore.WaitUINodeOpen",
          "NodeID": "BattleGamePhaseUI.BattleSkillSpecialButton"
        },
        {
          "$type": "RPG.GameCore.WaitTurnCount",
          "TaskList": []
        },
        {
          "$type": "RPG.GameCore.ShowGuide",
          "ID": 101,
          "GuideResID": 10,
          "NodeID": "BattleGamePhaseUI.BattleSkillSpecialButton",
          "Show": true,
          "CopyAnchorAndSale": true,
          "PCGuide": {},
          "AnimConfig": {}
        },
        {
          "$type": "RPG.GameCore.ShowGuideText",
          "ID": 201,
          "GuideResID": 9,
          "NodeID": "BattleGamePhaseUI.BattleSkillSpecialButton",
          "Show": true,
          "Text": "TutorialTextmap_901201",
          "CopyAnchorAndSale": true,
          "Follow": false,
          "OffsetX": -50,
          "OffsetY": 75,
          "PCGuide": {}
        },
        {
          "$type": "RPG.GameCore.ShowTutorialUIMask",
          "NodeID": "BattleGamePhaseUI.BattleSkillSpecialButton",
          "Show": true,
          "Scale": 1.2,
          "PCGuide": {},
          "AnimConfig": {
            "UseAnim": true,
            "InitScale": 1.2
          }
        },
        {
          "$type": "RPG.GameCore.WaitSecond",
          "WaitTime": 1
        },
        {
          "$type": "RPG.GameCore.WaitTutorial",
          "Event": "ActionPress"
        },
        {
          "$type": "RPG.GameCore.ShowGuideText",
          "ID": 201,
          "GuideResID": 9,
          "NodeID": "BattleGamePhaseUI.BattleSkillSpecialButton",
          "Text": "TutorialTextmap_901201",
          "OffsetY": 75,
          "PCGuide": {}
        },
        {
          "$type": "RPG.GameCore.ShowGuideText",
          "ID": 202,
          "GuideResID": 9,
          "NodeID": "BattleGamePhaseUI.BattleSkillSpecialButton",
          "Show": true,
          "Text": "TutorialTextmap_901202",
          "CopyAnchorAndSale": true,
          "Follow": false,
          "OffsetX": -50,
          "OffsetY": 75,
          "PCGuide": {}
        },
        {
          "$type": "RPG.GameCore.WaitSecond",
          "WaitTime": 1
        },
        {
          "$type": "RPG.GameCore.WaitTutorial",
          "Event": "ActionPress",
          "OnSuccessImmediate": []
        },
        {
          "$type": "RPG.GameCore.ShowGuide",
          "ID": 101,
          "GuideResID": 10,
          "NodeID": "BattleGamePhaseUI.BattleSkillSpecialButton",
          "CopyAnchorAndSale": true,
          "PCGuide": {},
          "AnimConfig": {}
        },
        {
          "$type": "RPG.GameCore.ShowGuideText",
          "ID": 202,
          "GuideResID": 9,
          "NodeID": "BattleGamePhaseUI.BattleSkillSpecialButton",
          "Text": "TutorialTextmap_901201",
          "OffsetY": 75,
          "PCGuide": {}
        },
        {
          "$type": "RPG.GameCore.ShowTutorialUIMask",
          "NodeID": "BattleGamePhaseUI.BattleSkillSpecialButton",
          "Scale": 1.2,
          "PCGuide": {},
          "AnimConfig": {
            "UseAnim": true,
            "InitScale": 1.2
          }
        },
        {
          "$type": "RPG.GameCore.ShowTutorialUI",
          "IsHide": true,
          "AssociatedUIName": "BattleGamePageContext"
        },
        {
          "$type": "RPG.GameCore.TutorialFinish",
          "TutorialID": 9012
        }
      ]
    }
  ]
}