{
  "MainMissionID": 4040183,
  "StartSubMissionList": [
    404018301
  ],
  "FinishSubMissionList": [
    404018301
  ],
  "SubMissionList": [
    {
      "MainMissionID": 4040183,
      "TakeType": "Auto",
      "TakeParamIntList": [],
      "ID": 404018301,
      "MazePlaneID": 10101,
      "MazeFloorID": 10101001,
      "FinishType": "PropState",
      "ParamType": "Equal",
      "ParamInt1": 178,
      "ParamInt2": 300001,
      "ParamInt3": 19,
      "ParamIntList": [],
      "ParamItemList": [],
      "Progress": 1
    }
  ]
}