{
  "MainMissionID": 9099922,
  "StartSubMissionList": [
    909992201
  ],
  "FinishSubMissionList": [
    909992201
  ],
  "SubMissionList": [
    {
      "MainMissionID": 9099922,
      "MissionJsonPath": "Config/Level/Mission/9099922/Mission_909992201.json",
      "TakeType": "Auto",
      "ID": 909992201,
      "FinishType": "Talk",
      "ParamType": "Equal",
      "ParamStr1": "Mission_909992201",
      "ParamItemList": [],
      "Progress": 1
    }
  ]
}