{
  "OnInitSequece": [],
  "OnStartSequece": [
    {
      "TaskList": [
        {
          "$type": "RPG.GameCore.LevelPerformanceInitialize",
          "PerformanceType": "E",
          "LockCamera": false,
          "CreateCharacterList": [],
          "EntityVisiableList": [],
          "HideMunicipalCrowd": false,
          "HideMunicipalPedestrian": false,
          "PropVisiableList": [],
          "StreamingCentersInBlackMask": [],
          "StreamingCentersAfterBlackMask": [],
          "MarkStreamingItems": []
        },
        {
          "$type": "RPG.GameCore.AdvNpcFaceToPlayer",
          "GroupID": 106,
          "GroupNpcID": 400002,
          "FinishImmadiate": true
        },
        {
          "$type": "RPG.GameCore.PlaySimpleTalk",
          "SimpleTalkList": [
            {
              "TalkSentenceID": 701060115,
              "ProtectTime": 0.3
            },
            {
              "TalkSentenceID": 701060116,
              "ProtectTime": 0.3
            }
          ]
        },
        {
          "$type": "RPG.GameCore.WaitSimpleTalkFinish"
        },
        {
          "$type": "RPG.GameCore.PlayOptionTalk",
          "OptionList": [
            {
              "TalkSentenceID": 701060117,
              "OptionIconType": "ChatContinueIcon",
              "TriggerCustomString": "TalkSentence_701060117"
            },
            {
              "TalkSentenceID": 701060120,
              "OptionIconType": "ChatContinueIcon",
              "TriggerCustomString": "TalkSentence_701060120"
            }
          ]
        }
      ]
    },
    {
      "TaskList": [
        {
          "$type": "RPG.GameCore.WaitCustomString",
          "CustomString": {
            "Value": "TalkSentence_701060117"
          },
          "WaitOwnerOnly": true
        },
        {
          "$type": "RPG.GameCore.PlaySimpleTalk",
          "SimpleTalkList": [
            {
              "TalkSentenceID": 701060118,
              "ProtectTime": 0.3
            },
            {
              "TalkSentenceID": 701060119,
              "ProtectTime": 0.3
            }
          ]
        },
        {
          "$type": "RPG.GameCore.WaitSimpleTalkFinish"
        },
        {
          "$type": "RPG.GameCore.TriggerCustomString",
          "CustomString": {
            "Value": "TalkSentence_701060123"
          }
        }
      ]
    },
    {
      "TaskList": [
        {
          "$type": "RPG.GameCore.WaitCustomString",
          "CustomString": {
            "Value": "TalkSentence_701060120"
          },
          "WaitOwnerOnly": true
        },
        {
          "$type": "RPG.GameCore.PlaySimpleTalk",
          "SimpleTalkList": [
            {
              "TalkSentenceID": 701060121,
              "ProtectTime": 0.3
            },
            {
              "TalkSentenceID": 701060122,
              "ProtectTime": 0.3
            }
          ]
        },
        {
          "$type": "RPG.GameCore.WaitSimpleTalkFinish"
        },
        {
          "$type": "RPG.GameCore.TriggerCustomString",
          "CustomString": {
            "Value": "TalkSentence_701060123"
          }
        }
      ]
    },
    {
      "TaskList": [
        {
          "$type": "RPG.GameCore.WaitCustomString",
          "CustomString": {
            "Value": "TalkSentence_701060123"
          },
          "WaitOwnerOnly": true
        },
        {
          "$type": "RPG.GameCore.PlaySimpleTalk",
          "SimpleTalkList": [
            {
              "TalkSentenceID": 701060123,
              "ProtectTime": 0.3
            },
            {
              "TalkSentenceID": 701060124,
              "ProtectTime": 0.3
            }
          ]
        },
        {
          "$type": "RPG.GameCore.WaitSimpleTalkFinish"
        },
        {
          "$type": "RPG.GameCore.PlayOptionTalk",
          "OptionList": [
            {
              "TalkSentenceID": 701060125,
              "OptionIconType": "ChatContinueIcon",
              "TriggerCustomString": "TalkSentence_701060125"
            },
            {
              "TalkSentenceID": 701060127,
              "OptionIconType": "ChatContinueIcon",
              "TriggerCustomString": "TalkSentence_701060127"
            }
          ]
        }
      ]
    },
    {
      "TaskList": [
        {
          "$type": "RPG.GameCore.WaitCustomString",
          "CustomString": {
            "Value": "TalkSentence_701060125"
          },
          "WaitOwnerOnly": true
        },
        {
          "$type": "RPG.GameCore.PlaySimpleTalk",
          "SimpleTalkList": [
            {
              "TalkSentenceID": 701060126,
              "ProtectTime": 0.3
            }
          ]
        },
        {
          "$type": "RPG.GameCore.WaitSimpleTalkFinish"
        },
        {
          "$type": "RPG.GameCore.TriggerCustomString",
          "CustomString": {
            "Value": "AllTalk_End"
          }
        }
      ]
    },
    {
      "TaskList": [
        {
          "$type": "RPG.GameCore.WaitCustomString",
          "CustomString": {
            "Value": "TalkSentence_701060127"
          },
          "WaitOwnerOnly": true
        },
        {
          "$type": "RPG.GameCore.PlaySimpleTalk",
          "SimpleTalkList": [
            {
              "TalkSentenceID": 701060128,
              "ProtectTime": 0.3
            }
          ]
        },
        {
          "$type": "RPG.GameCore.WaitSimpleTalkFinish"
        },
        {
          "$type": "RPG.GameCore.TriggerCustomString",
          "CustomString": {
            "Value": "AllTalk_End"
          }
        }
      ]
    },
    {
      "TaskList": [
        {
          "$type": "RPG.GameCore.WaitCustomString",
          "CustomString": {
            "Value": "AllTalk_End"
          },
          "WaitOwnerOnly": true
        },
        {
          "$type": "RPG.GameCore.EndPerformance"
        }
      ]
    },
    {
      "TaskList": [
        {
          "$type": "RPG.GameCore.WaitPerformanceEnd"
        },
        {
          "$type": "RPG.GameCore.TriggerCustomString",
          "CustomString": {
            "Value": "TriggerMission_701060102"
          }
        },
        {
          "$type": "RPG.GameCore.TriggerCustomString",
          "CustomString": {
            "Value": "TriggerMission_701060106"
          }
        },
        {
          "$type": "RPG.GameCore.FinishLevelGraph"
        }
      ]
    }
  ]
}