{
  "OnInitSequece": [],
  "OnStartSequece": [
    {
      "TaskList": [
        {
          "$type": "RPG.GameCore.LevelPerformanceInitialize",
          "PerformanceType": "E",
          "LockCamera": false,
          "CreateCharacterList": [],
          "EntityVisiableList": [],
          "HideMunicipalCrowd": false,
          "HideMunicipalPedestrian": false,
          "StreamingCentersInBlackMask": [],
          "StreamingCentersAfterBlackMask": [],
          "MarkStreamingItems": []
        },
        {
          "$type": "RPG.GameCore.AdvNpcFaceToPlayer",
          "FinishImmadiate": true
        },
        {
          "$type": "RPG.GameCore.PlaySimpleTalk",
          "SimpleTalkList": [
            {
              "TalkSentenceID": 701060102,
              "ProtectTime": 0.3
            },
            {
              "TalkSentenceID": 701060103,
              "ProtectTime": 0.3
            },
            {
              "TalkSentenceID": 701060104,
              "ProtectTime": 0.3
            }
          ]
        },
        {
          "$type": "RPG.GameCore.WaitSimpleTalkFinish"
        },
        {
          "$type": "RPG.GameCore.PlayOptionTalk",
          "OptionList": [
            {
              "TalkSentenceID": 701060105,
              "OptionIconType": "ChatContinueIcon",
              "TriggerCustomString": "TalkSentence_701060109"
            },
            {
              "TalkSentenceID": 701060106,
              "OptionIconType": "ChatContinueIcon",
              "TriggerCustomString": "TalkSentence_701060109"
            },
            {
              "TalkSentenceID": 701060107,
              "OptionIconType": "ChatContinueIcon",
              "TriggerCustomString": "TalkSentence_701060108"
            }
          ]
        }
      ]
    },
    {
      "TaskList": [
        {
          "$type": "RPG.GameCore.WaitCustomString",
          "CustomString": {
            "Value": "TalkSentence_701060108"
          },
          "WaitOwnerOnly": true
        },
        {
          "$type": "RPG.GameCore.PlaySimpleTalk",
          "SimpleTalkList": [
            {
              "TalkSentenceID": 701060108,
              "ProtectTime": 0.3
            },
            {
              "TalkSentenceID": 701060109,
              "ProtectTime": 0.3
            },
            {
              "TalkSentenceID": 701060110,
              "ProtectTime": 0.3
            },
            {
              "TalkSentenceID": 701060111,
              "ProtectTime": 0.3
            }
          ]
        },
        {
          "$type": "RPG.GameCore.WaitSimpleTalkFinish"
        },
        {
          "$type": "RPG.GameCore.PlayOptionTalk",
          "OptionList": [
            {
              "TalkSentenceID": 701060112,
              "OptionIconType": "ChatContinueIcon",
              "TriggerCustomString": "TalkSentence_701060114"
            },
            {
              "TalkSentenceID": 701060113,
              "OptionIconType": "ChatContinueIcon",
              "TriggerCustomString": "TalkSentence_701060114"
            }
          ]
        }
      ]
    },
    {
      "TaskList": [
        {
          "$type": "RPG.GameCore.WaitCustomString",
          "CustomString": {
            "Value": "TalkSentence_701060114"
          },
          "WaitOwnerOnly": true
        },
        {
          "$type": "RPG.GameCore.PlaySimpleTalk",
          "SimpleTalkList": [
            {
              "TalkSentenceID": 701060114,
              "ProtectTime": 0.3
            }
          ]
        },
        {
          "$type": "RPG.GameCore.WaitSimpleTalkFinish"
        },
        {
          "$type": "RPG.GameCore.EndPerformance"
        }
      ]
    },
    {
      "TaskList": [
        {
          "$type": "RPG.GameCore.WaitPerformanceEnd"
        },
        {
          "$type": "RPG.GameCore.TriggerCustomString",
          "CustomString": {
            "Value": "TriggerMission_701060101"
          }
        },
        {
          "$type": "RPG.GameCore.FinishLevelGraph"
        }
      ]
    },
    {
      "TaskList": [
        {
          "$type": "RPG.GameCore.WaitCustomString",
          "CustomString": {
            "Value": "TalkSentence_701060109"
          },
          "WaitOwnerOnly": true
        },
        {
          "$type": "RPG.GameCore.PlaySimpleTalk",
          "SimpleTalkList": [
            {
              "TalkSentenceID": 701060109,
              "ProtectTime": 0.3
            },
            {
              "TalkSentenceID": 701060110,
              "ProtectTime": 0.3
            },
            {
              "TalkSentenceID": 701060111,
              "ProtectTime": 0.3
            }
          ]
        },
        {
          "$type": "RPG.GameCore.WaitSimpleTalkFinish"
        },
        {
          "$type": "RPG.GameCore.PlayOptionTalk",
          "OptionList": [
            {
              "TalkSentenceID": 701060112,
              "OptionIconType": "ChatContinueIcon",
              "TriggerCustomString": "TalkSentence_701060114"
            },
            {
              "TalkSentenceID": 701060113,
              "OptionIconType": "ChatContinueIcon",
              "TriggerCustomString": "TalkSentence_701060114"
            }
          ]
        }
      ]
    }
  ]
}