{
  "RootModelPath": "Characters/CharacterPrefabsTemp/NPC/Monster/W1_Soldier03_00/NPC_Monster_W1_Soldier03_00_Logic.prefab",
  "LodModelConfig": {
    "Art": {
      "RuntimeName": "NPC_Monster_W1_Soldier03_00",
      "LodPath": [
        "Characters/CharacterPrefabsTemp/NPC/Monster/W1_Soldier03_00/NPC_Monster_W1_Soldier03_00_Render.prefab"
      ]
    }
  }
}