{
  "MainMissionID": 4040219,
  "StartSubMissionList": [
    404021901
  ],
  "FinishSubMissionList": [
    404021902
  ],
  "SubMissionList": [
    {
      "MainMissionID": 4040219,
      "TakeType": "Auto",
      "ID": 404021901,
      "FinishType": "MessageSectionFinish",
      "ParamType": "Equal",
      "ParamInt1": 1212801,
      "ParamItemList": [],
      "Progress": 1
    },
    {
      "MainMissionID": 4040219,
      "MissionJsonPath": "Config/Level/Mission/4040219/Mission_404021902.json",
      "TakeType": "AnySequence",
      "TakeParamIntList": [
        404021901
      ],
      "ID": 404021902,
      "FinishType": "Talk",
      "ParamType": "Equal",
      "ParamStr1": "Mission_404021902",
      "ParamItemList": [],
      "Progress": 1
    }
  ]
}