{
  "MainMissionID": 2000112,
  "StartSubMissionList": [
    200011227
  ],
  "FinishSubMissionList": [
    200011201
  ],
  "SubMissionList": [
    {
      "MainMissionID": 2000112,
      "TakeType": "AnySequence",
      "TakeParamIntList": [
        200011227
      ],
      "ID": 200011200,
      "FinishType": "MessageSectionFinish",
      "ParamType": "Equal",
      "ParamInt1": 1010700,
      "ParamItemList": [],
      "Progress": 1,
      "IsBackTrack": true
    },
    {
      "MainMissionID": 2000112,
      "MissionJsonPath": "Config/Level/Mission/2000112/Mission_200011201.json",
      "TakeType": "AnySequence",
      "TakeParamIntList": [
        200011200
      ],
      "ID": 200011201,
      "FinishType": "Talk",
      "ParamType": "Equal",
      "ParamStr1": "Mission_200011201",
      "ParamItemList": [],
      "Progress": 1
    },
    {
      "MainMissionID": 2000112,
      "TakeType": "Auto",
      "TakeParamIntList": [],
      "ID": 200011227,
      "FinishType": "EnterFloor",
      "ParamType": "Equal",
      "ParamInt1": 10001,
      "ParamInt2": 10001001,
      "Progress": 1
    }
  ]
}