{
  "MainMissionID": 2010702,
  "StartSubMissionList": [
    201070201
  ],
  "FinishSubMissionList": [
    201070202
  ],
  "SubMissionList": [
    {
      "MainMissionID": 2010702,
      "MissionJsonPath": "Config/Level/Mission/2010702/Mission_201070201.json",
      "CustomValueReward": [],
      "TakeType": "Auto",
      "TakeParamIntList": [],
      "ID": 201070201,
      "FinishType": "Talk",
      "ParamType": "Equal",
      "ParamStr1": "Mission_201070201",
      "ParamIntList": [],
      "ParamItemList": [],
      "Progress": 1
    },
    {
      "MainMissionID": 2010702,
      "TakeType": "AnySequence",
      "TakeParamIntList": [
        201070201
      ],
      "ID": 201070202,
      "FinishType": "MessageSectionFinish",
      "ParamType": "Equal",
      "ParamInt1": 1110700,
      "ParamItemList": [],
      "Progress": 1,
      "IsBackTrack": true
    }
  ]
}