{
  "OnInitSequece": [],
  "OnStartSequece": [
    {
      "TaskList": [
        {
          "$type": "RPG.GameCore.WaitCustomString",
          "CustomString": {
            "Value": "Talk_201070806"
          }
        },
        {
          "$type": "RPG.GameCore.FinishPerformanceMission",
          "Key": "Mission_201070901"
        }
      ]
    },
    {
      "TaskList": [
        {
          "$type": "RPG.GameCore.PredicateTaskList",
          "Predicate": {
            "$type": "RPG.GameCore.ByCompareSubMissionState",
            "SubMissionID": 201090401,
            "SubMissionState": "Finish"
          },
          "SuccessTaskList": [
            {
              "$type": "RPG.GameCore.FinishPerformanceMission",
              "Key": "Mission_201070901"
            }
          ],
          "FailedTaskList": [
            {
              "$type": "RPG.GameCore.PropSetupTrigger",
              "TargetType": {
                "$type": "RPG.GameCore.TargetFetchAdvPropEx",
                "FetchType": "SinglePropByPropID",
                "SinglePropID": {
                  "GroupID": {
                    "IsDynamic": false,
                    "FixedValue": {
                      "Value": 6
                    }
                  },
                  "ID": {
                    "IsDynamic": false,
                    "FixedValue": {
                      "Value": 300001
                    }
                  }
                }
              },
              "TargetGroupID": {
                "IsDynamic": false,
                "FixedValue": {
                  "Value": 0
                }
              },
              "TargetID": {
                "IsDynamic": false,
                "FixedValue": {
                  "Value": 0
                }
              },
              "TargetTypes": [],
              "DestroyAfterTriggered": true,
              "OnTriggerEnter": [
                {
                  "$type": "RPG.GameCore.PlayMissionTalk",
                  "SimpleTalkList": [
                    {
                      "TalkSentenceID": 101026701,
                      "ProtectTime": 2
                    }
                  ]
                }
              ]
            }
          ]
        }
      ]
    }
  ]
}