{
  "MainMissionID": 4071311,
  "StartSubMissionList": [
    407131101
  ],
  "FinishSubMissionList": [
    407131105
  ],
  "SubMissionList": [
    {
      "MainMissionID": 4071311,
      "MissionJsonPath": "Config/Level/Mission/4071311/Mission_407131101.json",
      "TakeType": "Auto",
      "ID": 407131101,
      "FinishType": "Talk",
      "ParamType": "Equal",
      "ParamStr1": "Mission_407131101",
      "ParamItemList": [],
      "Progress": 1
    },
    {
      "MainMissionID": 4071311,
      "MissionJsonPath": "Config/Level/Mission/4071311/Mission_407131102.json",
      "TakeType": "AnySequence",
      "TakeParamIntList": [
        407131101
      ],
      "ID": 407131102,
      "FinishType": "Talk",
      "ParamType": "Equal",
      "ParamStr1": "Mission_407131102",
      "ParamItemList": [],
      "Progress": 1
    },
    {
      "MainMissionID": 4071311,
      "MissionJsonPath": "Config/Level/Mission/4071311/Mission_407131103.json",
      "TakeType": "AnySequence",
      "TakeParamIntList": [
        407131101
      ],
      "ID": 407131103,
      "FinishType": "Talk",
      "ParamType": "Equal",
      "ParamStr1": "Mission_407131103",
      "ParamItemList": [],
      "Progress": 1
    },
    {
      "MainMissionID": 4071311,
      "MissionJsonPath": "Config/Level/Mission/4071311/Mission_407131104.json",
      "TakeType": "AnySequence",
      "TakeParamIntList": [
        407131102,
        407131103
      ],
      "ID": 407131104,
      "FinishType": "StageWin",
      "ParamType": "Equal",
      "ParamInt1": 40131012,
      "ParamIntList": [],
      "ParamItemList": [],
      "Progress": 1
    },
    {
      "MainMissionID": 4071311,
      "MissionJsonPath": "Config/Level/Mission/4071311/Mission_407131106.json",
      "TakeType": "Auto",
      "ID": 407131106,
      "FinishType": "Talk",
      "ParamType": "Equal",
      "ParamStr1": "Mission_407131106",
      "ParamItemList": [],
      "Progress": 1
    },
    {
      "MainMissionID": 4071311,
      "MissionJsonPath": "Config/Level/Mission/4071311/Mission_407131105.json",
      "TakeType": "AnySequence",
      "TakeParamIntList": [
        407131104
      ],
      "ID": 407131105,
      "FinishType": "Talk",
      "ParamType": "Equal",
      "ParamStr1": "Mission_407131105",
      "ParamIntList": [],
      "ParamItemList": [],
      "Progress": 1
    }
  ]
}