{
  "OnInitSequece": [],
  "OnStartSequece": [
    {
      "TaskList": [
        {
          "$type": "RPG.GameCore.LevelPerformanceInitialize",
          "PerformanceType": "C",
          "AreaPrefabPath": "Story/Mission/1011002/Story101100201.prefab",
          "CreateCharacterList": [
            {
              "CharacterUniqueName": "Bronya_00_C00",
              "AvatarID": "NPC_Avatar_Maid_Bronya_00"
            },
            {
              "CharacterUniqueName": "W1_Cocolia_00_C00",
              "AvatarID": "NPC_Special_Cocolia_00"
            }
          ],
          "EntityVisiableList": [],
          "HideProp": true,
          "HideLocalPlayer": true,
          "EnableRootMotion": false
        },
        {
          "$type": "RPG.GameCore.PlayTimeline",
          "TimelineName": "Story/Mission/1011002/Story10110020101.playable",
          "Type": "Story",
          "Parameters": []
        },
        {
          "$type": "RPG.GameCore.EndPerformance"
        }
      ]
    },
    {
      "TaskList": [
        {
          "$type": "RPG.GameCore.WaitPerformanceEnd"
        },
        {
          "$type": "RPG.GameCore.FinishLevelGraph"
        }
      ]
    }
  ]
}