{
  "MainMissionID": 4040009,
  "StartSubMissionList": [
    404000901
  ],
  "FinishSubMissionList": [
    404000901
  ],
  "SubMissionList": [
    {
      "MainMissionID": 4040009,
      "MissionJsonPath": "Config/Level/Mission/4040009/Mission_404000901.json",
      "TakeType": "Auto",
      "ID": 404000901,
      "FinishType": "Talk",
      "ParamType": "Equal",
      "ParamStr1": "Mission_404000901",
      "ParamItemList": [],
      "Progress": 1
    }
  ]
}