{
  "OnInitSequece": [],
  "OnStartSequece": [
    {
      "TaskList": [
        {
          "$type": "RPG.GameCore.LevelPerformanceInitialize",
          "PerformanceType": "E",
          "HideMunicipalCrowd": false,
          "HideMunicipalPedestrian": false
        },
        {
          "$type": "RPG.GameCore.AdvNpcFaceToPlayer",
          "FinishImmadiate": true
        },
        {
          "$type": "RPG.GameCore.PlaySimpleTalk",
          "SimpleTalkList": [
            {
              "TalkSentenceID": 201340336,
              "ProtectTime": 0.3
            },
            {
              "TalkSentenceID": 201340337,
              "ProtectTime": 0.3
            },
            {
              "TalkSentenceID": 201340338,
              "ProtectTime": 0.3
            }
          ]
        },
        {
          "$type": "RPG.GameCore.WaitSimpleTalkFinish"
        },
        {
          "$type": "RPG.GameCore.PlayOptionTalk",
          "OptionList": [
            {
              "TalkSentenceID": 201340339,
              "OptionIconType": "ChatContinueIcon",
              "TriggerCustomString": "TalkSentence_201340341"
            },
            {
              "TalkSentenceID": 201340340,
              "OptionIconType": "ChatContinueIcon",
              "TriggerCustomString": "TalkSentence_201340341"
            }
          ]
        }
      ]
    },
    {
      "TaskList": [
        {
          "$type": "RPG.GameCore.WaitCustomString",
          "CustomString": {
            "Value": "TalkSentence_201340341"
          }
        },
        {
          "$type": "RPG.GameCore.PlaySimpleTalk",
          "SimpleTalkList": [
            {
              "TalkSentenceID": 201340341,
              "ProtectTime": 0.3
            },
            {
              "TalkSentenceID": 201340342,
              "ProtectTime": 0.3
            }
          ]
        },
        {
          "$type": "RPG.GameCore.WaitSimpleTalkFinish"
        },
        {
          "$type": "RPG.GameCore.PlayMessage",
          "MessageSectionID": 1112800
        },
        {
          "$type": "RPG.GameCore.PlaySimpleTalk",
          "SimpleTalkList": [
            {
              "TalkSentenceID": 201340343,
              "ProtectTime": 0.3
            },
            {
              "TalkSentenceID": 201340344,
              "ProtectTime": 0.3
            },
            {
              "TalkSentenceID": 201340345,
              "ProtectTime": 0.3
            },
            {
              "TalkSentenceID": 201340346,
              "ProtectTime": 0.3
            },
            {
              "TalkSentenceID": 201340347,
              "ProtectTime": 0.3
            },
            {
              "TalkSentenceID": 201340348,
              "ProtectTime": 0.3
            }
          ]
        },
        {
          "$type": "RPG.GameCore.WaitSimpleTalkFinish"
        },
        {
          "$type": "RPG.GameCore.PlayOptionTalk",
          "OptionList": [
            {
              "TalkSentenceID": 201340349,
              "OptionIconType": "ChatContinueIcon",
              "TriggerCustomString": "TalkSentence_201340350"
            },
            {
              "TalkSentenceID": 201340352,
              "OptionIconType": "ChatContinueIcon",
              "TriggerCustomString": "TalkSentence_201340353"
            }
          ]
        }
      ]
    },
    {
      "TaskList": [
        {
          "$type": "RPG.GameCore.WaitCustomString",
          "CustomString": {
            "Value": "TalkSentence_201340350"
          }
        },
        {
          "$type": "RPG.GameCore.PlaySimpleTalk",
          "SimpleTalkList": [
            {
              "TalkSentenceID": 201340350,
              "ProtectTime": 0.3
            },
            {
              "TalkSentenceID": 201340351,
              "ProtectTime": 0.3
            }
          ]
        },
        {
          "$type": "RPG.GameCore.WaitSimpleTalkFinish"
        },
        {
          "$type": "RPG.GameCore.EndPerformance"
        }
      ]
    },
    {
      "TaskList": [
        {
          "$type": "RPG.GameCore.WaitCustomString",
          "CustomString": {
            "Value": "TalkSentence_201340353"
          }
        },
        {
          "$type": "RPG.GameCore.PlaySimpleTalk",
          "SimpleTalkList": [
            {
              "TalkSentenceID": 201340353,
              "ProtectTime": 0.3
            }
          ]
        },
        {
          "$type": "RPG.GameCore.WaitSimpleTalkFinish"
        },
        {
          "$type": "RPG.GameCore.EndPerformance"
        }
      ]
    },
    {
      "TaskList": [
        {
          "$type": "RPG.GameCore.WaitPerformanceEnd"
        },
        {
          "$type": "RPG.GameCore.FinishLevelGraph"
        }
      ]
    }
  ]
}