{
  "OnInitSequece": [],
  "OnStartSequece": [
    {
      "TaskList": [
        {
          "$type": "RPG.GameCore.LevelPerformanceInitialize",
          "PerformanceType": "D"
        },
        {
          "$type": "RPG.GameCore.PlaySimpleTalk",
          "BlackMask": true,
          "SimpleTalkList": [
            {
              "TalkSentenceID": 202211802,
              "ProtectTime": 0.3
            },
            {
              "TalkSentenceID": 202211803,
              "ProtectTime": 0.3
            }
          ]
        },
        {
          "$type": "RPG.GameCore.WaitSimpleTalkFinish"
        },
        {
          "$type": "RPG.GameCore.PlayOptionTalk",
          "OptionList": [
            {
              "TalkSentenceID": 202211804,
              "OptionIconType": "ChatContinueIcon",
              "TriggerCustomString": "TalkSentence_202211807"
            },
            {
              "TalkSentenceID": 202211805,
              "OptionIconType": "ChatContinueIcon",
              "TriggerCustomString": "TalkSentence_202211807"
            },
            {
              "TalkSentenceID": 202211806,
              "OptionIconType": "ChatContinueIcon",
              "TriggerCustomString": "TalkSentence_202211807"
            }
          ]
        }
      ]
    },
    {
      "TaskList": [
        {
          "$type": "RPG.GameCore.WaitCustomString",
          "CustomString": {
            "Value": "TalkSentence_202211807"
          }
        },
        {
          "$type": "RPG.GameCore.PlaySimpleTalk",
          "BlackMask": true,
          "SimpleTalkList": [
            {
              "TalkSentenceID": 202211807,
              "ProtectTime": 0.3
            },
            {
              "TalkSentenceID": 202211808,
              "ProtectTime": 0.3
            }
          ]
        },
        {
          "$type": "RPG.GameCore.WaitSimpleTalkFinish"
        },
        {
          "$type": "RPG.GameCore.PlayOptionTalk",
          "OptionList": [
            {
              "TalkSentenceID": 202211809,
              "OptionIconType": "ChatContinueIcon",
              "TriggerCustomString": "TalkSentence_202211812"
            },
            {
              "TalkSentenceID": 202211810,
              "OptionIconType": "ChatContinueIcon",
              "TriggerCustomString": "TalkSentence_202211812"
            },
            {
              "TalkSentenceID": 202211811,
              "OptionIconType": "ChatContinueIcon",
              "TriggerCustomString": "TalkSentence_202211812"
            }
          ]
        }
      ]
    },
    {
      "TaskList": [
        {
          "$type": "RPG.GameCore.WaitCustomString",
          "CustomString": {
            "Value": "TalkSentence_202211812"
          }
        },
        {
          "$type": "RPG.GameCore.PlaySimpleTalk",
          "BlackMask": true,
          "SimpleTalkList": [
            {
              "TalkSentenceID": 202211812,
              "ProtectTime": 0.3
            },
            {
              "TalkSentenceID": 202211813,
              "ProtectTime": 0.3
            },
            {
              "TalkSentenceID": 202211814,
              "ProtectTime": 0.3
            },
            {
              "TalkSentenceID": 202211815,
              "ProtectTime": 0.3
            }
          ]
        },
        {
          "$type": "RPG.GameCore.WaitSimpleTalkFinish"
        },
        {
          "$type": "RPG.GameCore.EndPerformance"
        }
      ]
    },
    {
      "TaskList": [
        {
          "$type": "RPG.GameCore.WaitPerformanceEnd"
        },
        {
          "$type": "RPG.GameCore.FinishLevelGraph"
        }
      ]
    }
  ]
}