{
  "AbilityList": [
    {
      "Name": "MazeMonster_W1_Mecha01_NormalAtk01",
      "TargetInfo": {
        "TargetType": "SkillPointEntity"
      },
      "OnStart": [
        {
          "$type": "RPG.GameCore.AdventureTriggerAnimStateWithMove",
          "TargetType": {
            "$type": "RPG.GameCore.TargetAlias",
            "Alias": "Caster"
          },
          "AnimLogicState": "NormalAtk",
          "AnimStateName": "Attack",
          "MovingRangeList": [
            {
              "TargetType": {
                "$type": "RPG.GameCore.TargetAlias",
                "Alias": "AbilityTargetEntity"
              },
              "OffsetTargetDistance": {
                "IsDynamic": false,
                "FixedValue": {
                  "Value": 1
                }
              },
              "NormalizedTimeStart": {
                "IsDynamic": false,
                "FixedValue": {
                  "Value": 0.43799999984912574
                }
              },
              "NormalizedTimeEnd": {
                "IsDynamic": false,
                "FixedValue": {
                  "Value": 0.45600000000558794
                }
              },
              "OnlyMoveForward": true,
              "SteerNormalizedTimeStart": {
                "IsDynamic": false,
                "FixedValue": {
                  "Value": 0.24000000022351742
                }
              },
              "SteerNormalizedTimeEnd": {
                "IsDynamic": false,
                "FixedValue": {
                  "Value": 0.3530000001192093
                }
              },
              "MaxSteerSpeed": {
                "IsDynamic": false,
                "FixedValue": {
                  "Value": 300
                }
              }
            }
          ]
        },
        {
          "$type": "RPG.GameCore.WaitAnimState",
          "TargetType": {
            "$type": "RPG.GameCore.TargetAlias",
            "Alias": "Caster"
          },
          "AnimStateName": "Attack",
          "NormalizedTimeEnd": {
            "IsDynamic": false,
            "FixedValue": {
              "Value": 0.43799999984912574
            }
          }
        },
        {
          "$type": "RPG.GameCore.AdventureTriggerAttack",
          "AttackTargetType": {
            "$type": "RPG.GameCore.TargetAlias",
            "Alias": "AllEnemy"
          },
          "AttackRootTargetType": {
            "$type": "RPG.GameCore.TargetAlias",
            "Alias": "Caster"
          },
          "TriggerBattleDelay": 0.1,
          "AttackDetectConfig": {
            "$type": "RPG.GameCore.AdventureAttackDetectCircleConfig",
            "MinRadius": 0.2,
            "MaxRadius": 2.5,
            "FanAngle": 360,
            "Offset": {
              "X": 0,
              "Y": 0.5,
              "Z": -0.3
            }
          },
          "HitConfig": {
            "HitAnimation": "Hit",
            "HitEffect": "Effects/Eff_Prefab/Eff_Monster/Eff_W1_Mecha01_00/Eff_Monster_W1_Mecha01_00_Skill01_Attack.prefab"
          }
        },
        {
          "$type": "RPG.GameCore.VCameraConfigChange",
          "CameraConfig": {
            "ShakeTemplateName": "Impact_Middle"
          }
        },
        {
          "$type": "RPG.GameCore.WaitAnimState",
          "TargetType": {
            "$type": "RPG.GameCore.TargetAlias",
            "Alias": "Caster"
          },
          "AnimStateName": "Attack",
          "NormalizedTimeEnd": {
            "IsDynamic": false,
            "FixedValue": {
              "Value": 0.44699999992735684
            }
          }
        },
        {
          "$type": "RPG.GameCore.AdventureTriggerAttack",
          "AttackTargetType": {
            "$type": "RPG.GameCore.TargetAlias",
            "Alias": "AllEnemy"
          },
          "AttackRootTargetType": {
            "$type": "RPG.GameCore.TargetAlias",
            "Alias": "Caster"
          },
          "AttackDetectConfig": {
            "$type": "RPG.GameCore.AdventureAttackDetectCircleConfig",
            "MinRadius": 0.2,
            "MaxRadius": 2.5,
            "FanAngle": 360,
            "Offset": {
              "X": 0,
              "Y": 0.5,
              "Z": -0.3
            }
          },
          "HitConfig": {
            "HitAnimation": "Hit",
            "HitEffect": "Effects/Eff_Prefab/Eff_Monster/Eff_W1_Mecha01_00/Eff_Monster_W1_Mecha01_00_Skill01_Attack.prefab"
          }
        },
        {
          "$type": "RPG.GameCore.VCameraConfigChange",
          "CameraConfig": {
            "ShakeTemplateName": "Impact_Middle"
          }
        },
        {
          "$type": "RPG.GameCore.WaitAnimState",
          "TargetType": {
            "$type": "RPG.GameCore.TargetAlias",
            "Alias": "Caster"
          },
          "AnimStateName": "Attack",
          "NormalizedTimeEnd": {
            "IsDynamic": false,
            "FixedValue": {
              "Value": 0.45600000000558794
            }
          }
        },
        {
          "$type": "RPG.GameCore.AdventureTriggerAttack",
          "AttackTargetType": {
            "$type": "RPG.GameCore.TargetAlias",
            "Alias": "AllEnemy"
          },
          "AttackRootTargetType": {
            "$type": "RPG.GameCore.TargetAlias",
            "Alias": "Caster"
          },
          "AttackDetectConfig": {
            "$type": "RPG.GameCore.AdventureAttackDetectCircleConfig",
            "MinRadius": 0.2,
            "MaxRadius": 2.5,
            "FanAngle": 360,
            "Offset": {
              "X": 0,
              "Y": 0.5,
              "Z": -0.3
            }
          },
          "HitConfig": {
            "HitAnimation": "Hit",
            "HitEffect": "Effects/Eff_Prefab/Eff_Monster/Eff_W1_Mecha01_00/Eff_Monster_W1_Mecha01_00_Skill01_Attack.prefab"
          }
        },
        {
          "$type": "RPG.GameCore.VCameraConfigChange",
          "CameraConfig": {
            "ShakeTemplateName": "Impact_Middle"
          }
        },
        {
          "$type": "RPG.GameCore.WaitAnimState",
          "TargetType": {
            "$type": "RPG.GameCore.TargetAlias",
            "Alias": "Caster"
          },
          "AnimStateName": "Attack",
          "NormalizedTimeEnd": {
            "IsDynamic": false,
            "FixedValue": {
              "Value": 1
            }
          }
        }
      ]
    }
  ]
}