{
  "AbilityList": [
    {
      "Name": "MazeMonster_W2_Abomi01_00_NormalAtk01",
      "TargetInfo": {
        "TargetType": "SkillPointEntity"
      },
      "OnStart": [
        {
          "$type": "RPG.GameCore.AdventureTriggerAnimStateWithMove",
          "TargetType": {
            "$type": "RPG.GameCore.TargetAlias",
            "Alias": "Caster"
          },
          "AnimLogicState": "NormalAtk",
          "AnimStateName": "Attack",
          "TransitionDuration": 0.3639382,
          "MovingRangeList": [
            {
              "TargetType": {
                "$type": "RPG.GameCore.TargetAlias",
                "Alias": "AbilityTargetEntity"
              },
              "OffsetTargetDistance": {
                "IsDynamic": false,
                "FixedValue": {
                  "Value": 0.3000000002793968
                }
              },
              "NormalizedTimeStart": {
                "IsDynamic": false,
                "FixedValue": {
                  "Value": 0.02000000001862645
                }
              },
              "NormalizedTimeEnd": {
                "IsDynamic": false,
                "FixedValue": {
                  "Value": 0.2510000001639128
                }
              },
              "MaxMoveDistance": {
                "IsDynamic": false,
                "FixedValue": {
                  "Value": 8
                }
              },
              "OnlyMoveForward": true,
              "MaxSpeed": {
                "IsDynamic": false,
                "FixedValue": {
                  "Value": 300
                }
              },
              "SteerNormalizedTimeStart": {
                "IsDynamic": false,
                "FixedValue": {
                  "Value": 0.02000000001862645
                }
              },
              "SteerNormalizedTimeEnd": {
                "IsDynamic": false,
                "FixedValue": {
                  "Value": 0.2510000001639128
                }
              },
              "MaxSteerSpeed": {
                "IsDynamic": false,
                "FixedValue": {
                  "Value": 300
                }
              }
            }
          ]
        },
        {
          "$type": "RPG.GameCore.WaitAnimState",
          "TargetType": {
            "$type": "RPG.GameCore.TargetAlias",
            "Alias": "Caster"
          },
          "AnimStateName": "Attack",
          "NormalizedTimeEnd": {
            "IsDynamic": false,
            "FixedValue": {
              "Value": 0.22299999999813735
            }
          }
        },
        {
          "$type": "RPG.GameCore.AdventureTriggerAttack",
          "AttackTargetType": {
            "$type": "RPG.GameCore.TargetAlias",
            "Alias": "AllEnemy"
          },
          "AttackRootTargetType": {
            "$type": "RPG.GameCore.TargetAlias",
            "Alias": "Caster"
          },
          "TriggerBattleDelay": 0.1,
          "AttackDetectConfig": {
            "$type": "RPG.GameCore.AdventureAttackDetectCircleConfig",
            "MaxRadius": 1.5,
            "FanAngle": 100,
            "Offset": {
              "X": 0,
              "Y": 0.5,
              "Z": -0.3
            }
          },
          "HitConfig": {
            "HitAnimation": "Hit",
            "HitEffect": "Effects/Eff_Prefab/Eff_Monster/Eff_W2_Abomi01_00/Eff_Monster_W2_Abomi01_00_MazeAttack_Skill01Hit.prefab",
            "HitSoundEvent": "Ev_sfx_monster_skill_02_hit_hvy_aml_minion02"
          }
        },
        {
          "$type": "RPG.GameCore.VCameraConfigChange",
          "CameraConfig": {
            "ShakeTemplateName": "Impact_Middle"
          }
        },
        {
          "$type": "RPG.GameCore.WaitAnimState",
          "TargetType": {
            "$type": "RPG.GameCore.TargetAlias",
            "Alias": "Caster"
          },
          "AnimStateName": "Attack",
          "NormalizedTimeEnd": {
            "IsDynamic": false,
            "FixedValue": {
              "Value": 1
            }
          }
        }
      ]
    },
    {
      "Name": "MazeMonster_W2_Abomi01_00_Passive",
      "TargetInfo": {
        "TargetType": "Caster"
      },
      "OnAdd": [
        {
          "$type": "RPG.GameCore.TriggerEffect",
          "TargetType": {
            "$type": "RPG.GameCore.TargetAlias",
            "Alias": "ModifierOwnerEntity"
          },
          "EffectPath": "Effects/Eff_Prefab/Eff_Monster/Eff_W2_Abomi01_00/Eff_Monster_W2_Abomi01_00_Passive_MazeBuff.prefab"
        },
        {
          "$type": "RPG.GameCore.TriggerEffect",
          "TargetType": {
            "$type": "RPG.GameCore.TargetAlias",
            "Alias": "ModifierOwnerEntity"
          },
          "EffectPath": "Effects/Eff_Prefab/Eff_Monster/Eff_W2_Abomi01_00/Eff_Monster_W2_Abomi01_00_Passive_buffBody.prefab"
        }
      ]
    },
    {
      "Name": "ManikinMonster_W2_Abomi01_00_Passive",
      "TargetInfo": {
        "TargetType": "Caster"
      },
      "OnAdd": [
        {
          "$type": "RPG.GameCore.TriggerEffectForUI",
          "TargetType": {
            "$type": "RPG.GameCore.TargetAlias",
            "Alias": "ModifierOwnerEntity"
          },
          "EffectPath": "Effects/Eff_Prefab/Eff_Monster/Eff_W2_Abomi01_00/Eff_Monster_W2_Abomi01_00_Passive_MazeBuff.prefab"
        },
        {
          "$type": "RPG.GameCore.TriggerEffectForUI",
          "TargetType": {
            "$type": "RPG.GameCore.TargetAlias",
            "Alias": "ModifierOwnerEntity"
          },
          "EffectPath": "Effects/Eff_Prefab/Eff_Monster/Eff_W2_Abomi01_00/Eff_Monster_W2_Abomi01_00_Passive_buffBody.prefab"
        }
      ]
    },
    {
      "Name": "MazeMonster_W2_Abomi01_00_WarRoar",
      "TargetInfo": {
        "TargetType": "SkillPointEntityOrNone"
      },
      "OnStart": [
        {
          "$type": "RPG.GameCore.LookAt",
          "PerformerType": {
            "$type": "RPG.GameCore.TargetAlias",
            "Alias": "Caster"
          },
          "TargetType": "Caster",
          "Duration": 0.25
        },
        {
          "$type": "RPG.GameCore.AdventureTriggerAnimStateWithMove",
          "TargetType": {
            "$type": "RPG.GameCore.TargetAlias",
            "Alias": "Caster"
          },
          "AnimLogicState": "MazeSkill",
          "AnimStateName": "MazeSkill"
        },
        {
          "$type": "RPG.GameCore.WaitAnimState",
          "TargetType": {
            "$type": "RPG.GameCore.TargetAlias",
            "Alias": "Caster"
          },
          "AnimStateName": "MazeSkill",
          "NormalizedTimeEnd": {
            "IsDynamic": false,
            "FixedValue": {
              "Value": 0.07799999951384962
            }
          }
        },
        {
          "$type": "RPG.GameCore.WaitAnimState",
          "AnimStateName": "MazeSkill",
          "NormalizedTimeEnd": {
            "IsDynamic": false,
            "FixedValue": {
              "Value": 0.3200000002980232
            }
          }
        },
        {
          "$type": "RPG.GameCore.TriggerEffect",
          "TargetType": {
            "$type": "RPG.GameCore.TargetAlias",
            "Alias": "Caster"
          },
          "EffectPath": "Effects/Eff_Prefab/Eff_Avatar/Eff_PlayerBoy_10/Eff_Avatar_PlayerBoy_10_MazeSkill.prefab",
          "PositionOffset": {
            "X": 0,
            "Y": -0.5,
            "Z": 0.5
          }
        },
        {
          "$type": "RPG.GameCore.TriggerEffect",
          "TargetType": {
            "$type": "RPG.GameCore.TargetAlias",
            "Alias": "Caster"
          },
          "EffectPath": "Effects/Eff_Prefab/Eff_Monster/Eff_W1_Gepard_00/Eff_Monster_W1_Gepard_00_Common_Halo_Affected.prefab"
        },
        {
          "$type": "RPG.GameCore.CreatePropInTargetFront",
          "Taskarget": {
            "$type": "RPG.GameCore.TargetAlias",
            "Alias": "Caster"
          },
          "PropID": 10031,
          "Duration": {
            "IsDynamic": false,
            "FixedValue": {
              "Value": 1
            }
          },
          "NumLimitation": {
            "IsDynamic": false,
            "FixedValue": {
              "Value": 1
            }
          },
          "Radius": {
            "IsDynamic": false,
            "FixedValue": {
              "Value": 5.500000000465661
            }
          },
          "OnCreate": [
            {
              "$type": "RPG.GameCore.PropSetupTrigger",
              "TargetType": {
                "$type": "RPG.GameCore.TargetFetchAdvPropEx"
              },
              "TargetTypes": [
                "NPCMonster"
              ],
              "ColliderRelativePath": "Trigger",
              "OnTriggerEnter": [
                {
                  "$type": "RPG.GameCore.AddMazeBuff",
                  "TargetType": {
                    "$type": "RPG.GameCore.TargetAlias",
                    "Alias": "TaskActionTarget"
                  },
                  "ID": 3999036,
                  "LifeTime": {
                    "IsDynamic": false,
                    "FixedValue": {
                      "Value": 100
                    }
                  }
                }
              ]
            }
          ]
        },
        {
          "$type": "RPG.GameCore.AdvForceSetNpcAlertValue",
          "Range": 8,
          "AlertValue": 40
        },
        {
          "$type": "RPG.GameCore.RadialBlurEffect",
          "TargetType": {
            "$type": "RPG.GameCore.TargetAlias",
            "Alias": "AbilityTargetEntity"
          },
          "BlurRadius": 0.8,
          "Iteration": 4,
          "BlurFeather": 0.2
        },
        {
          "$type": "RPG.GameCore.WaitAnimState",
          "AnimStateName": "MazeSkill",
          "NormalizedTimeEnd": {
            "IsDynamic": false,
            "FixedValue": {
              "Value": 0.5000000004656613
            }
          }
        },
        {
          "$type": "RPG.GameCore.RadialBlurEffect",
          "TargetType": {
            "$type": "RPG.GameCore.TargetAlias",
            "Alias": "AbilityTargetEntity"
          },
          "Active": false
        },
        {
          "$type": "RPG.GameCore.WaitAnimState",
          "TargetType": {
            "$type": "RPG.GameCore.TargetAlias",
            "Alias": "Caster"
          },
          "AnimStateName": "MazeSkill",
          "NormalizedTimeEnd": {
            "IsDynamic": false,
            "FixedValue": {
              "Value": 1
            }
          }
        }
      ]
    }
  ]
}