{
  "MainMissionID": 99901,
  "StartSubMissionList": [
    9990101
  ],
  "FinishSubMissionList": [
    9990101
  ],
  "SubMissionList": [
    {
      "MainMissionID": 99901,
      "MissionJsonPath": "Config/Level/Mission/99901/Mission_9990101.json",
      "TakeType": "Auto",
      "ID": 9990101,
      "FinishType": "Talk",
      "ParamType": "Equal",
      "ParamStr1": "Mission_9990101",
      "ParamItemList": [],
      "Progress": 1
    }
  ]
}