{
  "WalkSpeedRatio": 1.15,
  "RunSpeedRatio": 0.8,
  "AnimEventConfigList": [
    "Config/ConfigAnimEvents/NPCMonster/Designer/NPCMonster_W2_Xuanlu_00_Designer_AnimEvent.json",
    "Config/ConfigAnimEvents/NPCMonster/Audio/NPCMonster_W2_Xuanlu_00_Audio_AnimEvent.json",
    "Config/ConfigAnimEvents/NPCMonster/Effect/NPCMonster_W2_Xuanlu_00_Effect_AnimEvent.json"
  ],
  "AnimZoneConfigPath": "Config/ConfigAnimZone/NPCMonster/NPCMonster_W2_Xuanlu_00_AnimZone.json",
  "SkillList": [],
  "AbilityList": [],
  "DisableAnimEventLayers": [
    "Riboon Layer"
  ]
}