{
  "FreeStyleTransitionInfoConfigPath": "Config/ConfigFreeStyle/TransitionInfo/NPC_Special_Peppy_00_FreeStyle_TransitionInfo.json",
  "FreeStyleAnimZoneConfigPaths": [
    "Config/ConfigFreeStyle/AnimZoneConfig/NPC_Special_Peppy_00_FreeStyle_AnimZone.json"
  ],
  "FreeStyleAnimEventConfigPaths": [
    "Config/ConfigFreeStyle/AnimAudioEventInfoConfig/NPC_Special_Peppy_00_FreeStyle_AnimAudioEventInfo.json",
    "Config/ConfigFreeStyle/AnimDesignerEventInfoConfig/NPC_Special_Peppy_00_FreeStyle_AnimDesignerEventInfo.json",
    "Config/ConfigFreeStyle/AnimEffectEventInfoConfig/NPC_Special_Peppy_00_FreeStyle_AnimEffectEventInfo.json"
  ]
}