{
  "FreeStyleTransitionInfoConfigPath": "Config/ConfigFreeStyle/TransitionInfo/NPC_Avatar_Boy_Arlan_00_FreeStyle_TransitionInfo.json",
  "FreeStyleAnimZoneConfigPaths": [
    "Config/ConfigFreeStyle/AnimZoneConfig/NPC_Avatar_Boy_Arlan_00_FreeStyle_AnimZone.json",
    "Config/ConfigFreeStyle/AnimZoneConfig/Common/NPC_Avatar_Common_Boy_FreeStyle_AnimZone.json"
  ],
  "FreeStyleAnimEventConfigPaths": [
    "Config/ConfigFreeStyle/AnimAudioEventInfoConfig/Common/NPC_Avatar_Common_Boy_FreeStyle_AnimAudioEventInfo.json",
    "Config/ConfigFreeStyle/AnimDesignerEventInfoConfig/Common/NPC_Avatar_Common_Boy_FreeStyle_AnimDesignerEventInfo.json",
    "Config/ConfigFreeStyle/AnimEffectEventInfoConfig/Common/NPC_Avatar_Common_Boy_FreeStyle_AnimEffectEventInfo.json",
    "Config/ConfigFreeStyle/AnimAudioEventInfoConfig/NPC_Avatar_Boy_Arlan_00_FreeStyle_AnimAudioEventInfo.json",
    "Config/ConfigFreeStyle/AnimDesignerEventInfoConfig/NPC_Avatar_Boy_Arlan_00_FreeStyle_AnimDesignerEventInfo.json",
    "Config/ConfigFreeStyle/AnimEffectEventInfoConfig/NPC_Avatar_Boy_Arlan_00_FreeStyle_AnimEffectEventInfo.json"
  ]
}