{
  "OnInitSequece": [],
  "OnStartSequece": [
    {
      "TaskList": [
        {
          "$type": "RPG.GameCore.LevelPerformanceInitialize",
          "PerformanceType": "E",
          "HideMunicipalCrowd": false,
          "HideMunicipalPedestrian": false
        },
        {
          "$type": "RPG.GameCore.AdvEnablePropDialogMode",
          "EnablePropCamera": false,
          "LockPlayerControl": false,
          "TargetType": {
            "$type": "RPG.GameCore.TargetFetchAdvPropEx",
            "FetchType": "SinglePropByPropID",
            "SinglePropID": {
              "GroupID": {
                "IsDynamic": false,
                "FixedValue": {
                  "Value": 152
                }
              },
              "ID": {
                "IsDynamic": false,
                "FixedValue": {
                  "Value": 300001
                }
              }
            }
          }
        },
        {
          "$type": "RPG.GameCore.PlaySimpleTalk",
          "SimpleTalkList": [
            {
              "TalkSentenceID": 411090601,
              "ProtectTime": 0.3
            },
            {
              "TalkSentenceID": 411090602,
              "ProtectTime": 0.3
            },
            {
              "TalkSentenceID": 411090603,
              "ProtectTime": 0.3
            },
            {
              "TalkSentenceID": 411090604,
              "ProtectTime": 0.3
            }
          ]
        },
        {
          "$type": "RPG.GameCore.WaitSimpleTalkFinish"
        },
        {
          "$type": "RPG.GameCore.WaitSecond"
        },
        {
          "$type": "RPG.GameCore.PlayScreenTransfer",
          "Mode": "SwitchOut",
          "CustomTime": 0.5
        },
        {
          "$type": "RPG.GameCore.DestroyProp",
          "ID": 300001,
          "GroupID": 152
        },
        {
          "$type": "RPG.GameCore.PlayScreenTransfer",
          "Mode": "FullTransfer",
          "CustomTime": 0.5,
          "TransferFullDuration": {
            "PrevDuration": -0.5
          }
        },
        {
          "$type": "RPG.GameCore.EndPerformance"
        }
      ]
    },
    {
      "TaskList": [
        {
          "$type": "RPG.GameCore.WaitPerformanceEnd"
        },
        {
          "$type": "RPG.GameCore.FinishLevelGraph"
        }
      ]
    }
  ]
}