{
  "NpcBodySize": "Old",
  "NavTurnSpeed": 180,
  "NavTurnBackTurnSpeed": 540,
  "AnimEventConfigList": [
    "Config/ConfigAnimEvents/NPC/Normal/Audio/Common/NPC_Normal_Old_Move_Audio_AnimEvent.json",
    "Config/ConfigAnimEvents/NPC/Normal/Effect/Common/NPC_Normal_Old_Effect_AnimEvent.json",
    "Config/ConfigAnimEvents/NPC/Normal/Designer/Common/NPC_Normal_Old_Designer_AnimEvent.json",
    "Config/ConfigAnimEvents/NPC/Normal/Audio/NPC_Normal_W1_Old_Audio_AnimEvent.json",
    "Config/ConfigAnimEvents/NPC/Normal/Designer/NPC_Normal_W1_Old_Designer_AnimEvent.json",
    "Config/ConfigAnimEvents/NPC/Normal/Effect/NPC_Normal_W1_Child_Effect_AnimEvent.json"
  ],
  "CommonAnimZoneConfigPath": "Config/ConfigAnimZone/NPC/Normal/NPC_Normal_Old_AnimZone.json",
  "DisableAnimEventLayers": [
    "Riboon Layer"
  ]
}