{
  "OnInitSequece": [],
  "OnStartSequece": [
    {
      "TaskList": [
        {
          "$type": "RPG.GameCore.WaitCustomString",
          "CustomString": {
            "Value": "Stage_WaveMonsterPerformEnd1"
          }
        },
        {
          "$type": "RPG.GameCore.WaitSecond",
          "WaitTime": 2
        },
        {
          "$type": "RPG.GameCore.PlayBackgroundTalk",
          "BackgroundTalkList": [
            {
              "AutoSkipTime": 2,
              "TalkSentenceID": 201320819
            },
            {
              "AutoSkipTime": 2,
              "TalkSentenceID": 201320901
            },
            {
              "AutoSkipTime": 2,
              "TalkSentenceID": 201320902
            }
          ]
        },
        {
          "$type": "RPG.GameCore.FinishLevelGraph"
        }
      ]
    }
  ]
}