{
  "OnInitSequece": [],
  "OnStartSequece": [
    {
      "TaskList": [
        {
          "$type": "RPG.GameCore.WaitCustomString",
          "CustomString": {
            "Value": "Stage_Wave1End"
          }
        },
        {
          "$type": "RPG.GameCore.WaitSecond",
          "WaitTime": 1
        },
        {
          "$type": "RPG.GameCore.PlayBackgroundTalk",
          "BackgroundTalkList": [
            {
              "AutoSkipTime": 2,
              "TalkSentenceID": 202032723
            },
            {
              "AutoSkipTime": 2,
              "TalkSentenceID": 202032724
            },
            {
              "TalkSentenceID": 202032725
            }
          ]
        },
        {
          "$type": "RPG.GameCore.FinishLevelGraph"
        }
      ]
    }
  ]
}