{
  "OnInitSequece": [
    {
      "TaskList": []
    }
  ],
  "OnStartSequece": [
    {
      "Order": 2,
      "TaskList": [
        {
          "$type": "RPG.GameCore.LockBattleOperation",
          "OperationWhiteList": []
        }
      ]
    },
    {
      "TaskList": [
        {
          "$type": "RPG.GameCore.WaitPerformanceCondition",
          "ConditionType": "BattleStart",
          "TargetType": {
            "$type": "RPG.GameCore.TargetAlias",
            "Alias": "_BattleEventFromStage"
          },
          "SuccessTaskList": [
            {
              "$type": "RPG.GameCore.InsertBattlePerform",
              "BattlePerformPath": "Config/Level/Mission/2010905/Battle/Battle_201090504_01.json"
            }
          ]
        }
      ]
    },
    {
      "TaskList": [
        {
          "$type": "RPG.GameCore.WaitPerformanceCondition",
          "ConditionType": "EndUseSkill",
          "TargetType": {
            "$type": "RPG.GameCore.TargetFetchMonsterByID",
            "MonsterID": 101202003
          },
          "SkillName": "Skill04",
          "SuccessTaskList": [
            {
              "$type": "RPG.GameCore.InsertBattlePerform",
              "BattlePerformPath": "Config/Level/Mission/2010905/Battle/Battle_201090504_02.json"
            }
          ]
        }
      ]
    },
    {
      "TaskList": [
        {
          "$type": "RPG.GameCore.WaitPerformanceCondition",
          "ConditionType": "SpecialWin",
          "TargetType": {
            "$type": "RPG.GameCore.TargetAlias",
            "Alias": "_BattleEventFromStage"
          },
          "SuccessTaskList": [
            {
              "$type": "RPG.GameCore.InsertBattlePerform",
              "BattlePerformPath": "Config/Level/Mission/2010905/Battle/Battle_201090504_03.json"
            }
          ]
        }
      ]
    }
  ]
}