{
  "OnInitSequece": [],
  "OnStartSequece": [
    {
      "TaskList": []
    },
    {
      "TaskList": [
        {
          "$type": "RPG.GameCore.WaitCustomString",
          "CustomString": {
            "Value": "Level_W2_Xuanlu_00_Weak"
          }
        },
        {
          "$type": "RPG.GameCore.PlayBackgroundTalk",
          "BackgroundTalkList": [
            {
              "AutoSkipTime": 4,
              "TalkSentenceID": 202223903
            }
          ]
        },
        {
          "$type": "RPG.GameCore.FinishLevelGraph"
        }
      ]
    },
    {
      "TaskList": []
    },
    {
      "TaskList": [
        {
          "$type": "RPG.GameCore.WaitCustomString",
          "CustomString": {
            "Value": "Level_W2_Xuanlu_00_Peach"
          }
        },
        {
          "$type": "RPG.GameCore.WaitSecond",
          "WaitTime": 0.5
        },
        {
          "$type": "RPG.GameCore.PlayBackgroundTalk",
          "BackgroundTalkList": [
            {
              "AutoSkipTime": 5,
              "TalkSentenceID": 202223208
            },
            {
              "AutoSkipTime": 2,
              "TalkSentenceID": 202223209
            },
            {
              "AutoSkipTime": 5,
              "TalkSentenceID": 202223210
            }
          ]
        }
      ]
    }
  ]
}