{
  "OnInitSequece": [],
  "OnStartSequece": [
    {
      "TaskList": [
        {
          "$type": "RPG.GameCore.PlayScreenTransfer",
          "Type": "None",
          "CustomTime": 1
        }
      ]
    },
    {
      "TaskList": [
        {
          "$type": "RPG.GameCore.LevelPerformanceInitialize",
          "PerformanceType": "D",
          "LockCamera": false,
          "CreateCharacterList": [],
          "EntityVisiableList": [],
          "StreamingCentersInBlackMask": [],
          "StreamingCentersAfterBlackMask": []
        },
        {
          "$type": "RPG.GameCore.PlaySimpleTalk",
          "BlackMask": true,
          "SimpleTalkList": [
            {
              "TalkSentenceID": 100040100,
              "ProtectTime": 0.3
            },
            {
              "TalkSentenceID": 100040101,
              "ProtectTime": 0.3
            }
          ]
        },
        {
          "$type": "RPG.GameCore.WaitSimpleTalkFinish"
        },
        {
          "$type": "RPG.GameCore.PlaySimpleTalk",
          "BlackMask": true,
          "SimpleTalkList": [
            {
              "TalkSentenceID": 100040102,
              "ProtectTime": 0.3
            },
            {
              "TalkSentenceID": 100040103,
              "ProtectTime": 0.3
            },
            {
              "TalkSentenceID": 100040104,
              "ProtectTime": 0.3
            },
            {
              "TalkSentenceID": 100040105,
              "ProtectTime": 0.3
            },
            {
              "TalkSentenceID": 100040106,
              "ProtectTime": 0.3
            },
            {
              "TalkSentenceID": 100040107,
              "ProtectTime": 0.3
            },
            {
              "TalkSentenceID": 100040108,
              "ProtectTime": 0.3
            },
            {
              "TalkSentenceID": 100040109,
              "ProtectTime": 0.3
            },
            {
              "TalkSentenceID": 100040110,
              "ProtectTime": 0.3
            },
            {
              "TalkSentenceID": 100040111,
              "ProtectTime": 0.3
            },
            {
              "TalkSentenceID": 100040129,
              "ProtectTime": 0.3
            },
            {
              "TalkSentenceID": 100040130,
              "ProtectTime": 0.3
            },
            {
              "TalkSentenceID": 100040131,
              "ProtectTime": 0.3
            },
            {
              "TalkSentenceID": 100040112,
              "ProtectTime": 0.3
            },
            {
              "TalkSentenceID": 100040113,
              "ProtectTime": 0.3
            },
            {
              "TalkSentenceID": 100040114,
              "ProtectTime": 0.3
            }
          ]
        },
        {
          "$type": "RPG.GameCore.WaitSimpleTalkFinish"
        },
        {
          "$type": "RPG.GameCore.PlayOptionTalk",
          "OptionList": [
            {
              "TalkSentenceID": 100040115,
              "OptionIconType": "ChatContinueIcon",
              "TriggerCustomString": "TalkSentence_100040115",
              "FinishKey": "0"
            },
            {
              "TalkSentenceID": 100040116,
              "OptionIconType": "ChatContinueIcon",
              "TriggerCustomString": "TalkSentence_100040115",
              "FinishKey": "0"
            },
            {
              "TalkSentenceID": 100040117,
              "OptionIconType": "ChatContinueIcon",
              "TriggerCustomString": "TalkSentence_100040115"
            }
          ]
        }
      ]
    },
    {
      "TaskList": [
        {
          "$type": "RPG.GameCore.WaitCustomString",
          "CustomString": {
            "Value": "TalkSentence_100040115"
          }
        },
        {
          "$type": "RPG.GameCore.PlaySimpleTalk",
          "BlackMask": true,
          "SimpleTalkList": [
            {
              "TalkSentenceID": 100040118,
              "ProtectTime": 0.3
            }
          ]
        },
        {
          "$type": "RPG.GameCore.WaitSimpleTalkFinish"
        },
        {
          "$type": "RPG.GameCore.EndPerformance"
        }
      ]
    },
    {
      "TaskList": [
        {
          "$type": "RPG.GameCore.WaitPerformanceEnd"
        },
        {
          "$type": "RPG.GameCore.FinishLevelGraph"
        }
      ]
    }
  ]
}