{
  "MainMissionID": 1000501,
  "StartSubMissionList": [
    100050101,
    100050112,
    100050103,
    100050104,
    100050105
  ],
  "FinishSubMissionList": [
    100050102
  ],
  "SubMissionList": [
    {
      "MainMissionID": 1000501,
      "MissionJsonPath": "Config/Level/Mission/1000501/Mission_100050101.json",
      "TakeType": "Auto",
      "ID": 100050101,
      "FinishType": "Talk",
      "ParamType": "Equal",
      "ParamStr1": "Mission_100050101",
      "ParamItemList": [],
      "Progress": 1
    },
    {
      "MainMissionID": 1000501,
      "MissionJsonPath": "Config/Level/Mission/1000501/Mission_100050102.json",
      "TakeType": "AnySequence",
      "TakeParamIntList": [
        100050101
      ],
      "ID": 100050102,
      "FinishType": "EnterFloor",
      "ParamType": "Equal",
      "ParamInt1": 10000,
      "ParamInt2": 10000000,
      "ParamItemList": [],
      "Progress": 1
    },
    {
      "MainMissionID": 1000501,
      "MissionJsonPath": "Config/Level/Mission/1000501/Mission_100050103.json",
      "TakeType": "Auto",
      "ID": 100050103,
      "FinishType": "Talk",
      "ParamType": "Equal",
      "ParamStr1": "Mission_100050103",
      "ParamItemList": [],
      "Progress": 1
    },
    {
      "MainMissionID": 1000501,
      "MissionJsonPath": "Config/Level/Mission/1000501/Mission_100050104.json",
      "TakeType": "Auto",
      "ID": 100050104,
      "FinishType": "Talk",
      "ParamType": "Equal",
      "ParamStr1": "Mission_100050104",
      "ParamItemList": [],
      "Progress": 1
    },
    {
      "MainMissionID": 1000501,
      "MissionJsonPath": "Config/Level/Mission/1000501/Mission_100050105.json",
      "TakeType": "Auto",
      "ID": 100050105,
      "FinishType": "Talk",
      "ParamType": "Equal",
      "ParamStr1": "Mission_100050105",
      "ParamItemList": [],
      "Progress": 1
    },
    {
      "MainMissionID": 1000501,
      "MissionJsonPath": "Config/Level/Mission/1000501/Mission_100050112.json",
      "TakeType": "Auto",
      "ID": 100050112,
      "FinishType": "Talk",
      "ParamType": "Equal",
      "ParamStr1": "Mission_100050112",
      "ParamItemList": [],
      "Progress": 1
    }
  ]
}