{
  "MainMissionID": 9999913,
  "StartSubMissionList": [
    999991301,
    999991302,
    999991303,
    999991304,
    999991305,
    999991306,
    999991307,
    999991308
  ],
  "FinishSubMissionList": [
    999991308
  ],
  "SubMissionList": [
    {
      "MainMissionID": 9999913,
      "MissionJsonPath": "Config/Level/Mission/9999913/Mission_999991301.json",
      "TakeType": "Auto",
      "ID": 999991301,
      "FinishType": "Talk",
      "ParamType": "Equal",
      "ParamStr1": "Mission_999991301",
      "ParamItemList": [],
      "Progress": 1
    },
    {
      "MainMissionID": 9999913,
      "MissionJsonPath": "Config/Level/Mission/9999913/Mission_999991302.json",
      "TakeType": "Auto",
      "ID": 999991302,
      "FinishType": "Talk",
      "ParamType": "Equal",
      "ParamStr1": "Mission_999991302",
      "ParamItemList": [],
      "Progress": 1
    },
    {
      "MainMissionID": 9999913,
      "MissionJsonPath": "Config/Level/Mission/9999913/Mission_999991303.json",
      "TakeType": "Auto",
      "ID": 999991303,
      "FinishType": "Talk",
      "ParamType": "Equal",
      "ParamStr1": "Mission_999991303",
      "ParamItemList": [],
      "Progress": 1
    },
    {
      "MainMissionID": 9999913,
      "MissionJsonPath": "Config/Level/Mission/9999913/Mission_999991304.json",
      "TakeType": "Auto",
      "ID": 999991304,
      "FinishType": "Talk",
      "ParamType": "Equal",
      "ParamStr1": "Mission_999991304",
      "ParamItemList": [],
      "Progress": 1
    },
    {
      "MainMissionID": 9999913,
      "MissionJsonPath": "Config/Level/Mission/9999913/Mission_999991305.json",
      "TakeType": "Auto",
      "ID": 999991305,
      "FinishType": "Talk",
      "ParamType": "Equal",
      "ParamStr1": "Mission_999991305",
      "ParamItemList": [],
      "Progress": 1
    },
    {
      "MainMissionID": 9999913,
      "MissionJsonPath": "Config/Level/Mission/9999913/Mission_999991306.json",
      "TakeType": "Auto",
      "ID": 999991306,
      "FinishType": "Talk",
      "ParamType": "Equal",
      "ParamStr1": "Mission_999991306",
      "ParamItemList": [],
      "Progress": 1
    },
    {
      "MainMissionID": 9999913,
      "MissionJsonPath": "Config/Level/Mission/9999913/Mission_999991307.json",
      "TakeType": "Auto",
      "ID": 999991307,
      "FinishType": "Talk",
      "ParamType": "Equal",
      "ParamStr1": "Mission_999991307",
      "ParamItemList": [],
      "Progress": 1
    },
    {
      "MainMissionID": 9999913,
      "TakeType": "Auto",
      "ID": 999991308,
      "FinishType": "SubMissionFinishCnt",
      "ParamType": "ListContain",
      "ParamIntList": [
        999991301,
        999991302,
        999991303,
        999991304,
        999991305,
        999991306,
        999991307
      ],
      "ParamItemList": [],
      "Progress": 1
    }
  ]
}