{
  "OnInitSequece": [],
  "OnStartSequece": [
    {
      "TaskList": [
        {
          "$type": "RPG.GameCore.LevelPerformanceInitialize",
          "LockCamera": false,
          "CreateCharacterList": [],
          "EntityVisiableList": []
        },
        {
          "$type": "RPG.GameCore.PlaySimpleTalk",
          "SimpleTalkList": [
            {
              "TalkSentenceID": 201223110,
              "ProtectTime": 0.3
            },
            {
              "TalkSentenceID": 201223111,
              "ProtectTime": 0.3
            },
            {
              "TalkSentenceID": 201223112,
              "ProtectTime": 0.3
            },
            {
              "TalkSentenceID": 201223113,
              "ProtectTime": 0.3
            },
            {
              "TalkSentenceID": 201223114,
              "ProtectTime": 0.3
            },
            {
              "TalkSentenceID": 201223115,
              "ProtectTime": 0.3
            }
          ]
        },
        {
          "$type": "RPG.GameCore.WaitSimpleTalkFinish"
        },
        {
          "$type": "RPG.GameCore.EndPerformance"
        }
      ]
    },
    {
      "TaskList": [
        {
          "$type": "RPG.GameCore.WaitPerformanceEnd"
        },
        {
          "$type": "RPG.GameCore.FinishLevelGraph"
        }
      ]
    }
  ]
}