{
  "OnInitSequece": [],
  "OnStartSequece": [
    {
      "TaskList": [
        {
          "$type": "RPG.GameCore.PlayScreenTransfer",
          "Type": "None",
          "Mode": "SwitchOut",
          "CustomTime": 0.5
        },
        {
          "$type": "RPG.GameCore.LevelPerformanceInitialize",
          "CreateCharacterList": [],
          "EntityVisiableList": []
        },
        {
          "$type": "RPG.GameCore.ActiveVirtualCamera",
          "AreaName": "Mission_1010412",
          "AnchorName": "101041206",
          "BlendConfig": {
            "ExportToJson": true
          }
        },
        {
          "$type": "RPG.GameCore.PlayScreenTransfer",
          "Type": "None",
          "CustomTime": 0.5
        },
        {
          "$type": "RPG.GameCore.PlaySimpleTalk",
          "SimpleTalkList": [
            {
              "TalkSentenceID": 201223101,
              "ProtectTime": 0.3
            },
            {
              "TalkSentenceID": 201223102,
              "ProtectTime": 0.3
            },
            {
              "TalkSentenceID": 201223103,
              "ProtectTime": 0.3
            },
            {
              "TalkSentenceID": 201223104,
              "ProtectTime": 0.3
            }
          ]
        },
        {
          "$type": "RPG.GameCore.WaitSimpleTalkFinish"
        },
        {
          "$type": "RPG.GameCore.EndPerformance"
        }
      ]
    },
    {
      "TaskList": [
        {
          "$type": "RPG.GameCore.WaitPerformanceEnd"
        },
        {
          "$type": "RPG.GameCore.PlayScreenTransfer",
          "Type": "None",
          "Mode": "SwitchOut",
          "CustomTime": 0.5
        },
        {
          "$type": "RPG.GameCore.ActiveVirtualCamera",
          "AreaName": "Mission_1010412",
          "AnchorName": "101041206",
          "IsActive": false,
          "BlendConfig": {
            "ExportToJson": true
          }
        },
        {
          "$type": "RPG.GameCore.PlayScreenTransfer",
          "Type": "None",
          "CustomTime": 0.5
        },
        {
          "$type": "RPG.GameCore.FinishLevelGraph"
        }
      ]
    }
  ]
}