{
  "OnInitSequece": [],
  "OnStartSequece": [
    {
      "TaskList": [
        {
          "$type": "RPG.GameCore.LevelPerformanceInitialize",
          "LockCamera": false,
          "CreateCharacterList": [],
          "EntityVisiableList": []
        },
        {
          "$type": "RPG.GameCore.AdvNpcFaceToPlayer",
          "GroupID": 34,
          "GroupNpcID": 400001,
          "FinishImmadiate": true
        },
        {
          "$type": "RPG.GameCore.PlayScreenTransfer",
          "Type": "None",
          "CustomTime": 0.5
        },
        {
          "$type": "RPG.GameCore.PlaySimpleTalk",
          "SimpleTalkList": [
            {
              "TalkSentenceID": 201223301,
              "ProtectTime": 0.3
            },
            {
              "TalkSentenceID": 201223302,
              "ProtectTime": 0.3
            },
            {
              "TalkSentenceID": 201223303,
              "ProtectTime": 0.3
            },
            {
              "TalkSentenceID": 201223304,
              "ProtectTime": 0.3
            },
            {
              "TalkSentenceID": 201223305,
              "ProtectTime": 0.3
            },
            {
              "TalkSentenceID": 201223306,
              "ProtectTime": 0.3
            }
          ]
        },
        {
          "$type": "RPG.GameCore.WaitSimpleTalkFinish"
        },
        {
          "$type": "RPG.GameCore.TriggerCustomString",
          "CustomString": {
            "Value": "TalkSentence_201223306"
          }
        }
      ]
    },
    {
      "IsLoop": true,
      "TaskList": [
        {
          "$type": "RPG.GameCore.WaitCustomString",
          "CustomString": {
            "Value": "TalkSentence_201223306"
          }
        },
        {
          "$type": "RPG.GameCore.PlayOptionTalk",
          "OptionList": [
            {
              "TalkSentenceID": 201223307,
              "OptionIconType": "ChatIcon",
              "TriggerCustomString": "TalkSentence_201223307"
            },
            {
              "TalkSentenceID": 201223312,
              "OptionIconType": "ChatIcon",
              "TriggerCustomString": "TalkSentence_201223312"
            },
            {
              "TalkSentenceID": 201223319,
              "OptionIconType": "ChatIcon",
              "TriggerCustomString": "TalkSentence_201223319"
            },
            {
              "TalkSentenceID": 201223325,
              "OptionIconType": "ChatIcon",
              "TriggerCustomString": "TalkSentence_201223325"
            },
            {
              "TalkSentenceID": 201223329,
              "OptionIconType": "ChatContinueIcon",
              "TriggerCustomString": "TalkSentence_201223329"
            }
          ],
          "HideSelected": true
        }
      ]
    },
    {
      "IsLoop": true,
      "TaskList": [
        {
          "$type": "RPG.GameCore.WaitCustomString",
          "CustomString": {
            "Value": "TalkSentence_201223307"
          }
        },
        {
          "$type": "RPG.GameCore.PlaySimpleTalk",
          "SimpleTalkList": [
            {
              "TalkSentenceID": 201223308,
              "ProtectTime": 0.3
            },
            {
              "TalkSentenceID": 201223309,
              "ProtectTime": 0.3
            },
            {
              "TalkSentenceID": 201223310,
              "ProtectTime": 0.3
            },
            {
              "TalkSentenceID": 201223311,
              "ProtectTime": 0.3
            }
          ]
        },
        {
          "$type": "RPG.GameCore.WaitSimpleTalkFinish"
        },
        {
          "$type": "RPG.GameCore.TriggerCustomString",
          "CustomString": {
            "Value": "TalkSentence_201223306"
          }
        }
      ]
    },
    {
      "IsLoop": true,
      "TaskList": [
        {
          "$type": "RPG.GameCore.WaitCustomString",
          "CustomString": {
            "Value": "TalkSentence_201223312"
          }
        },
        {
          "$type": "RPG.GameCore.PlaySimpleTalk",
          "SimpleTalkList": [
            {
              "TalkSentenceID": 201223313,
              "ProtectTime": 0.3
            },
            {
              "TalkSentenceID": 201223314,
              "ProtectTime": 0.3
            },
            {
              "TalkSentenceID": 201223315,
              "ProtectTime": 0.3
            },
            {
              "TalkSentenceID": 201223316,
              "ProtectTime": 0.3
            },
            {
              "TalkSentenceID": 201223317,
              "ProtectTime": 0.3
            },
            {
              "TalkSentenceID": 201223318,
              "ProtectTime": 0.3
            }
          ]
        },
        {
          "$type": "RPG.GameCore.WaitSimpleTalkFinish"
        },
        {
          "$type": "RPG.GameCore.TriggerCustomString",
          "CustomString": {
            "Value": "TalkSentence_201223306"
          }
        }
      ]
    },
    {
      "IsLoop": true,
      "TaskList": [
        {
          "$type": "RPG.GameCore.WaitCustomString",
          "CustomString": {
            "Value": "TalkSentence_201223319"
          }
        },
        {
          "$type": "RPG.GameCore.PlaySimpleTalk",
          "SimpleTalkList": [
            {
              "TalkSentenceID": 201223320,
              "ProtectTime": 0.3
            },
            {
              "TalkSentenceID": 201223321,
              "ProtectTime": 0.3
            },
            {
              "TalkSentenceID": 201223322,
              "ProtectTime": 0.3
            }
          ]
        },
        {
          "$type": "RPG.GameCore.WaitSimpleTalkFinish"
        },
        {
          "$type": "RPG.GameCore.TriggerCustomString",
          "CustomString": {
            "Value": "TalkSentence_201223306"
          }
        }
      ]
    },
    {
      "IsLoop": true,
      "TaskList": [
        {
          "$type": "RPG.GameCore.WaitCustomString",
          "CustomString": {
            "Value": "TalkSentence_201223325"
          }
        },
        {
          "$type": "RPG.GameCore.PlaySimpleTalk",
          "SimpleTalkList": [
            {
              "TalkSentenceID": 201223326,
              "ProtectTime": 0.3
            },
            {
              "TalkSentenceID": 201223327,
              "ProtectTime": 0.3
            },
            {
              "TalkSentenceID": 201223328,
              "ProtectTime": 0.3
            }
          ]
        },
        {
          "$type": "RPG.GameCore.WaitSimpleTalkFinish"
        },
        {
          "$type": "RPG.GameCore.TriggerCustomString",
          "CustomString": {
            "Value": "TalkSentence_201223306"
          }
        }
      ]
    },
    {
      "TaskList": [
        {
          "$type": "RPG.GameCore.WaitCustomString",
          "CustomString": {
            "Value": "TalkSentence_201223329"
          }
        },
        {
          "$type": "RPG.GameCore.PlaySimpleTalk",
          "SimpleTalkList": [
            {
              "TalkSentenceID": 201223330,
              "ProtectTime": 0.3
            }
          ]
        },
        {
          "$type": "RPG.GameCore.WaitSimpleTalkFinish"
        },
        {
          "$type": "RPG.GameCore.EndPerformance"
        }
      ]
    },
    {
      "TaskList": [
        {
          "$type": "RPG.GameCore.WaitPerformanceEnd"
        },
        {
          "$type": "RPG.GameCore.FinishLevelGraph"
        }
      ]
    }
  ]
}