{
  "MainMissionID": 4040160,
  "StartSubMissionList": [
    404016000
  ],
  "FinishSubMissionList": [
    404016001
  ],
  "SubMissionList": [
    {
      "MainMissionID": 4040160,
      "MissionJsonPath": "Config/Level/Mission/4040115/Mission_404016000.json",
      "TakeType": "Auto",
      "ID": 404016000,
      "FinishType": "ConsumeMissionItem",
      "ParamType": "Equal",
      "ParamItemList": [
        {
          "ItemID": 140000,
          "ItemNum": 1
        }
      ],
      "Progress": 1
    },
    {
      "MainMissionID": 4040160,
      "MissionJsonPath": "Config/Level/Mission/4040115/Mission_404016001.json",
      "TakeType": "AnySequence",
      "TakeParamIntList": [
        404016000
      ],
      "ID": 404016001,
      "FinishType": "Talk",
      "ParamType": "Equal",
      "ParamStr1": "Mission_404016001",
      "ParamItemList": [],
      "Progress": 1
    }
  ]
}