{
  "OnInitSequece": [],
  "OnStartSequece": [
    {
      "TaskList": [
        {
          "$type": "RPG.GameCore.LevelPerformanceInitialize",
          "PerformanceType": "E",
          "LockCamera": false,
          "CreateCharacterList": [],
          "EntityVisiableList": [],
          "HideMunicipalCrowd": false,
          "HideMunicipalPedestrian": false,
          "PropVisiableList": [],
          "StreamingCentersInBlackMask": [],
          "StreamingCentersAfterBlackMask": [],
          "MarkStreamingItems": []
        },
        {
          "$type": "RPG.GameCore.PlaySimpleTalk",
          "SimpleTalkList": [
            {
              "TalkSentenceID": 501163028,
              "ProtectTime": 0.3
            },
            {
              "TalkSentenceID": 501163029
            },
            {
              "TalkSentenceID": 501163030
            },
            {
              "TalkSentenceID": 501163031
            },
            {
              "TalkSentenceID": 501163032
            },
            {
              "TalkSentenceID": 501163033
            },
            {
              "TalkSentenceID": 501163034
            },
            {
              "TalkSentenceID": 501163035
            },
            {
              "TalkSentenceID": 501163036
            },
            {
              "TalkSentenceID": 501163037
            }
          ]
        },
        {
          "$type": "RPG.GameCore.WaitSimpleTalkFinish"
        },
        {
          "$type": "RPG.GameCore.EndPerformance"
        }
      ]
    },
    {
      "TaskList": [
        {
          "$type": "RPG.GameCore.WaitPerformanceEnd"
        },
        {
          "$type": "RPG.GameCore.FinishLevelGraph"
        }
      ]
    }
  ]
}