{
  "MainMissionID": 4040001,
  "StartSubMissionList": [
    404000101
  ],
  "FinishSubMissionList": [
    404000103
  ],
  "SubMissionList": [
    {
      "MainMissionID": 4040001,
      "MissionJsonPath": "Config/Level/Mission/4040001/Mission_404000101.json",
      "TakeType": "Auto",
      "ID": 404000101,
      "FinishType": "Talk",
      "ParamType": "Equal",
      "ParamStr1": "Mission_404000101",
      "ParamItemList": [],
      "Progress": 1
    },
    {
      "MainMissionID": 4040001,
      "MissionJsonPath": "Config/Level/Mission/4040001/Mission_404000102.json",
      "TakeType": "AnySequence",
      "TakeParamIntList": [
        404000101
      ],
      "ID": 404000102,
      "FinishType": "Talk",
      "ParamType": "Equal",
      "ParamStr1": "Mission_404000102",
      "ParamItemList": [],
      "Progress": 1
    },
    {
      "MainMissionID": 4040001,
      "MissionJsonPath": "Config/Level/Mission/4040001/Mission_404000103.json",
      "TakeType": "AnySequence",
      "TakeParamIntList": [
        404000102
      ],
      "ID": 404000103,
      "FinishType": "Talk",
      "ParamType": "Equal",
      "ParamStr1": "Mission_404000103",
      "ParamItemList": [],
      "Progress": 1
    }
  ]
}