{
  "SomatoType": "MiddleAvatar",
  "BuffPanelOffset": {
    "X": 0,
    "Y": 0.8,
    "Z": 0
  },
  "HitBoxWidth": 0.3,
  "HitBoxHeight": 1.5,
  "Location": {
    "Width": 0.8
  },
  "SaveModelWhenDead": true,
  "AnimEventConfigList": [
    "Config/ConfigAnimEvents/Avatar/Designer/Avatar_Qingque_00_Designer_AnimEvent.json",
    "Config/ConfigAnimEvents/Avatar/Effect/Avatar_Qingque_00_Effect_AnimEvent.json",
    "Config/ConfigAnimEvents/Avatar/Audio/Avatar_Qingque_00_Audio_AnimEvent.json"
  ],
  "SkillList": [
    {
      "Name": "Skill01",
      "UseType": "SelectEntity",
      "TargetInfo": {
        "TargetType": "EnemySelect"
      },
      "UseReadyTransitAnim": true,
      "ReadyAnimState": "Skill01_Ready",
      "ReadyAnimWaitTime": 0.3,
      "CameraConfig": {
        "NormalConfig": {
          "CameraState": "SelectDarkTeamEntity",
          "AnchorTargetType": {
            "$type": "RPG.GameCore.TargetAlias",
            "Alias": "Caster"
          },
          "IsLocalOffset": true,
          "AnchorOffset": {
            "X": 0.5,
            "Y": 0.24,
            "Z": -0.56
          },
          "AimTargetType": {
            "$type": "RPG.GameCore.TargetAlias",
            "Alias": "SkillTargetEntityList"
          },
          "AimOffset": {
            "X": -2.8,
            "Y": 0.45,
            "Z": 0
          },
          "FollowRadius": 3,
          "AnchorToAimAngle": 30,
          "Dutch": 2
        },
        "BlendConfig": {
          "BlendType": "Cut"
        }
      },
      "CameraConfigAdded": {
        "NormalConfig": {
          "CameraState": "SelectDarkTeamEntity",
          "AnchorTargetType": {
            "$type": "RPG.GameCore.TargetAlias",
            "Alias": "Caster"
          },
          "IsLocalOffset": true,
          "AnchorOffset": {
            "X": -0.4,
            "Y": -0.26,
            "Z": 0.08
          },
          "AimTargetType": {
            "$type": "RPG.GameCore.TargetAlias",
            "Alias": "SkillTargetEntityList"
          },
          "AimOffset": {
            "X": -2.8,
            "Y": 0.88,
            "Z": 0
          },
          "FollowRadius": 3.06,
          "AnchorToAimAngle": 27
        },
        "BlendConfig": {
          "BlendType": "Custom",
          "CustomCurveName": "BlendCut_05to1",
          "BlendTime": 1
        }
      },
      "EntryAbility": "Avatar_QingQue_00_Skill01_Phase01",
      "ComplexSkillAI": {
        "Groups": [
          {
            "GroupName": "BaseWeight",
            "Weight": {
              "Value": 0.40000000037252903
            }
          },
          {
            "GroupName": "BasePp_Common_SingleAttack",
            "Weight": {
              "Value": 0.3000000002793968
            }
          },
          {
            "GroupName": "BasePp_Common_WeakBreak",
            "Weight": {
              "Value": 0.3000000002793968
            }
          }
        ]
      }
    },
    {
      "Name": "Skill02",
      "SkillType": "Skill",
      "UseType": "SelectEntity",
      "TargetInfo": {
        "TargetType": "Caster"
      },
      "UseReadyTransitAnim": true,
      "ReadyAnimState": "Skill02_Ready_Loop",
      "ReadyAnimWaitTime": 0.3,
      "CameraConfig": {
        "NormalConfig": {
          "CameraState": "UseSkillPerform",
          "AnchorTargetType": {
            "$type": "RPG.GameCore.TargetAlias",
            "Alias": "Caster"
          },
          "IsLocalOffset": true,
          "AnchorOffset": {
            "X": 0.49,
            "Y": 1.44,
            "Z": -0.44
          },
          "AimTargetType": {
            "$type": "RPG.GameCore.TargetAlias",
            "Alias": "Caster"
          },
          "AimOffset": {
            "X": -0.25,
            "Y": 0.78,
            "Z": -0.16
          },
          "FollowPoleAngle": 90,
          "FollowRadius": 1,
          "AnchorToAimAngle": 1,
          "FollowDamp": 0.4,
          "FOV": 40
        },
        "BlendConfig": {
          "BlendType": "Cut"
        },
        "NoiseConfig": {}
      },
      "CameraConfigAdded": {
        "NormalConfig": {
          "CameraState": "UseSkillPerform",
          "AnchorTargetType": {
            "$type": "RPG.GameCore.TargetAlias",
            "Alias": "Caster"
          },
          "IsLocalOffset": true,
          "AnchorOffset": {
            "X": 0.2,
            "Y": 1.22,
            "Z": -0.46
          },
          "AimTargetType": {
            "$type": "RPG.GameCore.TargetAlias",
            "Alias": "Caster"
          },
          "AimOffset": {
            "X": -0.18,
            "Y": 0.56,
            "Z": 0.06
          },
          "FollowPoleAngle": 90,
          "FollowRadius": 1,
          "AnchorToAimAngle": 1,
          "FOV": 40
        },
        "BlendConfig": {
          "BlendType": "Custom",
          "CustomCurveName": "BlendCut_QingqueSkill02Config",
          "BlendTime": 2.5
        }
      },
      "UseTwoCameraConfigOnlyOnSelect": true,
      "EntryAbility": "Avatar_QingQue_00_Skill02_Phase01",
      "ComplexSkillAI": {
        "Groups": [
          {
            "GroupName": "BaseWeight",
            "Weight": {
              "Value": 0.20000000018626451
            }
          },
          {
            "GroupName": "AddNP_Common_BPSkill",
            "Weight": {
              "Value": 0.3000000002793968
            }
          },
          {
            "GroupName": "Add_QingQue_MajiangBuffLayer",
            "Weight": {
              "Value": 0.5000000004656613
            }
          }
        ]
      },
      "Skill2To1AlwaysCut": true,
      "AutoStandbyOnSkillFinish": false
    },
    {
      "Name": "Skill03",
      "SkillType": "Ultra",
      "UseType": "SelectEntity",
      "TargetInfo": {
        "TargetType": "AllEnemy"
      },
      "UseReadyTransitAnim": true,
      "SkillNameHUD": false,
      "ReadyAnimState": "Skill03_Ready",
      "ReadyAnimWaitTime": 0.3,
      "CameraConfig": {
        "NormalConfig": {
          "CameraState": "SelectDarkTeamEntity",
          "AnchorTargetType": {
            "$type": "RPG.GameCore.TargetAlias",
            "Alias": "Caster"
          },
          "IsLocalOffset": true,
          "AnchorOffset": {
            "X": -0.64,
            "Y": 0.07,
            "Z": 0.12
          },
          "AimTargetType": {
            "$type": "RPG.GameCore.TargetAlias",
            "Alias": "SkillTargetEntityList"
          },
          "AimOffset": {
            "X": -2.07,
            "Y": 1.03,
            "Z": 0
          },
          "AimRatio": 1,
          "AnchorToAimAngle": 27
        },
        "BlendConfig": {
          "BlendType": "Custom",
          "CustomCurveName": "BlendCut_0to1",
          "BlendTime": 1
        }
      },
      "EntryAbility": "Avatar_QingQue_00_Skill03_Phase01",
      "PrepareAbility": "Avatar_Qingque_00_Skill03_EnterReady",
      "ComplexSkillAI": {
        "SkillBasicPower": {
          "Value": 100
        },
        "Groups": [
          {
            "GroupName": "Ultra_Common_ImmediateRelease"
          }
        ]
      }
    },
    {
      "Name": "Skill11",
      "UseType": "SelectEntity",
      "TargetInfo": {
        "TargetType": "EnemySelect",
        "SubTargetType": "TargetAdjoinEntity"
      },
      "UseReadyTransitAnim": true,
      "ReadyAnimState": "Skill01_Ready_01",
      "ReadyAnimWaitTime": 0.3,
      "CameraConfig": {
        "NormalConfig": {
          "CameraState": "SelectDarkTeamEntity",
          "AnchorTargetType": {
            "$type": "RPG.GameCore.TargetAlias",
            "Alias": "Caster"
          },
          "IsLocalOffset": true,
          "AnchorOffset": {
            "X": 0.6,
            "Y": -0.2,
            "Z": -0.6
          },
          "AimTargetType": {
            "$type": "RPG.GameCore.TargetAlias",
            "Alias": "SkillTargetEntityList"
          },
          "AimOffset": {
            "X": -2.8,
            "Y": 0.45,
            "Z": 0
          },
          "AnchorToAimAngle": 26
        },
        "BlendConfig": {
          "BlendType": "Cut"
        }
      },
      "CameraConfigAdded": {
        "NormalConfig": {
          "CameraState": "SelectDarkTeamEntity",
          "AnchorTargetType": {
            "$type": "RPG.GameCore.TargetAlias",
            "Alias": "Caster"
          },
          "IsLocalOffset": true,
          "AnchorOffset": {
            "X": -0.2,
            "Y": -0.2,
            "Z": -0.03
          },
          "AimTargetType": {
            "$type": "RPG.GameCore.TargetAlias",
            "Alias": "SkillTargetEntityList"
          },
          "AimOffset": {
            "X": -2.8,
            "Y": 0.45,
            "Z": 0
          },
          "AnchorToAimAngle": 26
        },
        "BlendConfig": {
          "BlendType": "Custom",
          "CustomCurveName": "BlendCut_00to1",
          "BlendTime": 1
        }
      },
      "EntryAbility": "Avatar_QingQue_00_Skill11_Phase01",
      "ComplexSkillAI": {
        "SkillBasicPower": {
          "Value": 100
        },
        "Groups": [
          {
            "GroupName": "BaseWeight"
          },
          {
            "GroupName": "AddpP_Common_SelfNeighbour",
            "Weight": {
              "Value": 0.5000000004656613
            }
          },
          {
            "GroupName": "Ultra_Common_SingleAttack"
          }
        ]
      }
    },
    {
      "Name": "SkillP01",
      "SkillType": "Passive",
      "UseType": "Passive",
      "TargetInfo": {
        "TargetType": "Caster"
      },
      "EntryAbility": "Avatar_QingQue_00_PassiveSkill01"
    },
    {
      "Name": "SkillMaze",
      "SkillType": "Maze",
      "TargetInfo": {
        "TargetType": "Caster"
      },
      "EntryAbility": "Avatar_Qingque_00_SkillMazeInLevel"
    },
    {
      "Name": "PassiveSkill02",
      "SkillType": "Passive",
      "UseType": "Passive",
      "TargetInfo": {
        "TargetType": "Caster"
      },
      "EntryAbility": "Avatar_Common_PassiveSkill"
    }
  ],
  "AbilityList": [
    "Avatar_Common_PassiveSkill"
  ],
  "SkillAbilityList": [
    {
      "Skill": "Skill01",
      "AbilityList": [
        "Avatar_Qingque_00_Skill01_Camera",
        "Avatar_QingQue_00_Skill01_Phase01",
        "Avatar_QingQue_00_Skill01_Phase02",
        "Avatar_Qingque_00_Rank04_ATK"
      ]
    },
    {
      "Skill": "Skill11",
      "AbilityList": [
        "Avatar_Qingque_00_Skill011_Camera",
        "Avatar_QingQue_00_Skill11_Phase01",
        "Avatar_Qingque_00_Rank04_ATK_Special",
        "Avatar_QingQue_00_Skill11_Phase02"
      ]
    },
    {
      "Skill": "Skill02",
      "AbilityList": [
        "Avatar_Qingque_00_Skill02_Camera",
        "Avatar_QingQue_00_Skill02_Phase01",
        "Avatar_QingQue_00_Skill02_Phase02",
        "Avatar_Qingque_00_BpInsertAction",
        "Avatar_Qingque_00_BpInsertAction_Camera",
        "Avatar_Qingque_00_BpInsertAction_Tiao",
        "Avatar_Qingque_00_BpInsertAction_Tong",
        "Avatar_Qingque_00_BpInsertAction_Wan"
      ]
    },
    {
      "Skill": "Skill03",
      "AbilityList": [
        "Avatar_Qingque_00_Skill03_Camera",
        "Avatar_QingQue_00_Skill03_Phase01",
        "Avatar_QingQue_00_Skill03_Phase02",
        "Avatar_Pela_00_Skill03_Cutin",
        "Avatar_Qingque_00_Skill03_EnterReady"
      ]
    },
    {
      "Skill": "SkillP01",
      "AbilityList": [
        "Avatar_QingQue_00_PassiveSkill01",
        "Avatar_Qingque_00_Bonus",
        "Avatar_Qingque_00_Rank04_ATK_Camera",
        "Avatar_Qingque_00_Bonus_Camera",
        "Avatar_Qingque_00_Rank04_ATK_Special_Camera",
        "Avatar_Qingque_00_UltraGangFix_Camera"
      ]
    },
    {
      "Skill": "SkillMaze",
      "AbilityList": [
        "Avatar_Qingque_00_SkillMazeInLevel"
      ]
    }
  ],
  "DynamicValues": {
    "Values": {
      "561513590": {},
      "-1456109641": {},
      "-362338431": {},
      "-2130193794": {},
      "126143582": {},
      "-1126825319": {
        "ReadInfo": {
          "Type": "None",
          "Str": "Skill01"
        }
      },
      "-1999440872": {
        "ReadInfo": {
          "Type": "None",
          "Str": "Skill11"
        }
      },
      "-1695908581": {
        "ReadInfo": {
          "Type": "SkillTreeParam",
          "Str": "Skill11"
        }
      },
      "1526059400": {
        "ReadInfo": {
          "Type": "None",
          "Str": "Skill02"
        }
      },
      "936398762": {
        "ReadInfo": {
          "Type": "SkillTreeParam",
          "Str": "Skill02"
        }
      },
      "1662446059": {},
      "-261435884": {
        "ReadInfo": {
          "Type": "SkillRank",
          "Str": "Skill02"
        }
      },
      "-56289053": {
        "ReadInfo": {
          "Type": "None",
          "Str": "Skill03"
        }
      },
      "-1249737567": {
        "ReadInfo": {
          "Type": "None",
          "Str": "SkillP01"
        }
      },
      "2128130574": {},
      "-628549939": {},
      "1029209469": {
        "ReadInfo": {
          "Type": "None",
          "Str": "PointB2"
        }
      },
      "149647252": {
        "ReadInfo": {
          "Type": "None",
          "Str": "PointB3"
        }
      },
      "-992855710": {},
      "-1954572366": {},
      "-1376435470": {
        "ReadInfo": {
          "Type": "None",
          "Str": "Rank04"
        }
      },
      "-1919300542": {
        "ReadInfo": {
          "Type": "None",
          "Str": "Rank02"
        }
      },
      "-848212169": {},
      "-139872189": {
        "ReadInfo": {
          "Type": "None",
          "Str": "Rank01"
        }
      },
      "2110665399": {
        "ReadInfo": {
          "Type": "None",
          "Str": "SkillMaze"
        }
      }
    }
  },
  "WeaponType": "WP_Bullet",
  "SkillReadyTransits": [
    {
      "From": 1,
      "To": 2,
      "AnimStateName": "Skill01toSkill02",
      "TransitionInTime": 0.02,
      "ReverseOutroTime": 0.03
    },
    {
      "From": 2,
      "To": 1,
      "AnimStateName": "Skill02toSkill01",
      "TransitionInTime": 0.02,
      "ReverseOutroTime": 0.03
    }
  ],
  "DisableAnimEventLayers": [
    "Riboon Layer"
  ]
}