{
  "SomatoType": "MiddleAvatar",
  "BuffPanelOffset": {
    "X": 0,
    "Y": 1.2,
    "Z": 0
  },
  "HitBoxWidth": 0.3,
  "HitBoxHeight": 1.5,
  "Location": {
    "Width": 0.8
  },
  "SaveModelWhenDead": true,
  "AnimEventConfigList": [
    "Config/ConfigAnimEvents/Avatar/Designer/Avatar_PlayerBoy_10_Designer_AnimEvent.json",
    "Config/ConfigAnimEvents/Avatar/Effect/Avatar_PlayerBoy_10_Effect_AnimEvent.json",
    "Config/ConfigAnimEvents/Avatar/Audio/Avatar_PlayerBoy_10_Audio_AnimEvent.json"
  ],
  "SkillList": [
    {
      "Name": "Skill01",
      "UseType": "SelectEntity",
      "TargetInfo": {
        "TargetType": "EnemySelect"
      },
      "UseReadyTransitAnim": true,
      "ReadyAnimState": "Skill01_Ready",
      "ReadyAnimWaitTime": 0.3,
      "CameraConfig": {
        "NormalConfig": {
          "CameraState": "SelectDarkTeamEntity",
          "AnchorTargetType": {
            "$type": "RPG.GameCore.TargetAlias",
            "Alias": "Caster"
          },
          "IsLocalOffset": true,
          "AnchorOffset": {
            "X": 0.5,
            "Y": 0.24,
            "Z": -0.56
          },
          "AimTargetType": {
            "$type": "RPG.GameCore.TargetAlias",
            "Alias": "SkillTargetEntityList"
          },
          "AimOffset": {
            "X": -2.8,
            "Y": 0.45,
            "Z": 0
          },
          "FollowRadius": 3,
          "AnchorToAimAngle": 30,
          "Dutch": 2
        },
        "BlendConfig": {
          "BlendType": "Cut"
        }
      },
      "CameraConfigAdded": {
        "NormalConfig": {
          "CameraState": "SelectDarkTeamEntity",
          "AnchorTargetType": {
            "$type": "RPG.GameCore.TargetAlias",
            "Alias": "Caster"
          },
          "IsLocalOffset": true,
          "AnchorOffset": {
            "X": -0.1,
            "Y": 0.1,
            "Z": -0.15
          },
          "AimTargetType": {
            "$type": "RPG.GameCore.TargetAlias",
            "Alias": "SkillTargetEntityList"
          },
          "AimOffset": {
            "X": -2.8,
            "Y": 0.45,
            "Z": 0
          },
          "FollowRadius": 2.86,
          "AnchorToAimAngle": 25
        },
        "BlendConfig": {
          "BlendType": "Custom",
          "CustomCurveName": "BlendCut_00to1",
          "BlendTime": 0.5
        }
      },
      "EntryAbility": "Avatar_PlayerBoy_10_Skill01_Phase01",
      "ParaMapping": [],
      "ComplexSkillAI": {
        "Groups": [
          {
            "GroupName": "BaseWeight",
            "Weight": {
              "Value": 0.3000000002793968
            }
          },
          {
            "GroupName": "BasePp_Common_SingleAttack",
            "Weight": {
              "Value": 0.40000000037252903
            }
          },
          {
            "GroupName": "BasePp_Common_WeakBreak",
            "Weight": {
              "Value": 0.3000000002793968
            }
          }
        ]
      },
      "Skill1To2AlwaysCut": true
    },
    {
      "Name": "Skill02",
      "SkillType": "Skill",
      "UseType": "SelectEntity",
      "AlwaysDoAutoLock": true,
      "LockType": "LowHP",
      "TargetInfo": {
        "TargetType": "Caster"
      },
      "UseReadyTransitAnim": true,
      "ReadyAnimState": "Skill02_Ready_Loop",
      "ReadyAnimWaitTime": 0.3,
      "CameraConfig": {
        "NormalConfig": {
          "CameraState": "UseSkillPerform",
          "AnchorTargetType": {
            "$type": "RPG.GameCore.TargetAlias",
            "Alias": "Caster"
          },
          "IsLocalOffset": true,
          "AnchorOffset": {
            "X": -0.5,
            "Y": 0.93,
            "Z": 0.7
          },
          "AnchorRatio": 0.2,
          "AimTargetType": {
            "$type": "RPG.GameCore.TargetAlias",
            "Alias": "SkillTargetEntityList"
          },
          "AimOffset": {
            "X": 0,
            "Y": 0.5,
            "Z": -5
          },
          "FollowPoleAngle": 88,
          "FollowRadius": 2,
          "FollowDamp": 1
        },
        "BlendConfig": {
          "BlendType": "Cut"
        },
        "ShowEntityConfig": {
          "ShowTargetType": {
            "$type": "RPG.GameCore.TargetAlias",
            "Alias": "Caster"
          }
        }
      },
      "CameraConfigAdded": {
        "NormalConfig": {
          "CameraState": "UseSkillPerform",
          "AnchorTargetType": {
            "$type": "RPG.GameCore.TargetAlias",
            "Alias": "Caster"
          },
          "IsLocalOffset": true,
          "AnchorOffset": {
            "X": 0.5,
            "Y": 0.3,
            "Z": 0.8
          },
          "AimTargetType": {
            "$type": "RPG.GameCore.TargetAlias",
            "Alias": "Caster"
          },
          "AimOffset": {
            "X": -0.75,
            "Y": 2,
            "Z": -3.5
          },
          "FollowPoleAngle": 90,
          "FollowRadius": 1,
          "FollowDamp": 1,
          "FOV": 35,
          "ResetToDefault": false
        },
        "CloseupShotConfig": {},
        "BlendConfig": {
          "BlendType": "Custom",
          "CustomCurveName": "BlendCut_05to1",
          "BlendTime": 1
        },
        "ShowEntityConfig": {
          "ShowTargetType": {
            "$type": "RPG.GameCore.TargetAlias",
            "Alias": "Caster"
          }
        }
      },
      "FormationType": "LightTeamNormal",
      "TeamFormationConfigTemplateName": "LowSpacing",
      "EntryAbility": "Avatar_PlayerBoy_10_Skill02_Phase01",
      "ComplexSkillAI": {
        "Groups": [
          {
            "GroupName": "BaseWeight",
            "Weight": {
              "Value": 0.40000000037252903
            }
          },
          {
            "GroupName": "AddNP_Common_BPSkill",
            "Weight": {
              "Value": 0.3000000002793968
            }
          },
          {
            "GroupName": "Mul_Player01_BpSkillBuffWeight"
          }
        ]
      }
    },
    {
      "Name": "Skill03",
      "SkillType": "Ultra",
      "UseType": "SelectEntity",
      "TargetInfo": {
        "TargetType": "AllEnemy"
      },
      "SkillNameHUD": false,
      "ReadyAnimState": "Skill03_Ready",
      "EntryAbility": "Avatar_PlayerBoy_10_Skill03_Phase01",
      "PrepareAbility": "Avatar_PlayerBoy_10_Skill03_EnterReady",
      "ComplexSkillAI": {
        "SkillBasicPower": {
          "Value": 70
        },
        "Groups": [
          {
            "GroupName": "Ultra_Common_ImmediateRelease"
          }
        ]
      }
    },
    {
      "Name": "Skill11",
      "UseType": "SelectEntity",
      "TargetInfo": {
        "TargetType": "EnemySelect",
        "SubTargetType": "TargetAdjoinEntity"
      },
      "UseReadyTransitAnim": true,
      "ReadyAnimState": "Skill11_Ready",
      "ReadyAnimWaitTime": 0.3,
      "CameraConfig": {
        "NormalConfig": {
          "CameraState": "SelectDarkTeamEntity",
          "AnchorTargetType": {
            "$type": "RPG.GameCore.TargetAlias",
            "Alias": "Caster"
          },
          "IsLocalOffset": true,
          "AnchorOffset": {
            "X": 0.5,
            "Y": 0.24,
            "Z": -0.56
          },
          "AimTargetType": {
            "$type": "RPG.GameCore.TargetAlias",
            "Alias": "SkillTargetEntityList"
          },
          "AimOffset": {
            "X": -2.8,
            "Y": 0.45,
            "Z": 0
          },
          "FollowRadius": 3,
          "AnchorToAimAngle": 30,
          "Dutch": 2
        },
        "BlendConfig": {
          "BlendType": "Cut"
        }
      },
      "CameraConfigAdded": {
        "NormalConfig": {
          "CameraState": "SelectDarkTeamEntity",
          "AnchorTargetType": {
            "$type": "RPG.GameCore.TargetAlias",
            "Alias": "Caster"
          },
          "IsLocalOffset": true,
          "AnchorOffset": {
            "X": -0.1,
            "Y": 0.1,
            "Z": -0.15
          },
          "AimTargetType": {
            "$type": "RPG.GameCore.TargetAlias",
            "Alias": "SkillTargetEntityList"
          },
          "AimOffset": {
            "X": -2.8,
            "Y": 0.45,
            "Z": 0
          },
          "FollowRadius": 2.86,
          "AnchorToAimAngle": 25
        },
        "BlendConfig": {
          "BlendType": "Custom",
          "CustomCurveName": "BlendCut_00to1",
          "BlendTime": 0.5
        }
      },
      "FormationType": "LightTeamSelectTarget",
      "EntryAbility": "Avatar_PlayerBoy_10_Skill11_Phase01",
      "ComplexSkillAI": {
        "Groups": [
          {
            "GroupName": "BaseWeight",
            "Weight": {
              "Value": 0.3000000002793968
            }
          },
          {
            "GroupName": "BasePp_Common_SingleAttack",
            "Weight": {
              "Value": 0.10000000009313226
            }
          },
          {
            "GroupName": "BasePp_Common_WeakBreak",
            "Weight": {
              "Value": 0.10000000009313226
            }
          },
          {
            "GroupName": "Add_Player01_WeaponChargePoint",
            "Weight": {
              "Value": 0.5000000004656613
            }
          }
        ]
      },
      "Skill1To2AlwaysCut": true
    },
    {
      "Name": "SkillP01",
      "SkillType": "Passive",
      "UseType": "Passive",
      "TargetInfo": {
        "TargetType": "Caster"
      },
      "SkillNameHUD": false,
      "EntryAbility": "Avatar_PlayerBoy_10_PassiveSkill01"
    },
    {
      "Name": "SkillMaze",
      "SkillType": "Maze",
      "TargetInfo": {
        "TargetType": "AllEnemy"
      },
      "EntryAbility": "Avatar_PlayerBoy_10_SkillMazeInLevel"
    },
    {
      "Name": "PassiveSkill02",
      "SkillType": "Passive",
      "UseType": "Passive",
      "TargetInfo": {
        "TargetType": "Caster"
      },
      "EntryAbility": "Avatar_Common_PassiveSkill"
    }
  ],
  "AbilityList": [
    "Avatar_Common_PassiveSkill"
  ],
  "SkillAbilityList": [
    {
      "Skill": "Skill01",
      "AbilityList": [
        "Avatar_PlayerBoy_10_Skill01_Camera",
        "Avatar_PlayerBoy_10_Skill01_Phase01",
        "Avatar_PlayerBoy_10_Skill01_Phase02"
      ]
    },
    {
      "Skill": "Skill11",
      "AbilityList": [
        "Avatar_PlayerBoy_10_Skill11_Phase01",
        "Avatar_PlayerBoy_10_Skill11_Phase02",
        "Avatar_PlayerBoy_10_Skill11_Camera"
      ]
    },
    {
      "Skill": "Skill02",
      "AbilityList": [
        "Avatar_PlayerBoy_10_Skill02_Camera_Self",
        "Avatar_PlayerBoy_10_Skill02_Phase01",
        "Avatar_PlayerBoy_10_Skill02_Phase02"
      ]
    },
    {
      "Skill": "Skill03",
      "AbilityList": [
        "Avatar_PlayerBoy_10_Skill03_Camera",
        "Avatar_PlayerBoy_10_Skill03_EnterReady",
        "Avatar_PlayerBoy_10_Skill03_Phase01",
        "Avatar_PlayerBoy_10_Skill03_Phase02"
      ]
    },
    {
      "Skill": "SkillP01",
      "AbilityList": [
        "Avatar_PlayerBoy_10_PassiveSkill01"
      ]
    },
    {
      "Skill": "SkillMaze",
      "AbilityList": [
        "Avatar_PlayerBoy_10_SkillMazeInLevel"
      ]
    }
  ],
  "DynamicValues": {
    "Values": {
      "-866033058": {},
      "-625557181": {},
      "-196705807": {},
      "1287807603": {},
      "-990890206": {},
      "-1570903316": {},
      "-1126825319": {
        "ReadInfo": {
          "Type": "None",
          "Str": "Skill01"
        }
      },
      "-1999440872": {
        "ReadInfo": {
          "Type": "None",
          "Str": "Skill11"
        }
      },
      "-1695908581": {
        "ReadInfo": {
          "Type": "SkillTreeParam",
          "Str": "Skill11"
        }
      },
      "1468227228": {
        "ReadInfo": {
          "Type": "None",
          "Str": "Skill02"
        }
      },
      "-1467765042": {
        "ReadInfo": {
          "Type": "SkillTreeParam",
          "Str": "Skill02"
        }
      },
      "-1871408094": {
        "ReadInfo": {
          "Type": "SkillRank",
          "Str": "Skill02"
        }
      },
      "-56289053": {
        "ReadInfo": {
          "Type": "None",
          "Str": "Skill03"
        }
      },
      "411247537": {
        "ReadInfo": {
          "Type": "SkillTreeParam",
          "Str": "Skill03"
        }
      },
      "32520839": {
        "ReadInfo": {
          "Type": "None",
          "Str": "SkillP01"
        }
      },
      "-1460099747": {
        "ReadInfo": {
          "Type": "SkillTreeParam",
          "Str": "SkillP01"
        }
      },
      "1521685235": {
        "ReadInfo": {
          "Type": "SkillRank",
          "Str": "SkillP01"
        }
      },
      "1849428589": {
        "ReadInfo": {
          "Type": "BattleEvent",
          "Str": "SkillP01"
        }
      },
      "2123907767": {
        "ReadInfo": {
          "Type": "None",
          "Str": "SkillMaze"
        }
      },
      "-242132937": {
        "ReadInfo": {
          "Type": "SkillTreeParam",
          "Str": "SkillMaze"
        }
      },
      "-776703872": {
        "ReadInfo": {
          "Type": "SkillRank",
          "Str": "SkillMaze"
        }
      },
      "-884407138": {
        "ReadInfo": {
          "Type": "SkillTreeParam",
          "Str": "PointB1"
        }
      },
      "-1145212661": {
        "ReadInfo": {
          "Type": "SkillRank",
          "Str": "PointB1"
        }
      },
      "262616715": {
        "ReadInfo": {
          "Type": "None",
          "Str": "PointB2"
        }
      },
      "-1364738401": {
        "ReadInfo": {
          "Type": "None",
          "Str": "PointB3"
        }
      },
      "-1852840176": {
        "ReadInfo": {
          "Type": "SkillTreeParam",
          "Str": "PointB3"
        }
      },
      "-1185123048": {
        "ReadInfo": {
          "Type": "None",
          "Str": "Rank01"
        }
      },
      "-384419757": {
        "ReadInfo": {
          "Type": "SkillTreeParam",
          "Str": "Rank01"
        }
      },
      "-1183793641": {
        "ReadInfo": {
          "Type": "None",
          "Str": "Rank02"
        }
      },
      "-1027002300": {
        "ReadInfo": {
          "Type": "SkillTreeParam",
          "Str": "Rank02"
        }
      },
      "-624153565": {
        "ReadInfo": {
          "Type": "None",
          "Str": "Rank04"
        }
      },
      "1296407101": {
        "ReadInfo": {
          "Type": "None",
          "Str": "Rank06"
        }
      },
      "1677508272": {
        "ReadInfo": {
          "Type": "SkillTreeParam",
          "Str": "Rank06"
        }
      },
      "-205849644": {}
    }
  },
  "WeaponType": "WP_Magic",
  "SkillReadyTransits": [
    {
      "From": 1,
      "To": 2,
      "AnimStateName": "Skill01toSkill02",
      "TransitionInTime": 0.05,
      "ReverseOutroTime": 0.06
    },
    {
      "From": 2,
      "To": 1,
      "AnimStateName": "Skill02toSkill01",
      "TransitionInTime": 0,
      "ReverseOutroTime": 0.06
    },
    {
      "From": 4,
      "To": 2,
      "AnimStateName": "Skill01toSkill02",
      "TransitionInTime": 0.05,
      "ReverseOutroTime": 0.06
    },
    {
      "From": 2,
      "To": 4,
      "AnimStateName": "Skill02toSkill11",
      "TransitionInTime": 0,
      "ReverseOutroTime": 0.06
    }
  ],
  "DisableAnimEventLayers": [
    "Riboon Layer"
  ]
}