{
  "SomatoType": "MiddleAvatar",
  "BuffPanelOffset": {
    "X": 0,
    "Y": 1.2,
    "Z": 0
  },
  "HitBoxWidth": 0.3,
  "HitBoxHeight": 1.35,
  "Location": {
    "Width": 0.8
  },
  "SaveModelWhenDead": true,
  "AnimEventConfigList": [
    "Config/ConfigAnimEvents/Avatar/Designer/Avatar_Sushang_00_Designer_AnimEvent.json",
    "Config/ConfigAnimEvents/Avatar/Audio/Avatar_Sushang_00_Audio_AnimEvent.json",
    "Config/ConfigAnimEvents/Avatar/Effect/Avatar_Sushang_00_Effect_AnimEvent.json"
  ],
  "SkillList": [
    {
      "Name": "Skill01",
      "UseType": "SelectEntity",
      "TargetInfo": {
        "TargetType": "EnemySelect"
      },
      "UseReadyTransitAnim": true,
      "ReadyAnimState": "Skill01_Ready",
      "CameraConfig": {
        "NormalConfig": {
          "CameraState": "SelectDarkTeamEntity",
          "AnchorTargetType": {
            "$type": "RPG.GameCore.TargetAlias",
            "Alias": "Caster"
          },
          "IsLocalOffset": true,
          "AnchorOffset": {
            "X": 0.5,
            "Y": 0.24,
            "Z": -0.56
          },
          "AimTargetType": {
            "$type": "RPG.GameCore.TargetAlias",
            "Alias": "SkillTargetEntityList"
          },
          "AimOffset": {
            "X": -2.8,
            "Y": 0.45,
            "Z": 0
          },
          "FollowRadius": 3,
          "AnchorToAimAngle": 30,
          "Dutch": 2
        },
        "BlendConfig": {
          "BlendType": "Cut"
        }
      },
      "CameraConfigAdded": {
        "NormalConfig": {
          "CameraState": "SelectDarkTeamEntity",
          "AnchorTargetType": {
            "$type": "RPG.GameCore.TargetAlias",
            "Alias": "Caster"
          },
          "IsLocalOffset": true,
          "AnchorOffset": {
            "X": 0.1,
            "Y": 0.12,
            "Z": -0.25
          },
          "AimTargetType": {
            "$type": "RPG.GameCore.TargetAlias",
            "Alias": "SkillTargetEntityList"
          },
          "AimOffset": {
            "X": -2.8,
            "Y": 0.45,
            "Z": 0
          },
          "FollowRadius": 2.65,
          "AnchorToAimAngle": 23
        },
        "BlendConfig": {
          "BlendType": "Custom",
          "CustomCurveName": "BlendCut_00to1",
          "BlendTime": 1
        }
      },
      "EntryAbility": "Avatar_Sushang_00_Skill01_Phase01",
      "ComplexSkillAI": {
        "Groups": [
          {
            "GroupName": "BaseWeight",
            "Weight": {
              "Value": 0.20000000018626451
            }
          },
          {
            "GroupName": "BasePp_Common_SingleAttack",
            "Weight": {
              "Value": 0.5000000004656613
            }
          },
          {
            "GroupName": "BasePp_Common_WeakBreak",
            "Weight": {
              "Value": 0.3000000002793968
            }
          }
        ]
      }
    },
    {
      "Name": "Skill02",
      "SkillType": "Skill",
      "UseType": "SelectEntity",
      "TargetInfo": {
        "TargetType": "EnemySelect"
      },
      "UseReadyTransitAnim": true,
      "ReadyAnimState": "Skill02_Ready_Loop",
      "CameraConfig": {
        "NormalConfig": {
          "CameraState": "SelectDarkTeamEntity",
          "AnchorTargetType": {
            "$type": "RPG.GameCore.TargetAlias",
            "Alias": "Caster"
          },
          "IsLocalOffset": true,
          "AnchorOffset": {
            "X": 0.02,
            "Y": 0,
            "Z": -0.39
          },
          "AimTargetType": {
            "$type": "RPG.GameCore.TargetAlias",
            "Alias": "SkillTargetEntityList"
          },
          "AimOffset": {
            "X": -1.6,
            "Y": 0.45,
            "Z": 0
          },
          "FollowRadius": 2.65,
          "AnchorToAimAngle": 25
        },
        "BlendConfig": {
          "BlendType": "Custom",
          "CustomCurveName": "BlendCut_05to1",
          "BlendTime": 1
        }
      },
      "EntryAbility": "Avatar_Sushang_00_Skill02_Phase01",
      "ComplexSkillAI": {
        "Groups": [
          {
            "GroupName": "BasePp_Common_SingleAttack",
            "Weight": {
              "Value": 0.10000000009313226
            }
          },
          {
            "GroupName": "BasePp_Common_WeakBreak",
            "Weight": {
              "Value": 0.3000000002793968
            }
          },
          {
            "GroupName": "AddNP_Sushang_BPSkill_Break",
            "Weight": {
              "Value": 0.40000000037252903
            }
          },
          {
            "GroupName": "AddNP_Common_BPSkill",
            "Weight": {
              "Value": 0.3500000003259629
            }
          }
        ]
      }
    },
    {
      "Name": "Skill03",
      "SkillType": "Ultra",
      "UseType": "SelectEntity",
      "TargetInfo": {
        "TargetType": "EnemySelect"
      },
      "SkillNameHUD": false,
      "ReadyAnimState": "Skill03_Ready",
      "EntryAbility": "Avatar_Sushang_00_Skill03_Phase01",
      "PrepareAbility": "Avatar_Sushang_00_Skill03_EnterReady",
      "ComplexSkillAI": {
        "SkillBasicPower": {
          "Value": 60
        },
        "Groups": [
          {
            "GroupName": "Ultra_Common_ImmediateRelease"
          },
          {
            "GroupName": "BasePp_Common_SingleAttack"
          }
        ]
      }
    },
    {
      "Name": "SkillP01",
      "SkillType": "Passive",
      "UseType": "Passive",
      "TargetInfo": {
        "TargetType": "Caster"
      },
      "EntryAbility": "Avatar_Sushang_00_PassiveSkill01"
    },
    {
      "Name": "PassiveSkill02",
      "SkillType": "Passive",
      "UseType": "Passive",
      "TargetInfo": {
        "TargetType": "Caster"
      },
      "EntryAbility": "Avatar_Common_PassiveSkill"
    },
    {
      "Name": "SkillMaze",
      "SkillType": "Maze",
      "TargetInfo": {
        "TargetType": "AllEnemy"
      },
      "EntryAbility": "Avatar_Sushang_00_SkillMazeInLevel"
    }
  ],
  "AbilityList": [
    "Avatar_Common_PassiveSkill"
  ],
  "SkillAbilityList": [
    {
      "Skill": "Skill01",
      "AbilityList": [
        "Avatar_Sushang_00_Skill01_Phase01",
        "Avatar_Sushang_00_Skill01_Phase02",
        "Avatar_Sushang_00_Skill01_Camera"
      ]
    },
    {
      "Skill": "Skill02",
      "AbilityList": [
        "Avatar_Sushang_00_Skill02_Phase01",
        "Avatar_Sushang_00_Skill02_Phase02",
        "Avatar_Sushang_00_Skill02_Camera"
      ]
    },
    {
      "Skill": "Skill03",
      "AbilityList": [
        "Avatar_Sushang_00_Skill03_EnterReady",
        "Avatar_Sushang_00_Skill03_Phase01",
        "Avatar_Sushang_00_Skill03_Phase02",
        "Avatar_Sushang_00_Skill03_Camera"
      ]
    },
    {
      "Skill": "SkillP01",
      "AbilityList": [
        "Avatar_Sushang_00_PassiveSkill01"
      ]
    },
    {
      "Skill": "SkillMaze",
      "AbilityList": [
        "Avatar_Sushang_00_SkillMazeInLevel"
      ]
    }
  ],
  "DynamicValues": {
    "Values": {
      "-1126825319": {
        "ReadInfo": {
          "Type": "None",
          "Str": "Skill01"
        }
      },
      "-1847083384": {
        "ReadInfo": {
          "Type": "None",
          "Str": "Skill02"
        }
      },
      "-723023620": {
        "ReadInfo": {
          "Type": "SkillTreeParam",
          "Str": "Skill02"
        }
      },
      "242174909": {
        "ReadInfo": {
          "Type": "SkillRank",
          "Str": "Skill02"
        }
      },
      "-56289053": {
        "ReadInfo": {
          "Type": "None",
          "Str": "Skill03"
        }
      },
      "242053466": {
        "ReadInfo": {
          "Type": "SkillTreeParam",
          "Str": "Skill03"
        }
      },
      "1324533879": {
        "ReadInfo": {
          "Type": "SkillRank",
          "Str": "Skill03"
        }
      },
      "-1502846766": {
        "ReadInfo": {
          "Type": "BattleEvent",
          "Str": "Skill03"
        }
      },
      "1757214869": {
        "ReadInfo": {
          "Type": "None",
          "Str": "SkillP01"
        }
      },
      "2104871616": {
        "ReadInfo": {
          "Type": "SkillTreeParam",
          "Str": "SkillP01"
        }
      },
      "-958931369": {
        "ReadInfo": {
          "Type": "None",
          "Str": "SkillMaze"
        }
      },
      "-769951442": {
        "ReadInfo": {
          "Type": "None",
          "Str": "PointB1"
        }
      },
      "1233448798": {
        "ReadInfo": {
          "Type": "SkillTreeParam",
          "Str": "PointB1"
        }
      },
      "745450807": {
        "ReadInfo": {
          "Type": "None",
          "Str": "PointB2"
        }
      },
      "-1343705174": {
        "ReadInfo": {
          "Type": "SkillTreeParam",
          "Str": "PointB2"
        }
      },
      "819266972": {
        "ReadInfo": {
          "Type": "None",
          "Str": "PointB3"
        }
      },
      "-1183793641": {
        "ReadInfo": {
          "Type": "None",
          "Str": "Rank02"
        }
      },
      "-1186030315": {
        "ReadInfo": {
          "Type": "None",
          "Str": "Rank04"
        }
      },
      "-971939259": {}
    }
  },
  "WeaponType": "WP_Sword_Long",
  "SkillReadyTransits": [
    {
      "From": 1,
      "To": 2,
      "AnimStateName": "Skill01toSkill02",
      "TransitionInTime": 0.05,
      "ReverseOutroTime": 0.06
    },
    {
      "From": 2,
      "To": 1,
      "AnimStateName": "Skill02toSkill01",
      "TransitionInTime": 0.05,
      "ReverseOutroTime": 0.06
    }
  ],
  "DisableAnimEventLayers": [
    "Riboon Layer"
  ]
}