{
  "AbilityList": [
    {
      "Name": "Common_Servant_Forcekill",
      "TargetInfo": {
        "TargetType": "Caster"
      },
      "OnStart": [
        {
          "$type": "RPG.GameCore.ForceKill",
          "TargetType": {
            "$type": "RPG.GameCore.TargetAlias",
            "Alias": "AbilityTargetEntity"
          },
          "AbortUnusedInsertAbility": true
        }
      ]
    },
    {
      "Name": "Common_LockHP",
      "TargetInfo": {
        "TargetType": "Caster"
      },
      "OnStart": [
        {
          "$type": "RPG.GameCore.AddModifier",
          "TargetType": {
            "$type": "RPG.GameCore.TargetAlias",
            "Alias": "Caster"
          },
          "ModifierName": "MCommon_LockHP"
        }
      ]
    },
    {
      "Name": "CommonActiveSkill_Fire_Single_Phase02",
      "TargetInfo": {
        "TargetType": "SkillTargetEntityList"
      },
      "OnStart": [
        {
          "$type": "RPG.GameCore.ShowUIPage",
          "AssetPath": "UI/Battle/Widget/SkillNameHUD.prefab",
          "UITextNodes": [
            {
              "TextPath": "Frame/Text",
              "TextContent": {
                "Hash": 1821071446
              }
            }
          ]
        },
        {
          "$type": "RPG.GameCore.WaitAnimState",
          "TargetType": {
            "$type": "RPG.GameCore.TargetAlias",
            "Alias": "Caster"
          },
          "AnimStateName": "Skill_Cast",
          "NormalizedTimeEnd": {
            "IsDynamic": false,
            "FixedValue": {
              "Value": 0.0009999999310821295
            }
          }
        },
        {
          "$type": "RPG.GameCore.LookAt",
          "PerformerType": {
            "$type": "RPG.GameCore.TargetAlias",
            "Alias": "Caster"
          },
          "TargetType": "AbilityTargetEntity"
        },
        {
          "$type": "RPG.GameCore.VCameraConfigChange",
          "CameraConfig": {
            "NormalConfig": {
              "CameraState": "CasterToTargetPerform",
              "TemplateName": "Monster_Common_SoloRangeAttack",
              "AnchorTargetType": {
                "$type": "RPG.GameCore.TargetAlias",
                "Alias": "Caster"
              },
              "AimTargetType": {
                "$type": "RPG.GameCore.TargetAlias",
                "Alias": "SkillTargetEntityList"
              },
              "ResetToDefault": false
            },
            "BlendConfig": {
              "BlendType": "Cut"
            }
          }
        },
        {
          "$type": "RPG.GameCore.VCameraConfigChange",
          "CameraConfig": {
            "NormalConfig": {
              "CameraState": "CameraMotion",
              "AnchorTargetType": {
                "$type": "RPG.GameCore.TargetAlias",
                "Alias": "Caster"
              },
              "AimTargetType": {
                "$type": "RPG.GameCore.TargetAlias",
                "Alias": "SkillTargetEntityList"
              },
              "ResetToDefault": false
            }
          }
        },
        {
          "$type": "RPG.GameCore.WaitAnimState",
          "TargetType": {
            "$type": "RPG.GameCore.TargetAlias",
            "Alias": "Caster"
          },
          "AnimStateName": "Skill_Cast",
          "NormalizedTimeEnd": {
            "IsDynamic": false,
            "FixedValue": {
              "Value": 0.7630000005010515
            }
          }
        },
        {
          "$type": "RPG.GameCore.TriggerEffect",
          "TargetType": {
            "$type": "RPG.GameCore.TargetAlias",
            "Alias": "AbilityTargetEntity"
          },
          "EffectPath": "Effects/Eff_Prefab/Eff_Monster/Eff_W1_Mecha02_00/Eff_Monster_W1_Mecha02_00_Skill01_Hit.prefab"
        },
        {
          "$type": "RPG.GameCore.WaitSecond",
          "WaitTime": 0.3
        },
        {
          "$type": "RPG.GameCore.DamageByAttackProperty",
          "TargetType": {
            "$type": "RPG.GameCore.TargetAlias",
            "Alias": "AbilityTargetEntity"
          },
          "AttackProperty": {
            "DamageType": "Fire",
            "DamagePercentage": {
              "IsDynamic": true,
              "Expressions": [
                {
                  "Type": "DynamicNumber",
                  "DynamicHash": 367030267
                }
              ]
            },
            "SPHitRatio": {
              "IsDynamic": false,
              "FixedValue": {
                "Value": 1
              }
            },
            "FrameHalt": {
              "IsDynamic": false,
              "FixedValue": {
                "Value": 0.10000000009313226
              }
            },
            "HitAnimation": "Hit_H"
          },
          "TriggerHitSound": true
        },
        {
          "$type": "RPG.GameCore.VCameraConfigChange",
          "CameraConfig": {
            "ShakeConfigV2": {
              "ShakeRange": 0.21,
              "ShakeTime": 0.2,
              "ShakeDir": {
                "X": 0.15,
                "Y": 0.15,
                "Z": 0
              },
              "BaseCycle": 0.28,
              "CycleDamping": 0,
              "RangeAttenuation": 0.95,
              "PerlinNoiseAmplitude": {
                "X": 0.1,
                "Y": 0.1,
                "Z": 0.1
              },
              "PerlinNoiseFreq": {
                "X": 16,
                "Y": 14,
                "Z": 12
              },
              "RotationalAmplitude": {
                "X": 0,
                "Y": 0,
                "Z": 3.5
              },
              "RotationFreqV3": {
                "X": 4,
                "Y": 0,
                "Z": 8
              }
            }
          }
        },
        {
          "$type": "RPG.GameCore.WaitSecond",
          "WaitTime": 0.05
        },
        {
          "$type": "RPG.GameCore.GlobalTimeSlow",
          "TimeScale": {
            "IsDynamic": false,
            "FixedValue": {
              "Value": 0.9000000008381903
            }
          },
          "UnscaledDuration": {
            "IsDynamic": false,
            "FixedValue": {
              "Value": 0.40000000037252903
            }
          }
        },
        {
          "$type": "RPG.GameCore.WaitSecond",
          "WaitTime": 2
        },
        {
          "$type": "RPG.GameCore.SkillPerformFinish"
        }
      ]
    }
  ]
}