{
  "MainMissionID": 4010123,
  "StartSubMissionList": [
    401012301
  ],
  "FinishSubMissionList": [
    401012301
  ],
  "SubMissionList": [
    {
      "MainMissionID": 4010123,
      "MissionJsonPath": "Config/Level/Mission/4010123/Mission_401012301.json",
      "TakeType": "Auto",
      "ID": 401012301,
      "FinishType": "MessagePerformSectionFinish",
      "ParamType": "Equal",
      "ParamInt1": 1151000,
      "ParamItemList": [],
      "Progress": 1
    }
  ]
}