{
  "OnInitSequece": [],
  "OnStartSequece": [
    {
      "TaskList": [
        {
          "$type": "RPG.GameCore.LevelPerformanceInitialize",
          "PerformanceType": "E",
          "HideMunicipalCrowd": false,
          "HideMunicipalPedestrian": false
        },
        {
          "$type": "RPG.GameCore.PlaySimpleTalk",
          "SimpleTalkList": [
            {
              "TalkSentenceID": 301160651,
              "ProtectTime": 0.3
            },
            {
              "TalkSentenceID": 301160652,
              "ProtectTime": 0.3
            },
            {
              "TalkSentenceID": 301160653,
              "ProtectTime": 0.3
            },
            {
              "TalkSentenceID": 301160654,
              "ProtectTime": 0.3
            },
            {
              "TalkSentenceID": 301160655,
              "ProtectTime": 0.3
            },
            {
              "TalkSentenceID": 301160656,
              "ProtectTime": 0.3
            },
            {
              "TalkSentenceID": 301160657,
              "ProtectTime": 0.3
            }
          ]
        },
        {
          "$type": "RPG.GameCore.WaitSimpleTalkFinish"
        },
        {
          "$type": "RPG.GameCore.EndPerformance"
        }
      ]
    },
    {
      "TaskList": [
        {
          "$type": "RPG.GameCore.WaitPerformanceEnd"
        },
        {
          "$type": "RPG.GameCore.FinishLevelGraph"
        }
      ]
    }
  ]
}