{
  "OnInitSequece": [],
  "OnStartSequece": [
    {
      "TaskList": [
        {
          "$type": "RPG.GameCore.LevelPerformanceInitialize",
          "PerformanceType": "E",
          "HideMunicipalCrowd": false,
          "HideMunicipalPedestrian": false
        },
        {
          "$type": "RPG.GameCore.AdvNpcFaceToPlayer",
          "GroupID": 102,
          "GroupNpcID": 400001,
          "FinishImmadiate": true
        },
        {
          "$type": "RPG.GameCore.PlaySimpleTalk",
          "SimpleTalkList": [
            {
              "TalkSentenceID": 301160331,
              "ProtectTime": 0.3
            },
            {
              "TalkSentenceID": 301160332,
              "ProtectTime": 0.3
            },
            {
              "TalkSentenceID": 301160333,
              "ProtectTime": 0.3
            },
            {
              "TalkSentenceID": 301160334,
              "ProtectTime": 0.3
            }
          ]
        },
        {
          "$type": "RPG.GameCore.WaitSimpleTalkFinish"
        },
        {
          "$type": "RPG.GameCore.PlayOptionTalk",
          "OptionList": [
            {
              "TalkSentenceID": 301160335,
              "OptionIconType": "ChatContinueIcon",
              "TriggerCustomString": "TalkSentence_301160337"
            },
            {
              "TalkSentenceID": 301160336,
              "OptionIconType": "ChatContinueIcon",
              "TriggerCustomString": "TalkSentence_301160337"
            }
          ]
        }
      ]
    },
    {
      "TaskList": [
        {
          "$type": "RPG.GameCore.WaitCustomString",
          "CustomString": {
            "Value": "TalkSentence_301160337"
          }
        },
        {
          "$type": "RPG.GameCore.PlaySimpleTalk",
          "SimpleTalkList": [
            {
              "TalkSentenceID": 301160337,
              "ProtectTime": 0.3
            }
          ]
        },
        {
          "$type": "RPG.GameCore.WaitSimpleTalkFinish"
        },
        {
          "$type": "RPG.GameCore.PlayOptionTalk",
          "OptionList": [
            {
              "TalkSentenceID": 301160338,
              "OptionIconType": "ChatContinueIcon",
              "TriggerCustomString": "TalkSentence_301160340"
            },
            {
              "TalkSentenceID": 301160339,
              "OptionIconType": "ChatContinueIcon",
              "TriggerCustomString": "TalkSentence_301160340"
            }
          ]
        }
      ]
    },
    {
      "TaskList": [
        {
          "$type": "RPG.GameCore.WaitCustomString",
          "CustomString": {
            "Value": "TalkSentence_301160340"
          }
        },
        {
          "$type": "RPG.GameCore.PlaySimpleTalk",
          "SimpleTalkList": [
            {
              "TalkSentenceID": 301160340,
              "ProtectTime": 0.3
            },
            {
              "TalkSentenceID": 301160341,
              "ProtectTime": 0.3
            }
          ]
        },
        {
          "$type": "RPG.GameCore.WaitSimpleTalkFinish"
        },
        {
          "$type": "RPG.GameCore.PlayOptionTalk",
          "OptionList": [
            {
              "TalkSentenceID": 301160342,
              "OptionIconType": "ChatContinueIcon",
              "TriggerCustomString": "TalkSentence_301160344"
            },
            {
              "TalkSentenceID": 301160343,
              "OptionIconType": "ChatContinueIcon",
              "TriggerCustomString": "TalkSentence_301160344"
            }
          ]
        }
      ]
    },
    {
      "TaskList": [
        {
          "$type": "RPG.GameCore.WaitCustomString",
          "CustomString": {
            "Value": "TalkSentence_301160344"
          }
        },
        {
          "$type": "RPG.GameCore.PlaySimpleTalk",
          "SimpleTalkList": [
            {
              "TalkSentenceID": 301160344,
              "ProtectTime": 0.3
            },
            {
              "TalkSentenceID": 301160345,
              "ProtectTime": 0.3
            },
            {
              "TalkSentenceID": 301160346,
              "ProtectTime": 0.3
            }
          ]
        },
        {
          "$type": "RPG.GameCore.WaitSimpleTalkFinish"
        },
        {
          "$type": "RPG.GameCore.EndPerformance"
        }
      ]
    },
    {
      "TaskList": [
        {
          "$type": "RPG.GameCore.WaitPerformanceEnd"
        },
        {
          "$type": "RPG.GameCore.FinishLevelGraph"
        }
      ]
    }
  ]
}