{
  "OnInitSequece": [],
  "OnStartSequece": [
    {
      "TaskList": [
        {
          "$type": "RPG.GameCore.LevelPerformanceInitialize",
          "LockCamera": false,
          "CreateCharacterList": [],
          "EntityVisiableList": []
        },
        {
          "$type": "RPG.GameCore.PlayScreenTransfer",
          "CustomTime": 0.3
        },
        {
          "$type": "RPG.GameCore.PlaySimpleTalk",
          "SimpleTalkList": [
            {
              "TalkSentenceID": 201237557,
              "ProtectTime": 0.3
            },
            {
              "TalkSentenceID": 201237558,
              "ProtectTime": 0.3
            },
            {
              "TalkSentenceID": 201237559,
              "ProtectTime": 0.3
            },
            {
              "TalkSentenceID": 201237560,
              "ProtectTime": 0.3
            }
          ]
        },
        {
          "$type": "RPG.GameCore.WaitSimpleTalkFinish"
        },
        {
          "$type": "RPG.GameCore.AdvNpcFaceToPlayer",
          "GroupID": 28,
          "GroupNpcID": 400001,
          "TryFaceToFace": false,
          "FinishImmadiate": true
        },
        {
          "$type": "RPG.GameCore.AdvNpcFaceToPlayer",
          "GroupID": 28,
          "GroupNpcID": 400002,
          "TryFaceToFace": false,
          "FinishImmadiate": true
        },
        {
          "$type": "RPG.GameCore.AdvNpcFaceToPlayer",
          "GroupID": 28,
          "GroupNpcID": 400003,
          "TryFaceToFace": false,
          "FinishImmadiate": true
        },
        {
          "$type": "RPG.GameCore.PlaySimpleTalk",
          "SimpleTalkList": [
            {
              "TalkSentenceID": 201237561,
              "ProtectTime": 0.3
            },
            {
              "TalkSentenceID": 201237562,
              "ProtectTime": 0.3
            }
          ]
        },
        {
          "$type": "RPG.GameCore.WaitSimpleTalkFinish"
        },
        {
          "$type": "RPG.GameCore.PlayScreenTransfer",
          "Mode": "SwitchOut",
          "CustomTime": 0.5
        },
        {
          "$type": "RPG.GameCore.TriggerCustomString",
          "CustomString": {
            "Value": "Act_20107020302"
          }
        },
        {
          "$type": "RPG.GameCore.WaitSecond",
          "WaitTime": 0.5
        },
        {
          "$type": "RPG.GameCore.AdvNpcFaceToPlayer",
          "GroupID": 27,
          "GroupNpcID": 400001,
          "TryFaceToFace": false,
          "FinishImmadiate": true
        },
        {
          "$type": "RPG.GameCore.PlayScreenTransfer",
          "CustomTime": 0.5
        },
        {
          "$type": "RPG.GameCore.PlaySimpleTalk",
          "SimpleTalkList": [
            {
              "TalkSentenceID": 201237563,
              "ProtectTime": 0.3
            },
            {
              "TalkSentenceID": 201237564,
              "ProtectTime": 0.3
            },
            {
              "TalkSentenceID": 201237565,
              "ProtectTime": 0.3
            },
            {
              "TalkSentenceID": 201237566,
              "ProtectTime": 0.3
            }
          ]
        },
        {
          "$type": "RPG.GameCore.WaitSimpleTalkFinish"
        },
        {
          "$type": "RPG.GameCore.PlayScreenTransfer",
          "Mode": "SwitchOut",
          "CustomTime": 0.5
        },
        {
          "$type": "RPG.GameCore.TriggerCustomString",
          "CustomString": {
            "Value": "Act_20107020303"
          }
        },
        {
          "$type": "RPG.GameCore.WaitSecond",
          "WaitTime": 1
        },
        {
          "$type": "RPG.GameCore.PlayScreenTransfer",
          "CustomTime": 0.5
        },
        {
          "$type": "RPG.GameCore.PlaySimpleTalk",
          "SimpleTalkList": [
            {
              "TalkSentenceID": 201237567,
              "ProtectTime": 0.3
            },
            {
              "TalkSentenceID": 201237568,
              "ProtectTime": 0.3
            },
            {
              "TalkSentenceID": 201237569,
              "ProtectTime": 0.3
            },
            {
              "TalkSentenceID": 201237570,
              "ProtectTime": 0.3
            },
            {
              "TalkSentenceID": 201237571,
              "ProtectTime": 0.3
            },
            {
              "TalkSentenceID": 201237572,
              "ProtectTime": 0.3
            },
            {
              "TalkSentenceID": 201237573,
              "ProtectTime": 0.3
            },
            {
              "TalkSentenceID": 201237574,
              "ProtectTime": 0.3
            }
          ]
        },
        {
          "$type": "RPG.GameCore.WaitSimpleTalkFinish"
        },
        {
          "$type": "RPG.GameCore.PlayOptionTalk",
          "OptionList": [
            {
              "TalkSentenceID": 201237575,
              "OptionIconType": "ChatIcon",
              "TriggerCustomString": "Act_20107020301"
            },
            {
              "TalkSentenceID": 201237576,
              "OptionIconType": "ChatIcon",
              "TriggerCustomString": "Act_20107020301"
            }
          ]
        }
      ]
    },
    {
      "TaskList": [
        {
          "$type": "RPG.GameCore.WaitCustomString",
          "CustomString": {
            "Value": "Act_20107020301"
          }
        },
        {
          "$type": "RPG.GameCore.PlaySimpleTalk",
          "SimpleTalkList": [
            {
              "TalkSentenceID": 201237577,
              "ProtectTime": 0.3
            },
            {
              "TalkSentenceID": 201237578,
              "ProtectTime": 0.3
            },
            {
              "TalkSentenceID": 201237579,
              "ProtectTime": 0.3
            },
            {
              "TalkSentenceID": 201237580,
              "ProtectTime": 0.3
            },
            {
              "TalkSentenceID": 201237581,
              "ProtectTime": 0.3
            },
            {
              "TalkSentenceID": 201237582,
              "ProtectTime": 0.3
            },
            {
              "TalkSentenceID": 201237583,
              "ProtectTime": 0.3
            },
            {
              "TalkSentenceID": 201237584,
              "ProtectTime": 0.3
            }
          ]
        },
        {
          "$type": "RPG.GameCore.WaitSimpleTalkFinish"
        },
        {
          "$type": "RPG.GameCore.EndPerformance"
        }
      ]
    },
    {
      "TaskList": [
        {
          "$type": "RPG.GameCore.WaitPerformanceEnd"
        },
        {
          "$type": "RPG.GameCore.FinishLevelGraph"
        }
      ]
    }
  ]
}