{
  "OnInitSequece": [],
  "OnStartSequece": [
    {
      "TaskList": [
        {
          "$type": "RPG.GameCore.PropEnableCollider",
          "OPType": "TriggerOnly",
          "TargetType": {
            "$type": "RPG.GameCore.TargetFetchAdvPropEx",
            "FetchType": "SinglePropByPropID",
            "SinglePropID": {
              "GroupID": {
                "IsDynamic": false,
                "FixedValue": {
                  "Value": 137
                }
              },
              "ID": {
                "IsDynamic": false,
                "FixedValue": {
                  "Value": 300001
                }
              }
            }
          }
        },
        {
          "$type": "RPG.GameCore.PropEnableCollider",
          "OPType": "TriggerOnly",
          "TargetType": {
            "$type": "RPG.GameCore.TargetFetchAdvPropEx",
            "FetchType": "SinglePropByPropID",
            "SinglePropID": {
              "GroupID": {
                "IsDynamic": false,
                "FixedValue": {
                  "Value": 129
                }
              },
              "ID": {
                "IsDynamic": false,
                "FixedValue": {
                  "Value": 300001
                }
              }
            }
          }
        }
      ]
    },
    {
      "TaskList": [
        {
          "$type": "RPG.GameCore.PropSetupTrigger",
          "TargetType": {
            "$type": "RPG.GameCore.TargetFetchAdvPropEx",
            "FetchType": "SinglePropByPropID",
            "SinglePropID": {
              "GroupID": {
                "IsDynamic": false,
                "FixedValue": {
                  "Value": 162
                }
              },
              "ID": {
                "IsDynamic": false,
                "FixedValue": {
                  "Value": 300002
                }
              }
            }
          },
          "TargetGroupID": {
            "IsDynamic": false,
            "FixedValue": {
              "Value": 0
            }
          },
          "TargetID": {
            "IsDynamic": false,
            "FixedValue": {
              "Value": 0
            }
          },
          "TargetTypes": [],
          "OnTriggerEnter": [
            {
              "$type": "RPG.GameCore.TriggerCustomString",
              "CustomString": {
                "Value": "Mission_401510101"
              }
            }
          ]
        }
      ]
    },
    {
      "IsLoop": true,
      "TaskList": [
        {
          "$type": "RPG.GameCore.WaitCustomString",
          "CustomString": {
            "Value": "Mission_401510101"
          },
          "WaitOwnerOnly": true
        },
        {
          "$type": "RPG.GameCore.TriggerPerformance",
          "ValueSource": {},
          "PerformanceType": "E",
          "PerformanceID": 401510101
        },
        {
          "$type": "RPG.GameCore.TriggerCustomString",
          "CustomString": {
            "Value": "Talk_401510101"
          }
        }
      ]
    },
    {
      "TaskList": [
        {
          "$type": "RPG.GameCore.WaitCustomString",
          "CustomString": {
            "Value": "Talk_401510101"
          },
          "WaitOwnerOnly": true
        },
        {
          "$type": "RPG.GameCore.PerformanceTransition",
          "SwitchKeepTime": 1,
          "CreateNpcList": [],
          "CaptureNpcList": [],
          "DestroyNpcList": [
            {
              "GroupID": 129,
              "GroupNpcID": 400001,
              "DestroyList": []
            }
          ],
          "ActiveVirtualCamera": {
            "TaskEnabled": false
          },
          "SwitchCharacterAnchor": {
            "TaskEnabled": false
          }
        },
        {
          "$type": "RPG.GameCore.FinishPerformanceMission",
          "Key": "Mission_401510101"
        }
      ]
    },
    {
      "TaskList": [
        {
          "$type": "RPG.GameCore.PropSetupTrigger",
          "TargetType": {
            "$type": "RPG.GameCore.TargetFetchAdvPropEx",
            "FetchType": "SinglePropByPropID",
            "SinglePropID": {
              "GroupID": {
                "IsDynamic": false,
                "FixedValue": {
                  "Value": 162
                }
              },
              "ID": {
                "IsDynamic": false,
                "FixedValue": {
                  "Value": 300001
                }
              }
            }
          },
          "TargetGroupID": {
            "IsDynamic": false,
            "FixedValue": {
              "Value": 0
            }
          },
          "TargetID": {
            "IsDynamic": false,
            "FixedValue": {
              "Value": 0
            }
          },
          "TargetTypes": [],
          "OnTriggerEnter": [
            {
              "$type": "RPG.GameCore.PropEnableCollider",
              "TargetType": {
                "$type": "RPG.GameCore.TargetFetchAdvPropEx",
                "FetchType": "SinglePropByPropID",
                "SinglePropID": {
                  "GroupID": {
                    "IsDynamic": false,
                    "FixedValue": {
                      "Value": 162
                    }
                  },
                  "ID": {
                    "IsDynamic": false,
                    "FixedValue": {
                      "Value": 300001
                    }
                  }
                }
              }
            },
            {
              "$type": "RPG.GameCore.TriggerCustomString",
              "CustomString": {
                "Value": "401510101_TriggerNPCBubble"
              }
            }
          ]
        }
      ]
    },
    {
      "IsLoop": true,
      "TaskList": [
        {
          "$type": "RPG.GameCore.WaitCustomString",
          "CustomString": {
            "Value": "401510101_TriggerNPCBubble"
          },
          "WaitOwnerOnly": true
        },
        {
          "$type": "RPG.GameCore.PlayNPCBubbleTalk",
          "BubbleTalkInfoList": [
            {
              "AutoSkipTime": 3,
              "GroupID": 162,
              "GroupNpcID": 400001,
              "TalkSentenceID": 401510102
            },
            {
              "AutoSkipTime": 3,
              "GroupID": 162,
              "GroupNpcID": 400001,
              "TalkSentenceID": 401510103
            }
          ],
          "InstantFinish": false
        },
        {
          "$type": "RPG.GameCore.WaitSecond",
          "WaitTime": 5
        },
        {
          "$type": "RPG.GameCore.PropEnableCollider",
          "Enabled": true,
          "TargetType": {
            "$type": "RPG.GameCore.TargetFetchAdvPropEx",
            "FetchType": "SinglePropByPropID",
            "SinglePropID": {
              "GroupID": {
                "IsDynamic": false,
                "FixedValue": {
                  "Value": 162
                }
              },
              "ID": {
                "IsDynamic": false,
                "FixedValue": {
                  "Value": 300001
                }
              }
            }
          }
        }
      ]
    }
  ]
}