{
  "OnInitSequece": [],
  "OnStartSequece": [
    {
      "TaskList": [
        {
          "$type": "RPG.GameCore.LevelPerformanceInitialize",
          "PerformanceType": "D",
          "LockCamera": false,
          "CreateCharacterList": [],
          "EntityVisiableList": [],
          "StreamingCentersInBlackMask": [],
          "StreamingCentersAfterBlackMask": []
        },
        {
          "$type": "RPG.GameCore.AdvNpcFaceToPlayer",
          "GroupID": 8,
          "GroupNpcID": 400001,
          "TryFaceToFace": false,
          "OnlyPlayerFaceToNpc": true,
          "TurnBackOnGraphEnd": false,
          "FinishImmadiate": true
        },
        {
          "$type": "RPG.GameCore.PlaySimpleTalk",
          "SimpleTalkList": [
            {
              "TalkSentenceID": 101023501,
              "ProtectTime": 1.3
            }
          ]
        },
        {
          "$type": "RPG.GameCore.WaitSimpleTalkFinish"
        },
        {
          "$type": "RPG.GameCore.ActiveVirtualCamera",
          "AreaName": "1010501_temp",
          "AnchorName": "Camera_101050114_01",
          "BlendConfig": {
            "ExportToJson": true,
            "BlendType": "Cut"
          }
        },
        {
          "$type": "RPG.GameCore.PlaySimpleTalk",
          "SimpleTalkList": [
            {
              "TalkSentenceID": 101023502,
              "ProtectTime": 0.3
            },
            {
              "TalkSentenceID": 101023503,
              "ProtectTime": 0.3
            }
          ]
        },
        {
          "$type": "RPG.GameCore.WaitSimpleTalkFinish"
        },
        {
          "$type": "RPG.GameCore.ActiveVirtualCamera",
          "AreaName": "1010501_temp",
          "AnchorName": "Camera_101050114_01",
          "IsActive": false,
          "BlendConfig": {
            "ExportToJson": true,
            "BlendType": "EaseInOut"
          }
        },
        {
          "$type": "RPG.GameCore.EndPerformance"
        }
      ]
    },
    {
      "TaskList": [
        {
          "$type": "RPG.GameCore.WaitPerformanceEnd"
        },
        {
          "$type": "RPG.GameCore.FinishLevelGraph"
        }
      ]
    }
  ]
}