{
  "OnInitSequece": [],
  "OnStartSequece": [
    {
      "TaskList": [
        {
          "$type": "RPG.GameCore.LevelPerformanceInitialize",
          "PerformanceType": "D"
        },
        {
          "$type": "RPG.GameCore.PerformanceTransition",
          "SwitchOutTime": 0,
          "CreateNpcList": [
            {
              "GroupID": {
                "IsDynamic": false,
                "FixedValue": {
                  "Value": 16
                }
              },
              "GroupNpcID": {
                "IsDynamic": false,
                "FixedValue": {
                  "Value": 400005
                }
              },
              "CreateList": []
            },
            {
              "GroupID": {
                "IsDynamic": false,
                "FixedValue": {
                  "Value": 16
                }
              },
              "GroupNpcID": {
                "IsDynamic": false,
                "FixedValue": {
                  "Value": 400006
                }
              },
              "CreateList": []
            },
            {
              "GroupID": {
                "IsDynamic": false,
                "FixedValue": {
                  "Value": 16
                }
              },
              "GroupNpcID": {
                "IsDynamic": false,
                "FixedValue": {
                  "Value": 400011
                }
              },
              "CreateList": []
            },
            {
              "GroupID": {
                "IsDynamic": false,
                "FixedValue": {
                  "Value": 16
                }
              },
              "GroupNpcID": {
                "IsDynamic": false,
                "FixedValue": {
                  "Value": 400008
                }
              },
              "CreateList": []
            }
          ],
          "CaptureNpcList": [],
          "DestroyNpcList": [
            {
              "GroupID": 1,
              "GroupNpcID": 400022,
              "DestroyList": []
            },
            {
              "GroupID": 1,
              "GroupNpcID": 400024,
              "DestroyList": []
            },
            {
              "GroupID": 1,
              "GroupNpcID": 400025,
              "DestroyList": []
            }
          ],
          "ActiveVirtualCamera": {
            "AreaName": "Mission_2010710_temp",
            "AnchorName": "Camera_201071401"
          },
          "SwitchCharacterAnchor": {
            "TaskEnabled": false
          }
        },
        {
          "$type": "RPG.GameCore.TriggerCustomString",
          "CustomString": {
            "Value": "TalkSentence_101027814"
          }
        }
      ]
    },
    {
      "TaskList": [
        {
          "$type": "RPG.GameCore.WaitCustomString",
          "CustomString": {
            "Value": "TalkSentence_101027814"
          }
        },
        {
          "$type": "RPG.GameCore.ShowFistClubMissionPage",
          "FistIndex": 5,
          "OnPageCancel": [
            {
              "$type": "RPG.GameCore.TriggerCustomString",
              "CustomString": {
                "Value": "fistuiclose"
              }
            }
          ]
        },
        {
          "$type": "RPG.GameCore.PlaySimpleTalk",
          "SimpleTalkList": [
            {
              "TalkSentenceID": 201073065,
              "ProtectTime": 0.3
            },
            {
              "TalkSentenceID": 101027815,
              "ProtectTime": 0.3
            },
            {
              "TalkSentenceID": 201073066,
              "ProtectTime": 0.3
            },
            {
              "TalkSentenceID": 201073067,
              "ProtectTime": 0.3
            },
            {
              "TalkSentenceID": 201073068,
              "ProtectTime": 0.3
            },
            {
              "TalkSentenceID": 201073069,
              "ProtectTime": 0.3
            },
            {
              "TalkSentenceID": 201073070
            }
          ]
        },
        {
          "$type": "RPG.GameCore.WaitSimpleTalkFinish"
        },
        {
          "$type": "RPG.GameCore.EndPerformance"
        }
      ]
    },
    {
      "TaskList": [
        {
          "$type": "RPG.GameCore.WaitCustomString",
          "CustomString": {
            "Value": "fistuiclose"
          }
        },
        {
          "$type": "RPG.GameCore.PerformanceTransition",
          "SwitchInTime": 0,
          "CreateNpcList": [
            {
              "GroupID": {
                "IsDynamic": false,
                "FixedValue": {
                  "Value": 1
                }
              },
              "GroupNpcID": {
                "IsDynamic": false,
                "FixedValue": {
                  "Value": 400022
                }
              },
              "CreateList": []
            },
            {
              "GroupID": {
                "IsDynamic": false,
                "FixedValue": {
                  "Value": 1
                }
              },
              "GroupNpcID": {
                "IsDynamic": false,
                "FixedValue": {
                  "Value": 400024
                }
              },
              "CreateList": []
            },
            {
              "GroupID": {
                "IsDynamic": false,
                "FixedValue": {
                  "Value": 1
                }
              },
              "GroupNpcID": {
                "IsDynamic": false,
                "FixedValue": {
                  "Value": 400025
                }
              },
              "CreateList": []
            }
          ],
          "CaptureNpcList": [],
          "DestroyNpcList": [
            {
              "GroupID": 16,
              "GroupNpcID": 400005,
              "DestroyList": []
            },
            {
              "GroupID": 16,
              "GroupNpcID": 400006,
              "DestroyList": []
            },
            {
              "GroupID": 16,
              "GroupNpcID": 400011,
              "DestroyList": []
            },
            {
              "GroupID": 16,
              "GroupNpcID": 400008,
              "DestroyList": []
            }
          ],
          "ActiveVirtualCamera": {
            "AreaName": "Mission_2010710_temp",
            "AnchorName": "Camera_201071401",
            "IsActive": false
          },
          "SwitchCharacterAnchor": {
            "TaskEnabled": false
          }
        },
        {
          "$type": "RPG.GameCore.EndPerformance"
        }
      ]
    },
    {
      "TaskList": [
        {
          "$type": "RPG.GameCore.WaitPerformanceEnd"
        },
        {
          "$type": "RPG.GameCore.FinishLevelGraph"
        }
      ]
    }
  ]
}