{
  "DefaultOperations": {
    "UIOperations": []
  },
  "UIPrefabOperations": [
    {
      "PrefabName": "MazeAdventureRewardListDialog",
      "UIOperations": [],
      "AdjustIndentBySafeArea": false,
      "AdjustIndentByScreenAspect": false
    }
  ]
}