{
  "MainMissionID": 9020302,
  "StartSubMissionList": [
    902030201
  ],
  "FinishSubMissionList": [
    902030204
  ],
  "SubMissionList": [
    {
      "MainMissionID": 9020302,
      "MissionJsonPath": "Config/Level/Mission/9020302/Mission_902030201.json",
      "TakeType": "Auto",
      "ID": 902030201,
      "FinishType": "Talk",
      "ParamType": "Equal",
      "ParamStr1": "Mission_902030201",
      "ParamItemList": [],
      "Progress": 1
    },
    {
      "MainMissionID": 9020302,
      "MissionJsonPath": "Config/Level/Mission/9020302/Mission_902030202.json",
      "TakeType": "AnySequence",
      "TakeParamIntList": [
        902030201
      ],
      "ID": 902030202,
      "FinishType": "Talk",
      "ParamType": "Equal",
      "ParamStr1": "Mission_902030202",
      "ParamItemList": [],
      "Progress": 1
    },
    {
      "MainMissionID": 9020302,
      "MissionJsonPath": "Config/Level/Mission/9020302/Mission_902030203.json",
      "TakeType": "AnySequence",
      "TakeParamIntList": [
        902030201
      ],
      "ID": 902030203,
      "FinishType": "Talk",
      "ParamType": "Equal",
      "ParamStr1": "Mission_902030203",
      "ParamItemList": [],
      "Progress": 1
    },
    {
      "MainMissionID": 9020302,
      "MissionJsonPath": "Config/Level/Mission/9020302/Mission_902030204.json",
      "TakeType": "MultiSequence",
      "TakeParamIntList": [
        902030202,
        902030203
      ],
      "ID": 902030204,
      "FinishType": "Talk",
      "ParamType": "Equal",
      "ParamStr1": "Mission_902030204",
      "ParamItemList": [],
      "Progress": 1
    }
  ]
}