{
  "OnInitSequece": [],
  "OnStartSequece": [
    {
      "TaskList": [
        {
          "$type": "RPG.GameCore.CreateProp",
          "GroupID": 62,
          "GroupPropID": 300001,
          "CreateList": []
        },
        {
          "$type": "RPG.GameCore.PropSetupTrigger",
          "TargetType": {
            "$type": "RPG.GameCore.TargetFetchAdvPropEx",
            "FetchType": "SinglePropByPropID",
            "SinglePropID": {
              "GroupID": {
                "IsDynamic": false,
                "FixedValue": {
                  "Value": 62
                }
              },
              "ID": {
                "IsDynamic": false,
                "FixedValue": {
                  "Value": 300001
                }
              }
            }
          },
          "TargetGroupID": {
            "IsDynamic": false,
            "FixedValue": {
              "Value": 0
            }
          },
          "TargetID": {
            "IsDynamic": false,
            "FixedValue": {
              "Value": 0
            }
          },
          "TargetTypes": [],
          "OnTriggerEnter": [
            {
              "$type": "RPG.GameCore.TriggerCustomString",
              "CustomString": {
                "Value": "EnterArea_404022203"
              }
            }
          ]
        }
      ]
    },
    {
      "IsLoop": true,
      "TaskList": [
        {
          "$type": "RPG.GameCore.WaitCustomString",
          "CustomString": {
            "Value": "EnterArea_404022203"
          }
        },
        {
          "$type": "RPG.GameCore.PlayNPCBubbleTalk",
          "BubbleTalkInfoList": [
            {
              "AutoSkipTime": 3,
              "GroupID": 62,
              "GroupNpcID": 400001,
              "TalkSentenceID": 412220601
            },
            {
              "AutoSkipTime": 3,
              "GroupID": 78,
              "GroupNpcID": 400003,
              "TalkSentenceID": 412220602
            }
          ]
        }
      ]
    },
    {
      "TaskList": [
        {
          "$type": "RPG.GameCore.CreateProp",
          "GroupID": 62,
          "GroupPropID": 300002,
          "CreateList": []
        },
        {
          "$type": "RPG.GameCore.PropSetupTrigger",
          "TargetType": {
            "$type": "RPG.GameCore.TargetFetchAdvPropEx",
            "FetchType": "SinglePropByPropID",
            "SinglePropID": {
              "GroupID": {
                "IsDynamic": false,
                "FixedValue": {
                  "Value": 62
                }
              },
              "ID": {
                "IsDynamic": false,
                "FixedValue": {
                  "Value": 300002
                }
              }
            }
          },
          "TargetGroupID": {
            "IsDynamic": false,
            "FixedValue": {
              "Value": 0
            }
          },
          "TargetID": {
            "IsDynamic": false,
            "FixedValue": {
              "Value": 0
            }
          },
          "TargetTypes": [],
          "OnTriggerEnter": [
            {
              "$type": "RPG.GameCore.TriggerCustomString",
              "CustomString": {
                "Value": "EnterArea_404022203_2"
              }
            }
          ]
        }
      ]
    },
    {
      "IsLoop": true,
      "TaskList": [
        {
          "$type": "RPG.GameCore.WaitCustomString",
          "CustomString": {
            "Value": "EnterArea_404022203_2"
          }
        },
        {
          "$type": "RPG.GameCore.TriggerPerformance",
          "ValueSource": {},
          "PerformanceType": "E",
          "PerformanceID": 404022207
        },
        {
          "$type": "RPG.GameCore.TriggerCustomString",
          "CustomString": {
            "Value": "PerformanceFinish_404022207"
          }
        }
      ]
    },
    {
      "TaskList": [
        {
          "$type": "RPG.GameCore.WaitCustomString",
          "CustomString": {
            "Value": "PerformanceFinish_404022207"
          }
        },
        {
          "$type": "RPG.GameCore.PredicateTaskList",
          "Predicate": {
            "$type": "RPG.GameCore.ByCompareMissionCustomValue",
            "MainMissionID": 4040222,
            "MissionCustomValue": {},
            "EquationType": "Equal",
            "TargetValue": 1
          },
          "SuccessTaskList": [
            {
              "$type": "RPG.GameCore.FinishPerformanceMission",
              "Key": "Mission_404022203"
            }
          ]
        }
      ]
    }
  ]
}