{
  "OnInitSequece": [],
  "OnStartSequece": [
    {
      "TaskList": [
        {
          "$type": "RPG.GameCore.PropSetupTrigger",
          "TargetType": {
            "$type": "RPG.GameCore.TargetFetchAdvPropEx"
          },
          "TargetGroupID": {
            "IsDynamic": false,
            "FixedValue": {
              "Value": 0
            }
          },
          "TargetID": {
            "IsDynamic": false,
            "FixedValue": {
              "Value": 0
            }
          },
          "TargetTypes": [],
          "ColliderRelativePath": "CustomTrigger_DoorOpen",
          "OnTriggerEnter": [
            {
              "$type": "RPG.GameCore.PropTriggerAnimState",
              "AnimStateName": "Activing",
              "TargetType": {
                "$type": "RPG.GameCore.TargetFetchAdvPropEx"
              }
            },
            {
              "$type": "RPG.GameCore.PropEnableCollider",
              "OPType": "TriggerOnly",
              "SpecifiedRelativePaths": [
                "TriggerDoorOpen"
              ],
              "TriggerSelect": "CustomTrigger",
              "CustomTriggerName": "CustomTrigger_DoorOpen",
              "TargetType": {
                "$type": "RPG.GameCore.TargetFetchAdvPropEx"
              }
            },
            {
              "$type": "RPG.GameCore.PropEnableCollider",
              "OPType": "TriggerOnly",
              "Enabled": true,
              "SpecifiedRelativePaths": [
                "TriggerDoorClose"
              ],
              "TriggerSelect": "CustomTrigger",
              "CustomTriggerName": "CustomTrigger_DoorClose",
              "TargetType": {
                "$type": "RPG.GameCore.TargetFetchAdvPropEx"
              }
            }
          ],
          "OnTriggerExit": []
        }
      ]
    },
    {
      "TaskList": [
        {
          "$type": "RPG.GameCore.PropSetupTrigger",
          "TargetType": {
            "$type": "RPG.GameCore.TargetFetchAdvPropEx"
          },
          "TargetGroupID": {
            "IsDynamic": false,
            "FixedValue": {
              "Value": 0
            }
          },
          "TargetID": {
            "IsDynamic": false,
            "FixedValue": {
              "Value": 0
            }
          },
          "TargetTypes": [],
          "ColliderRelativePath": "CustomTrigger_DoorClose",
          "OnTriggerEnter": [],
          "OnTriggerExit": [
            {
              "$type": "RPG.GameCore.PropTriggerAnimState",
              "AnimStateName": "UnActiving",
              "TargetType": {
                "$type": "RPG.GameCore.TargetFetchAdvPropEx"
              }
            },
            {
              "$type": "RPG.GameCore.PropEnableCollider",
              "OPType": "TriggerOnly",
              "Enabled": true,
              "SpecifiedRelativePaths": [
                "TriggerDoorOpen"
              ],
              "TriggerSelect": "CustomTrigger",
              "CustomTriggerName": "CustomTrigger_DoorOpen",
              "TargetType": {
                "$type": "RPG.GameCore.TargetFetchAdvPropEx"
              }
            },
            {
              "$type": "RPG.GameCore.PropEnableCollider",
              "OPType": "TriggerOnly",
              "SpecifiedRelativePaths": [
                "TriggerDoorClose"
              ],
              "TriggerSelect": "CustomTrigger",
              "CustomTriggerName": "CustomTrigger_DoorClose",
              "TargetType": {
                "$type": "RPG.GameCore.TargetFetchAdvPropEx"
              }
            }
          ]
        }
      ]
    },
    {
      "TaskList": [
        {
          "$type": "RPG.GameCore.PropSetupUITrigger",
          "ButtonCallback": [
            {
              "$type": "RPG.GameCore.StartPropInteractMode",
              "TargetType": {
                "$type": "RPG.GameCore.TargetFetchAdvPropEx"
              },
              "Mode": "OpenUI"
            },
            {
              "$type": "RPG.GameCore.WaitSecond",
              "WaitTime": 0.5
            },
            {
              "$type": "RPG.GameCore.EndPropInteract"
            },
            {
              "$type": "RPG.GameCore.TriggerMazeMapUI"
            }
          ],
          "OverrideTargetTypes": [],
          "TargetType": {
            "$type": "RPG.GameCore.TargetFetchAdvPropEx"
          }
        }
      ]
    }
  ],
  "ValueSource": {}
}