{
  "MainMissionID": 4040167,
  "StartSubMissionList": [
    404016701
  ],
  "FinishSubMissionList": [
    404016701
  ],
  "SubMissionList": [
    {
      "MainMissionID": 4040167,
      "TakeType": "Auto",
      "ID": 404016701,
      "MazePlaneID": 10102,
      "MazeFloorID": 10102001,
      "FinishType": "PropState",
      "ParamType": "Equal",
      "ParamInt1": 8,
      "ParamInt2": 300003,
      "ParamInt3": 19,
      "ParamItemList": [],
      "Progress": 1
    }
  ]
}