{
  "MainMissionID": 4040127,
  "StartSubMissionList": [
    404012701,
    404012702,
    404012703,
    404012704
  ],
  "FinishSubMissionList": [
    404012709
  ],
  "SubMissionList": [
    {
      "MainMissionID": 4040127,
      "TakeType": "Auto",
      "ID": 404012701,
      "FinishType": "GetItem",
      "ParamType": "Equal",
      "ParamInt1": 140078,
      "ParamItemList": [],
      "Progress": 1
    },
    {
      "MainMissionID": 4040127,
      "TakeType": "Auto",
      "ID": 404012702,
      "FinishType": "GetItem",
      "ParamType": "Equal",
      "ParamInt1": 140079,
      "ParamItemList": [],
      "Progress": 1
    },
    {
      "MainMissionID": 4040127,
      "TakeType": "Auto",
      "ID": 404012703,
      "FinishType": "GetItem",
      "ParamType": "Equal",
      "ParamInt1": 140080,
      "ParamItemList": [],
      "Progress": 1
    },
    {
      "MainMissionID": 4040127,
      "TakeType": "Auto",
      "ID": 404012704,
      "FinishType": "GetItem",
      "ParamType": "Equal",
      "ParamInt1": 140081,
      "ParamItemList": [],
      "Progress": 1
    },
    {
      "MainMissionID": 4040127,
      "MissionJsonPath": "Config/Level/Mission/4040127/Mission_404012705.json",
      "TakeType": "AnySequence",
      "TakeParamIntList": [
        404012701
      ],
      "ID": 404012705,
      "FinishType": "Talk",
      "ParamType": "Equal",
      "ParamStr1": "Mission_404012705",
      "ParamIntList": [],
      "ParamItemList": [],
      "Progress": 1
    },
    {
      "MainMissionID": 4040127,
      "MissionJsonPath": "Config/Level/Mission/4040127/Mission_404012706.json",
      "TakeType": "AnySequence",
      "TakeParamIntList": [
        404012702
      ],
      "ID": 404012706,
      "FinishType": "Talk",
      "ParamType": "Equal",
      "ParamStr1": "Mission_404012706",
      "ParamIntList": [],
      "ParamItemList": [],
      "Progress": 1
    },
    {
      "MainMissionID": 4040127,
      "MissionJsonPath": "Config/Level/Mission/4040127/Mission_404012707.json",
      "TakeType": "AnySequence",
      "TakeParamIntList": [
        404012703
      ],
      "ID": 404012707,
      "FinishType": "Talk",
      "ParamType": "Equal",
      "ParamStr1": "Mission_404012707",
      "ParamIntList": [],
      "ParamItemList": [],
      "Progress": 1
    },
    {
      "MainMissionID": 4040127,
      "MissionJsonPath": "Config/Level/Mission/4040127/Mission_404012708.json",
      "TakeType": "AnySequence",
      "TakeParamIntList": [
        404012704
      ],
      "ID": 404012708,
      "FinishType": "Talk",
      "ParamType": "Equal",
      "ParamStr1": "Mission_404012708",
      "ParamIntList": [],
      "ParamItemList": [],
      "Progress": 1
    },
    {
      "MainMissionID": 4040127,
      "MissionJsonPath": "Config/Level/Mission/4040127/Mission_404012709.json",
      "TakeType": "AnySequence",
      "TakeParamIntList": [
        404012701,
        404012702,
        404012703,
        404012704
      ],
      "ID": 404012709,
      "FinishType": "SubMissionFinishCnt",
      "ParamType": "ListContain",
      "ParamIntList": [
        404012705,
        404012706,
        404012707,
        404012708
      ],
      "ParamItemList": [],
      "Progress": 4
    }
  ]
}