{
  "OnInitSequece": [],
  "OnStartSequece": [
    {
      "TaskList": [
        {
          "$type": "RPG.GameCore.WaitCustomString",
          "CustomString": {
            "Value": "101150206_End1"
          }
        },
        {
          "$type": "RPG.GameCore.FinishPerformanceMission",
          "Key": "Mission_101150207"
        }
      ]
    }
  ]
}