{
  "OnInitSequece": [],
  "OnStartSequece": [
    {
      "TaskList": [
        {
          "$type": "RPG.GameCore.LevelPerformanceInitialize",
          "PerformanceType": "C",
          "AreaPrefabPath": "Story/Mission/1011402/Story101140203.prefab",
          "CreateCharacterList": [
            {
              "CharacterUniqueName": "PlayerBoy_00",
              "AvatarID": "NPC_Avatar_Lad_PlayerBoy_00",
              "AreaName": "Story101140203.prefab"
            },
            {
              "CharacterUniqueName": "PlayerGirl_00",
              "AvatarID": "NPC_Avatar_Miss_PlayerGirl_00",
              "AreaName": "Story101140203.prefab"
            }
          ],
          "EntityVisiableList": [],
          "HideProp": true,
          "HideLocalPlayer": true,
          "EnableRootMotion": false,
          "StreamingCentersAfterBlackMask": [],
          "MarkStreamingItems": []
        },
        {
          "$type": "RPG.GameCore.PlayTimeline",
          "TimelineName": "Story/Mission/1011402/Story10114020301.playable",
          "Type": "Story",
          "Parameters": []
        },
        {
          "$type": "RPG.GameCore.EndPerformance"
        }
      ]
    },
    {
      "TaskList": [
        {
          "$type": "RPG.GameCore.WaitPerformanceEnd"
        },
        {
          "$type": "RPG.GameCore.FinishLevelGraph"
        }
      ]
    }
  ]
}