{
  "OnInitSequece": [],
  "OnStartSequece": [
    {
      "TaskList": [
        {
          "$type": "RPG.GameCore.LevelPerformanceInitialize",
          "PerformanceType": "D",
          "LockCamera": false,
          "CreateCharacterList": [],
          "EntityVisiableList": [],
          "StreamingCentersInBlackMask": [],
          "StreamingCentersAfterBlackMask": []
        },
        {
          "$type": "RPG.GameCore.AdvNpcFaceToPlayer",
          "FinishImmadiate": true
        },
        {
          "$type": "RPG.GameCore.PlaySimpleTalk",
          "SimpleTalkList": [
            {
              "TalkSentenceID": 200022401,
              "ProtectTime": 0.3
            },
            {
              "TalkSentenceID": 200022402,
              "ProtectTime": 0.3
            }
          ]
        },
        {
          "$type": "RPG.GameCore.WaitSimpleTalkFinish"
        },
        {
          "$type": "RPG.GameCore.PlayOptionTalk",
          "OptionList": [
            {
              "TalkSentenceID": 200022403,
              "OptionIconType": "ChatContinueIcon",
              "TriggerCustomString": "TalkSentence_200022403",
              "FinishKey": "0"
            },
            {
              "TalkSentenceID": 200022405,
              "OptionIconType": "ChatContinueIcon",
              "TriggerCustomString": "TalkSentence_200022405"
            }
          ]
        }
      ]
    },
    {
      "TaskList": [
        {
          "$type": "RPG.GameCore.WaitCustomString",
          "CustomString": {
            "Value": "TalkSentence_200022403"
          }
        },
        {
          "$type": "RPG.GameCore.PlaySimpleTalk",
          "SimpleTalkList": [
            {
              "TalkSentenceID": 200022404,
              "ProtectTime": 0.3
            },
            {
              "TalkSentenceID": 200022407,
              "ProtectTime": 0.3
            },
            {
              "TalkSentenceID": 200022408,
              "ProtectTime": 0.3
            },
            {
              "TalkSentenceID": 200022409,
              "ProtectTime": 0.3
            },
            {
              "TalkSentenceID": 200022410,
              "ProtectTime": 0.3
            },
            {
              "TalkSentenceID": 200022411,
              "ProtectTime": 0.3
            }
          ]
        },
        {
          "$type": "RPG.GameCore.WaitSimpleTalkFinish"
        },
        {
          "$type": "RPG.GameCore.PlayOptionTalk",
          "OptionList": [
            {
              "TalkSentenceID": 200022412,
              "OptionIconType": "ChatContinueIcon",
              "TriggerCustomString": "TalkSentence_200022412",
              "FinishKey": "0"
            },
            {
              "TalkSentenceID": 200022414,
              "OptionIconType": "ChatContinueIcon",
              "TriggerCustomString": "TalkSentence_200022414"
            }
          ]
        }
      ]
    },
    {
      "TaskList": [
        {
          "$type": "RPG.GameCore.WaitCustomString",
          "CustomString": {
            "Value": "TalkSentence_200022405"
          }
        },
        {
          "$type": "RPG.GameCore.PlaySimpleTalk",
          "SimpleTalkList": [
            {
              "TalkSentenceID": 200022406,
              "ProtectTime": 0.3
            },
            {
              "TalkSentenceID": 200022407,
              "ProtectTime": 0.3
            },
            {
              "TalkSentenceID": 200022408,
              "ProtectTime": 0.3
            },
            {
              "TalkSentenceID": 200022409,
              "ProtectTime": 0.3
            },
            {
              "TalkSentenceID": 200022410,
              "ProtectTime": 0.3
            },
            {
              "TalkSentenceID": 200022411,
              "ProtectTime": 0.3
            }
          ]
        },
        {
          "$type": "RPG.GameCore.WaitSimpleTalkFinish"
        },
        {
          "$type": "RPG.GameCore.PlayOptionTalk",
          "OptionList": [
            {
              "TalkSentenceID": 200022412,
              "OptionIconType": "ChatContinueIcon",
              "TriggerCustomString": "TalkSentence_200022412",
              "FinishKey": "0"
            },
            {
              "TalkSentenceID": 200022414,
              "OptionIconType": "ChatContinueIcon",
              "TriggerCustomString": "TalkSentence_200022414"
            }
          ]
        }
      ]
    },
    {
      "TaskList": [
        {
          "$type": "RPG.GameCore.WaitCustomString",
          "CustomString": {
            "Value": "TalkSentence_200022412"
          }
        },
        {
          "$type": "RPG.GameCore.PlaySimpleTalk",
          "SimpleTalkList": [
            {
              "TalkSentenceID": 200022413,
              "ProtectTime": 0.3
            },
            {
              "TalkSentenceID": 200022417,
              "ProtectTime": 0.3
            },
            {
              "TalkSentenceID": 200022418,
              "ProtectTime": 0.3
            },
            {
              "TalkSentenceID": 200022419,
              "ProtectTime": 0.3
            }
          ]
        },
        {
          "$type": "RPG.GameCore.WaitSimpleTalkFinish"
        },
        {
          "$type": "RPG.GameCore.PlayOptionTalk",
          "OptionList": [
            {
              "TalkSentenceID": 200022420,
              "OptionIconType": "ChatContinueIcon",
              "TriggerCustomString": "TalkSentence_200022420",
              "FinishKey": "0"
            },
            {
              "TalkSentenceID": 200022422,
              "OptionIconType": "ChatContinueIcon",
              "TriggerCustomString": "TalkSentence_200022422"
            }
          ]
        }
      ]
    },
    {
      "TaskList": [
        {
          "$type": "RPG.GameCore.WaitCustomString",
          "CustomString": {
            "Value": "TalkSentence_200022414"
          }
        },
        {
          "$type": "RPG.GameCore.PlaySimpleTalk",
          "SimpleTalkList": [
            {
              "TalkSentenceID": 200022415,
              "ProtectTime": 0.3
            },
            {
              "TalkSentenceID": 200022416,
              "ProtectTime": 0.3
            },
            {
              "TalkSentenceID": 200022417,
              "ProtectTime": 0.3
            },
            {
              "TalkSentenceID": 200022418,
              "ProtectTime": 0.3
            },
            {
              "TalkSentenceID": 200022419,
              "ProtectTime": 0.3
            }
          ]
        },
        {
          "$type": "RPG.GameCore.WaitSimpleTalkFinish"
        },
        {
          "$type": "RPG.GameCore.PlayOptionTalk",
          "OptionList": [
            {
              "TalkSentenceID": 200022420,
              "OptionIconType": "ChatContinueIcon",
              "TriggerCustomString": "TalkSentence_200022420",
              "FinishKey": "0"
            },
            {
              "TalkSentenceID": 200022422,
              "OptionIconType": "ChatContinueIcon",
              "TriggerCustomString": "TalkSentence_200022422"
            }
          ]
        }
      ]
    },
    {
      "TaskList": [
        {
          "$type": "RPG.GameCore.WaitCustomString",
          "CustomString": {
            "Value": "TalkSentence_200022420"
          }
        },
        {
          "$type": "RPG.GameCore.PlaySimpleTalk",
          "SimpleTalkList": [
            {
              "TalkSentenceID": 200022421,
              "ProtectTime": 0.3
            },
            {
              "TalkSentenceID": 200022424,
              "ProtectTime": 0.3
            }
          ]
        },
        {
          "$type": "RPG.GameCore.WaitSimpleTalkFinish"
        },
        {
          "$type": "RPG.GameCore.EndPerformance"
        }
      ]
    },
    {
      "TaskList": [
        {
          "$type": "RPG.GameCore.WaitCustomString",
          "CustomString": {
            "Value": "TalkSentence_200022422"
          }
        },
        {
          "$type": "RPG.GameCore.PlaySimpleTalk",
          "SimpleTalkList": [
            {
              "TalkSentenceID": 200022423,
              "ProtectTime": 0.3
            },
            {
              "TalkSentenceID": 200022424,
              "ProtectTime": 0.3
            }
          ]
        },
        {
          "$type": "RPG.GameCore.WaitSimpleTalkFinish"
        },
        {
          "$type": "RPG.GameCore.EndPerformance"
        }
      ]
    },
    {
      "TaskList": [
        {
          "$type": "RPG.GameCore.WaitPerformanceEnd"
        },
        {
          "$type": "RPG.GameCore.FinishLevelGraph"
        }
      ]
    }
  ]
}