{
  "OnInitSequece": [],
  "OnStartSequece": [
    {
      "TaskList": [
        {
          "$type": "RPG.GameCore.CollectDataConditions",
          "TaskIDList": [],
          "PerformanceIDList": [
            202010322
          ]
        },
        {
          "$type": "RPG.GameCore.PredicateTaskList",
          "Predicate": {
            "$type": "RPG.GameCore.ByComparePerformance",
            "PerformanceID": 202010322
          },
          "SuccessTaskList": [
            {
              "$type": "RPG.GameCore.TriggerPerformance",
              "ValueSource": {},
              "PerformanceType": "E",
              "PerformanceID": 202010322
            },
            {
              "$type": "RPG.GameCore.TriggerCustomStringOnDialogEnd",
              "CustomString": {
                "Value": "202010322_Finish"
              }
            }
          ],
          "FailedTaskList": [
            {
              "$type": "RPG.GameCore.TriggerPerformance",
              "ValueSource": {},
              "PerformanceType": "E",
              "PerformanceID": 202010362
            }
          ]
        }
      ]
    }
  ]
}