{
  "OnInitSequece": [],
  "OnStartSequece": [
    {
      "TaskList": [
        {
          "$type": "RPG.GameCore.LevelPerformanceInitialize",
          "PerformanceType": "E",
          "LockCamera": false,
          "CreateCharacterList": [],
          "EntityVisiableList": [],
          "HideMunicipalCrowd": false,
          "HideMunicipalPedestrian": false,
          "HideMunicipalOther": false,
          "HideMonster": false,
          "PropVisiableList": [],
          "StreamingCentersInBlackMask": [],
          "StreamingCentersAfterBlackMask": [],
          "MarkStreamingItems": []
        },
        {
          "$type": "RPG.GameCore.AdvEnablePropDialogMode",
          "RotateSpeed": 600,
          "EnablePropCamera": false,
          "LockPlayerControl": false,
          "IsImmediatelySucc": true,
          "TargetType": {
            "$type": "RPG.GameCore.TargetFetchAdvPropEx",
            "FetchType": "SinglePropByPropID",
            "SinglePropID": {
              "GroupID": {
                "IsDynamic": false,
                "FixedValue": {
                  "Value": 137
                }
              },
              "ID": {
                "IsDynamic": false,
                "FixedValue": {
                  "Value": 300001
                }
              }
            }
          }
        },
        {
          "$type": "RPG.GameCore.PlaySimpleTalk",
          "SimpleTalkList": [
            {
              "TalkSentenceID": 401510138,
              "ProtectTime": 0.3
            },
            {
              "TalkSentenceID": 401510139,
              "ProtectTime": 0.3
            }
          ]
        },
        {
          "$type": "RPG.GameCore.WaitSimpleTalkFinish"
        },
        {
          "$type": "RPG.GameCore.TriggerCustomString",
          "CustomString": {
            "Value": "Wait_Check_PuzzleComplete"
          }
        }
      ]
    },
    {
      "IsLoop": true,
      "TaskList": [
        {
          "$type": "RPG.GameCore.WaitCustomString",
          "CustomString": {
            "Value": "Wait_Check_PuzzleComplete"
          },
          "WaitOwnerOnly": true
        },
        {
          "$type": "RPG.GameCore.SelectorConfig",
          "TaskList": [
            {
              "$type": "RPG.GameCore.PropStateExecute",
              "TargetType": {
                "$type": "RPG.GameCore.TargetFetchAdvPropEx",
                "FetchType": "SinglePropByPropID",
                "SinglePropID": {
                  "GroupID": {
                    "IsDynamic": true,
                    "Expressions": [
                      {
                        "Type": "DynamicNumber",
                        "DynamicHash": 457965117
                      }
                    ]
                  },
                  "ID": {
                    "IsDynamic": true,
                    "Expressions": [
                      {
                        "Type": "DynamicNumber",
                        "DynamicHash": 1668891147
                      }
                    ]
                  }
                }
              },
              "Execute": [
                {
                  "$type": "RPG.GameCore.TriggerCustomString",
                  "CustomString": {
                    "Value": "Wait_Option_4015101_2"
                  }
                }
              ]
            },
            {
              "$type": "RPG.GameCore.PropStateExecute",
              "TargetType": {
                "$type": "RPG.GameCore.TargetFetchAdvPropEx",
                "FetchType": "SinglePropByPropID",
                "SinglePropID": {
                  "GroupID": {
                    "IsDynamic": true,
                    "Expressions": [
                      {
                        "Type": "DynamicNumber",
                        "DynamicHash": 457965117
                      }
                    ]
                  },
                  "ID": {
                    "IsDynamic": true,
                    "Expressions": [
                      {
                        "Type": "DynamicNumber",
                        "DynamicHash": 1668891147
                      }
                    ]
                  }
                }
              },
              "State": "Open",
              "Execute": [
                {
                  "$type": "RPG.GameCore.PredicateTaskList",
                  "Predicate": {
                    "$type": "RPG.GameCore.ByComparePropState",
                    "TargetType": {
                      "$type": "RPG.GameCore.TargetFetchAdvPropEx",
                      "FetchType": "SinglePropByPropID",
                      "SinglePropID": {
                        "GroupID": {
                          "IsDynamic": true,
                          "Expressions": [
                            {
                              "Type": "DynamicNumber",
                              "DynamicHash": -1991705770
                            }
                          ]
                        },
                        "ID": {
                          "IsDynamic": true,
                          "Expressions": [
                            {
                              "Type": "DynamicNumber",
                              "DynamicHash": 1748978052
                            }
                          ]
                        }
                      }
                    },
                    "State": "ChestUsed"
                  },
                  "SuccessTaskList": [
                    {
                      "$type": "RPG.GameCore.TriggerCustomString",
                      "CustomString": {
                        "Value": "Wait_Option_4015101_3"
                      }
                    }
                  ],
                  "FailedTaskList": [
                    {
                      "$type": "RPG.GameCore.TriggerCustomString",
                      "CustomString": {
                        "Value": "Wait_Option_4015101_2"
                      }
                    }
                  ]
                }
              ]
            }
          ]
        }
      ]
    },
    {
      "IsLoop": true,
      "TaskList": [
        {
          "$type": "RPG.GameCore.WaitCustomString",
          "CustomString": {
            "Value": "Wait_Option_4015101_2"
          },
          "WaitOwnerOnly": true
        },
        {
          "$type": "RPG.GameCore.PlayOptionTalk",
          "OptionList": [
            {
              "TalkSentenceID": 401510140,
              "OptionIconType": "ChatLoopIcon",
              "TriggerCustomString": "TalkSentence_401510141"
            },
            {
              "TalkSentenceID": 401510143,
              "OptionIconType": "ChatOutIcon",
              "TriggerCustomString": "ALL_TALK_END"
            }
          ],
          "HideSelected": true
        }
      ]
    },
    {
      "IsLoop": true,
      "TaskList": [
        {
          "$type": "RPG.GameCore.WaitCustomString",
          "CustomString": {
            "Value": "Wait_Option_4015101_3"
          },
          "WaitOwnerOnly": true
        },
        {
          "$type": "RPG.GameCore.PlayOptionTalk",
          "OptionList": [
            {
              "TalkSentenceID": 401510140,
              "OptionIconType": "ChatLoopIcon",
              "TriggerCustomString": "TalkSentence_401510141"
            },
            {
              "TalkSentenceID": 401510141,
              "OptionIconType": "ChatContinueIcon",
              "TriggerCustomString": "TalkSentence_401510155"
            },
            {
              "TalkSentenceID": 401510143,
              "OptionIconType": "ChatOutIcon",
              "TriggerCustomString": "ALL_TALK_END"
            }
          ],
          "HideSelected": true
        }
      ]
    },
    {
      "IsLoop": true,
      "TaskList": [
        {
          "$type": "RPG.GameCore.WaitCustomString",
          "CustomString": {
            "Value": "TalkSentence_401510141"
          },
          "WaitOwnerOnly": true
        },
        {
          "$type": "RPG.GameCore.SelectorConfig",
          "TaskList": [
            {
              "$type": "RPG.GameCore.PropStateExecute",
              "TargetType": {
                "$type": "RPG.GameCore.TargetFetchAdvPropEx",
                "FetchType": "SinglePropByPropID",
                "SinglePropID": {
                  "GroupID": {
                    "IsDynamic": true,
                    "Expressions": [
                      {
                        "Type": "DynamicNumber",
                        "DynamicHash": 457965117
                      }
                    ]
                  },
                  "ID": {
                    "IsDynamic": true,
                    "Expressions": [
                      {
                        "Type": "DynamicNumber",
                        "DynamicHash": 1668891147
                      }
                    ]
                  }
                }
              },
              "Execute": [
                {
                  "$type": "RPG.GameCore.SetTextJoinValue",
                  "TextJoinID": 29,
                  "Value": "5"
                },
                {
                  "$type": "RPG.GameCore.ShowReading",
                  "BookID": 190419,
                  "ShouldPauseGame": true
                },
                {
                  "$type": "RPG.GameCore.TriggerCustomString",
                  "CustomString": {
                    "Value": "Wait_Check_PuzzleComplete"
                  }
                }
              ]
            },
            {
              "$type": "RPG.GameCore.PropStateExecute",
              "TargetType": {
                "$type": "RPG.GameCore.TargetFetchAdvPropEx",
                "FetchType": "SinglePropByPropID",
                "SinglePropID": {
                  "GroupID": {
                    "IsDynamic": true,
                    "Expressions": [
                      {
                        "Type": "DynamicNumber",
                        "DynamicHash": 457965117
                      }
                    ]
                  },
                  "ID": {
                    "IsDynamic": true,
                    "Expressions": [
                      {
                        "Type": "DynamicNumber",
                        "DynamicHash": 1668891147
                      }
                    ]
                  }
                }
              },
              "State": "Open",
              "Execute": [
                {
                  "$type": "RPG.GameCore.SetTextJoinValue",
                  "TextJoinID": 29,
                  "Value": "4",
                  "OnCancel": []
                },
                {
                  "$type": "RPG.GameCore.ShowReading",
                  "BookID": 190419,
                  "ShouldPauseGame": true
                },
                {
                  "$type": "RPG.GameCore.TriggerCustomString",
                  "CustomString": {
                    "Value": "Wait_Check_PuzzleComplete"
                  }
                }
              ]
            }
          ]
        }
      ]
    },
    {
      "IsLoop": true,
      "TaskList": [
        {
          "$type": "RPG.GameCore.WaitCustomString",
          "CustomString": {
            "Value": "TalkSentence_401510155"
          },
          "WaitOwnerOnly": true
        },
        {
          "$type": "RPG.GameCore.PlaySimpleTalk",
          "SimpleTalkList": [
            {
              "TalkSentenceID": 401510142,
              "ProtectTime": 0.3
            }
          ]
        },
        {
          "$type": "RPG.GameCore.WaitSimpleTalkFinish"
        },
        {
          "$type": "RPG.GameCore.TriggerCustomString",
          "CustomString": {
            "Value": "PuzzleCompass_TriggerLoadNextShip"
          }
        },
        {
          "$type": "RPG.GameCore.TriggerCustomString",
          "CustomString": {
            "Value": "ALL_TALK_END"
          }
        }
      ]
    },
    {
      "TaskList": [
        {
          "$type": "RPG.GameCore.WaitCustomString",
          "CustomString": {
            "Value": "ALL_TALK_END"
          },
          "WaitOwnerOnly": true
        },
        {
          "$type": "RPG.GameCore.EndPerformance"
        }
      ]
    },
    {
      "TaskList": [
        {
          "$type": "RPG.GameCore.WaitPerformanceEnd"
        },
        {
          "$type": "RPG.GameCore.FinishLevelGraph"
        }
      ]
    }
  ],
  "ValueSource": {
    "Values": [
      {
        "$type": "RPG.GameCore.SharedInt",
        "Key": "PuzzleCompass_GroupID",
        "Comment": "谜题GroupID"
      },
      {
        "$type": "RPG.GameCore.SharedInt",
        "Value": 300001,
        "Key": "PuzzleCompass_PropID",
        "Comment": "谜题PropID"
      },
      {
        "$type": "RPG.GameCore.SharedInt",
        "Key": "Chest_GroupID",
        "Comment": "宝箱GroupID"
      },
      {
        "$type": "RPG.GameCore.SharedInt",
        "Value": 300004,
        "Key": "Chest_PropID",
        "Comment": "宝箱PropID"
      }
    ]
  }
}