{
  "MainMissionID": 1011103,
  "StartSubMissionList": [
    101110301
  ],
  "FinishSubMissionList": [
    101110301
  ],
  "SubMissionList": [
    {
      "MainMissionID": 1011103,
      "MissionJsonPath": "Config/Level/Mission/1011103/Mission_101110301.json",
      "CustomValueReward": [],
      "TakeType": "Auto",
      "TakeParamIntList": [],
      "ID": 101110301,
      "MazePlaneID": 20131,
      "MazeFloorID": 20131001,
      "FinishType": "PropState",
      "ParamType": "Equal",
      "ParamInt1": 6,
      "ParamInt2": 300004,
      "ParamInt3": 1,
      "ParamItemList": [],
      "Progress": 1
    }
  ]
}