{
  "MainMissionID": 2000320,
  "StartSubMissionList": [
    200032000,
    200032001,
    200032031,
    200032032,
    200032033,
    200032034,
    200032003,
    200032004,
    200032005,
    200032006,
    200032007,
    200032008,
    200032009,
    200032010,
    200032011,
    200032012,
    200032013,
    200032014,
    200032015,
    200032016,
    200032017,
    200032018,
    200032019,
    200032020,
    200032021,
    200032022
  ],
  "FinishSubMissionList": [
    200032023
  ],
  "SubMissionList": [
    {
      "MainMissionID": 2000320,
      "TakeType": "Auto",
      "ID": 200032000,
      "FinishType": "SubMissionFinishCnt",
      "ParamType": "ListContain",
      "ParamIntList": [
        200032002
      ],
      "ParamItemList": [],
      "Progress": 1
    },
    {
      "MainMissionID": 2000320,
      "MissionJsonPath": "Config/Level/Mission/2000320/Mission_200032001.json",
      "TakeType": "Auto",
      "TakeParamIntList": [],
      "ID": 200032001,
      "FinishType": "SubMissionFinishCnt",
      "ParamType": "ListContain",
      "ParamIntList": [
        200032031,
        200032032,
        200032033,
        200032034
      ],
      "ParamItemList": [],
      "Progress": 1
    },
    {
      "MainMissionID": 2000320,
      "MissionJsonPath": "Config/Level/Mission/2000320/Mission_200032002.json",
      "TakeType": "AnySequence",
      "TakeParamIntList": [
        200032001
      ],
      "ID": 200032002,
      "FinishType": "SubMissionFinishCnt",
      "ParamType": "ListContain",
      "ParamIntList": [
        200032041,
        200032042,
        200032043,
        200032044
      ],
      "ParamItemList": [],
      "Progress": 1
    },
    {
      "MainMissionID": 2000320,
      "MissionJsonPath": "Config/Level/Mission/2000320/Mission_200032003.json",
      "TakeType": "Auto",
      "ID": 200032003,
      "FinishType": "Talk",
      "ParamType": "Equal",
      "ParamStr1": "Mission_200032003",
      "ParamItemList": [],
      "Progress": 1
    },
    {
      "MainMissionID": 2000320,
      "MissionJsonPath": "Config/Level/Mission/2000320/Mission_200032004.json",
      "TakeType": "Auto",
      "ID": 200032004,
      "FinishType": "Talk",
      "ParamType": "Equal",
      "ParamStr1": "Mission_200032004",
      "ParamItemList": [],
      "Progress": 1
    },
    {
      "MainMissionID": 2000320,
      "MissionJsonPath": "Config/Level/Mission/2000320/Mission_200032005.json",
      "TakeType": "Auto",
      "ID": 200032005,
      "FinishType": "Talk",
      "ParamType": "Equal",
      "ParamStr1": "Mission_200032005",
      "ParamItemList": [],
      "Progress": 1
    },
    {
      "MainMissionID": 2000320,
      "MissionJsonPath": "Config/Level/Mission/2000320/Mission_200032006.json",
      "TakeType": "Auto",
      "ID": 200032006,
      "FinishType": "Talk",
      "ParamType": "Equal",
      "ParamStr1": "Mission_200032006",
      "ParamItemList": [],
      "Progress": 1
    },
    {
      "MainMissionID": 2000320,
      "MissionJsonPath": "Config/Level/Mission/2000320/Mission_200032007.json",
      "TakeType": "Auto",
      "ID": 200032007,
      "FinishType": "Talk",
      "ParamType": "Equal",
      "ParamStr1": "Mission_200032007",
      "ParamItemList": [],
      "Progress": 1
    },
    {
      "MainMissionID": 2000320,
      "MissionJsonPath": "Config/Level/Mission/2000320/Mission_200032008.json",
      "TakeType": "Auto",
      "ID": 200032008,
      "FinishType": "Talk",
      "ParamType": "Equal",
      "ParamStr1": "Mission_200032008",
      "ParamItemList": [],
      "Progress": 1
    },
    {
      "MainMissionID": 2000320,
      "MissionJsonPath": "Config/Level/Mission/2000320/Mission_200032009.json",
      "TakeType": "Auto",
      "ID": 200032009,
      "FinishType": "Talk",
      "ParamType": "Equal",
      "ParamStr1": "Mission_200032009",
      "ParamItemList": [],
      "Progress": 1
    },
    {
      "MainMissionID": 2000320,
      "MissionJsonPath": "Config/Level/Mission/2000320/Mission_200032010.json",
      "TakeType": "Auto",
      "ID": 200032010,
      "FinishType": "Talk",
      "ParamType": "Equal",
      "ParamStr1": "Mission_200032010",
      "ParamItemList": [],
      "Progress": 1
    },
    {
      "MainMissionID": 2000320,
      "MissionJsonPath": "Config/Level/Mission/2000320/Mission_200032011.json",
      "TakeType": "Auto",
      "ID": 200032011,
      "FinishType": "Talk",
      "ParamType": "Equal",
      "ParamStr1": "Mission_200032011",
      "ParamItemList": [],
      "Progress": 1
    },
    {
      "MainMissionID": 2000320,
      "MissionJsonPath": "Config/Level/Mission/2000320/Mission_200032012.json",
      "TakeType": "Auto",
      "ID": 200032012,
      "FinishType": "Talk",
      "ParamType": "Equal",
      "ParamStr1": "Mission_200032012",
      "ParamItemList": [],
      "Progress": 1
    },
    {
      "MainMissionID": 2000320,
      "MissionJsonPath": "Config/Level/Mission/2000320/Mission_200032013.json",
      "TakeType": "Auto",
      "ID": 200032013,
      "FinishType": "Talk",
      "ParamType": "Equal",
      "ParamStr1": "Mission_200032013",
      "ParamItemList": [],
      "Progress": 1
    },
    {
      "MainMissionID": 2000320,
      "MissionJsonPath": "Config/Level/Mission/2000320/Mission_200032014.json",
      "TakeType": "Auto",
      "ID": 200032014,
      "FinishType": "Talk",
      "ParamType": "Equal",
      "ParamStr1": "Mission_200032014",
      "ParamItemList": [],
      "Progress": 1
    },
    {
      "MainMissionID": 2000320,
      "MissionJsonPath": "Config/Level/Mission/2000320/Mission_200032015.json",
      "TakeType": "Auto",
      "ID": 200032015,
      "FinishType": "Talk",
      "ParamType": "Equal",
      "ParamStr1": "Mission_200032015",
      "ParamItemList": [],
      "Progress": 1
    },
    {
      "MainMissionID": 2000320,
      "MissionJsonPath": "Config/Level/Mission/2000320/Mission_200032016.json",
      "TakeType": "Auto",
      "ID": 200032016,
      "FinishType": "Talk",
      "ParamType": "Equal",
      "ParamStr1": "Mission_200032016",
      "ParamItemList": [],
      "Progress": 1
    },
    {
      "MainMissionID": 2000320,
      "MissionJsonPath": "Config/Level/Mission/2000320/Mission_200032017.json",
      "TakeType": "Auto",
      "ID": 200032017,
      "FinishType": "Talk",
      "ParamType": "Equal",
      "ParamStr1": "Mission_200032017",
      "ParamItemList": [],
      "Progress": 1
    },
    {
      "MainMissionID": 2000320,
      "MissionJsonPath": "Config/Level/Mission/2000320/Mission_200032018.json",
      "TakeType": "Auto",
      "ID": 200032018,
      "FinishType": "Talk",
      "ParamType": "Equal",
      "ParamStr1": "Mission_200032018",
      "ParamItemList": [],
      "Progress": 1
    },
    {
      "MainMissionID": 2000320,
      "MissionJsonPath": "Config/Level/Mission/2000320/Mission_200032019.json",
      "TakeType": "Auto",
      "ID": 200032019,
      "FinishType": "Talk",
      "ParamType": "Equal",
      "ParamStr1": "Mission_200032019",
      "ParamItemList": [],
      "Progress": 1
    },
    {
      "MainMissionID": 2000320,
      "MissionJsonPath": "Config/Level/Mission/2000320/Mission_200032020.json",
      "TakeType": "Auto",
      "ID": 200032020,
      "FinishType": "Talk",
      "ParamType": "Equal",
      "ParamStr1": "Mission_200032020",
      "ParamItemList": [],
      "Progress": 1
    },
    {
      "MainMissionID": 2000320,
      "MissionJsonPath": "Config/Level/Mission/2000320/Mission_200032021.json",
      "TakeType": "Auto",
      "ID": 200032021,
      "FinishType": "Talk",
      "ParamType": "Equal",
      "ParamStr1": "Mission_200032021",
      "ParamItemList": [],
      "Progress": 1
    },
    {
      "MainMissionID": 2000320,
      "MissionJsonPath": "Config/Level/Mission/2000320/Mission_200032022.json",
      "TakeType": "Auto",
      "ID": 200032022,
      "FinishType": "Talk",
      "ParamType": "Equal",
      "ParamStr1": "Mission_200032022",
      "ParamItemList": [],
      "Progress": 1
    },
    {
      "MainMissionID": 2000320,
      "TakeType": "MultiSequence",
      "TakeParamIntList": [
        200032002
      ],
      "ID": 200032023,
      "FinishType": "SubMissionFinishCnt",
      "ParamType": "ListContain",
      "ParamIntList": [
        200032003,
        200032004,
        200032005,
        200032006,
        200032007,
        200032008,
        200032009,
        200032010,
        200032011,
        200032012,
        200032013,
        200032014,
        200032015,
        200032016,
        200032017,
        200032018,
        200032019,
        200032020,
        200032021,
        200032022
      ],
      "ParamItemList": [],
      "Progress": 20
    },
    {
      "MainMissionID": 2000320,
      "MissionJsonPath": "Config/Level/Mission/2000320/Mission_200032031.json",
      "TakeType": "Auto",
      "ID": 200032031,
      "FinishType": "Talk",
      "ParamType": "Equal",
      "ParamStr1": "Mission_200032031",
      "ParamItemList": [],
      "Progress": 1
    },
    {
      "MainMissionID": 2000320,
      "MissionJsonPath": "Config/Level/Mission/2000320/Mission_200032032.json",
      "TakeType": "Auto",
      "ID": 200032032,
      "FinishType": "Talk",
      "ParamType": "Equal",
      "ParamStr1": "Mission_200032032",
      "ParamItemList": [],
      "Progress": 1
    },
    {
      "MainMissionID": 2000320,
      "MissionJsonPath": "Config/Level/Mission/2000320/Mission_200032033.json",
      "TakeType": "Auto",
      "ID": 200032033,
      "FinishType": "Talk",
      "ParamType": "Equal",
      "ParamStr1": "Mission_200032033",
      "ParamItemList": [],
      "Progress": 1
    },
    {
      "MainMissionID": 2000320,
      "MissionJsonPath": "Config/Level/Mission/2000320/Mission_200032034.json",
      "TakeType": "Auto",
      "ID": 200032034,
      "FinishType": "Talk",
      "ParamType": "Equal",
      "ParamStr1": "Mission_200032034",
      "ParamItemList": [],
      "Progress": 1
    },
    {
      "MainMissionID": 2000320,
      "MissionJsonPath": "Config/Level/Mission/2000320/Mission_200032041.json",
      "TakeType": "AnySequence",
      "TakeParamIntList": [
        200032001
      ],
      "ID": 200032041,
      "FinishType": "Talk",
      "ParamType": "Equal",
      "ParamStr1": "Mission_200032041",
      "Progress": 1
    },
    {
      "MainMissionID": 2000320,
      "MissionJsonPath": "Config/Level/Mission/2000320/Mission_200032042.json",
      "TakeType": "AnySequence",
      "TakeParamIntList": [
        200032001
      ],
      "ID": 200032042,
      "FinishType": "Talk",
      "ParamType": "Equal",
      "ParamStr1": "Mission_200032042",
      "Progress": 1
    },
    {
      "MainMissionID": 2000320,
      "MissionJsonPath": "Config/Level/Mission/2000320/Mission_200032043.json",
      "TakeType": "AnySequence",
      "TakeParamIntList": [
        200032001
      ],
      "ID": 200032043,
      "FinishType": "Talk",
      "ParamType": "Equal",
      "ParamStr1": "Mission_200032043",
      "Progress": 1
    },
    {
      "MainMissionID": 2000320,
      "MissionJsonPath": "Config/Level/Mission/2000320/Mission_200032044.json",
      "TakeType": "AnySequence",
      "TakeParamIntList": [
        200032001
      ],
      "ID": 200032044,
      "FinishType": "Talk",
      "ParamType": "Equal",
      "ParamStr1": "Mission_200032044",
      "Progress": 1
    }
  ]
}