{
  "MainMissionID": 2000209,
  "StartSubMissionList": [
    200020901
  ],
  "FinishSubMissionList": [
    200020901
  ],
  "SubMissionList": [
    {
      "MainMissionID": 2000209,
      "MissionJsonPath": "Config/Level/Mission/2000209/Mission_200020901.json",
      "CustomValueReward": [],
      "TakeType": "Auto",
      "TakeParamIntList": [],
      "ID": 200020901,
      "FinishType": "Talk",
      "ParamType": "Equal",
      "ParamStr1": "Mission_200020901",
      "Progress": 1
    }
  ],
  "MissionCustomValueList": []
}