{
  "OnInitSequece": [],
  "OnStartSequece": [
    {
      "TaskList": [
        {
          "$type": "RPG.GameCore.WaitPerformanceEnd"
        },
        {
          "$type": "RPG.GameCore.FinishLevelGraph"
        }
      ]
    },
    {
      "TaskList": [
        {
          "$type": "RPG.GameCore.WaitCustomString",
          "CustomString": {
            "Value": "ALL_TALK_END"
          }
        },
        {
          "$type": "RPG.GameCore.EndPerformance"
        }
      ]
    },
    {
      "IsLoop": true,
      "TaskList": [
        {
          "$type": "RPG.GameCore.WaitCustomString",
          "CustomString": {
            "Value": "TalkSentence_501027225"
          }
        },
        {
          "$type": "RPG.GameCore.PlaySimpleTalk",
          "SimpleTalkList": [
            {
              "TalkSentenceID": 501027225,
              "ProtectTime": 0.3
            },
            {
              "TalkSentenceID": 501027226,
              "ProtectTime": 0.3
            }
          ]
        },
        {
          "$type": "RPG.GameCore.WaitSimpleTalkFinish"
        },
        {
          "$type": "RPG.GameCore.TriggerCustomString",
          "CustomString": {
            "Value": "Wait_Option_5010272_23"
          }
        }
      ]
    },
    {
      "IsLoop": true,
      "TaskList": [
        {
          "$type": "RPG.GameCore.WaitCustomString",
          "CustomString": {
            "Value": "TalkSentence_501027223"
          }
        },
        {
          "$type": "RPG.GameCore.PlaySimpleTalk",
          "SimpleTalkList": [
            {
              "TalkSentenceID": 501027223,
              "ProtectTime": 0.3
            }
          ]
        },
        {
          "$type": "RPG.GameCore.WaitSimpleTalkFinish"
        },
        {
          "$type": "RPG.GameCore.TriggerCustomString",
          "CustomString": {
            "Value": "Wait_Option_5010272_23"
          }
        }
      ]
    },
    {
      "TaskList": [
        {
          "$type": "RPG.GameCore.WaitCustomString",
          "CustomString": {
            "Value": "Wait_Option_5010272_35"
          }
        },
        {
          "$type": "RPG.GameCore.PlayOptionTalk",
          "OptionList": [
            {
              "TalkSentenceID": 501027221,
              "OptionIconType": "ChatContinueIcon",
              "TriggerCustomString": "TalkSentence_501027223"
            },
            {
              "TalkSentenceID": 501027222,
              "OptionIconType": "ChatContinueIcon",
              "TriggerCustomString": "TalkSentence_501027223"
            }
          ]
        }
      ]
    },
    {
      "IsLoop": true,
      "TaskList": [
        {
          "$type": "RPG.GameCore.WaitCustomString",
          "CustomString": {
            "Value": "TalkSentence_501027216"
          }
        },
        {
          "$type": "RPG.GameCore.PlaySimpleTalk",
          "SimpleTalkList": [
            {
              "TalkSentenceID": 501027216,
              "ProtectTime": 0.3
            },
            {
              "TalkSentenceID": 501027217,
              "ProtectTime": 0.3
            },
            {
              "TalkSentenceID": 501027218,
              "ProtectTime": 0.3
            },
            {
              "TalkSentenceID": 501027219,
              "ProtectTime": 0.3
            },
            {
              "TalkSentenceID": 501027220,
              "ProtectTime": 0.3
            }
          ]
        },
        {
          "$type": "RPG.GameCore.WaitSimpleTalkFinish"
        },
        {
          "$type": "RPG.GameCore.TriggerCustomString",
          "CustomString": {
            "Value": "Wait_Option_5010272_35"
          }
        }
      ]
    },
    {
      "TaskList": [
        {
          "$type": "RPG.GameCore.WaitCustomString",
          "CustomString": {
            "Value": "Wait_Option_5010272_27"
          }
        },
        {
          "$type": "RPG.GameCore.PlayOptionTalk",
          "OptionList": [
            {
              "TalkSentenceID": 501027215,
              "OptionIconType": "ChatContinueIcon",
              "TriggerCustomString": "TalkSentence_501027216"
            }
          ]
        }
      ]
    },
    {
      "IsLoop": true,
      "TaskList": [
        {
          "$type": "RPG.GameCore.WaitCustomString",
          "CustomString": {
            "Value": "TalkSentence_501027213"
          }
        },
        {
          "$type": "RPG.GameCore.PlaySimpleTalk",
          "SimpleTalkList": [
            {
              "TalkSentenceID": 501027213,
              "ProtectTime": 0.3
            },
            {
              "TalkSentenceID": 501027214,
              "ProtectTime": 0.3
            }
          ]
        },
        {
          "$type": "RPG.GameCore.WaitSimpleTalkFinish"
        },
        {
          "$type": "RPG.GameCore.TriggerCustomString",
          "CustomString": {
            "Value": "Wait_Option_5010272_27"
          }
        }
      ]
    },
    {
      "IsLoop": true,
      "TaskList": [
        {
          "$type": "RPG.GameCore.WaitCustomString",
          "CustomString": {
            "Value": "Wait_Option_5010272_23"
          }
        },
        {
          "$type": "RPG.GameCore.PlayOptionTalk",
          "OptionList": [
            {
              "TalkSentenceID": 501027212,
              "OptionIconType": "ChatLoopIcon",
              "TriggerCustomString": "TalkSentence_501027213"
            },
            {
              "TalkSentenceID": 501027224,
              "OptionIconType": "ChatLoopIcon",
              "TriggerCustomString": "TalkSentence_501027225"
            },
            {
              "TalkSentenceID": 501027227,
              "OptionIconType": "ChatOutIcon",
              "TriggerCustomString": "ALL_TALK_END"
            }
          ],
          "HideSelected": true
        }
      ]
    },
    {
      "TaskList": [
        {
          "$type": "RPG.GameCore.WaitCustomString",
          "CustomString": {
            "Value": "Wait_Option_5010272_20"
          }
        },
        {
          "$type": "RPG.GameCore.PlayOptionTalk",
          "OptionList": [
            {
              "TalkSentenceID": 501027211,
              "OptionIconType": "ChatContinueIcon",
              "TriggerCustomString": "Wait_Option_5010272_23"
            }
          ]
        }
      ]
    },
    {
      "TaskList": [
        {
          "$type": "RPG.GameCore.WaitCustomString",
          "CustomString": {
            "Value": "TalkSentence_501027208"
          }
        },
        {
          "$type": "RPG.GameCore.PlaySimpleTalk",
          "SimpleTalkList": [
            {
              "TalkSentenceID": 501027208,
              "ProtectTime": 0.3
            },
            {
              "TalkSentenceID": 501027209,
              "ProtectTime": 0.3
            },
            {
              "TalkSentenceID": 501027210,
              "ProtectTime": 0.3
            }
          ]
        },
        {
          "$type": "RPG.GameCore.WaitSimpleTalkFinish"
        },
        {
          "$type": "RPG.GameCore.EndPerformance"
        }
      ]
    },
    {
      "TaskList": [
        {
          "$type": "RPG.GameCore.WaitCustomString",
          "CustomString": {
            "Value": "Wait_Option_5010272_13"
          }
        },
        {
          "$type": "RPG.GameCore.PlayOptionTalk",
          "OptionList": [
            {
              "TalkSentenceID": 501027206,
              "OptionIconType": "ChatContinueIcon",
              "TriggerCustomString": "TalkSentence_501027208"
            },
            {
              "TalkSentenceID": 501027207,
              "OptionIconType": "ChatContinueIcon",
              "TriggerCustomString": "TalkSentence_501027208"
            }
          ]
        }
      ]
    },
    {
      "TaskList": [
        {
          "$type": "RPG.GameCore.WaitCustomString",
          "CustomString": {
            "Value": "TalkSentence_501027203"
          }
        },
        {
          "$type": "RPG.GameCore.PlaySimpleTalk",
          "SimpleTalkList": [
            {
              "TalkSentenceID": 501027203,
              "ProtectTime": 0.3
            },
            {
              "TalkSentenceID": 501027204,
              "ProtectTime": 0.3
            }
          ]
        },
        {
          "$type": "RPG.GameCore.WaitSimpleTalkFinish"
        },
        {
          "$type": "RPG.GameCore.TriggerCustomString",
          "CustomString": {
            "Value": "Wait_Option_5010272_13"
          }
        }
      ]
    },
    {
      "TaskList": [
        {
          "$type": "RPG.GameCore.WaitCustomString",
          "CustomString": {
            "Value": "Wait_Option_5010272_7"
          }
        },
        {
          "$type": "RPG.GameCore.PlayOptionTalk",
          "OptionList": [
            {
              "TalkSentenceID": 501027202,
              "OptionIconType": "ChatContinueIcon",
              "TriggerCustomString": "TalkSentence_501027203"
            }
          ]
        }
      ]
    },
    {
      "TaskList": [
        {
          "$type": "RPG.GameCore.WaitCustomString",
          "CustomString": {
            "Value": "TalkSentence_501027201"
          }
        },
        {
          "$type": "RPG.GameCore.PlaySimpleTalk",
          "SimpleTalkList": [
            {
              "TalkSentenceID": 501027201,
              "ProtectTime": 0.3
            }
          ]
        },
        {
          "$type": "RPG.GameCore.WaitSimpleTalkFinish"
        },
        {
          "$type": "RPG.GameCore.TriggerCustomString",
          "CustomString": {
            "Value": "Wait_Option_5010272_7"
          }
        }
      ]
    },
    {
      "TaskList": [
        {
          "$type": "RPG.GameCore.LevelPerformanceInitialize",
          "PerformanceType": "E",
          "CreateCharacterList": [],
          "EntityVisiableList": [],
          "MarkStreamingItems": []
        },
        {
          "$type": "RPG.GameCore.AdvNpcFaceToPlayer",
          "GroupID": 15,
          "GroupNpcID": 400004,
          "FinishImmadiate": true
        },
        {
          "$type": "RPG.GameCore.TriggerCustomString",
          "CustomString": {
            "Value": "TalkSentence_501027201"
          }
        }
      ]
    }
  ]
}