{
  "OnInitSequece": [],
  "OnStartSequece": [
    {
      "TaskList": [
        {
          "$type": "RPG.GameCore.PropStateChangeListenerConfig",
          "ToState": "Open",
          "OnChange": [
            {
              "$type": "RPG.GameCore.TriggerCustomString",
              "CustomString": {
                "Custom": true,
                "Key": "Mission_Str"
              }
            }
          ],
          "TargetType": {
            "$type": "RPG.GameCore.TargetFetchAdvPropEx"
          }
        }
      ]
    },
    {
      "TaskList": [
        {
          "$type": "RPG.GameCore.WaitCustomString",
          "CustomString": {
            "Custom": true,
            "Key": "Mission_Str"
          }
        },
        {
          "$type": "RPG.GameCore.LevelPerformanceInitialize",
          "PerformanceType": "E",
          "LockCamera": false,
          "CreateCharacterList": [],
          "EntityVisiableList": [],
          "HideMunicipalCrowd": false,
          "HideMunicipalPedestrian": false,
          "HideMunicipalOther": false,
          "PropVisiableList": [],
          "StreamingCentersInBlackMask": [],
          "StreamingCentersAfterBlackMask": [],
          "MarkStreamingItems": []
        },
        {
          "$type": "RPG.GameCore.PlaySimpleTalk",
          "SimpleTalkList": [
            {
              "TextSpeed": 60,
              "TalkSentenceID": 407132030,
              "ProtectTime": 0.3
            }
          ]
        },
        {
          "$type": "RPG.GameCore.WaitSimpleTalkFinish"
        },
        {
          "$type": "RPG.GameCore.PlayOptionTalk",
          "OptionList": [
            {
              "TalkSentenceID": 407132031,
              "OptionIconType": "ChatOutIcon",
              "TriggerCustomString": "BackToNPC"
            }
          ]
        }
      ]
    },
    {
      "TaskList": [
        {
          "$type": "RPG.GameCore.WaitCustomString",
          "CustomString": {
            "Value": "BackToNPC"
          }
        },
        {
          "$type": "RPG.GameCore.PerformanceTransition",
          "SwitchInTime": 1,
          "SwitchKeepTime": 2,
          "SwitchOutTime": 1,
          "CreateNpcList": [
            {
              "CreateList": []
            }
          ],
          "CaptureNpcList": [],
          "DestroyNpcList": [],
          "ActiveVirtualCamera": {
            "IsActive": false,
            "TaskEnabled": false
          },
          "SwitchCharacterAnchor": {
            "IsLocalPlayer": true,
            "CharacterUniqueName": "LocalPlayer",
            "AreaName": {
              "Custom": true,
              "Key": "BackToLevel"
            },
            "AnchorName": {
              "Custom": true,
              "Key": "BackToAnchor"
            }
          }
        },
        {
          "$type": "RPG.GameCore.EndPerformance"
        }
      ]
    }
  ],
  "ValueSource": {
    "Values": [
      {
        "$type": "RPG.GameCore.SharedString",
        "Key": "Mission_Str"
      },
      {
        "$type": "RPG.GameCore.SharedString",
        "Key": "BackToLevel"
      },
      {
        "$type": "RPG.GameCore.SharedString",
        "Key": "BackToAnchor"
      },
      {
        "$type": "RPG.GameCore.SharedString",
        "Key": "BackToNPC",
        "EditorHint": "LevelObject"
      }
    ]
  }
}