{
  "AIName": "Monster_Common_SequenceThree",
  "VariableList": [
    {
      "$type": "RPG.GameCore.AIVariableString",
      "Value": "Common_SequenceThree_Phase01",
      "Name": "CurrentPhase"
    },
    {
      "$type": "RPG.GameCore.AIVariableBool",
      "Value": true,
      "Name": "ForbidClearSkillUseRecord"
    }
  ],
  "DecisionList": [
    {
      "$type": "RPG.GameCore.AIDecisionConfig",
      "DecisionName": "UseSkill01",
      "ScoreEvaluatorType": "DefaultDSE",
      "ConsiderAxisList": [
        {
          "$type": "RPG.GameCore.ComplexSkillAIAxis"
        }
      ],
      "RootTask": {
        "$type": "RPG.GameCore.UseSkillByComplexSkillAI"
      }
    }
  ]
}