{
  "AIName": "Monster_W1_CWSoldier_01",
  "VariableList": [
    {
      "$type": "RPG.GameCore.AIVariableString",
      "Value": "DG_010_Phase01",
      "Name": "CurrentPhase"
    },
    {
      "$type": "RPG.GameCore.AIVariableBool",
      "Value": true,
      "Name": "ForbidClearSkillUseRecord"
    }
  ],
  "DecisionList": [
    {
      "$type": "RPG.GameCore.AIDecisionConfig",
      "DecisionName": "UseSkill02",
      "ScoreEvaluatorType": "DefaultDSE",
      "Weight": {
        "Value": 0.9000000008381903
      },
      "ConsiderAxisList": [
        {
          "$type": "RPG.GameCore.CheckSkillUsabilityAxis",
          "SkillName": "Skill02",
          "InitialCD": 1,
          "CD": 0,
          "CheckScore": {
            "Value": 1
          }
        }
      ],
      "RootTask": {
        "$type": "RPG.GameCore.SequenceConfig",
        "TaskList": [
          {
            "$type": "RPG.GameCore.SelectAISkillTarget",
            "SkillName": "Skill02",
            "Selector": {
              "$type": "RPG.GameCore.AIComposeSelector",
              "SelectorList": [
                {
                  "$type": "RPG.GameCore.AITaskTargetTypeSelector",
                  "TargetType": {
                    "$type": "RPG.GameCore.TargetAlias",
                    "Alias": "AllTeammate"
                  }
                },
                {
                  "$type": "RPG.GameCore.AIMonsterIDSelector",
                  "MonsterIDList": [
                    1002020
                  ],
                  "InverseResultFlag": true
                }
              ]
            }
          },
          {
            "$type": "RPG.GameCore.UseSkill",
            "SkillName": "Skill02"
          }
        ]
      }
    }
  ]
}