{
  "AIName": "Monster_XP_Minion03_00",
  "VariableList": [
    {
      "$type": "RPG.GameCore.AIVariableString",
      "Value": "DG_010_Phase01",
      "Name": "CurrentPhase"
    },
    {
      "$type": "RPG.GameCore.AIVariableBool",
      "Value": true,
      "Name": "ForbidClearSkillUseRecord"
    }
  ],
  "DecisionList": [
    {
      "$type": "RPG.GameCore.AIDecisionConfig",
      "DecisionName": "Decision01",
      "ScoreEvaluatorType": "DefaultDSE",
      "Weight": {
        "Value": 0.5000000004656613
      },
      "ConsiderAxisList": [
        {
          "$type": "RPG.GameCore.CheckPredicateAxis",
          "Predicate": {
            "$type": "RPG.GameCore.ByCompareDynamicValue",
            "TargetType": {
              "$type": "RPG.GameCore.TargetAlias",
              "Alias": "Caster"
            },
            "DynamicKey": "Monster_XP_Minion03_00_AIFlag",
            "ContextScope": "TargetEntity",
            "CompareType": "Equal",
            "CompareValue": {
              "IsDynamic": false,
              "FixedValue": {
                "Value": 1
              }
            }
          },
          "SuccessScore": {
            "Value": 0.5000000004656613
          }
        }
      ],
      "RootTask": {
        "$type": "RPG.GameCore.SequenceConfig",
        "TaskList": [
          {
            "$type": "RPG.GameCore.DefineDynamicValue",
            "TargetType": {
              "$type": "RPG.GameCore.TargetAlias",
              "Alias": "Caster"
            },
            "DynamicKey": "Monster_XP_Minion03_00_AIFlag",
            "ResetValue": {
              "IsDynamic": false,
              "FixedValue": {
                "Value": 2
              }
            },
            "ContextScope": "TargetEntity"
          },
          {
            "$type": "RPG.GameCore.PredicateTaskList",
            "Predicate": {
              "$type": "RPG.GameCore.ByCompareCharacterNumber",
              "TargetType": {
                "$type": "RPG.GameCore.TargetAlias",
                "Alias": "AllTeamMember"
              },
              "CompareType": "LessEqual",
              "CompareNumber": {
                "IsDynamic": false,
                "FixedValue": {
                  "Value": 1
                }
              }
            },
            "SuccessTaskList": [
              {
                "$type": "RPG.GameCore.UseSkill",
                "SkillName": "Skill01"
              }
            ],
            "FailedTaskList": [
              {
                "$type": "RPG.GameCore.UseSkill",
                "SkillName": "Skill02"
              }
            ]
          }
        ]
      }
    },
    {
      "$type": "RPG.GameCore.AIDecisionConfig",
      "DecisionName": "Decision02",
      "ScoreEvaluatorType": "DefaultDSE",
      "Weight": {
        "Value": 0.5000000004656613
      },
      "ConsiderAxisList": [
        {
          "$type": "RPG.GameCore.CheckPredicateAxis",
          "Predicate": {
            "$type": "RPG.GameCore.ByCompareDynamicValue",
            "TargetType": {
              "$type": "RPG.GameCore.TargetAlias",
              "Alias": "Caster"
            },
            "DynamicKey": "Monster_XP_Minion03_00_AIFlag",
            "ContextScope": "TargetEntity",
            "CompareType": "Equal",
            "CompareValue": {
              "IsDynamic": false,
              "FixedValue": {
                "Value": 2
              }
            }
          },
          "SuccessScore": {
            "Value": 0.5000000004656613
          }
        }
      ],
      "RootTask": {
        "$type": "RPG.GameCore.SequenceConfig",
        "TaskList": [
          {
            "$type": "RPG.GameCore.DefineDynamicValue",
            "TargetType": {
              "$type": "RPG.GameCore.TargetAlias",
              "Alias": "Caster"
            },
            "DynamicKey": "Monster_XP_Minion03_00_AIFlag",
            "ResetValue": {
              "IsDynamic": false,
              "FixedValue": {
                "Value": 1
              }
            },
            "ContextScope": "TargetEntity"
          },
          {
            "$type": "RPG.GameCore.UseSkill",
            "SkillName": "Skill01"
          }
        ]
      }
    }
  ]
}