{
  "AIName": "Monster_Gepard_00",
  "VariableList": [
    {
      "$type": "RPG.GameCore.AIVariableString",
      "Value": "RO_015_Phase01",
      "Name": "CurrentPhase"
    },
    {
      "$type": "RPG.GameCore.AIVariableBool",
      "Value": true,
      "Name": "ForbidClearSkillUseRecord"
    }
  ],
  "DecisionList": [
    {
      "$type": "RPG.GameCore.AIDecisionConfig",
      "DecisionName": "UseSkill01",
      "ScoreEvaluatorType": "DefaultDSE",
      "ConsiderAxisList": [
        {
          "$type": "RPG.GameCore.CheckPredicateAxis",
          "Predicate": {
            "$type": "RPG.GameCore.ByAny",
            "PredicateList": [
              {
                "$type": "RPG.GameCore.ByCompareDynamicValue",
                "TargetType": {
                  "$type": "RPG.GameCore.TargetAlias",
                  "Alias": "Caster"
                },
                "DynamicKey": "Gepard_AICounter",
                "ContextScope": "TargetEntity",
                "CompareType": "Equal",
                "CompareValue": {
                  "IsDynamic": false,
                  "FixedValue": {
                    "Value": 1
                  }
                }
              },
              {
                "$type": "RPG.GameCore.ByCompareDynamicValue",
                "TargetType": {
                  "$type": "RPG.GameCore.TargetAlias",
                  "Alias": "Caster"
                },
                "DynamicKey": "Gepard_AICounter",
                "ContextScope": "TargetEntity",
                "CompareType": "Equal",
                "CompareValue": {
                  "IsDynamic": false,
                  "FixedValue": {
                    "Value": 2
                  }
                }
              }
            ]
          },
          "SuccessScore": {
            "Value": 0.5000000004656613
          }
        }
      ],
      "RootTask": {
        "$type": "RPG.GameCore.SequenceConfig",
        "TaskList": [
          {
            "$type": "RPG.GameCore.SetDynamicValueByAddValue",
            "TargetType": {
              "$type": "RPG.GameCore.TargetAlias",
              "Alias": "Caster"
            },
            "Key": "Gepard_AICounter",
            "AddValue": {
              "IsDynamic": false,
              "FixedValue": {
                "Value": 1
              }
            },
            "Min": {
              "IsDynamic": false,
              "FixedValue": {
                "Value": 1
              }
            },
            "Max": {
              "IsDynamic": false,
              "FixedValue": {
                "Value": 6
              }
            },
            "ContextScope": "TargetEntity"
          },
          {
            "$type": "RPG.GameCore.SelectAISkillTarget",
            "SkillName": "Skill01",
            "Selector": {
              "$type": "RPG.GameCore.AIModifierNameSelector",
              "ModifierName": "Monster_Gepard_Attack_Sign"
            }
          },
          {
            "$type": "RPG.GameCore.UseSkill",
            "SkillName": "Skill01"
          }
        ]
      }
    },
    {
      "$type": "RPG.GameCore.AIDecisionConfig",
      "DecisionName": "UseSkill03",
      "ScoreEvaluatorType": "DefaultDSE",
      "ConsiderAxisList": [
        {
          "$type": "RPG.GameCore.CheckPredicateAxis",
          "Predicate": {
            "$type": "RPG.GameCore.ByAnd",
            "PredicateList": [
              {
                "$type": "RPG.GameCore.ByCompareDynamicValue",
                "TargetType": {
                  "$type": "RPG.GameCore.TargetAlias",
                  "Alias": "Caster"
                },
                "DynamicKey": "Gepard_AICounter",
                "ContextScope": "TargetEntity",
                "CompareType": "Equal",
                "CompareValue": {
                  "IsDynamic": false,
                  "FixedValue": {
                    "Value": 4
                  }
                }
              }
            ]
          },
          "SuccessScore": {
            "Value": 0.5000000004656613
          }
        }
      ],
      "RootTask": {
        "$type": "RPG.GameCore.SequenceConfig",
        "TaskList": [
          {
            "$type": "RPG.GameCore.DefineDynamicValue",
            "TargetType": {
              "$type": "RPG.GameCore.TargetAlias",
              "Alias": "Caster"
            },
            "DynamicKey": "Gepard_AICounter",
            "ResetValue": {
              "IsDynamic": false,
              "FixedValue": {
                "Value": 5
              }
            },
            "ContextScope": "TargetEntity"
          },
          {
            "$type": "RPG.GameCore.UseSkill",
            "SkillName": "Skill03"
          }
        ]
      }
    },
    {
      "$type": "RPG.GameCore.AIDecisionConfig",
      "DecisionName": "UseSkill12",
      "ScoreEvaluatorType": "DefaultDSE",
      "ConsiderAxisList": [
        {
          "$type": "RPG.GameCore.CheckPredicateAxis",
          "Predicate": {
            "$type": "RPG.GameCore.ByCompareDynamicValue",
            "TargetType": {
              "$type": "RPG.GameCore.TargetAlias",
              "Alias": "Caster"
            },
            "DynamicKey": "Gepard_AICounter",
            "ContextScope": "TargetEntity",
            "CompareType": "Equal",
            "CompareValue": {
              "IsDynamic": false,
              "FixedValue": {
                "Value": 3
              }
            }
          },
          "SuccessScore": {
            "Value": 0.5000000004656613
          }
        }
      ],
      "RootTask": {
        "$type": "RPG.GameCore.SequenceConfig",
        "TaskList": [
          {
            "$type": "RPG.GameCore.DefineDynamicValue",
            "TargetType": {
              "$type": "RPG.GameCore.TargetAlias",
              "Alias": "Caster"
            },
            "DynamicKey": "Gepard_AICounter",
            "ResetValue": {
              "IsDynamic": false,
              "FixedValue": {
                "Value": 4
              }
            },
            "ContextScope": "TargetEntity"
          },
          {
            "$type": "RPG.GameCore.UseSkill",
            "SkillName": "Skill12"
          }
        ]
      }
    },
    {
      "$type": "RPG.GameCore.AIDecisionConfig",
      "DecisionName": "UseSkill02",
      "ScoreEvaluatorType": "DefaultDSE",
      "ConsiderAxisList": [
        {
          "$type": "RPG.GameCore.CheckPredicateAxis",
          "Predicate": {
            "$type": "RPG.GameCore.ByAny",
            "PredicateList": [
              {
                "$type": "RPG.GameCore.ByCompareDynamicValue",
                "TargetType": {
                  "$type": "RPG.GameCore.TargetAlias",
                  "Alias": "Caster"
                },
                "DynamicKey": "Gepard_AICounter",
                "ContextScope": "TargetEntity",
                "CompareType": "Equal",
                "CompareValue": {
                  "IsDynamic": false,
                  "FixedValue": {
                    "Value": 5
                  }
                }
              },
              {
                "$type": "RPG.GameCore.ByCompareDynamicValue",
                "TargetType": {
                  "$type": "RPG.GameCore.TargetAlias",
                  "Alias": "Caster"
                },
                "DynamicKey": "Gepard_AICounter",
                "ContextScope": "TargetEntity",
                "CompareType": "Equal",
                "CompareValue": {
                  "IsDynamic": false,
                  "FixedValue": {
                    "Value": 6
                  }
                }
              }
            ]
          },
          "SuccessScore": {
            "Value": 0.5000000004656613
          }
        }
      ],
      "RootTask": {
        "$type": "RPG.GameCore.SequenceConfig",
        "TaskList": [
          {
            "$type": "RPG.GameCore.PredicateTaskList",
            "Predicate": {
              "$type": "RPG.GameCore.ByCompareDynamicValue",
              "TargetType": {
                "$type": "RPG.GameCore.TargetAlias",
                "Alias": "Caster"
              },
              "DynamicKey": "Gepard_AICounter",
              "ContextScope": "TargetEntity",
              "CompareType": "Equal",
              "CompareValue": {
                "IsDynamic": false,
                "FixedValue": {
                  "Value": 5
                }
              }
            },
            "SuccessTaskList": [
              {
                "$type": "RPG.GameCore.DefineDynamicValue",
                "TargetType": {
                  "$type": "RPG.GameCore.TargetAlias",
                  "Alias": "Caster"
                },
                "DynamicKey": "Gepard_AICounter",
                "ResetValue": {
                  "IsDynamic": false,
                  "FixedValue": {
                    "Value": 6
                  }
                },
                "ContextScope": "TargetEntity"
              }
            ],
            "FailedTaskList": [
              {
                "$type": "RPG.GameCore.DefineDynamicValue",
                "TargetType": {
                  "$type": "RPG.GameCore.TargetAlias",
                  "Alias": "Caster"
                },
                "DynamicKey": "Gepard_AICounter",
                "ResetValue": {
                  "IsDynamic": false,
                  "FixedValue": {
                    "Value": 1
                  }
                },
                "ContextScope": "TargetEntity"
              }
            ]
          },
          {
            "$type": "RPG.GameCore.SelectAISkillTarget",
            "SkillName": "Skill02",
            "Selector": {
              "$type": "RPG.GameCore.AIModifierNameSelector",
              "ModifierName": "Monster_Gepard_Attack_Sign"
            }
          },
          {
            "$type": "RPG.GameCore.UseSkill",
            "SkillName": "Skill02"
          }
        ]
      }
    },
    {
      "$type": "RPG.GameCore.AIDecisionConfig",
      "DecisionName": "UseSkill04",
      "ScoreEvaluatorType": "DefaultDSE",
      "ConsiderAxisList": [
        {
          "$type": "RPG.GameCore.CheckPredicateAxis",
          "Predicate": {
            "$type": "RPG.GameCore.ByIsContainModifier",
            "TargetType": {
              "$type": "RPG.GameCore.TargetAlias",
              "Alias": "Caster"
            },
            "ModifierName": "MMonster_W1_Gepard_00_M0SpecialVictory"
          },
          "SuccessScore": {
            "Value": 0.7000000006519258
          }
        }
      ],
      "RootTask": {
        "$type": "RPG.GameCore.SequenceConfig",
        "TaskList": [
          {
            "$type": "RPG.GameCore.UseSkill",
            "SkillName": "Skill04"
          }
        ]
      }
    }
  ]
}