{
  "AIName": "Monster_XP_Minion04_01",
  "VariableList": [
    {
      "$type": "RPG.GameCore.AIVariableString",
      "Value": "DG_010_Phase01",
      "Name": "CurrentPhase"
    },
    {
      "$type": "RPG.GameCore.AIVariableBool",
      "Value": true,
      "Name": "ForbidClearSkillUseRecord"
    }
  ],
  "DecisionList": [
    {
      "$type": "RPG.GameCore.AIDecisionConfig",
      "DecisionName": "UseSkill01",
      "ScoreEvaluatorType": "DefaultDSE",
      "ConsiderAxisList": [
        {
          "$type": "RPG.GameCore.CheckSkillUsabilityAxis",
          "SkillName": "Skill01",
          "InitialCD": 1,
          "CD": 1,
          "CheckScore": {
            "Value": 0.10000000009313226
          }
        }
      ],
      "RootTask": {
        "$type": "RPG.GameCore.SequenceConfig",
        "TaskList": [
          {
            "$type": "RPG.GameCore.UseSkill",
            "SkillName": "Skill01"
          }
        ]
      }
    },
    {
      "$type": "RPG.GameCore.AIDecisionConfig",
      "DecisionName": "UseSkill02",
      "ScoreEvaluatorType": "DefaultDSE",
      "ConsiderAxisList": [
        {
          "$type": "RPG.GameCore.CheckPredicateAxis",
          "Predicate": {
            "$type": "RPG.GameCore.ByIsContainModifier",
            "TargetType": {
              "$type": "RPG.GameCore.TargetAlias",
              "Alias": "Caster"
            },
            "ModifierName": "MMonster_XP_Minion04_01_EscapingCharge01"
          },
          "SuccessScore": {
            "Value": 1
          }
        }
      ],
      "RootTask": {
        "$type": "RPG.GameCore.SequenceConfig",
        "TaskList": [
          {
            "$type": "RPG.GameCore.UseSkill",
            "SkillName": "Skill02"
          }
        ]
      }
    },
    {
      "$type": "RPG.GameCore.AIDecisionConfig",
      "DecisionName": "UseSkill03",
      "ScoreEvaluatorType": "DefaultDSE",
      "ConsiderAxisList": [
        {
          "$type": "RPG.GameCore.CheckPredicateAxis",
          "Predicate": {
            "$type": "RPG.GameCore.ByIsContainModifier",
            "TargetType": {
              "$type": "RPG.GameCore.TargetAlias",
              "Alias": "Caster"
            },
            "ModifierName": "MMonster_XP_Minion04_01_EscapingCharge02"
          },
          "SuccessScore": {
            "Value": 1
          }
        }
      ],
      "RootTask": {
        "$type": "RPG.GameCore.SequenceConfig",
        "TaskList": [
          {
            "$type": "RPG.GameCore.UseSkill",
            "SkillName": "Skill03"
          }
        ]
      }
    }
  ]
}