{
  "AIName": "Monster_XP_Elite02_00",
  "VariableList": [
    {
      "$type": "RPG.GameCore.AIVariableString",
      "Value": "XP_Elite02_00_Phase01",
      "Name": "CurrentPhase"
    },
    {
      "$type": "RPG.GameCore.AIVariableBool",
      "Value": true,
      "Name": "ForbidClearSkillUseRecord"
    }
  ],
  "DecisionList": [
    {
      "$type": "RPG.GameCore.AIDecisionConfig",
      "DecisionName": "UseSkill01",
      "ScoreEvaluatorType": "DefaultDSE",
      "Weight": {
        "Value": 0.5000000004656613
      },
      "ConsiderAxisList": [
        {
          "$type": "RPG.GameCore.CheckPredicateAxis",
          "Predicate": {
            "$type": "RPG.GameCore.ByCompareDynamicValue",
            "TargetType": {
              "$type": "RPG.GameCore.TargetAlias",
              "Alias": "Caster"
            },
            "DynamicKey": "Monster_XP_Elite02_00_AIFlag",
            "ContextScope": "TargetEntity",
            "CompareType": "Equal",
            "CompareValue": {
              "IsDynamic": false,
              "FixedValue": {
                "Value": 1
              }
            }
          },
          "SuccessScore": {
            "Value": 0.5000000004656613
          }
        }
      ],
      "RootTask": {
        "$type": "RPG.GameCore.SequenceConfig",
        "TaskList": [
          {
            "$type": "RPG.GameCore.DefineDynamicValue",
            "TargetType": {
              "$type": "RPG.GameCore.TargetAlias",
              "Alias": "Caster"
            },
            "DynamicKey": "Monster_XP_Elite02_00_AIFlag",
            "ResetValue": {
              "IsDynamic": false,
              "FixedValue": {
                "Value": 2
              }
            },
            "ContextScope": "TargetEntity"
          },
          {
            "$type": "RPG.GameCore.UseSkill",
            "SkillName": "Skill01"
          }
        ]
      }
    },
    {
      "$type": "RPG.GameCore.AIDecisionConfig",
      "DecisionName": "UseSkill03",
      "ScoreEvaluatorType": "DefaultDSE",
      "ConsiderAxisList": [
        {
          "$type": "RPG.GameCore.CheckPredicateAxis",
          "Predicate": {
            "$type": "RPG.GameCore.ByCompareDynamicValue",
            "TargetType": {
              "$type": "RPG.GameCore.TargetAlias",
              "Alias": "Caster"
            },
            "DynamicKey": "Monster_XP_Elite02_00_AIFlag",
            "ContextScope": "TargetEntity",
            "CompareType": "Equal",
            "CompareValue": {
              "IsDynamic": false,
              "FixedValue": {
                "Value": 2
              }
            }
          },
          "SuccessScore": {
            "Value": 0.5000000004656613
          }
        }
      ],
      "RootTask": {
        "$type": "RPG.GameCore.SequenceConfig",
        "TaskList": [
          {
            "$type": "RPG.GameCore.PredicateTaskList",
            "Predicate": {
              "$type": "RPG.GameCore.ByCompareCharacterNumber",
              "TargetType": {
                "$type": "RPG.GameCore.TargetAlias",
                "Alias": "AllEnemy"
              },
              "Predicate": {
                "$type": "RPG.GameCore.ByIsContainModifier",
                "TargetType": {
                  "$type": "RPG.GameCore.TargetAlias",
                  "Alias": "ParamEntity"
                },
                "ModifierName": "Monster_XP_Elite02_00_Edict01"
              },
              "CompareType": "Greater",
              "CompareNumber": {
                "IsDynamic": false,
                "FixedValue": {
                  "Value": 0
                }
              }
            },
            "SuccessTaskList": [
              {
                "$type": "RPG.GameCore.DefineDynamicValue",
                "TargetType": {
                  "$type": "RPG.GameCore.TargetAlias",
                  "Alias": "Caster"
                },
                "DynamicKey": "Monster_XP_Elite02_00_AIFlag",
                "ResetValue": {
                  "IsDynamic": false,
                  "FixedValue": {
                    "Value": 3
                  }
                },
                "ContextScope": "TargetEntity"
              },
              {
                "$type": "RPG.GameCore.UseSkill",
                "SkillName": "Skill02"
              }
            ],
            "FailedTaskList": [
              {
                "$type": "RPG.GameCore.PredicateTaskList",
                "Predicate": {
                  "$type": "RPG.GameCore.ByCompareCharacterNumber",
                  "TargetType": {
                    "$type": "RPG.GameCore.TargetAlias",
                    "Alias": "AllEnemy"
                  },
                  "Predicate": {
                    "$type": "RPG.GameCore.ByIsContainModifier",
                    "TargetType": {
                      "$type": "RPG.GameCore.TargetAlias",
                      "Alias": "ParamEntity"
                    },
                    "ModifierName": "Monster_XP_Elite02_00_Edict02"
                  },
                  "CompareType": "Greater",
                  "CompareNumber": {
                    "IsDynamic": false,
                    "FixedValue": {
                      "Value": 0
                    }
                  }
                },
                "SuccessTaskList": [
                  {
                    "$type": "RPG.GameCore.DefineDynamicValue",
                    "TargetType": {
                      "$type": "RPG.GameCore.TargetAlias",
                      "Alias": "Caster"
                    },
                    "DynamicKey": "Monster_XP_Elite02_00_AIFlag",
                    "ResetValue": {
                      "IsDynamic": false,
                      "FixedValue": {
                        "Value": 3
                      }
                    },
                    "ContextScope": "TargetEntity"
                  },
                  {
                    "$type": "RPG.GameCore.UseSkill",
                    "SkillName": "Skill02"
                  }
                ],
                "FailedTaskList": [
                  {
                    "$type": "RPG.GameCore.PredicateTaskList",
                    "Predicate": {
                      "$type": "RPG.GameCore.ByCompareCharacterNumber",
                      "TargetType": {
                        "$type": "RPG.GameCore.TargetAlias",
                        "Alias": "AllEnemy"
                      },
                      "Predicate": {
                        "$type": "RPG.GameCore.ByIsContainModifier",
                        "TargetType": {
                          "$type": "RPG.GameCore.TargetAlias",
                          "Alias": "ParamEntity"
                        },
                        "ModifierName": "Monster_XP_Elite02_00_Edict03"
                      },
                      "CompareType": "Greater",
                      "CompareNumber": {
                        "IsDynamic": false,
                        "FixedValue": {
                          "Value": 0
                        }
                      }
                    },
                    "SuccessTaskList": [
                      {
                        "$type": "RPG.GameCore.DefineDynamicValue",
                        "TargetType": {
                          "$type": "RPG.GameCore.TargetAlias",
                          "Alias": "Caster"
                        },
                        "DynamicKey": "Monster_XP_Elite02_00_AIFlag",
                        "ResetValue": {
                          "IsDynamic": false,
                          "FixedValue": {
                            "Value": 3
                          }
                        },
                        "ContextScope": "TargetEntity"
                      },
                      {
                        "$type": "RPG.GameCore.UseSkill",
                        "SkillName": "Skill02"
                      }
                    ],
                    "FailedTaskList": [
                      {
                        "$type": "RPG.GameCore.PredicateTaskList",
                        "Predicate": {
                          "$type": "RPG.GameCore.ByIsContainModifier",
                          "TargetType": {
                            "$type": "RPG.GameCore.TargetAlias",
                            "Alias": "Caster"
                          },
                          "ModifierName": "OneMore"
                        },
                        "SuccessTaskList": [
                          {
                            "$type": "RPG.GameCore.PredicateTaskList",
                            "Predicate": {
                              "$type": "RPG.GameCore.ByCompareCharacterNumber",
                              "TargetType": {
                                "$type": "RPG.GameCore.TargetAlias",
                                "Alias": "AllTeamMember"
                              },
                              "CompareType": "LessEqual",
                              "CompareNumber": {
                                "IsDynamic": false,
                                "FixedValue": {
                                  "Value": 1
                                }
                              }
                            },
                            "SuccessTaskList": [
                              {
                                "$type": "RPG.GameCore.PredicateTaskList",
                                "Predicate": {
                                  "$type": "RPG.GameCore.ByCompareBP",
                                  "CompareType": "LessEqual",
                                  "CompareValue": {
                                    "IsDynamic": false,
                                    "FixedValue": {
                                      "Value": 2
                                    }
                                  }
                                },
                                "SuccessTaskList": [
                                  {
                                    "$type": "RPG.GameCore.UseSkill",
                                    "SkillName": "Skill05"
                                  }
                                ],
                                "FailedTaskList": [
                                  {
                                    "$type": "RPG.GameCore.PredicateTaskList",
                                    "Predicate": {
                                      "$type": "RPG.GameCore.ByRandomChance",
                                      "Chance": {
                                        "IsDynamic": false,
                                        "FixedValue": {
                                          "Value": 0.5000000004656613
                                        }
                                      }
                                    },
                                    "SuccessTaskList": [
                                      {
                                        "$type": "RPG.GameCore.UseSkill",
                                        "SkillName": "Skill04"
                                      }
                                    ],
                                    "FailedTaskList": [
                                      {
                                        "$type": "RPG.GameCore.UseSkill",
                                        "SkillName": "Skill05"
                                      }
                                    ]
                                  }
                                ]
                              }
                            ],
                            "FailedTaskList": [
                              {
                                "$type": "RPG.GameCore.PredicateTaskList",
                                "Predicate": {
                                  "$type": "RPG.GameCore.ByRandomChance",
                                  "Chance": {
                                    "IsDynamic": false,
                                    "FixedValue": {
                                      "Value": 0.7000000006519258
                                    }
                                  }
                                },
                                "SuccessTaskList": [
                                  {
                                    "$type": "RPG.GameCore.UseSkill",
                                    "SkillName": "Skill03"
                                  }
                                ],
                                "FailedTaskList": [
                                  {
                                    "$type": "RPG.GameCore.PredicateTaskList",
                                    "Predicate": {
                                      "$type": "RPG.GameCore.ByCompareBP",
                                      "CompareType": "LessEqual",
                                      "CompareValue": {
                                        "IsDynamic": false,
                                        "FixedValue": {
                                          "Value": 2
                                        }
                                      }
                                    },
                                    "SuccessTaskList": [
                                      {
                                        "$type": "RPG.GameCore.UseSkill",
                                        "SkillName": "Skill05"
                                      }
                                    ],
                                    "FailedTaskList": [
                                      {
                                        "$type": "RPG.GameCore.PredicateTaskList",
                                        "Predicate": {
                                          "$type": "RPG.GameCore.ByRandomChance",
                                          "Chance": {
                                            "IsDynamic": false,
                                            "FixedValue": {
                                              "Value": 0.5000000004656613
                                            }
                                          }
                                        },
                                        "SuccessTaskList": [
                                          {
                                            "$type": "RPG.GameCore.UseSkill",
                                            "SkillName": "Skill04"
                                          }
                                        ],
                                        "FailedTaskList": [
                                          {
                                            "$type": "RPG.GameCore.UseSkill",
                                            "SkillName": "Skill05"
                                          }
                                        ]
                                      }
                                    ]
                                  }
                                ]
                              }
                            ]
                          },
                          {
                            "$type": "RPG.GameCore.DefineDynamicValue",
                            "TargetType": {
                              "$type": "RPG.GameCore.TargetAlias",
                              "Alias": "Caster"
                            },
                            "DynamicKey": "Monster_XP_Elite02_00_AIFlag",
                            "ResetValue": {
                              "IsDynamic": false,
                              "FixedValue": {
                                "Value": 4
                              }
                            },
                            "ContextScope": "TargetEntity"
                          }
                        ],
                        "FailedTaskList": [
                          {
                            "$type": "RPG.GameCore.DefineDynamicValue",
                            "TargetType": {
                              "$type": "RPG.GameCore.TargetAlias",
                              "Alias": "Caster"
                            },
                            "DynamicKey": "Monster_XP_Elite02_00_AIFlag",
                            "ResetValue": {
                              "IsDynamic": false,
                              "FixedValue": {
                                "Value": 3
                              }
                            },
                            "ContextScope": "TargetEntity"
                          },
                          {
                            "$type": "RPG.GameCore.PredicateTaskList",
                            "Predicate": {
                              "$type": "RPG.GameCore.ByCompareCharacterNumber",
                              "TargetType": {
                                "$type": "RPG.GameCore.TargetAlias",
                                "Alias": "AllTeamMember"
                              },
                              "CompareType": "LessEqual",
                              "CompareNumber": {
                                "IsDynamic": false,
                                "FixedValue": {
                                  "Value": 1
                                }
                              }
                            },
                            "SuccessTaskList": [
                              {
                                "$type": "RPG.GameCore.PredicateTaskList",
                                "Predicate": {
                                  "$type": "RPG.GameCore.ByCompareBP",
                                  "CompareType": "LessEqual",
                                  "CompareValue": {
                                    "IsDynamic": false,
                                    "FixedValue": {
                                      "Value": 2
                                    }
                                  }
                                },
                                "SuccessTaskList": [
                                  {
                                    "$type": "RPG.GameCore.UseSkill",
                                    "SkillName": "Skill05"
                                  }
                                ],
                                "FailedTaskList": [
                                  {
                                    "$type": "RPG.GameCore.PredicateTaskList",
                                    "Predicate": {
                                      "$type": "RPG.GameCore.ByRandomChance",
                                      "Chance": {
                                        "IsDynamic": false,
                                        "FixedValue": {
                                          "Value": 0.5000000004656613
                                        }
                                      }
                                    },
                                    "SuccessTaskList": [
                                      {
                                        "$type": "RPG.GameCore.UseSkill",
                                        "SkillName": "Skill04"
                                      }
                                    ],
                                    "FailedTaskList": [
                                      {
                                        "$type": "RPG.GameCore.UseSkill",
                                        "SkillName": "Skill05"
                                      }
                                    ]
                                  }
                                ]
                              }
                            ],
                            "FailedTaskList": [
                              {
                                "$type": "RPG.GameCore.PredicateTaskList",
                                "Predicate": {
                                  "$type": "RPG.GameCore.ByRandomChance",
                                  "Chance": {
                                    "IsDynamic": false,
                                    "FixedValue": {
                                      "Value": 0.7000000006519258
                                    }
                                  }
                                },
                                "SuccessTaskList": [
                                  {
                                    "$type": "RPG.GameCore.UseSkill",
                                    "SkillName": "Skill03"
                                  }
                                ],
                                "FailedTaskList": [
                                  {
                                    "$type": "RPG.GameCore.PredicateTaskList",
                                    "Predicate": {
                                      "$type": "RPG.GameCore.ByCompareBP",
                                      "CompareType": "LessEqual",
                                      "CompareValue": {
                                        "IsDynamic": false,
                                        "FixedValue": {
                                          "Value": 2
                                        }
                                      }
                                    },
                                    "SuccessTaskList": [
                                      {
                                        "$type": "RPG.GameCore.UseSkill",
                                        "SkillName": "Skill05"
                                      }
                                    ],
                                    "FailedTaskList": [
                                      {
                                        "$type": "RPG.GameCore.PredicateTaskList",
                                        "Predicate": {
                                          "$type": "RPG.GameCore.ByRandomChance",
                                          "Chance": {
                                            "IsDynamic": false,
                                            "FixedValue": {
                                              "Value": 0.5000000004656613
                                            }
                                          }
                                        },
                                        "SuccessTaskList": [
                                          {
                                            "$type": "RPG.GameCore.UseSkill",
                                            "SkillName": "Skill04"
                                          }
                                        ],
                                        "FailedTaskList": [
                                          {
                                            "$type": "RPG.GameCore.UseSkill",
                                            "SkillName": "Skill05"
                                          }
                                        ]
                                      }
                                    ]
                                  }
                                ]
                              }
                            ]
                          }
                        ]
                      }
                    ]
                  }
                ]
              }
            ]
          }
        ]
      }
    },
    {
      "$type": "RPG.GameCore.AIDecisionConfig",
      "DecisionName": "UseSkill03",
      "ScoreEvaluatorType": "DefaultDSE",
      "ConsiderAxisList": [
        {
          "$type": "RPG.GameCore.CheckPredicateAxis",
          "Predicate": {
            "$type": "RPG.GameCore.ByCompareDynamicValue",
            "TargetType": {
              "$type": "RPG.GameCore.TargetAlias",
              "Alias": "Caster"
            },
            "DynamicKey": "Monster_XP_Elite02_00_AIFlag",
            "ContextScope": "TargetEntity",
            "CompareType": "Equal",
            "CompareValue": {
              "IsDynamic": false,
              "FixedValue": {
                "Value": 3
              }
            }
          },
          "SuccessScore": {
            "Value": 0.5000000004656613
          }
        }
      ],
      "RootTask": {
        "$type": "RPG.GameCore.SequenceConfig",
        "TaskList": [
          {
            "$type": "RPG.GameCore.PredicateTaskList",
            "Predicate": {
              "$type": "RPG.GameCore.ByCompareCharacterNumber",
              "TargetType": {
                "$type": "RPG.GameCore.TargetAlias",
                "Alias": "AllEnemy"
              },
              "Predicate": {
                "$type": "RPG.GameCore.ByIsContainModifier",
                "TargetType": {
                  "$type": "RPG.GameCore.TargetAlias",
                  "Alias": "ParamEntity"
                },
                "ModifierName": "Monster_XP_Elite02_00_Edict01"
              },
              "CompareType": "Greater",
              "CompareNumber": {
                "IsDynamic": false,
                "FixedValue": {
                  "Value": 0
                }
              }
            },
            "SuccessTaskList": [
              {
                "$type": "RPG.GameCore.DefineDynamicValue",
                "TargetType": {
                  "$type": "RPG.GameCore.TargetAlias",
                  "Alias": "Caster"
                },
                "DynamicKey": "Monster_XP_Elite02_00_AIFlag",
                "ResetValue": {
                  "IsDynamic": false,
                  "FixedValue": {
                    "Value": 4
                  }
                },
                "ContextScope": "TargetEntity"
              },
              {
                "$type": "RPG.GameCore.UseSkill",
                "SkillName": "Skill01"
              }
            ],
            "FailedTaskList": [
              {
                "$type": "RPG.GameCore.PredicateTaskList",
                "Predicate": {
                  "$type": "RPG.GameCore.ByCompareCharacterNumber",
                  "TargetType": {
                    "$type": "RPG.GameCore.TargetAlias",
                    "Alias": "AllEnemy"
                  },
                  "Predicate": {
                    "$type": "RPG.GameCore.ByIsContainModifier",
                    "TargetType": {
                      "$type": "RPG.GameCore.TargetAlias",
                      "Alias": "ParamEntity"
                    },
                    "ModifierName": "Monster_XP_Elite02_00_Edict02"
                  },
                  "CompareType": "Greater",
                  "CompareNumber": {
                    "IsDynamic": false,
                    "FixedValue": {
                      "Value": 0
                    }
                  }
                },
                "SuccessTaskList": [
                  {
                    "$type": "RPG.GameCore.DefineDynamicValue",
                    "TargetType": {
                      "$type": "RPG.GameCore.TargetAlias",
                      "Alias": "Caster"
                    },
                    "DynamicKey": "Monster_XP_Elite02_00_AIFlag",
                    "ResetValue": {
                      "IsDynamic": false,
                      "FixedValue": {
                        "Value": 4
                      }
                    },
                    "ContextScope": "TargetEntity"
                  },
                  {
                    "$type": "RPG.GameCore.UseSkill",
                    "SkillName": "Skill01"
                  }
                ],
                "FailedTaskList": [
                  {
                    "$type": "RPG.GameCore.PredicateTaskList",
                    "Predicate": {
                      "$type": "RPG.GameCore.ByCompareCharacterNumber",
                      "TargetType": {
                        "$type": "RPG.GameCore.TargetAlias",
                        "Alias": "AllEnemy"
                      },
                      "Predicate": {
                        "$type": "RPG.GameCore.ByIsContainModifier",
                        "TargetType": {
                          "$type": "RPG.GameCore.TargetAlias",
                          "Alias": "ParamEntity"
                        },
                        "ModifierName": "Monster_XP_Elite02_00_Edict03"
                      },
                      "CompareType": "Greater",
                      "CompareNumber": {
                        "IsDynamic": false,
                        "FixedValue": {
                          "Value": 0
                        }
                      }
                    },
                    "SuccessTaskList": [
                      {
                        "$type": "RPG.GameCore.DefineDynamicValue",
                        "TargetType": {
                          "$type": "RPG.GameCore.TargetAlias",
                          "Alias": "Caster"
                        },
                        "DynamicKey": "Monster_XP_Elite02_00_AIFlag",
                        "ResetValue": {
                          "IsDynamic": false,
                          "FixedValue": {
                            "Value": 4
                          }
                        },
                        "ContextScope": "TargetEntity"
                      },
                      {
                        "$type": "RPG.GameCore.UseSkill",
                        "SkillName": "Skill01"
                      }
                    ],
                    "FailedTaskList": [
                      {
                        "$type": "RPG.GameCore.DefineDynamicValue",
                        "TargetType": {
                          "$type": "RPG.GameCore.TargetAlias",
                          "Alias": "Caster"
                        },
                        "DynamicKey": "Monster_XP_Elite02_00_AIFlag",
                        "ResetValue": {
                          "IsDynamic": false,
                          "FixedValue": {
                            "Value": 4
                          }
                        },
                        "ContextScope": "TargetEntity"
                      },
                      {
                        "$type": "RPG.GameCore.PredicateTaskList",
                        "Predicate": {
                          "$type": "RPG.GameCore.ByCompareCharacterNumber",
                          "TargetType": {
                            "$type": "RPG.GameCore.TargetAlias",
                            "Alias": "AllTeamMember"
                          },
                          "CompareType": "LessEqual",
                          "CompareNumber": {
                            "IsDynamic": false,
                            "FixedValue": {
                              "Value": 1
                            }
                          }
                        },
                        "SuccessTaskList": [
                          {
                            "$type": "RPG.GameCore.PredicateTaskList",
                            "Predicate": {
                              "$type": "RPG.GameCore.ByCompareBP",
                              "CompareType": "LessEqual",
                              "CompareValue": {
                                "IsDynamic": false,
                                "FixedValue": {
                                  "Value": 2
                                }
                              }
                            },
                            "SuccessTaskList": [
                              {
                                "$type": "RPG.GameCore.UseSkill",
                                "SkillName": "Skill05"
                              }
                            ],
                            "FailedTaskList": [
                              {
                                "$type": "RPG.GameCore.PredicateTaskList",
                                "Predicate": {
                                  "$type": "RPG.GameCore.ByRandomChance",
                                  "Chance": {
                                    "IsDynamic": false,
                                    "FixedValue": {
                                      "Value": 0.5000000004656613
                                    }
                                  }
                                },
                                "SuccessTaskList": [
                                  {
                                    "$type": "RPG.GameCore.UseSkill",
                                    "SkillName": "Skill04"
                                  }
                                ],
                                "FailedTaskList": [
                                  {
                                    "$type": "RPG.GameCore.UseSkill",
                                    "SkillName": "Skill05"
                                  }
                                ]
                              }
                            ]
                          }
                        ],
                        "FailedTaskList": [
                          {
                            "$type": "RPG.GameCore.PredicateTaskList",
                            "Predicate": {
                              "$type": "RPG.GameCore.ByRandomChance",
                              "Chance": {
                                "IsDynamic": false,
                                "FixedValue": {
                                  "Value": 0.40000000037252903
                                }
                              }
                            },
                            "SuccessTaskList": [
                              {
                                "$type": "RPG.GameCore.UseSkill",
                                "SkillName": "Skill03"
                              }
                            ],
                            "FailedTaskList": [
                              {
                                "$type": "RPG.GameCore.PredicateTaskList",
                                "Predicate": {
                                  "$type": "RPG.GameCore.ByCompareBP",
                                  "CompareType": "LessEqual",
                                  "CompareValue": {
                                    "IsDynamic": false,
                                    "FixedValue": {
                                      "Value": 2
                                    }
                                  }
                                },
                                "SuccessTaskList": [
                                  {
                                    "$type": "RPG.GameCore.UseSkill",
                                    "SkillName": "Skill05"
                                  }
                                ],
                                "FailedTaskList": [
                                  {
                                    "$type": "RPG.GameCore.PredicateTaskList",
                                    "Predicate": {
                                      "$type": "RPG.GameCore.ByRandomChance",
                                      "Chance": {
                                        "IsDynamic": false,
                                        "FixedValue": {
                                          "Value": 0.5000000004656613
                                        }
                                      }
                                    },
                                    "SuccessTaskList": [
                                      {
                                        "$type": "RPG.GameCore.UseSkill",
                                        "SkillName": "Skill04"
                                      }
                                    ],
                                    "FailedTaskList": [
                                      {
                                        "$type": "RPG.GameCore.UseSkill",
                                        "SkillName": "Skill05"
                                      }
                                    ]
                                  }
                                ]
                              }
                            ]
                          }
                        ]
                      }
                    ]
                  }
                ]
              }
            ]
          }
        ]
      }
    },
    {
      "$type": "RPG.GameCore.AIDecisionConfig",
      "DecisionName": "UseSkill02",
      "ScoreEvaluatorType": "DefaultDSE",
      "Weight": {
        "Value": 0.5000000004656613
      },
      "ConsiderAxisList": [
        {
          "$type": "RPG.GameCore.CheckPredicateAxis",
          "Predicate": {
            "$type": "RPG.GameCore.ByAnd",
            "PredicateList": [
              {
                "$type": "RPG.GameCore.ByCompareDynamicValue",
                "TargetType": {
                  "$type": "RPG.GameCore.TargetAlias",
                  "Alias": "Caster"
                },
                "DynamicKey": "Monster_XP_Elite02_00_AIFlag",
                "ContextScope": "TargetEntity",
                "CompareType": "Equal",
                "CompareValue": {
                  "IsDynamic": false,
                  "FixedValue": {
                    "Value": 4
                  }
                }
              },
              {
                "$type": "RPG.GameCore.ByCompareDynamicValue",
                "TargetType": {
                  "$type": "RPG.GameCore.TargetAlias",
                  "Alias": "Caster"
                },
                "DynamicKey": "Monster_XP_Elite02_00_AIFlag_02",
                "ContextScope": "TargetEntity",
                "CompareType": "Equal",
                "CompareValue": {
                  "IsDynamic": false,
                  "FixedValue": {
                    "Value": 0
                  }
                }
              }
            ]
          },
          "SuccessScore": {
            "Value": 0.5000000004656613
          }
        }
      ],
      "RootTask": {
        "$type": "RPG.GameCore.SequenceConfig",
        "TaskList": [
          {
            "$type": "RPG.GameCore.PredicateTaskList",
            "Predicate": {
              "$type": "RPG.GameCore.ByIsContainModifier",
              "TargetType": {
                "$type": "RPG.GameCore.TargetAlias",
                "Alias": "Caster"
              },
              "ModifierName": "OneMore"
            },
            "SuccessTaskList": [
              {
                "$type": "RPG.GameCore.DefineDynamicValue",
                "TargetType": {
                  "$type": "RPG.GameCore.TargetAlias",
                  "Alias": "Caster"
                },
                "DynamicKey": "Monster_XP_Elite02_00_AIFlag",
                "ResetValue": {
                  "IsDynamic": false,
                  "FixedValue": {
                    "Value": 6
                  }
                },
                "ContextScope": "TargetEntity"
              },
              {
                "$type": "RPG.GameCore.UseSkill",
                "SkillName": "Skill01"
              }
            ],
            "FailedTaskList": [
              {
                "$type": "RPG.GameCore.DefineDynamicValue",
                "TargetType": {
                  "$type": "RPG.GameCore.TargetAlias",
                  "Alias": "Caster"
                },
                "DynamicKey": "Monster_XP_Elite02_00_AIFlag",
                "ResetValue": {
                  "IsDynamic": false,
                  "FixedValue": {
                    "Value": 5
                  }
                },
                "ContextScope": "TargetEntity"
              },
              {
                "$type": "RPG.GameCore.UseSkill",
                "SkillName": "Skill02"
              }
            ]
          }
        ]
      }
    },
    {
      "$type": "RPG.GameCore.AIDecisionConfig",
      "DecisionName": "UseSkill06",
      "ScoreEvaluatorType": "DefaultDSE",
      "Weight": {
        "Value": 0.5000000004656613
      },
      "ConsiderAxisList": [
        {
          "$type": "RPG.GameCore.CheckPredicateAxis",
          "Predicate": {
            "$type": "RPG.GameCore.ByAnd",
            "PredicateList": [
              {
                "$type": "RPG.GameCore.ByCompareDynamicValue",
                "TargetType": {
                  "$type": "RPG.GameCore.TargetAlias",
                  "Alias": "Caster"
                },
                "DynamicKey": "Monster_XP_Elite02_00_AIFlag",
                "ContextScope": "TargetEntity",
                "CompareType": "Equal",
                "CompareValue": {
                  "IsDynamic": false,
                  "FixedValue": {
                    "Value": 4
                  }
                }
              },
              {
                "$type": "RPG.GameCore.ByCompareDynamicValue",
                "TargetType": {
                  "$type": "RPG.GameCore.TargetAlias",
                  "Alias": "Caster"
                },
                "DynamicKey": "Monster_XP_Elite02_00_AIFlag_02",
                "ContextScope": "TargetEntity",
                "CompareType": "Equal",
                "CompareValue": {
                  "IsDynamic": false,
                  "FixedValue": {
                    "Value": 1
                  }
                }
              }
            ]
          },
          "SuccessScore": {
            "Value": 0.5000000004656613
          }
        }
      ],
      "RootTask": {
        "$type": "RPG.GameCore.SequenceConfig",
        "TaskList": [
          {
            "$type": "RPG.GameCore.PredicateTaskList",
            "Predicate": {
              "$type": "RPG.GameCore.ByIsContainModifier",
              "TargetType": {
                "$type": "RPG.GameCore.TargetAlias",
                "Alias": "Caster"
              },
              "ModifierName": "OneMore"
            },
            "SuccessTaskList": [
              {
                "$type": "RPG.GameCore.DefineDynamicValue",
                "TargetType": {
                  "$type": "RPG.GameCore.TargetAlias",
                  "Alias": "Caster"
                },
                "DynamicKey": "Monster_XP_Elite02_00_AIFlag",
                "ResetValue": {
                  "IsDynamic": false,
                  "FixedValue": {
                    "Value": 6
                  }
                },
                "ContextScope": "TargetEntity"
              },
              {
                "$type": "RPG.GameCore.UseSkill",
                "SkillName": "Skill02"
              }
            ],
            "FailedTaskList": [
              {
                "$type": "RPG.GameCore.DefineDynamicValue",
                "TargetType": {
                  "$type": "RPG.GameCore.TargetAlias",
                  "Alias": "Caster"
                },
                "DynamicKey": "Monster_XP_Elite02_00_AIFlag",
                "ResetValue": {
                  "IsDynamic": false,
                  "FixedValue": {
                    "Value": 5
                  }
                },
                "ContextScope": "TargetEntity"
              },
              {
                "$type": "RPG.GameCore.UseSkill",
                "SkillName": "Skill06"
              }
            ]
          }
        ]
      }
    },
    {
      "$type": "RPG.GameCore.AIDecisionConfig",
      "DecisionName": "UseSkill01",
      "ScoreEvaluatorType": "DefaultDSE",
      "Weight": {
        "Value": 0.5000000004656613
      },
      "ConsiderAxisList": [
        {
          "$type": "RPG.GameCore.CheckPredicateAxis",
          "Predicate": {
            "$type": "RPG.GameCore.ByAnd",
            "PredicateList": [
              {
                "$type": "RPG.GameCore.ByCompareDynamicValue",
                "TargetType": {
                  "$type": "RPG.GameCore.TargetAlias",
                  "Alias": "Caster"
                },
                "DynamicKey": "Monster_XP_Elite02_00_AIFlag",
                "ContextScope": "TargetEntity",
                "CompareType": "Equal",
                "CompareValue": {
                  "IsDynamic": false,
                  "FixedValue": {
                    "Value": 5
                  }
                }
              },
              {
                "$type": "RPG.GameCore.ByCompareDynamicValue",
                "TargetType": {
                  "$type": "RPG.GameCore.TargetAlias",
                  "Alias": "Caster"
                },
                "DynamicKey": "Monster_XP_Elite02_00_AIFlag_02",
                "ContextScope": "TargetEntity",
                "CompareType": "Equal",
                "CompareValue": {
                  "IsDynamic": false,
                  "FixedValue": {
                    "Value": 0
                  }
                }
              }
            ]
          },
          "SuccessScore": {
            "Value": 0.5000000004656613
          }
        }
      ],
      "RootTask": {
        "$type": "RPG.GameCore.SequenceConfig",
        "TaskList": [
          {
            "$type": "RPG.GameCore.DefineDynamicValue",
            "TargetType": {
              "$type": "RPG.GameCore.TargetAlias",
              "Alias": "Caster"
            },
            "DynamicKey": "Monster_XP_Elite02_00_AIFlag",
            "ResetValue": {
              "IsDynamic": false,
              "FixedValue": {
                "Value": 6
              }
            },
            "ContextScope": "TargetEntity"
          },
          {
            "$type": "RPG.GameCore.UseSkill",
            "SkillName": "Skill01"
          }
        ]
      }
    },
    {
      "$type": "RPG.GameCore.AIDecisionConfig",
      "DecisionName": "UseSkill02",
      "ScoreEvaluatorType": "DefaultDSE",
      "Weight": {
        "Value": 0.5000000004656613
      },
      "ConsiderAxisList": [
        {
          "$type": "RPG.GameCore.CheckPredicateAxis",
          "Predicate": {
            "$type": "RPG.GameCore.ByAnd",
            "PredicateList": [
              {
                "$type": "RPG.GameCore.ByCompareDynamicValue",
                "TargetType": {
                  "$type": "RPG.GameCore.TargetAlias",
                  "Alias": "Caster"
                },
                "DynamicKey": "Monster_XP_Elite02_00_AIFlag",
                "ContextScope": "TargetEntity",
                "CompareType": "Equal",
                "CompareValue": {
                  "IsDynamic": false,
                  "FixedValue": {
                    "Value": 5
                  }
                }
              },
              {
                "$type": "RPG.GameCore.ByCompareDynamicValue",
                "TargetType": {
                  "$type": "RPG.GameCore.TargetAlias",
                  "Alias": "Caster"
                },
                "DynamicKey": "Monster_XP_Elite02_00_AIFlag_02",
                "ContextScope": "TargetEntity",
                "CompareType": "Equal",
                "CompareValue": {
                  "IsDynamic": false,
                  "FixedValue": {
                    "Value": 1
                  }
                }
              }
            ]
          },
          "SuccessScore": {
            "Value": 0.5000000004656613
          }
        }
      ],
      "RootTask": {
        "$type": "RPG.GameCore.SequenceConfig",
        "TaskList": [
          {
            "$type": "RPG.GameCore.DefineDynamicValue",
            "TargetType": {
              "$type": "RPG.GameCore.TargetAlias",
              "Alias": "Caster"
            },
            "DynamicKey": "Monster_XP_Elite02_00_AIFlag",
            "ResetValue": {
              "IsDynamic": false,
              "FixedValue": {
                "Value": 6
              }
            },
            "ContextScope": "TargetEntity"
          },
          {
            "$type": "RPG.GameCore.UseSkill",
            "SkillName": "Skill02"
          }
        ]
      }
    },
    {
      "$type": "RPG.GameCore.AIDecisionConfig",
      "DecisionName": "UseSkill06",
      "ScoreEvaluatorType": "DefaultDSE",
      "Weight": {
        "Value": 0.5000000004656613
      },
      "ConsiderAxisList": [
        {
          "$type": "RPG.GameCore.CheckPredicateAxis",
          "Predicate": {
            "$type": "RPG.GameCore.ByCompareDynamicValue",
            "TargetType": {
              "$type": "RPG.GameCore.TargetAlias",
              "Alias": "Caster"
            },
            "DynamicKey": "Monster_XP_Elite02_00_AIFlag",
            "ContextScope": "TargetEntity",
            "CompareType": "Equal",
            "CompareValue": {
              "IsDynamic": false,
              "FixedValue": {
                "Value": 6
              }
            }
          },
          "SuccessScore": {
            "Value": 0.5000000004656613
          }
        }
      ],
      "RootTask": {
        "$type": "RPG.GameCore.SequenceConfig",
        "TaskList": [
          {
            "$type": "RPG.GameCore.DefineDynamicValue",
            "TargetType": {
              "$type": "RPG.GameCore.TargetAlias",
              "Alias": "Caster"
            },
            "DynamicKey": "Monster_XP_Elite02_00_AIFlag",
            "ResetValue": {
              "IsDynamic": false,
              "FixedValue": {
                "Value": 1
              }
            },
            "ContextScope": "TargetEntity"
          },
          {
            "$type": "RPG.GameCore.UseSkill",
            "SkillName": "Skill06"
          }
        ]
      }
    }
  ]
}