{
  "AIName": "Monster_W1_Mecha04_01",
  "VariableList": [
    {
      "$type": "RPG.GameCore.AIVariableString",
      "Value": "W1_Mecha04_01_Phase01",
      "Name": "CurrentPhase"
    },
    {
      "$type": "RPG.GameCore.AIVariableBool",
      "Value": true,
      "Name": "ForbidClearSkillUseRecord"
    }
  ],
  "DecisionList": [
    {
      "$type": "RPG.GameCore.AIDecisionConfig",
      "DecisionName": "UseSkill01",
      "ScoreEvaluatorType": "DefaultDSE",
      "ConsiderAxisList": [
        {
          "$type": "RPG.GameCore.CheckPredicateAxis",
          "Predicate": {
            "$type": "RPG.GameCore.ByCompareDynamicValue",
            "TargetType": {
              "$type": "RPG.GameCore.TargetAlias",
              "Alias": "Caster"
            },
            "DynamicKey": "Monster_W1_Mecha_Fire_AICounter_01",
            "ContextScope": "TargetEntity",
            "CompareType": "Equal",
            "CompareValue": {
              "IsDynamic": false,
              "FixedValue": {
                "Value": 1
              }
            }
          },
          "SuccessScore": {
            "Value": 0.5000000004656613
          }
        }
      ],
      "RootTask": {
        "$type": "RPG.GameCore.SequenceConfig",
        "TaskList": [
          {
            "$type": "RPG.GameCore.DefineDynamicValue",
            "TargetType": {
              "$type": "RPG.GameCore.TargetAlias",
              "Alias": "Caster"
            },
            "DynamicKey": "Monster_W1_Mecha_Fire_AICounter_01",
            "ResetValue": {
              "IsDynamic": false,
              "FixedValue": {
                "Value": 2
              }
            },
            "ContextScope": "TargetEntity"
          },
          {
            "$type": "RPG.GameCore.UseSkill",
            "SkillName": "Skill01"
          }
        ]
      }
    },
    {
      "$type": "RPG.GameCore.AIDecisionConfig",
      "DecisionName": "UseSkill02",
      "ScoreEvaluatorType": "DefaultDSE",
      "ConsiderAxisList": [
        {
          "$type": "RPG.GameCore.CheckPredicateAxis",
          "Predicate": {
            "$type": "RPG.GameCore.ByCompareDynamicValue",
            "TargetType": {
              "$type": "RPG.GameCore.TargetAlias",
              "Alias": "Caster"
            },
            "DynamicKey": "Monster_W1_Mecha_Fire_AICounter_01",
            "ContextScope": "TargetEntity",
            "CompareType": "Equal",
            "CompareValue": {
              "IsDynamic": false,
              "FixedValue": {
                "Value": 2
              }
            }
          },
          "SuccessScore": {
            "Value": 0.5000000004656613
          }
        }
      ],
      "RootTask": {
        "$type": "RPG.GameCore.SequenceConfig",
        "TaskList": [
          {
            "$type": "RPG.GameCore.DefineDynamicValue",
            "TargetType": {
              "$type": "RPG.GameCore.TargetAlias",
              "Alias": "Caster"
            },
            "DynamicKey": "Monster_W1_Mecha_Fire_AICounter_01",
            "ResetValue": {
              "IsDynamic": false,
              "FixedValue": {
                "Value": 3
              }
            },
            "ContextScope": "TargetEntity"
          },
          {
            "$type": "RPG.GameCore.PredicateTaskList",
            "Predicate": {
              "$type": "RPG.GameCore.ByIsContainModifier",
              "TargetType": {
                "$type": "RPG.GameCore.TargetAlias",
                "Alias": "Caster"
              },
              "ModifierName": "Monster_W1_Mecha_Fire_Burning"
            },
            "SuccessTaskList": [
              {
                "$type": "RPG.GameCore.UseSkill",
                "SkillName": "Skill02"
              }
            ],
            "FailedTaskList": [
              {
                "$type": "RPG.GameCore.UseSkill",
                "SkillName": "Skill06"
              }
            ]
          }
        ]
      }
    },
    {
      "$type": "RPG.GameCore.AIDecisionConfig",
      "DecisionName": "UseSkill07",
      "ScoreEvaluatorType": "DefaultDSE",
      "ConsiderAxisList": [
        {
          "$type": "RPG.GameCore.CheckPredicateAxis",
          "Predicate": {
            "$type": "RPG.GameCore.ByCompareDynamicValue",
            "TargetType": {
              "$type": "RPG.GameCore.TargetAlias",
              "Alias": "Caster"
            },
            "DynamicKey": "Monster_W1_Mecha_Fire_AICounter_01",
            "ContextScope": "TargetEntity",
            "CompareType": "Equal",
            "CompareValue": {
              "IsDynamic": false,
              "FixedValue": {
                "Value": 3
              }
            }
          },
          "SuccessScore": {
            "Value": 0.5000000004656613
          }
        }
      ],
      "RootTask": {
        "$type": "RPG.GameCore.SequenceConfig",
        "TaskList": [
          {
            "$type": "RPG.GameCore.DefineDynamicValue",
            "TargetType": {
              "$type": "RPG.GameCore.TargetAlias",
              "Alias": "Caster"
            },
            "DynamicKey": "Monster_W1_Mecha_Fire_AICounter_01",
            "ResetValue": {
              "IsDynamic": false,
              "FixedValue": {
                "Value": 4
              }
            },
            "ContextScope": "TargetEntity"
          },
          {
            "$type": "RPG.GameCore.UseSkill",
            "SkillName": "Skill09"
          }
        ]
      }
    },
    {
      "$type": "RPG.GameCore.AIDecisionConfig",
      "DecisionName": "UseSkill08",
      "ScoreEvaluatorType": "DefaultDSE",
      "ConsiderAxisList": [
        {
          "$type": "RPG.GameCore.CheckPredicateAxis",
          "Predicate": {
            "$type": "RPG.GameCore.ByCompareDynamicValue",
            "TargetType": {
              "$type": "RPG.GameCore.TargetAlias",
              "Alias": "Caster"
            },
            "DynamicKey": "Monster_W1_Mecha_Fire_AICounter_01",
            "ContextScope": "TargetEntity",
            "CompareType": "Equal",
            "CompareValue": {
              "IsDynamic": false,
              "FixedValue": {
                "Value": 4
              }
            }
          },
          "SuccessScore": {
            "Value": 0.5000000004656613
          }
        }
      ],
      "RootTask": {
        "$type": "RPG.GameCore.SequenceConfig",
        "TaskList": [
          {
            "$type": "RPG.GameCore.DefineDynamicValue",
            "TargetType": {
              "$type": "RPG.GameCore.TargetAlias",
              "Alias": "Caster"
            },
            "DynamicKey": "Monster_W1_Mecha_Fire_AICounter_01",
            "ResetValue": {
              "IsDynamic": false,
              "FixedValue": {
                "Value": 5
              }
            },
            "ContextScope": "TargetEntity"
          },
          {
            "$type": "RPG.GameCore.PredicateTaskList",
            "Predicate": {
              "$type": "RPG.GameCore.ByCompareCharacterNumber",
              "TargetType": {
                "$type": "RPG.GameCore.TargetAlias",
                "Alias": "AllEnemy"
              },
              "Predicate": {
                "$type": "RPG.GameCore.ByIsContainModifier",
                "TargetType": {
                  "$type": "RPG.GameCore.TargetAlias",
                  "Alias": "ParamEntity"
                },
                "ModifierName": "MCommon_DOT_Burn"
              },
              "CompareType": "GreaterEqual",
              "CompareNumber": {
                "IsDynamic": false,
                "FixedValue": {
                  "Value": 1
                }
              }
            },
            "SuccessTaskList": [
              {
                "$type": "RPG.GameCore.UseSkill",
                "SkillName": "Skill08"
              }
            ],
            "FailedTaskList": [
              {
                "$type": "RPG.GameCore.UseSkill",
                "SkillName": "Skill07"
              }
            ]
          }
        ]
      }
    },
    {
      "$type": "RPG.GameCore.AIDecisionConfig",
      "DecisionName": "UseSkill07",
      "ScoreEvaluatorType": "DefaultDSE",
      "ConsiderAxisList": [
        {
          "$type": "RPG.GameCore.CheckPredicateAxis",
          "Predicate": {
            "$type": "RPG.GameCore.ByCompareDynamicValue",
            "TargetType": {
              "$type": "RPG.GameCore.TargetAlias",
              "Alias": "Caster"
            },
            "DynamicKey": "Monster_W1_Mecha_Fire_AICounter_01",
            "ContextScope": "TargetEntity",
            "CompareType": "Equal",
            "CompareValue": {
              "IsDynamic": false,
              "FixedValue": {
                "Value": 5
              }
            }
          },
          "SuccessScore": {
            "Value": 0.5000000004656613
          }
        }
      ],
      "RootTask": {
        "$type": "RPG.GameCore.SequenceConfig",
        "TaskList": [
          {
            "$type": "RPG.GameCore.DefineDynamicValue",
            "TargetType": {
              "$type": "RPG.GameCore.TargetAlias",
              "Alias": "Caster"
            },
            "DynamicKey": "Monster_W1_Mecha_Fire_AICounter_01",
            "ResetValue": {
              "IsDynamic": false,
              "FixedValue": {
                "Value": 2
              }
            },
            "ContextScope": "TargetEntity"
          },
          {
            "$type": "RPG.GameCore.UseSkill",
            "SkillName": "Skill06"
          }
        ]
      }
    }
  ]
}