{
  "AIName": "Monster_XP_Elite02_01",
  "VariableList": [
    {
      "$type": "RPG.GameCore.AIVariableString",
      "Value": "XP_Elite02_01_Phase01",
      "Name": "CurrentPhase"
    },
    {
      "$type": "RPG.GameCore.AIVariableBool",
      "Value": true,
      "Name": "ForbidClearSkillUseRecord"
    }
  ],
  "DecisionList": [
    {
      "$type": "RPG.GameCore.AIDecisionConfig",
      "DecisionName": "Decision01",
      "ScoreEvaluatorType": "DefaultDSE",
      "Weight": {
        "Value": 0.5000000004656613
      },
      "ConsiderAxisList": [
        {
          "$type": "RPG.GameCore.CheckPredicateAxis",
          "Predicate": {
            "$type": "RPG.GameCore.ByCompareDynamicValue",
            "TargetType": {
              "$type": "RPG.GameCore.TargetAlias",
              "Alias": "Caster"
            },
            "DynamicKey": "Monster_XP_Elite02_01_AIFlag",
            "ContextScope": "TargetEntity",
            "CompareType": "Equal",
            "CompareValue": {
              "IsDynamic": false,
              "FixedValue": {
                "Value": 0
              }
            }
          },
          "SuccessScore": {
            "Value": 0.5000000004656613
          }
        }
      ],
      "RootTask": {
        "$type": "RPG.GameCore.SequenceConfig",
        "TaskList": [
          {
            "$type": "RPG.GameCore.DefineDynamicValue",
            "TargetType": {
              "$type": "RPG.GameCore.TargetAlias",
              "Alias": "Caster"
            },
            "DynamicKey": "Monster_XP_Elite02_01_AIFlag",
            "ResetValue": {
              "IsDynamic": false,
              "FixedValue": {
                "Value": 1
              }
            },
            "ContextScope": "TargetEntity"
          },
          {
            "$type": "RPG.GameCore.UseSkill",
            "SkillName": "Skill01"
          }
        ]
      }
    },
    {
      "$type": "RPG.GameCore.AIDecisionConfig",
      "DecisionName": "Decision01",
      "ScoreEvaluatorType": "DefaultDSE",
      "Weight": {
        "Value": 0.5000000004656613
      },
      "ConsiderAxisList": [
        {
          "$type": "RPG.GameCore.CheckPredicateAxis",
          "Predicate": {
            "$type": "RPG.GameCore.ByCompareDynamicValue",
            "TargetType": {
              "$type": "RPG.GameCore.TargetAlias",
              "Alias": "Caster"
            },
            "DynamicKey": "Monster_XP_Elite02_01_AIFlag",
            "ContextScope": "TargetEntity",
            "CompareType": "Equal",
            "CompareValue": {
              "IsDynamic": false,
              "FixedValue": {
                "Value": 1
              }
            }
          },
          "SuccessScore": {
            "Value": 0.5000000004656613
          }
        }
      ],
      "RootTask": {
        "$type": "RPG.GameCore.SequenceConfig",
        "TaskList": [
          {
            "$type": "RPG.GameCore.DefineDynamicValue",
            "TargetType": {
              "$type": "RPG.GameCore.TargetAlias",
              "Alias": "Caster"
            },
            "DynamicKey": "Monster_XP_Elite02_01_AIFlag",
            "ResetValue": {
              "IsDynamic": false,
              "FixedValue": {
                "Value": 3
              }
            },
            "ContextScope": "TargetEntity"
          },
          {
            "$type": "RPG.GameCore.UseSkill",
            "SkillName": "Skill02"
          }
        ]
      }
    },
    {
      "$type": "RPG.GameCore.AIDecisionConfig",
      "DecisionName": "Decision02",
      "ScoreEvaluatorType": "DefaultDSE",
      "Weight": {
        "Value": 0.5000000004656613
      },
      "ConsiderAxisList": [
        {
          "$type": "RPG.GameCore.CheckPredicateAxis",
          "Predicate": {
            "$type": "RPG.GameCore.ByCompareDynamicValue",
            "TargetType": {
              "$type": "RPG.GameCore.TargetAlias",
              "Alias": "Caster"
            },
            "DynamicKey": "Monster_XP_Elite02_01_AIFlag",
            "ContextScope": "TargetEntity",
            "CompareType": "Equal",
            "CompareValue": {
              "IsDynamic": false,
              "FixedValue": {
                "Value": 2
              }
            }
          },
          "SuccessScore": {
            "Value": 0.5000000004656613
          }
        }
      ],
      "RootTask": {
        "$type": "RPG.GameCore.SequenceConfig",
        "TaskList": [
          {
            "$type": "RPG.GameCore.DefineDynamicValue",
            "TargetType": {
              "$type": "RPG.GameCore.TargetAlias",
              "Alias": "Caster"
            },
            "DynamicKey": "Monster_XP_Elite02_01_AIFlag",
            "ResetValue": {
              "IsDynamic": false,
              "FixedValue": {
                "Value": 3
              }
            },
            "ContextScope": "TargetEntity"
          },
          {
            "$type": "RPG.GameCore.UseSkill",
            "SkillName": "Skill02"
          }
        ]
      }
    },
    {
      "$type": "RPG.GameCore.AIDecisionConfig",
      "DecisionName": "Decision03",
      "ScoreEvaluatorType": "DefaultDSE",
      "Weight": {
        "Value": 0.5000000004656613
      },
      "ConsiderAxisList": [
        {
          "$type": "RPG.GameCore.CheckPredicateAxis",
          "Predicate": {
            "$type": "RPG.GameCore.ByCompareDynamicValue",
            "TargetType": {
              "$type": "RPG.GameCore.TargetAlias",
              "Alias": "Caster"
            },
            "DynamicKey": "Monster_XP_Elite02_01_AIFlag",
            "ContextScope": "TargetEntity",
            "CompareType": "Equal",
            "CompareValue": {
              "IsDynamic": false,
              "FixedValue": {
                "Value": 3
              }
            }
          },
          "SuccessScore": {
            "Value": 0.5000000004656613
          }
        }
      ],
      "RootTask": {
        "$type": "RPG.GameCore.SequenceConfig",
        "TaskList": [
          {
            "$type": "RPG.GameCore.DefineDynamicValue",
            "TargetType": {
              "$type": "RPG.GameCore.TargetAlias",
              "Alias": "Caster"
            },
            "DynamicKey": "Monster_XP_Elite02_01_AIFlag",
            "ResetValue": {
              "IsDynamic": false,
              "FixedValue": {
                "Value": 4
              }
            },
            "ContextScope": "TargetEntity"
          },
          {
            "$type": "RPG.GameCore.UseSkill",
            "SkillName": "Skill03"
          }
        ]
      }
    },
    {
      "$type": "RPG.GameCore.AIDecisionConfig",
      "DecisionName": "Decision04",
      "ScoreEvaluatorType": "DefaultDSE",
      "Weight": {
        "Value": 0.5000000004656613
      },
      "ConsiderAxisList": [
        {
          "$type": "RPG.GameCore.CheckPredicateAxis",
          "Predicate": {
            "$type": "RPG.GameCore.ByCompareDynamicValue",
            "TargetType": {
              "$type": "RPG.GameCore.TargetAlias",
              "Alias": "Caster"
            },
            "DynamicKey": "Monster_XP_Elite02_01_AIFlag",
            "ContextScope": "TargetEntity",
            "CompareType": "Equal",
            "CompareValue": {
              "IsDynamic": false,
              "FixedValue": {
                "Value": 4
              }
            }
          },
          "SuccessScore": {
            "Value": 0.5000000004656613
          }
        }
      ],
      "RootTask": {
        "$type": "RPG.GameCore.SequenceConfig",
        "TaskList": [
          {
            "$type": "RPG.GameCore.DefineDynamicValue",
            "TargetType": {
              "$type": "RPG.GameCore.TargetAlias",
              "Alias": "Caster"
            },
            "DynamicKey": "Monster_XP_Elite02_01_AIFlag",
            "ResetValue": {
              "IsDynamic": false,
              "FixedValue": {
                "Value": 5
              }
            },
            "ContextScope": "TargetEntity"
          },
          {
            "$type": "RPG.GameCore.UseSkill",
            "SkillName": "Skill05"
          }
        ]
      }
    },
    {
      "$type": "RPG.GameCore.AIDecisionConfig",
      "DecisionName": "Decision05",
      "ScoreEvaluatorType": "DefaultDSE",
      "Weight": {
        "Value": 0.5000000004656613
      },
      "ConsiderAxisList": [
        {
          "$type": "RPG.GameCore.CheckPredicateAxis",
          "Predicate": {
            "$type": "RPG.GameCore.ByCompareDynamicValue",
            "TargetType": {
              "$type": "RPG.GameCore.TargetAlias",
              "Alias": "Caster"
            },
            "DynamicKey": "Monster_XP_Elite02_01_AIFlag",
            "ContextScope": "TargetEntity",
            "CompareType": "Equal",
            "CompareValue": {
              "IsDynamic": false,
              "FixedValue": {
                "Value": 5
              }
            }
          },
          "SuccessScore": {
            "Value": 0.5000000004656613
          }
        }
      ],
      "RootTask": {
        "$type": "RPG.GameCore.SequenceConfig",
        "TaskList": [
          {
            "$type": "RPG.GameCore.DefineDynamicValue",
            "TargetType": {
              "$type": "RPG.GameCore.TargetAlias",
              "Alias": "Caster"
            },
            "DynamicKey": "Monster_XP_Elite02_01_AIFlag",
            "ResetValue": {
              "IsDynamic": false,
              "FixedValue": {
                "Value": 6
              }
            },
            "ContextScope": "TargetEntity"
          },
          {
            "$type": "RPG.GameCore.PredicateTaskList",
            "Predicate": {
              "$type": "RPG.GameCore.ByCompareDynamicValue",
              "TargetType": {
                "$type": "RPG.GameCore.TargetAlias",
                "Alias": "Caster"
              },
              "DynamicKey": "EnergyLayer",
              "CompareType": "Equal",
              "CompareValue": {
                "IsDynamic": false,
                "FixedValue": {
                  "Value": 0
                }
              }
            },
            "SuccessTaskList": [
              {
                "$type": "RPG.GameCore.UseSkill",
                "SkillName": "Skill06"
              }
            ],
            "FailedTaskList": [
              {
                "$type": "RPG.GameCore.UseSkill",
                "SkillName": "Skill04"
              }
            ]
          }
        ]
      }
    },
    {
      "$type": "RPG.GameCore.AIDecisionConfig",
      "DecisionName": "Decision06",
      "ScoreEvaluatorType": "DefaultDSE",
      "Weight": {
        "Value": 0.5000000004656613
      },
      "ConsiderAxisList": [
        {
          "$type": "RPG.GameCore.CheckPredicateAxis",
          "Predicate": {
            "$type": "RPG.GameCore.ByCompareDynamicValue",
            "TargetType": {
              "$type": "RPG.GameCore.TargetAlias",
              "Alias": "Caster"
            },
            "DynamicKey": "Monster_XP_Elite02_01_AIFlag",
            "ContextScope": "TargetEntity",
            "CompareType": "Equal",
            "CompareValue": {
              "IsDynamic": false,
              "FixedValue": {
                "Value": 6
              }
            }
          },
          "SuccessScore": {
            "Value": 0.5000000004656613
          }
        }
      ],
      "RootTask": {
        "$type": "RPG.GameCore.SequenceConfig",
        "TaskList": [
          {
            "$type": "RPG.GameCore.DefineDynamicValue",
            "TargetType": {
              "$type": "RPG.GameCore.TargetAlias",
              "Alias": "Caster"
            },
            "DynamicKey": "Monster_XP_Elite02_01_AIFlag",
            "ResetValue": {
              "IsDynamic": false,
              "FixedValue": {
                "Value": 1
              }
            },
            "ContextScope": "TargetEntity"
          },
          {
            "$type": "RPG.GameCore.UseSkill",
            "SkillName": "Skill03"
          }
        ]
      }
    },
    {
      "$type": "RPG.GameCore.AIDecisionConfig",
      "DecisionName": "Decision07",
      "ScoreEvaluatorType": "DefaultDSE",
      "Weight": {
        "Value": 0.5000000004656613
      },
      "ConsiderAxisList": [
        {
          "$type": "RPG.GameCore.CheckPredicateAxis",
          "Predicate": {
            "$type": "RPG.GameCore.ByCompareDynamicValue",
            "TargetType": {
              "$type": "RPG.GameCore.TargetAlias",
              "Alias": "Caster"
            },
            "DynamicKey": "Monster_XP_Elite02_01_AIFlag",
            "ContextScope": "TargetEntity",
            "CompareType": "Equal",
            "CompareValue": {
              "IsDynamic": false,
              "FixedValue": {
                "Value": 7
              }
            }
          },
          "SuccessScore": {
            "Value": 0.5000000004656613
          }
        }
      ],
      "RootTask": {
        "$type": "RPG.GameCore.SequenceConfig",
        "TaskList": [
          {
            "$type": "RPG.GameCore.DefineDynamicValue",
            "TargetType": {
              "$type": "RPG.GameCore.TargetAlias",
              "Alias": "Caster"
            },
            "DynamicKey": "Monster_XP_Elite02_01_AIFlag",
            "ResetValue": {
              "IsDynamic": false,
              "FixedValue": {
                "Value": 5
              }
            },
            "ContextScope": "TargetEntity"
          },
          {
            "$type": "RPG.GameCore.PredicateTaskList",
            "Predicate": {
              "$type": "RPG.GameCore.ByIsContainModifier",
              "TargetType": {
                "$type": "RPG.GameCore.TargetAlias",
                "Alias": "Caster"
              },
              "ModifierName": "Monster_XP_Elite02_01_Battle_02"
            },
            "SuccessTaskList": [
              {
                "$type": "RPG.GameCore.PredicateTaskList",
                "Predicate": {
                  "$type": "RPG.GameCore.ByIsContainModifier",
                  "TargetType": {
                    "$type": "RPG.GameCore.TargetAlias",
                    "Alias": "Caster"
                  },
                  "ModifierName": "Monster_XP_Elite02_01_Accelerate"
                },
                "SuccessTaskList": [
                  {
                    "$type": "RPG.GameCore.PredicateTaskList",
                    "Predicate": {
                      "$type": "RPG.GameCore.ByCompareModifierValue",
                      "TargetType": {
                        "$type": "RPG.GameCore.TargetAlias",
                        "Alias": "Caster"
                      },
                      "ModifierName": "Monster_XP_Elite02_01_Accelerate",
                      "ValueType": "Layer",
                      "CompareType": "Less",
                      "CompareValue": {
                        "IsDynamic": false,
                        "FixedValue": {
                          "Value": 5
                        }
                      }
                    },
                    "SuccessTaskList": [
                      {
                        "$type": "RPG.GameCore.UseSkill",
                        "SkillName": "Skill02"
                      }
                    ],
                    "FailedTaskList": [
                      {
                        "$type": "RPG.GameCore.PredicateTaskList",
                        "Predicate": {
                          "$type": "RPG.GameCore.ByCompareModifierValue",
                          "TargetType": {
                            "$type": "RPG.GameCore.TargetAlias",
                            "Alias": "Caster"
                          },
                          "ModifierName": "Monster_XP_Elite02_01_Accelerate",
                          "ValueType": "Layer",
                          "CompareType": "Less",
                          "CompareValue": {
                            "IsDynamic": false,
                            "FixedValue": {
                              "Value": 7
                            }
                          }
                        },
                        "SuccessTaskList": [
                          {
                            "$type": "RPG.GameCore.PredicateTaskList",
                            "Predicate": {
                              "$type": "RPG.GameCore.ByCompareDynamicValue",
                              "TargetType": {
                                "$type": "RPG.GameCore.TargetAlias",
                                "Alias": "Caster"
                              },
                              "DynamicKey": "Monster_XP_Elite02_01_AIFlag_02",
                              "ContextScope": "TargetEntity",
                              "CompareType": "Equal",
                              "CompareValue": {
                                "IsDynamic": false,
                                "FixedValue": {
                                  "Value": 0
                                }
                              }
                            },
                            "SuccessTaskList": [
                              {
                                "$type": "RPG.GameCore.DefineDynamicValue",
                                "TargetType": {
                                  "$type": "RPG.GameCore.TargetAlias",
                                  "Alias": "Caster"
                                },
                                "DynamicKey": "Monster_XP_Elite02_01_AIFlag_02",
                                "ResetValue": {
                                  "IsDynamic": false,
                                  "FixedValue": {
                                    "Value": 1
                                  }
                                },
                                "ContextScope": "TargetEntity"
                              },
                              {
                                "$type": "RPG.GameCore.UseSkill",
                                "SkillName": "Skill03"
                              }
                            ],
                            "FailedTaskList": [
                              {
                                "$type": "RPG.GameCore.UseSkill",
                                "SkillName": "Skill02"
                              }
                            ]
                          }
                        ],
                        "FailedTaskList": [
                          {
                            "$type": "RPG.GameCore.UseSkill",
                            "SkillName": "Skill04"
                          }
                        ]
                      }
                    ]
                  }
                ],
                "FailedTaskList": [
                  {
                    "$type": "RPG.GameCore.UseSkill",
                    "SkillName": "Skill02"
                  }
                ]
              }
            ],
            "FailedTaskList": [
              {
                "$type": "RPG.GameCore.UseSkill",
                "SkillName": "Skill01"
              }
            ]
          }
        ]
      }
    }
  ]
}