{
  "OnInitSequece": [],
  "OnStartSequece": [
    {
      "TaskList": [
        {
          "$type": "RPG.GameCore.SelectorConfig",
          "TaskList": [
            {
              "$type": "RPG.GameCore.PropStateExecute",
              "TargetType": {
                "$type": "RPG.GameCore.TargetFetchAdvPropEx"
              },
              "Execute": [
                {
                  "$type": "RPG.GameCore.PropSetupUITrigger",
                  "ButtonCallback": [
                    {
                      "$type": "RPG.GameCore.PropReqInteract",
                      "TargetType": {
                        "$type": "RPG.GameCore.TargetFetchAdvPropEx"
                      },
                      "InteractID": {
                        "IsDynamic": false,
                        "FixedValue": {
                          "Value": 1011
                        }
                      }
                    },
                    {
                      "$type": "RPG.GameCore.PropEnableCollider",
                      "SpecifiedRelativePaths": [
                        "Trigger"
                      ],
                      "TargetType": {
                        "$type": "RPG.GameCore.TargetFetchAdvPropEx"
                      }
                    },
                    {
                      "$type": "RPG.GameCore.PlayBackgroundTalk",
                      "BackgroundTalkList": [
                        {
                          "AutoSkipTime": 5,
                          "TalkSentenceID": 201210109
                        }
                      ]
                    },
                    {
                      "$type": "RPG.GameCore.TriggerCustomString",
                      "CustomString": {
                        "Value": "101050131"
                      }
                    }
                  ],
                  "TargetType": {
                    "$type": "RPG.GameCore.TargetFetchAdvPropEx"
                  }
                }
              ]
            },
            {
              "$type": "RPG.GameCore.PropStateExecute",
              "TargetType": {
                "$type": "RPG.GameCore.TargetFetchAdvPropEx"
              },
              "State": "Open",
              "Execute": []
            }
          ]
        }
      ]
    }
  ]
}