{
  "OnInitSequece": [],
  "OnStartSequece": [
    {
      "TaskList": [
        {
          "$type": "RPG.GameCore.LevelPerformanceInitialize",
          "LockCamera": false,
          "CreateCharacterList": [],
          "EntityVisiableList": []
        },
        {
          "$type": "RPG.GameCore.AdvEnablePropDialogMode",
          "LockPlayerControl": false,
          "TargetType": {
            "$type": "RPG.GameCore.TargetFetchAdvPropEx",
            "FetchType": "SinglePropByPropID",
            "SinglePropID": {
              "GroupID": {
                "IsDynamic": false,
                "FixedValue": {
                  "Value": 24
                }
              },
              "ID": {
                "IsDynamic": false,
                "FixedValue": {
                  "Value": 300001
                }
              }
            }
          }
        },
        {
          "$type": "RPG.GameCore.PlaySimpleTalk",
          "SimpleTalkList": [
            {
              "TalkSentenceID": 801320101,
              "ProtectTime": 0.3
            },
            {
              "TalkSentenceID": 801320102,
              "ProtectTime": 0.3
            },
            {
              "TalkSentenceID": 801320103,
              "ProtectTime": 0.3
            },
            {
              "TalkSentenceID": 801320104,
              "ProtectTime": 0.3
            },
            {
              "TalkSentenceID": 801320105,
              "ProtectTime": 0.3
            },
            {
              "TalkSentenceID": 801320106,
              "ProtectTime": 0.3
            },
            {
              "TalkSentenceID": 801320107,
              "ProtectTime": 0.3
            }
          ]
        },
        {
          "$type": "RPG.GameCore.WaitSimpleTalkFinish"
        },
        {
          "$type": "RPG.GameCore.PlayOptionTalk",
          "OptionList": [
            {
              "TalkSentenceID": 801320108,
              "OptionIconType": "ChatIcon",
              "TriggerCustomString": "Story_801320108"
            }
          ]
        }
      ]
    },
    {
      "TaskList": [
        {
          "$type": "RPG.GameCore.WaitCustomString",
          "CustomString": {
            "Value": "Story_801320108"
          }
        },
        {
          "$type": "RPG.GameCore.PlaySimpleTalk",
          "SimpleTalkList": [
            {
              "TalkSentenceID": 801320110,
              "ProtectTime": 0.3
            },
            {
              "TalkSentenceID": 801320111,
              "ProtectTime": 0.3
            }
          ]
        },
        {
          "$type": "RPG.GameCore.WaitSimpleTalkFinish"
        },
        {
          "$type": "RPG.GameCore.AdvEnablePropDialogMode",
          "Enable": false,
          "PlayerFaceToProp": false,
          "EnablePropCamera": false,
          "LockPlayerControl": false,
          "TargetType": {
            "$type": "RPG.GameCore.TargetFetchAdvPropEx",
            "FetchType": "SinglePropByPropID",
            "SinglePropID": {
              "GroupID": {
                "IsDynamic": false,
                "FixedValue": {
                  "Value": 24
                }
              },
              "ID": {
                "IsDynamic": false,
                "FixedValue": {
                  "Value": 300001
                }
              }
            }
          }
        },
        {
          "$type": "RPG.GameCore.EndPerformance"
        }
      ]
    },
    {
      "TaskList": [
        {
          "$type": "RPG.GameCore.WaitPerformanceEnd"
        },
        {
          "$type": "RPG.GameCore.FinishLevelGraph"
        }
      ]
    }
  ]
}