{
  "MainMissionID": 4040204,
  "StartSubMissionList": [
    404020401
  ],
  "FinishSubMissionList": [
    404020403
  ],
  "SubMissionList": [
    {
      "MainMissionID": 4040204,
      "MissionJsonPath": "Config/Level/Mission/4040204/Mission_404020401.json",
      "TakeType": "Auto",
      "ID": 404020401,
      "FinishType": "Talk",
      "ParamType": "Equal",
      "ParamStr1": "Mission_404020401",
      "ParamItemList": [],
      "Progress": 1
    },
    {
      "MainMissionID": 4040204,
      "MissionJsonPath": "Config/Level/Mission/4040204/Mission_404020403.json",
      "TakeType": "AnySequence",
      "TakeParamIntList": [
        404020401
      ],
      "ID": 404020403,
      "FinishType": "Talk",
      "ParamType": "Equal",
      "ParamStr1": "Mission_404020403",
      "ParamItemList": [],
      "Progress": 1
    }
  ]
}