{
  "OnInitSequece": [],
  "OnStartSequece": [
    {
      "TaskList": [
        {
          "$type": "RPG.GameCore.LevelPerformanceInitialize",
          "PerformanceType": "D",
          "LockCamera": false,
          "CreateCharacterList": [],
          "EntityVisiableList": [],
          "StreamingCentersInBlackMask": [],
          "StreamingCentersAfterBlackMask": []
        },
        {
          "$type": "RPG.GameCore.PredicateTaskList",
          "Predicate": {
            "$type": "RPG.GameCore.ByTargetNpcExists",
            "GroupID": 47,
            "GroupNpcID": 400001
          },
          "SuccessTaskList": [
            {
              "$type": "RPG.GameCore.PerformanceTransition",
              "SwitchInTime": 0,
              "SwitchOutTime": 0,
              "CreateNpcList": [
                {
                  "GroupID": {
                    "IsDynamic": false,
                    "FixedValue": {
                      "Value": 44
                    }
                  },
                  "GroupNpcID": {
                    "IsDynamic": false,
                    "FixedValue": {
                      "Value": 400003
                    }
                  }
                }
              ],
              "CaptureNpcList": [],
              "DestroyNpcList": [
                {
                  "GroupID": 47,
                  "GroupNpcID": 400001
                }
              ],
              "ActiveVirtualCamera": {
                "TaskEnabled": false
              },
              "SwitchCharacterAnchor": {
                "IsLocalPlayer": true,
                "AreaName": {
                  "Value": "LevelArea_P20121_F20121001_G44"
                },
                "AnchorName": {
                  "Value": "Anchor2"
                }
              }
            },
            {
              "$type": "RPG.GameCore.PlaySimpleTalk",
              "SimpleTalkList": [
                {
                  "TalkSentenceID": 201214001,
                  "ProtectTime": 0.3
                },
                {
                  "TalkSentenceID": 201214002,
                  "ProtectTime": 0.3
                },
                {
                  "TalkSentenceID": 201214003,
                  "ProtectTime": 0.3
                },
                {
                  "TalkSentenceID": 201214004,
                  "ProtectTime": 0.3
                }
              ]
            },
            {
              "$type": "RPG.GameCore.WaitSimpleTalkFinish"
            },
            {
              "$type": "RPG.GameCore.PlayOptionTalk",
              "OptionList": [
                {
                  "TalkSentenceID": 201214005,
                  "OptionIconType": "ChatContinueIcon",
                  "TriggerCustomString": "TalkSentence_201214005"
                },
                {
                  "TalkSentenceID": 201214007,
                  "OptionIconType": "ChatContinueIcon",
                  "TriggerCustomString": "TalkSentence_201214007"
                },
                {
                  "TalkSentenceID": 201214025,
                  "OptionIconType": "ChatContinueIcon",
                  "TriggerCustomString": "TalkSentence_201214025 "
                }
              ],
              "HideSelected": true
            }
          ],
          "FailedTaskList": [
            {
              "$type": "RPG.GameCore.PredicateTaskList",
              "Predicate": {
                "$type": "RPG.GameCore.ByTargetNpcExists",
                "GroupID": 48,
                "GroupNpcID": 400001
              },
              "SuccessTaskList": [
                {
                  "$type": "RPG.GameCore.PerformanceTransition",
                  "SwitchInTime": 0,
                  "SwitchOutTime": 0,
                  "CreateNpcList": [
                    {
                      "GroupID": {
                        "IsDynamic": false,
                        "FixedValue": {
                          "Value": 44
                        }
                      },
                      "GroupNpcID": {
                        "IsDynamic": false,
                        "FixedValue": {
                          "Value": 400003
                        }
                      }
                    }
                  ],
                  "CaptureNpcList": [],
                  "DestroyNpcList": [
                    {
                      "GroupID": 48,
                      "GroupNpcID": 400001
                    }
                  ],
                  "ActiveVirtualCamera": {
                    "TaskEnabled": false
                  },
                  "SwitchCharacterAnchor": {
                    "IsLocalPlayer": true,
                    "AreaName": {
                      "Value": "LevelArea_P20121_F20121001_G44"
                    },
                    "AnchorName": {
                      "Value": "Anchor2"
                    }
                  }
                },
                {
                  "$type": "RPG.GameCore.PlaySimpleTalk",
                  "SimpleTalkList": [
                    {
                      "TalkSentenceID": 201214001,
                      "ProtectTime": 0.3
                    },
                    {
                      "TalkSentenceID": 201214002,
                      "ProtectTime": 0.3
                    },
                    {
                      "TalkSentenceID": 201214003,
                      "ProtectTime": 0.3
                    },
                    {
                      "TalkSentenceID": 201214004,
                      "ProtectTime": 0.3
                    }
                  ]
                },
                {
                  "$type": "RPG.GameCore.WaitSimpleTalkFinish"
                },
                {
                  "$type": "RPG.GameCore.PlayOptionTalk",
                  "OptionList": [
                    {
                      "TalkSentenceID": 201214005,
                      "OptionIconType": "ChatContinueIcon",
                      "TriggerCustomString": "TalkSentence_201214005"
                    },
                    {
                      "TalkSentenceID": 201214007,
                      "OptionIconType": "ChatContinueIcon",
                      "TriggerCustomString": "TalkSentence_201214007"
                    },
                    {
                      "TalkSentenceID": 201214025,
                      "OptionIconType": "ChatContinueIcon",
                      "TriggerCustomString": "TalkSentence_201214025 "
                    }
                  ],
                  "HideSelected": true
                }
              ],
              "FailedTaskList": [
                {
                  "$type": "RPG.GameCore.PlaySimpleTalk",
                  "SimpleTalkList": [
                    {
                      "TalkSentenceID": 201214001,
                      "ProtectTime": 0.3
                    },
                    {
                      "TalkSentenceID": 201214002,
                      "ProtectTime": 0.3
                    },
                    {
                      "TalkSentenceID": 201214003,
                      "ProtectTime": 0.3
                    },
                    {
                      "TalkSentenceID": 201214004,
                      "ProtectTime": 0.3
                    }
                  ]
                },
                {
                  "$type": "RPG.GameCore.WaitSimpleTalkFinish"
                },
                {
                  "$type": "RPG.GameCore.PlayOptionTalk",
                  "OptionList": [
                    {
                      "TalkSentenceID": 201214005,
                      "OptionIconType": "ChatContinueIcon",
                      "TriggerCustomString": "TalkSentence_201214005"
                    },
                    {
                      "TalkSentenceID": 201214007,
                      "OptionIconType": "ChatContinueIcon",
                      "TriggerCustomString": "TalkSentence_201214007"
                    },
                    {
                      "TalkSentenceID": 201214025,
                      "OptionIconType": "ChatContinueIcon",
                      "TriggerCustomString": "TalkSentence_201214025 "
                    }
                  ],
                  "HideSelected": true
                }
              ]
            }
          ]
        }
      ]
    },
    {
      "TaskList": [
        {
          "$type": "RPG.GameCore.WaitCustomString",
          "CustomString": {
            "Value": "TalkSentence_201214005"
          }
        },
        {
          "$type": "RPG.GameCore.PlaySimpleTalk",
          "SimpleTalkList": [
            {
              "TalkSentenceID": 201214006,
              "ProtectTime": 0.3
            }
          ]
        },
        {
          "$type": "RPG.GameCore.WaitSimpleTalkFinish"
        },
        {
          "$type": "RPG.GameCore.PlayOptionTalk",
          "OptionList": [
            {
              "TalkSentenceID": 201214007,
              "OptionIconType": "ChatContinueIcon",
              "TriggerCustomString": "TalkSentence_201214007"
            }
          ],
          "HideSelected": true
        }
      ]
    },
    {
      "TaskList": [
        {
          "$type": "RPG.GameCore.WaitCustomString",
          "CustomString": {
            "Value": "TalkSentence_201214007"
          }
        },
        {
          "$type": "RPG.GameCore.PlaySimpleTalk",
          "SimpleTalkList": [
            {
              "TalkSentenceID": 201214010,
              "ProtectTime": 0.3
            }
          ]
        },
        {
          "$type": "RPG.GameCore.WaitSimpleTalkFinish"
        },
        {
          "$type": "RPG.GameCore.TriggerCustomString",
          "CustomString": {
            "Value": "TalkSentence_201214011"
          }
        }
      ]
    },
    {
      "TaskList": [
        {
          "$type": "RPG.GameCore.WaitCustomString",
          "CustomString": {
            "Value": "TalkSentence_201214025 "
          }
        },
        {
          "$type": "RPG.GameCore.PlaySimpleTalk",
          "SimpleTalkList": [
            {
              "TalkSentenceID": 201214026,
              "ProtectTime": 0.3
            }
          ]
        },
        {
          "$type": "RPG.GameCore.WaitSimpleTalkFinish"
        },
        {
          "$type": "RPG.GameCore.TriggerCustomString",
          "CustomString": {
            "Value": "TalkSentence_201214011"
          }
        }
      ]
    },
    {
      "TaskList": [
        {
          "$type": "RPG.GameCore.WaitCustomString",
          "CustomString": {
            "Value": "TalkSentence_201214011"
          }
        },
        {
          "$type": "RPG.GameCore.PlaySimpleTalk",
          "SimpleTalkList": [
            {
              "TalkSentenceID": 201214011,
              "ProtectTime": 0.3
            },
            {
              "TalkSentenceID": 201214012,
              "ProtectTime": 0.3
            },
            {
              "TalkSentenceID": 201214013,
              "ProtectTime": 0.3
            },
            {
              "TalkSentenceID": 201214014,
              "ProtectTime": 0.3
            },
            {
              "TalkSentenceID": 201214015,
              "ProtectTime": 0.3
            }
          ]
        },
        {
          "$type": "RPG.GameCore.WaitSimpleTalkFinish"
        },
        {
          "$type": "RPG.GameCore.PlayOptionTalk",
          "OptionList": [
            {
              "TalkSentenceID": 201214016,
              "OptionIconType": "ChatContinueIcon",
              "TriggerCustomString": "TalkSentence_201214016"
            },
            {
              "TalkSentenceID": 201214018,
              "OptionIconType": "ChatContinueIcon",
              "TriggerCustomString": "TalkSentence_201214018"
            }
          ],
          "HideSelected": true
        }
      ]
    },
    {
      "TaskList": [
        {
          "$type": "RPG.GameCore.WaitCustomString",
          "CustomString": {
            "Value": "TalkSentence_201214016"
          }
        },
        {
          "$type": "RPG.GameCore.PlaySimpleTalk",
          "SimpleTalkList": [
            {
              "TalkSentenceID": 201214017,
              "ProtectTime": 0.3
            }
          ]
        },
        {
          "$type": "RPG.GameCore.WaitSimpleTalkFinish"
        },
        {
          "$type": "RPG.GameCore.TriggerCustomString",
          "CustomString": {
            "Value": "TalkSentence_201214020"
          }
        }
      ]
    },
    {
      "TaskList": [
        {
          "$type": "RPG.GameCore.WaitCustomString",
          "CustomString": {
            "Value": "TalkSentence_201214018"
          }
        },
        {
          "$type": "RPG.GameCore.PlaySimpleTalk",
          "SimpleTalkList": [
            {
              "TalkSentenceID": 201214019,
              "ProtectTime": 0.3
            }
          ]
        },
        {
          "$type": "RPG.GameCore.WaitSimpleTalkFinish"
        },
        {
          "$type": "RPG.GameCore.TriggerCustomString",
          "CustomString": {
            "Value": "TalkSentence_201214020"
          }
        }
      ]
    },
    {
      "TaskList": [
        {
          "$type": "RPG.GameCore.WaitCustomString",
          "CustomString": {
            "Value": "TalkSentence_201214020"
          }
        },
        {
          "$type": "RPG.GameCore.PlaySimpleTalk",
          "SimpleTalkList": [
            {
              "TalkSentenceID": 201214020,
              "ProtectTime": 0.3
            }
          ]
        },
        {
          "$type": "RPG.GameCore.WaitSimpleTalkFinish"
        },
        {
          "$type": "RPG.GameCore.PlayOptionTalk",
          "OptionList": [
            {
              "TalkSentenceID": 201214021,
              "OptionIconType": "ChatContinueIcon",
              "TriggerCustomString": "TalkSentence_201214021"
            },
            {
              "TalkSentenceID": 201214022,
              "OptionIconType": "ChatContinueIcon",
              "TriggerCustomString": "TalkSentence_201214021"
            },
            {
              "TalkSentenceID": 201214027,
              "OptionIconType": "ChatContinueIcon",
              "TriggerCustomString": "TalkSentence_201214021"
            }
          ],
          "HideSelected": true
        }
      ]
    },
    {
      "TaskList": [
        {
          "$type": "RPG.GameCore.WaitCustomString",
          "CustomString": {
            "Value": "TalkSentence_201214021"
          }
        },
        {
          "$type": "RPG.GameCore.PlaySimpleTalk",
          "SimpleTalkList": [
            {
              "TalkSentenceID": 201214023,
              "ProtectTime": 0.3
            },
            {
              "TalkSentenceID": 201214024
            }
          ]
        },
        {
          "$type": "RPG.GameCore.WaitSimpleTalkFinish"
        },
        {
          "$type": "RPG.GameCore.EndPerformance"
        }
      ]
    },
    {
      "TaskList": [
        {
          "$type": "RPG.GameCore.WaitPerformanceEnd"
        },
        {
          "$type": "RPG.GameCore.FinishLevelGraph"
        }
      ]
    }
  ]
}