{
  "OnInitSequece": [],
  "OnStartSequece": [
    {
      "TaskList": [
        {
          "$type": "RPG.GameCore.CollectDataConditions",
          "TaskIDList": [
            201140204,
            201140210,
            201140218,
            101150213,
            101150231,
            301140302,
            201130201,
            101110208,
            201110110,
            201130203,
            201140504,
            404012603,
            404012607
          ],
          "PerformanceIDList": [
            501029410,
            501029411,
            501029412,
            501029413,
            501029414
          ]
        },
        {
          "$type": "RPG.GameCore.PredicateTaskList",
          "Predicate": {
            "$type": "RPG.GameCore.ByCompareSubMissionState",
            "SubMissionID": 201140204,
            "SubMissionState": "Started"
          },
          "SuccessTaskList": [
            {
              "$type": "RPG.GameCore.AddMenuItem",
              "MenuItemID": 201140204,
              "DialoguePath": "Config/Level/NPCDialogue/P10101/F10101007_G5/DialogueItem201140204_F10101007_G5_N400002.json",
              "ExtraInfo": 2,
              "MissionID": 201140204
            }
          ]
        },
        {
          "$type": "RPG.GameCore.PredicateTaskList",
          "Predicate": {
            "$type": "RPG.GameCore.ByCompareSubMissionState",
            "SubMissionID": 201140210,
            "SubMissionState": "Started"
          },
          "SuccessTaskList": [
            {
              "$type": "RPG.GameCore.AddMenuItem",
              "MenuItemID": 201140210,
              "DialoguePath": "Config/Level/NPCDialogue/P10101/F10101007_G5/DialogueItem201140210_F10101007_G5_N400002.json",
              "ExtraInfo": 2,
              "MissionID": 201140210
            }
          ]
        },
        {
          "$type": "RPG.GameCore.PredicateTaskList",
          "Predicate": {
            "$type": "RPG.GameCore.ByCompareSubMissionState",
            "SubMissionID": 201140218,
            "SubMissionState": "Started"
          },
          "SuccessTaskList": [
            {
              "$type": "RPG.GameCore.AddMenuItem",
              "MenuItemID": 201140218,
              "DialoguePath": "Config/Level/NPCDialogue/P10101/F10101007_G5/DialogueItem201140218_F10101007_G5_N400002.json",
              "ExtraInfo": 2,
              "MissionID": 201140218
            }
          ]
        },
        {
          "$type": "RPG.GameCore.PredicateTaskList",
          "Predicate": {
            "$type": "RPG.GameCore.ByAnd",
            "PredicateList": [
              {
                "$type": "RPG.GameCore.ByCompareSubMissionState",
                "SubMissionID": 101150213,
                "SubMissionState": "Finish"
              },
              {
                "$type": "RPG.GameCore.ByCompareSubMissionState",
                "SubMissionID": 101150231,
                "SubMissionState": "Finish",
                "Inverse": true
              }
            ]
          },
          "SuccessTaskList": [
            {
              "$type": "RPG.GameCore.AddMenuItem",
              "MenuItemID": 101150233,
              "MenuIconType": "ChatIcon",
              "DialoguePath": "Config/Level/NPCDialogue/P10101/F10101007_G5/DialogueItem101150233_F10101007_G5_N400002.json"
            }
          ]
        },
        {
          "$type": "RPG.GameCore.PredicateTaskList",
          "Predicate": {
            "$type": "RPG.GameCore.ByCompareSubMissionState",
            "SubMissionID": 301140302,
            "SubMissionState": "Started"
          },
          "SuccessTaskList": [
            {
              "$type": "RPG.GameCore.AddMenuItem",
              "MenuItemID": 301140302,
              "DialoguePath": "Config/Level/NPCDialogue/P10101/F10101007_G5/DialogueItem301140302_F10101007_G5_N400002.json",
              "ExtraInfo": 2,
              "MissionID": 301140302
            }
          ]
        },
        {
          "$type": "RPG.GameCore.PredicateTaskList",
          "Predicate": {
            "$type": "RPG.GameCore.ByCompareSubMissionState",
            "SubMissionID": 201130201,
            "SubMissionState": "Started"
          },
          "SuccessTaskList": [
            {
              "$type": "RPG.GameCore.AddMenuItem",
              "MenuItemID": 202021265,
              "DialoguePath": "Config/Level/NPCDialogue/P10101/F10101007_G5/DialogueItem201130201_F10101007_G5_N400002.json",
              "ExtraInfo": 2,
              "MissionID": 201130201
            }
          ]
        },
        {
          "$type": "RPG.GameCore.PredicateTaskList",
          "Predicate": {
            "$type": "RPG.GameCore.ByAnd",
            "PredicateList": [
              {
                "$type": "RPG.GameCore.ByCompareSubMissionState",
                "SubMissionID": 201110110,
                "SubMissionState": "Finish"
              },
              {
                "$type": "RPG.GameCore.ByComparePerformance",
                "PerformanceID": 501029411
              },
              {
                "$type": "RPG.GameCore.ByCompareSubMissionState",
                "SubMissionID": 201130203,
                "SubMissionState": "Finish",
                "Inverse": true
              }
            ]
          },
          "SuccessTaskList": [
            {
              "$type": "RPG.GameCore.AddMenuItem",
              "MenuItemID": 501029411,
              "MenuIconType": "ChatIcon",
              "DialoguePath": "Config/Level/NPCDialogue/P10101/F10101007_G5/DialogueItem501029411_F10101007_G5_N400002.json"
            }
          ]
        },
        {
          "$type": "RPG.GameCore.PredicateTaskList",
          "Predicate": {
            "$type": "RPG.GameCore.ByAnd",
            "PredicateList": [
              {
                "$type": "RPG.GameCore.ByCompareSubMissionState",
                "SubMissionID": 201130203,
                "SubMissionState": "Finish"
              },
              {
                "$type": "RPG.GameCore.ByComparePerformance",
                "PerformanceID": 501029412
              }
            ]
          },
          "SuccessTaskList": [
            {
              "$type": "RPG.GameCore.AddMenuItem",
              "MenuItemID": 501029412,
              "MenuIconType": "ChatIcon",
              "DialoguePath": "Config/Level/NPCDialogue/P10101/F10101007_G5/DialogueItem501029412_F10101007_G5_N400002.json"
            }
          ]
        },
        {
          "$type": "RPG.GameCore.PredicateTaskList",
          "Predicate": {
            "$type": "RPG.GameCore.ByAnd",
            "PredicateList": [
              {
                "$type": "RPG.GameCore.ByCompareSubMissionState",
                "SubMissionID": 201140218,
                "SubMissionState": "Finish"
              },
              {
                "$type": "RPG.GameCore.ByComparePerformance",
                "PerformanceID": 501029413
              },
              {
                "$type": "RPG.GameCore.ByCompareSubMissionState",
                "SubMissionID": 201140504,
                "SubMissionState": "Finish",
                "Inverse": true
              }
            ]
          },
          "SuccessTaskList": [
            {
              "$type": "RPG.GameCore.AddMenuItem",
              "MenuItemID": 501029413,
              "MenuIconType": "ChatIcon",
              "DialoguePath": "Config/Level/NPCDialogue/P10101/F10101007_G5/DialogueItem501029413_F10101007_G5_N400002.json"
            }
          ]
        },
        {
          "$type": "RPG.GameCore.PredicateTaskList",
          "Predicate": {
            "$type": "RPG.GameCore.ByAnd",
            "PredicateList": [
              {
                "$type": "RPG.GameCore.ByCompareSubMissionState",
                "SubMissionID": 201140504,
                "SubMissionState": "Finish"
              },
              {
                "$type": "RPG.GameCore.ByComparePerformance",
                "PerformanceID": 501029414
              }
            ]
          },
          "SuccessTaskList": [
            {
              "$type": "RPG.GameCore.AddMenuItem",
              "MenuItemID": 501029414,
              "MenuIconType": "ChatIcon",
              "DialoguePath": "Config/Level/NPCDialogue/P10101/F10101007_G5/DialogueItem501029414_F10101007_G5_N400002.json"
            }
          ]
        },
        {
          "$type": "RPG.GameCore.PredicateTaskList",
          "Predicate": {
            "$type": "RPG.GameCore.ByCompareSubMissionState",
            "SubMissionID": 404012603,
            "SubMissionState": "Started"
          },
          "SuccessTaskList": [
            {
              "$type": "RPG.GameCore.AddMenuItem",
              "MenuItemID": 404012601,
              "MenuIconType": "SecretMissionIcon",
              "DialoguePath": "Config/Level/NPCDialogue/P10101/F10101007_G5/DialogueItem404012601_F10101007_G5_N400002.json"
            }
          ]
        },
        {
          "$type": "RPG.GameCore.PredicateTaskList",
          "Predicate": {
            "$type": "RPG.GameCore.ByCompareSubMissionState",
            "SubMissionID": 404012607,
            "SubMissionState": "Started"
          },
          "SuccessTaskList": [
            {
              "$type": "RPG.GameCore.AddMenuItem",
              "MenuItemID": 404012601,
              "MenuIconType": "SecretMissionIcon",
              "DialoguePath": "Config/Level/NPCDialogue/P10101/F10101007_G5/DialogueItem404012602_F10101007_G5_N400002.json"
            }
          ]
        },
        {
          "$type": "RPG.GameCore.PredicateTaskList",
          "Predicate": {
            "$type": "RPG.GameCore.ByAnd",
            "PredicateList": [
              {
                "$type": "RPG.GameCore.ByCompareSubMissionState",
                "SubMissionID": 101110208,
                "SubMissionState": "Finish"
              },
              {
                "$type": "RPG.GameCore.ByComparePerformance",
                "PerformanceID": 501029410
              }
            ]
          },
          "SuccessTaskList": [
            {
              "$type": "RPG.GameCore.AddMenuItem",
              "MenuItemID": 501029410,
              "MenuIconType": "ChatIcon",
              "DialoguePath": "Config/Level/NPCDialogue/P10101/F10101007_G5/DialogueItem501029410_F10101007_G5_N400002.json"
            }
          ]
        }
      ]
    }
  ]
}