{
  "OnInitSequece": [],
  "OnStartSequece": [
    {
      "TaskList": [
        {
          "$type": "RPG.GameCore.CollectDataConditions",
          "TaskIDList": [
            100010150
          ],
          "PerformanceIDList": []
        },
        {
          "$type": "RPG.GameCore.LevelPerformanceInitialize",
          "PerformanceType": "E",
          "LockCamera": false,
          "CreateCharacterList": [],
          "EntityVisiableList": [],
          "PropVisiableList": [],
          "StreamingCentersInBlackMask": [],
          "StreamingCentersAfterBlackMask": [],
          "MarkStreamingItems": []
        },
        {
          "$type": "RPG.GameCore.AdvEnablePropDialogMode",
          "LockPlayerControl": false,
          "TargetType": {
            "$type": "RPG.GameCore.TargetFetchAdvPropEx",
            "FetchType": "SinglePropByPropID",
            "SinglePropID": {
              "GroupID": {
                "IsDynamic": false,
                "FixedValue": {
                  "Value": 83
                }
              },
              "ID": {
                "IsDynamic": false,
                "FixedValue": {
                  "Value": 300004
                }
              }
            }
          }
        },
        {
          "$type": "RPG.GameCore.PredicateTaskList",
          "Predicate": {
            "$type": "RPG.GameCore.ByCompareSubMissionState",
            "SubMissionID": 100010150,
            "SubMissionState": "Started"
          },
          "SuccessTaskList": [
            {
              "$type": "RPG.GameCore.PlaySimpleTalk",
              "SimpleTalkList": [
                {
                  "TalkSentenceID": 100019644,
                  "ProtectTime": 0.3
                },
                {
                  "TalkSentenceID": 100019646,
                  "ProtectTime": 0.3
                }
              ]
            },
            {
              "$type": "RPG.GameCore.WaitSimpleTalkFinish"
            },
            {
              "$type": "RPG.GameCore.EndPerformance"
            }
          ],
          "FailedTaskList": [
            {
              "$type": "RPG.GameCore.PlaySimpleTalk",
              "SimpleTalkList": [
                {
                  "TalkSentenceID": 100019644,
                  "ProtectTime": 0.3
                },
                {
                  "TalkSentenceID": 100019645,
                  "ProtectTime": 0.3
                }
              ]
            },
            {
              "$type": "RPG.GameCore.WaitSimpleTalkFinish"
            },
            {
              "$type": "RPG.GameCore.EndPerformance"
            }
          ]
        }
      ]
    },
    {
      "TaskList": [
        {
          "$type": "RPG.GameCore.WaitPerformanceEnd"
        },
        {
          "$type": "RPG.GameCore.FinishLevelGraph"
        }
      ]
    }
  ]
}