{
  "311020": {
    "ActivityModuleID": 2000101,
    "AvatarDemoStageID": 311020
  },
  "311060": {
    "ActivityModuleID": 2000101,
    "AvatarDemoStageID": 311060
  },
  "311090": {
    "ActivityModuleID": 2000101,
    "AvatarDemoStageID": 311090
  },
  "311050": {
    "ActivityModuleID": 2000101,
    "AvatarDemoStageID": 311050
  },
  "312040": {
    "ActivityModuleID": 2000401,
    "AvatarDemoStageID": 312040
  },
  "312060": {
    "ActivityModuleID": 2000401,
    "AvatarDemoStageID": 312060
  },
  "312020": {
    "ActivityModuleID": 2000401,
    "AvatarDemoStageID": 312020
  },
  "310010": {
    "ActivityModuleID": 2000401,
    "AvatarDemoStageID": 310010
  }
}