{
  "311020": {
    "0": {
      "StageID": 311020,
      "Index": 0,
      "AvatarDemoIntroduction": {
        "Hash": 1453245220
      }
    },
    "1": {
      "StageID": 311020,
      "Index": 1,
      "AvatarDemoIntroduction": {
        "Hash": 1453245221
      }
    }
  },
  "311050": {
    "0": {
      "StageID": 311050,
      "Index": 0,
      "AvatarDemoIntroduction": {
        "Hash": 915446407
      }
    },
    "1": {
      "StageID": 311050,
      "Index": 1,
      "AvatarDemoIntroduction": {
        "Hash": 915446408
      }
    }
  },
  "311060": {
    "0": {
      "StageID": 311060,
      "Index": 0,
      "AvatarDemoIntroduction": {
        "Hash": 532364856
      }
    },
    "1": {
      "StageID": 311060,
      "Index": 1,
      "AvatarDemoIntroduction": {
        "Hash": 532364857
      }
    }
  },
  "311090": {
    "0": {
      "StageID": 311090,
      "Index": 0,
      "AvatarDemoIntroduction": {
        "Hash": -616879797
      }
    },
    "1": {
      "StageID": 311090,
      "Index": 1,
      "AvatarDemoIntroduction": {
        "Hash": -616879796
      }
    }
  },
  "312040": {
    "0": {
      "StageID": 312040,
      "Index": 0,
      "AvatarDemoIntroduction": {
        "Hash": 410888669
      }
    },
    "1": {
      "StageID": 312040,
      "Index": 1,
      "AvatarDemoIntroduction": {
        "Hash": 410888670
      }
    }
  },
  "311030": {
    "0": {
      "StageID": 311030,
      "Index": 0,
      "AvatarDemoIntroduction": {
        "Hash": 1554001769
      }
    },
    "1": {
      "StageID": 311030,
      "Index": 1,
      "AvatarDemoIntroduction": {
        "Hash": 1554001770
      }
    }
  },
  "312020": {
    "0": {
      "StageID": 312020,
      "Index": 0,
      "AvatarDemoIntroduction": {
        "Hash": 1614094035
      }
    },
    "1": {
      "StageID": 312020,
      "Index": 1,
      "AvatarDemoIntroduction": {
        "Hash": 1614094036
      }
    }
  },
  "312060": {
    "0": {
      "StageID": 312060,
      "Index": 0,
      "AvatarDemoIntroduction": {
        "Hash": 693213671
      }
    }
  },
  "310010": {
    "0": {
      "StageID": 310010,
      "Index": 0,
      "AvatarDemoIntroduction": {
        "Hash": -416658354
      }
    },
    "1": {
      "StageID": 310010,
      "Index": 1,
      "AvatarDemoIntroduction": {
        "Hash": -416658353
      }
    }
  }
}