{
  "310130": {
    "StageID": 310130,
    "AvatarID": 1013,
    "TrialAvatarList": [
      2000021,
      2000022
    ],
    "AvatarBackgroundPath": "SpriteOutput/UI/Quest/TrialRole/Herta.png",
    "AvatarCutinPath": "SpriteOutput/UI/Quest/TrialRole/1102.png",
    "AvatarIntroCutinPath": "SpriteOutput/AvatarShopIcon/1102.png",
    "OperationRecordPath": "",
    "PlaneID": 20111,
    "FloorID": 20111001,
    "BattleAreaGroupID": 2,
    "BattleAreaID": 1,
    "AvatarDemoGuide": {
      "Hash": 371857150
    }
  },
  "310010": {
    "StageID": 310010,
    "AvatarID": 1001,
    "TrialAvatarList": [
      2000081,
      2000082,
      2000083,
      2000084
    ],
    "AvatarBackgroundPath": "SpriteOutput/UI/Quest/TrialRole/1001Bg.png",
    "AvatarCutinPath": "SpriteOutput/UI/Quest/TrialRole/1001.png",
    "AvatarIntroCutinPath": "SpriteOutput/AvatarShopIcon/1001.png",
    "RewardID": 3011001,
    "RaidID": 9992001,
    "OperationRecordPath": "",
    "ScoringGroupID": 5001,
    "GuideGroupID": 31001,
    "PlaneID": 20111,
    "FloorID": 20111001,
    "BattleAreaGroupID": 2,
    "BattleAreaID": 1,
    "AvatarDemoGuide": {
      "Hash": 1744077107
    }
  },
  "312020": {
    "StageID": 312020,
    "AvatarID": 1202,
    "TrialAvatarList": [
      2000101,
      2000102,
      2000103
    ],
    "AvatarBackgroundPath": "SpriteOutput/UI/Quest/TrialRole/1202Bg.png",
    "AvatarCutinPath": "SpriteOutput/UI/Quest/TrialRole/1202.png",
    "AvatarIntroCutinPath": "SpriteOutput/AvatarShopIcon/1202.png",
    "RewardID": 3011202,
    "RaidID": 9992001,
    "OperationRecordPath": "",
    "ScoringGroupID": 5001,
    "GuideGroupID": 31202,
    "PlaneID": 20111,
    "FloorID": 20111001,
    "BattleAreaGroupID": 2,
    "BattleAreaID": 1,
    "AvatarDemoGuide": {
      "Hash": 460318168
    }
  },
  "311020": {
    "StageID": 311020,
    "AvatarID": 1102,
    "TrialAvatarList": [
      2000001,
      2000002
    ],
    "AvatarBackgroundPath": "SpriteOutput/UI/Quest/TrialRole/1102Bg.png",
    "AvatarCutinPath": "SpriteOutput/UI/Quest/TrialRole/1102.png",
    "AvatarIntroCutinPath": "SpriteOutput/AvatarShopIcon/1102.png",
    "RewardID": 3011102,
    "RaidID": 9998903,
    "OperationRecordPath": "",
    "ScoringGroupID": 5001,
    "GuideGroupID": 31102,
    "PlaneID": 20111,
    "FloorID": 20111001,
    "BattleAreaGroupID": 2,
    "BattleAreaID": 1,
    "AvatarDemoGuide": {
      "Hash": 561074717
    }
  },
  "311050": {
    "StageID": 311050,
    "AvatarID": 1105,
    "TrialAvatarList": [
      2000031,
      2000032,
      2000033,
      2000034
    ],
    "AvatarBackgroundPath": "SpriteOutput/UI/Quest/TrialRole/1105Bg.png",
    "AvatarCutinPath": "SpriteOutput/UI/Quest/TrialRole/1105.png",
    "AvatarIntroCutinPath": "SpriteOutput/AvatarShopIcon/1105.png",
    "RewardID": 3011105,
    "RaidID": 9998904,
    "OperationRecordPath": "",
    "ScoringGroupID": 5001,
    "GuideGroupID": 31105,
    "PlaneID": 20111,
    "FloorID": 20111001,
    "BattleAreaGroupID": 2,
    "BattleAreaID": 1,
    "AvatarDemoGuide": {
      "Hash": 964359244
    }
  },
  "311060": {
    "StageID": 311060,
    "AvatarID": 1106,
    "TrialAvatarList": [
      2000041,
      2000042,
      2000043,
      2000044
    ],
    "AvatarBackgroundPath": "SpriteOutput/UI/Quest/TrialRole/1106Bg.png",
    "AvatarCutinPath": "SpriteOutput/UI/Quest/TrialRole/1106.png",
    "AvatarIntroCutinPath": "SpriteOutput/AvatarShopIcon/1106.png",
    "RewardID": 3011106,
    "RaidID": 9998902,
    "OperationRecordPath": "",
    "ScoringGroupID": 5001,
    "GuideGroupID": 31106,
    "PlaneID": 20111,
    "FloorID": 20111001,
    "BattleAreaGroupID": 2,
    "BattleAreaID": 1,
    "AvatarDemoGuide": {
      "Hash": -1764524111
    }
  },
  "311090": {
    "StageID": 311090,
    "AvatarID": 1109,
    "TrialAvatarList": [
      2000051,
      2000053
    ],
    "AvatarBackgroundPath": "SpriteOutput/UI/Quest/TrialRole/1109Bg.png",
    "AvatarCutinPath": "SpriteOutput/UI/Quest/TrialRole/1109.png",
    "AvatarIntroCutinPath": "SpriteOutput/AvatarShopIcon/1109.png",
    "RewardID": 3011109,
    "RaidID": 9998901,
    "OperationRecordPath": "",
    "ScoringGroupID": 5001,
    "GuideGroupID": 31109,
    "PlaneID": 20111,
    "FloorID": 20111001,
    "BattleAreaGroupID": 2,
    "BattleAreaID": 1,
    "AvatarDemoGuide": {
      "Hash": -1361239584
    }
  },
  "312040": {
    "StageID": 312040,
    "AvatarID": 1204,
    "TrialAvatarList": [
      2000091,
      2000092
    ],
    "AvatarBackgroundPath": "SpriteOutput/UI/Quest/TrialRole/1204Bg.png",
    "AvatarCutinPath": "SpriteOutput/UI/Quest/TrialRole/1204.png",
    "AvatarIntroCutinPath": "SpriteOutput/AvatarShopIcon/1204.png",
    "RewardID": 3011204,
    "RaidID": 9992001,
    "OperationRecordPath": "",
    "ScoringGroupID": 5001,
    "GuideGroupID": 31204,
    "PlaneID": 20111,
    "FloorID": 20111001,
    "BattleAreaGroupID": 2,
    "BattleAreaID": 1,
    "AvatarDemoGuide": {
      "Hash": 1266887222
    }
  },
  "311030": {
    "StageID": 311030,
    "AvatarID": 1103,
    "TrialAvatarList": [
      2000061,
      2000062
    ],
    "AvatarBackgroundPath": "SpriteOutput/UI/Quest/TrialRole/1103Bg.png",
    "AvatarCutinPath": "SpriteOutput/UI/Quest/TrialRole/1103.png",
    "AvatarIntroCutinPath": "SpriteOutput/AvatarShopIcon/1103.png",
    "RewardID": 3011103,
    "RaidID": 9992001,
    "OperationRecordPath": "",
    "ScoringGroupID": 5001,
    "GuideGroupID": 31103,
    "PlaneID": 20111,
    "FloorID": 20111001,
    "BattleAreaGroupID": 2,
    "BattleAreaID": 1,
    "AvatarDemoGuide": {
      "Hash": 2127158658
    }
  },
  "312060": {
    "StageID": 312060,
    "AvatarID": 1206,
    "TrialAvatarList": [
      2000071,
      2000072,
      2000073
    ],
    "AvatarBackgroundPath": "SpriteOutput/UI/Quest/TrialRole/1206Bg.png",
    "AvatarCutinPath": "SpriteOutput/UI/Quest/TrialRole/1206.png",
    "AvatarIntroCutinPath": "SpriteOutput/AvatarShopIcon/1206.png",
    "RewardID": 3011206,
    "RaidID": 9992001,
    "OperationRecordPath": "",
    "ScoringGroupID": 5001,
    "GuideGroupID": 31206,
    "PlaneID": 20111,
    "FloorID": 20111001,
    "BattleAreaGroupID": 2,
    "BattleAreaID": 1,
    "AvatarDemoGuide": {
      "Hash": -1865280660
    }
  }
}