{
  "2000204": {
    "ID": 2000204,
    "ShowTime": true
  },
  "2000205": {
    "ID": 2000205,
    "ShowTime": true
  },
  "2000206": {
    "ID": 2000206,
    "ShowTime": true
  },
  "2000208": {
    "ID": 2000208,
    "ShowTime": true
  }
}