{
  "1": {
    "CurrencyID": 1,
    "GotoID": 3800
  },
  "2": {
    "CurrencyID": 2
  },
  "3": {
    "CurrencyID": 3,
    "GotoID": 605
  },
  "11": {
    "CurrencyID": 11,
    "GotoID": 1700
  },
  "900001": {
    "CurrencyID": 900001
  },
  "101": {
    "CurrencyID": 101
  },
  "102": {
    "CurrencyID": 102
  },
  "31": {
    "CurrencyID": 31
  },
  "32": {
    "CurrencyID": 32
  },
  "33": {
    "CurrencyID": 33,
    "GotoID": 4200
  },
  "251": {
    "CurrencyID": 251
  },
  "252": {
    "CurrencyID": 252
  },
  "261": {
    "CurrencyID": 261
  },
  "503": {
    "CurrencyID": 503
  },
  "100001": {
    "CurrencyID": 100001
  },
  "120000": {
    "CurrencyID": 120000
  },
  "120001": {
    "CurrencyID": 120001
  },
  "120002": {
    "CurrencyID": 120002
  }
}