{
  "200": {
    "ID": 200,
    "GotoType": 2,
    "ParamIntList": [],
    "ParamStringList": [],
    "UnlockMainMission": 1010301,
    "UnlockID": 200
  },
  "300": {
    "ID": 300,
    "GotoType": 3,
    "ParamIntList": [],
    "ParamStringList": [],
    "UnlockMainMission": 1010401,
    "UnlockID": 300
  },
  "400": {
    "ID": 400,
    "GotoType": 4,
    "ParamIntList": [],
    "ParamStringList": [],
    "UnlockID": 400
  },
  "500": {
    "ID": 500,
    "GotoType": 5,
    "ParamIntList": [],
    "ParamStringList": [],
    "UnlockID": 500
  },
  "600": {
    "ID": 600,
    "GotoType": 6,
    "ParamIntList": [],
    "ParamStringList": [],
    "UnlockMainMission": 1010401,
    "UnlockID": 600
  },
  "700": {
    "ID": 700,
    "GotoType": 7,
    "ParamIntList": [],
    "ParamStringList": [],
    "UnlockID": 700
  },
  "800": {
    "ID": 800,
    "GotoType": 8,
    "ParamIntList": [],
    "ParamStringList": [],
    "UnlockMainMission": 1010503,
    "UnlockID": 800
  },
  "900": {
    "ID": 900,
    "GotoType": 9,
    "ParamIntList": [],
    "ParamStringList": [],
    "UnlockID": 900
  },
  "1000": {
    "ID": 1000,
    "GotoType": 10,
    "ParamIntList": [],
    "ParamStringList": []
  },
  "1100": {
    "ID": 1100,
    "GotoType": 11,
    "ParamIntList": [],
    "ParamStringList": []
  },
  "1200": {
    "ID": 1200,
    "GotoType": 12,
    "ParamIntList": [],
    "ParamStringList": [
      "OpenURL6",
      "operation_feedback_url"
    ]
  },
  "1300": {
    "ID": 1300,
    "GotoType": 13,
    "ParamIntList": [],
    "ParamStringList": []
  },
  "1400": {
    "ID": 1400,
    "GotoType": 14,
    "ParamIntList": [],
    "ParamStringList": [],
    "UnlockID": 1400
  },
  "1500": {
    "ID": 1500,
    "GotoType": 15,
    "ParamIntList": [],
    "ParamStringList": [],
    "UnlockMainMission": 1010503,
    "UnlockID": 1500
  },
  "1600": {
    "ID": 1600,
    "GotoType": 16,
    "ParamIntList": [],
    "ParamStringList": []
  },
  "1700": {
    "ID": 1700,
    "GotoType": 17,
    "ParamIntList": [],
    "ParamStringList": []
  },
  "1800": {
    "ID": 1800,
    "GotoType": 18,
    "ParamIntList": [],
    "ParamStringList": [],
    "UnlockMainMission": 1010301,
    "UnlockID": 1800
  },
  "1900": {
    "ID": 1900,
    "GotoType": 19,
    "ParamIntList": [],
    "ParamStringList": [],
    "UnlockID": 1900
  },
  "2000": {
    "ID": 2000,
    "GotoType": 20,
    "ParamIntList": [],
    "ParamStringList": []
  },
  "2100": {
    "ID": 2100,
    "GotoType": 21,
    "ParamIntList": [],
    "ParamStringList": [],
    "UnlockID": 2100
  },
  "2200": {
    "ID": 2200,
    "GotoType": 22,
    "ParamIntList": [],
    "ParamStringList": []
  },
  "2300": {
    "ID": 2300,
    "GotoType": 23,
    "ParamIntList": [],
    "ParamStringList": [],
    "UnlockID": 2300
  },
  "2500": {
    "ID": 2500,
    "GotoType": 25,
    "ParamIntList": [],
    "ParamStringList": [],
    "UnlockID": 2500
  },
  "2600": {
    "ID": 2600,
    "GotoType": 12,
    "ParamIntList": [],
    "ParamStringList": [
      "OpenURL7",
      "custom_service_url"
    ]
  },
  "2700": {
    "ID": 2700,
    "GotoType": 26,
    "ParamIntList": [],
    "ParamStringList": []
  },
  "2800": {
    "ID": 2800,
    "GotoType": 27,
    "ParamIntList": [],
    "ParamStringList": []
  },
  "2900": {
    "ID": 2900,
    "GotoType": 28,
    "ParamIntList": [],
    "ParamStringList": []
  },
  "3000": {
    "ID": 3000,
    "GotoType": 29,
    "ParamIntList": [],
    "ParamStringList": [],
    "UnlockID": 2900
  },
  "3100": {
    "ID": 3100,
    "GotoType": 30,
    "ParamIntList": [],
    "ParamStringList": [],
    "UnlockID": 3100
  },
  "3101": {
    "ID": 3101,
    "GotoType": 30,
    "ParamIntList": [],
    "ParamStringList": [],
    "UnlockID": 3101
  },
  "3102": {
    "ID": 3102,
    "GotoType": 30,
    "ParamIntList": [],
    "ParamStringList": [],
    "UnlockID": 3102
  },
  "3103": {
    "ID": 3103,
    "GotoType": 30,
    "ParamIntList": [],
    "ParamStringList": [],
    "UnlockID": 3103
  },
  "3104": {
    "ID": 3104,
    "GotoType": 30,
    "ParamIntList": [],
    "ParamStringList": [],
    "UnlockID": 3104
  },
  "3105": {
    "ID": 3105,
    "GotoType": 30,
    "ParamIntList": [],
    "ParamStringList": [],
    "UnlockID": 3105
  },
  "3106": {
    "ID": 3106,
    "GotoType": 30,
    "ParamIntList": [],
    "ParamStringList": [],
    "UnlockID": 3106
  },
  "3107": {
    "ID": 3107,
    "GotoType": 30,
    "ParamIntList": [],
    "ParamStringList": [],
    "UnlockID": 3107
  },
  "3108": {
    "ID": 3108,
    "GotoType": 30,
    "ParamIntList": [],
    "ParamStringList": [],
    "UnlockID": 3108
  },
  "3109": {
    "ID": 3109,
    "GotoType": 30,
    "ParamIntList": [],
    "ParamStringList": [],
    "UnlockID": 3109
  },
  "3200": {
    "ID": 3200,
    "GotoType": 32,
    "ParamIntList": [
      2
    ],
    "ParamStringList": [],
    "UnlockID": 3200
  },
  "3300": {
    "ID": 3300,
    "GotoType": 31,
    "ParamIntList": [],
    "ParamStringList": [],
    "UnlockID": 3300
  },
  "3400": {
    "ID": 3400,
    "GotoType": 33,
    "ParamIntList": [],
    "ParamStringList": [],
    "UnlockID": 10001
  },
  "3500": {
    "ID": 3500,
    "GotoType": 34,
    "ParamIntList": [],
    "ParamStringList": [],
    "UnlockID": 3400
  },
  "3600": {
    "ID": 3600,
    "GotoType": 36,
    "ParamIntList": [],
    "ParamStringList": [],
    "UnlockID": 3600
  },
  "3601": {
    "ID": 3601,
    "GotoType": 36,
    "ParamIntList": [
      101
    ],
    "ParamStringList": []
  },
  "3700": {
    "ID": 3700,
    "GotoType": 37,
    "ParamIntList": [],
    "ParamStringList": []
  },
  "3800": {
    "ID": 3800,
    "GotoType": 38,
    "ParamIntList": [],
    "ParamStringList": []
  },
  "3900": {
    "ID": 3900,
    "GotoType": 39,
    "ParamIntList": [],
    "ParamStringList": [],
    "UnlockID": 3900
  },
  "4000": {
    "ID": 4000,
    "GotoType": 40,
    "ParamIntList": [],
    "ParamStringList": []
  },
  "4100": {
    "ID": 4100,
    "GotoType": 41,
    "ParamIntList": [],
    "ParamStringList": [],
    "UnlockID": 4100
  },
  "4101": {
    "ID": 4101,
    "GotoType": 41,
    "ParamIntList": [],
    "ParamStringList": [],
    "UnlockID": 10004
  },
  "4200": {
    "ID": 4200,
    "GotoType": 42,
    "ParamIntList": [],
    "ParamStringList": []
  },
  "4300": {
    "ID": 4300,
    "GotoType": 43,
    "ParamIntList": [],
    "ParamStringList": [],
    "UnlockID": 4300
  },
  "201": {
    "ID": 201,
    "GotoType": 2,
    "ParamIntList": [
      1000001,
      0
    ],
    "ParamStringList": [],
    "UnlockMainMission": 1010301,
    "UnlockID": 200
  },
  "202": {
    "ID": 202,
    "GotoType": 2,
    "ParamIntList": [
      1010101,
      0
    ],
    "ParamStringList": [],
    "UnlockMainMission": 1010301,
    "UnlockID": 200
  },
  "203": {
    "ID": 203,
    "GotoType": 2,
    "ParamIntList": [
      1010201,
      0
    ],
    "ParamStringList": [],
    "UnlockMainMission": 1010301,
    "UnlockID": 200
  },
  "204": {
    "ID": 204,
    "GotoType": 2,
    "ParamIntList": [
      2010101,
      0
    ],
    "ParamStringList": [],
    "UnlockID": 200
  },
  "205": {
    "ID": 205,
    "GotoType": 2,
    "ParamIntList": [
      2011101,
      0
    ],
    "ParamStringList": [],
    "UnlockID": 200
  },
  "206": {
    "ID": 206,
    "GotoType": 2,
    "ParamIntList": [
      2012101,
      0
    ],
    "ParamStringList": [],
    "UnlockID": 200
  },
  "207": {
    "ID": 207,
    "GotoType": 2,
    "ParamIntList": [
      2012201,
      0
    ],
    "ParamStringList": [],
    "UnlockID": 200
  },
  "208": {
    "ID": 208,
    "GotoType": 2,
    "ParamIntList": [
      2012301,
      0
    ],
    "ParamStringList": [],
    "UnlockID": 200
  },
  "209": {
    "ID": 209,
    "GotoType": 2,
    "ParamIntList": [
      2013101,
      0
    ],
    "ParamStringList": [],
    "UnlockID": 200
  },
  "210": {
    "ID": 210,
    "GotoType": 2,
    "ParamIntList": [
      2013201,
      0
    ],
    "ParamStringList": [],
    "UnlockID": 200
  },
  "211": {
    "ID": 211,
    "GotoType": 2,
    "ParamIntList": [
      1000101,
      0
    ],
    "ParamStringList": [],
    "UnlockID": 200
  },
  "212": {
    "ID": 212,
    "GotoType": 2,
    "ParamIntList": [
      2000101,
      0
    ],
    "ParamStringList": [],
    "UnlockID": 200
  },
  "213": {
    "ID": 213,
    "GotoType": 2,
    "ParamIntList": [
      2000201,
      0
    ],
    "ParamStringList": [],
    "UnlockID": 200
  },
  "214": {
    "ID": 214,
    "GotoType": 2,
    "ParamIntList": [
      2000301,
      0
    ],
    "ParamStringList": [],
    "UnlockID": 200
  },
  "215": {
    "ID": 215,
    "GotoType": 2,
    "ParamIntList": [
      1000101,
      2219
    ],
    "ParamStringList": [],
    "UnlockID": 200
  },
  "216": {
    "ID": 216,
    "GotoType": 2,
    "ParamIntList": [
      2013401,
      0
    ],
    "ParamStringList": [],
    "UnlockID": 200
  },
  "217": {
    "ID": 217,
    "GotoType": 2,
    "ParamIntList": [
      1000001,
      2215
    ],
    "ParamStringList": [],
    "UnlockID": 200
  },
  "218": {
    "ID": 218,
    "GotoType": 2,
    "ParamIntList": [
      1000001,
      2206
    ],
    "ParamStringList": [],
    "UnlockID": 9911
  },
  "219": {
    "ID": 219,
    "GotoType": 2,
    "ParamIntList": [
      2021101,
      0
    ],
    "ParamStringList": [],
    "UnlockID": 200
  },
  "220": {
    "ID": 220,
    "GotoType": 2,
    "ParamIntList": [
      2021201,
      0
    ],
    "ParamStringList": [],
    "UnlockID": 200
  },
  "221": {
    "ID": 221,
    "GotoType": 2,
    "ParamIntList": [
      1020101,
      0
    ],
    "ParamStringList": [],
    "UnlockID": 200
  },
  "222": {
    "ID": 222,
    "GotoType": 2,
    "ParamIntList": [
      1000101,
      2236
    ],
    "ParamStringList": [],
    "UnlockID": 222
  },
  "223": {
    "ID": 223,
    "GotoType": 2,
    "ParamIntList": [
      1010201,
      2223
    ],
    "ParamStringList": [],
    "UnlockID": 223
  },
  "224": {
    "ID": 224,
    "GotoType": 2,
    "ParamIntList": [
      1020101,
      2235
    ],
    "ParamStringList": [],
    "UnlockID": 224
  },
  "226": {
    "ID": 226,
    "GotoType": 2,
    "ParamIntList": [
      1000101,
      2219
    ],
    "ParamStringList": [],
    "UnlockID": 9934
  },
  "227": {
    "ID": 227,
    "GotoType": 2,
    "ParamIntList": [
      1010201,
      2257
    ],
    "ParamStringList": [],
    "UnlockID": 227
  },
  "301": {
    "ID": 301,
    "GotoType": 3,
    "ParamIntList": [
      2
    ],
    "ParamStringList": []
  },
  "302": {
    "ID": 302,
    "GotoType": 3,
    "ParamIntList": [
      5
    ],
    "ParamStringList": []
  },
  "404": {
    "ID": 404,
    "GotoType": 4,
    "ParamIntList": [
      0,
      1
    ],
    "ParamStringList": [],
    "UnlockID": 400
  },
  "405": {
    "ID": 405,
    "GotoType": 4,
    "ParamIntList": [
      0,
      3
    ],
    "ParamStringList": [],
    "UnlockID": 9906
  },
  "406": {
    "ID": 406,
    "GotoType": 4,
    "ParamIntList": [
      0,
      2
    ],
    "ParamStringList": [],
    "UnlockID": 402
  },
  "407": {
    "ID": 407,
    "GotoType": 4,
    "ParamIntList": [
      0,
      4
    ],
    "ParamStringList": [],
    "UnlockID": 403
  },
  "501": {
    "ID": 501,
    "GotoType": 5,
    "ParamIntList": [
      1,
      101
    ],
    "ParamStringList": [],
    "UnlockID": 500
  },
  "502": {
    "ID": 502,
    "GotoType": 5,
    "ParamIntList": [
      1,
      102
    ],
    "ParamStringList": [],
    "UnlockID": 500
  },
  "503": {
    "ID": 503,
    "GotoType": 5,
    "ParamIntList": [
      1,
      106
    ],
    "ParamStringList": [],
    "UnlockID": 500
  },
  "504": {
    "ID": 504,
    "GotoType": 5,
    "ParamIntList": [
      1,
      107
    ],
    "ParamStringList": [],
    "UnlockID": 500
  },
  "505": {
    "ID": 505,
    "GotoType": 5,
    "ParamIntList": [
      1,
      104
    ],
    "ParamStringList": [],
    "UnlockID": 500
  },
  "506": {
    "ID": 506,
    "GotoType": 5,
    "ParamIntList": [
      1,
      103
    ],
    "ParamStringList": [],
    "UnlockID": 500
  },
  "507": {
    "ID": 507,
    "GotoType": 5,
    "ParamIntList": [
      1,
      105
    ],
    "ParamStringList": [],
    "UnlockID": 500
  },
  "601": {
    "ID": 601,
    "GotoType": 6,
    "ParamIntList": [
      1,
      101
    ],
    "ParamStringList": [],
    "UnlockID": 600
  },
  "602": {
    "ID": 602,
    "GotoType": 6,
    "ParamIntList": [
      1,
      102
    ],
    "ParamStringList": [],
    "UnlockID": 600
  },
  "603": {
    "ID": 603,
    "GotoType": 6,
    "ParamIntList": [
      1,
      999
    ],
    "ParamStringList": [],
    "UnlockID": 600
  },
  "604": {
    "ID": 604,
    "GotoType": 6,
    "ParamIntList": [
      1,
      504
    ],
    "ParamStringList": []
  },
  "605": {
    "ID": 605,
    "GotoType": 6,
    "ParamIntList": [
      1,
      998,
      1
    ],
    "ParamStringList": [],
    "UnlockID": 600
  },
  "606": {
    "ID": 606,
    "GotoType": 6,
    "ParamIntList": [
      1,
      998,
      0
    ],
    "ParamStringList": [],
    "UnlockID": 600
  },
  "607": {
    "ID": 607,
    "GotoType": 6,
    "ParamIntList": [
      1,
      504
    ],
    "ParamStringList": []
  },
  "608": {
    "ID": 608,
    "GotoType": 6,
    "ParamIntList": [
      1,
      102
    ],
    "ParamStringList": [],
    "UnlockID": 608
  },
  "609": {
    "ID": 609,
    "GotoType": 6,
    "ParamIntList": [
      16,
      501
    ],
    "ParamStringList": []
  },
  "610": {
    "ID": 610,
    "GotoType": 6,
    "ParamIntList": [
      1,
      102
    ],
    "ParamStringList": [],
    "UnlockID": 610
  },
  "701": {
    "ID": 701,
    "GotoType": 7,
    "ParamIntList": [
      1
    ],
    "ParamStringList": [],
    "UnlockID": 700
  },
  "702": {
    "ID": 702,
    "GotoType": 7,
    "ParamIntList": [
      2
    ],
    "ParamStringList": [],
    "UnlockID": 700
  },
  "703": {
    "ID": 703,
    "GotoType": 7,
    "ParamIntList": [
      3
    ],
    "ParamStringList": [],
    "UnlockID": 700
  },
  "704": {
    "ID": 704,
    "GotoType": 7,
    "ParamIntList": [
      4
    ],
    "ParamStringList": [],
    "UnlockID": 700
  },
  "705": {
    "ID": 705,
    "GotoType": 7,
    "ParamIntList": [
      5
    ],
    "ParamStringList": [],
    "UnlockID": 700
  },
  "801": {
    "ID": 801,
    "GotoType": 8,
    "ParamIntList": [
      10012
    ],
    "ParamStringList": [],
    "UnlockID": 800
  },
  "802": {
    "ID": 802,
    "GotoType": 8,
    "ParamIntList": [
      30002
    ],
    "ParamStringList": [],
    "UnlockID": 3600
  },
  "803": {
    "ID": 803,
    "GotoType": 8,
    "ParamIntList": [
      40001
    ],
    "ParamStringList": [],
    "UnlockID": 3700
  },
  "804": {
    "ID": 804,
    "GotoType": 8,
    "ParamIntList": [
      50000
    ],
    "ParamStringList": [],
    "UnlockID": 3601
  },
  "1201": {
    "ID": 1201,
    "GotoType": 12,
    "ParamIntList": [],
    "ParamStringList": [
      "OpenURL8",
      "official_community_url"
    ]
  },
  "1202": {
    "ID": 1202,
    "GotoType": 12,
    "ParamIntList": [],
    "ParamStringList": [
      "OpenURL6",
      "community_activity_url"
    ],
    "UnlockID": 1202
  },
  "1501": {
    "ID": 1501,
    "GotoType": 15,
    "ParamIntList": [
      1
    ],
    "ParamStringList": [],
    "UnlockID": 1500
  },
  "1502": {
    "ID": 1502,
    "GotoType": 15,
    "ParamIntList": [
      2
    ],
    "ParamStringList": [],
    "UnlockID": 9901
  },
  "1503": {
    "ID": 1503,
    "GotoType": 15,
    "ParamIntList": [
      3
    ],
    "ParamStringList": [],
    "UnlockID": 9903
  },
  "1504": {
    "ID": 1504,
    "GotoType": 15,
    "ParamIntList": [
      3,
      1001
    ],
    "ParamStringList": [],
    "UnlockID": 9924
  },
  "1505": {
    "ID": 1505,
    "GotoType": 15,
    "ParamIntList": [
      3,
      1002
    ],
    "ParamStringList": [],
    "UnlockID": 9925
  },
  "1506": {
    "ID": 1506,
    "GotoType": 15,
    "ParamIntList": [
      3,
      1003
    ],
    "ParamStringList": [],
    "UnlockID": 9926
  },
  "1507": {
    "ID": 1507,
    "GotoType": 15,
    "ParamIntList": [
      3,
      1004
    ],
    "ParamStringList": [],
    "UnlockID": 9927
  },
  "1508": {
    "ID": 1508,
    "GotoType": 15,
    "ParamIntList": [
      3,
      1005
    ],
    "ParamStringList": [],
    "UnlockID": 9928
  },
  "1509": {
    "ID": 1509,
    "GotoType": 15,
    "ParamIntList": [
      3,
      1006
    ],
    "ParamStringList": [],
    "UnlockID": 9929
  },
  "1510": {
    "ID": 1510,
    "GotoType": 15,
    "ParamIntList": [
      3,
      1007
    ],
    "ParamStringList": [],
    "UnlockID": 9930
  },
  "3201": {
    "ID": 3201,
    "GotoType": 32,
    "ParamIntList": [
      1
    ],
    "ParamStringList": [],
    "UnlockID": 3200
  },
  "3202": {
    "ID": 3202,
    "GotoType": 32,
    "ParamIntList": [
      2
    ],
    "ParamStringList": [],
    "UnlockID": 3200
  },
  "3203": {
    "ID": 3203,
    "GotoType": 32,
    "ParamIntList": [
      3
    ],
    "ParamStringList": [],
    "UnlockID": 3200
  },
  "21001": {
    "ID": 21001,
    "GotoType": 2,
    "ParamIntList": [
      2011101,
      0
    ],
    "ParamStringList": [],
    "UnlockID": 21001
  },
  "21002": {
    "ID": 21002,
    "GotoType": 2,
    "ParamIntList": [
      2012201,
      0
    ],
    "ParamStringList": [],
    "UnlockID": 21002
  },
  "21003": {
    "ID": 21003,
    "GotoType": 2,
    "ParamIntList": [
      2012301,
      0
    ],
    "ParamStringList": [],
    "UnlockID": 21003
  },
  "21004": {
    "ID": 21004,
    "GotoType": 2,
    "ParamIntList": [
      2013201,
      0
    ],
    "ParamStringList": [],
    "UnlockID": 21004
  },
  "22001": {
    "ID": 22001,
    "GotoType": 2,
    "ParamIntList": [
      2010101,
      0
    ],
    "ParamStringList": [],
    "UnlockID": 22001
  },
  "22002": {
    "ID": 22002,
    "GotoType": 2,
    "ParamIntList": [
      2011101,
      0
    ],
    "ParamStringList": [],
    "UnlockID": 22002
  },
  "22003": {
    "ID": 22003,
    "GotoType": 2,
    "ParamIntList": [
      2012101,
      0
    ],
    "ParamStringList": [],
    "UnlockID": 22003
  },
  "22004": {
    "ID": 22004,
    "GotoType": 2,
    "ParamIntList": [
      2012201,
      0
    ],
    "ParamStringList": [],
    "UnlockID": 22004
  },
  "22005": {
    "ID": 22005,
    "GotoType": 2,
    "ParamIntList": [
      2012301,
      0
    ],
    "ParamStringList": [],
    "UnlockID": 22005
  },
  "22006": {
    "ID": 22006,
    "GotoType": 2,
    "ParamIntList": [
      2013101,
      0
    ],
    "ParamStringList": [],
    "UnlockID": 22006
  },
  "22007": {
    "ID": 22007,
    "GotoType": 2,
    "ParamIntList": [
      2013201,
      0
    ],
    "ParamStringList": [],
    "UnlockID": 22007
  },
  "23001": {
    "ID": 23001,
    "GotoType": 2,
    "ParamIntList": [
      2012101,
      1105
    ],
    "ParamStringList": [],
    "UnlockID": 23001
  },
  "23002": {
    "ID": 23002,
    "GotoType": 2,
    "ParamIntList": [
      2013101,
      1104
    ],
    "ParamStringList": [],
    "UnlockID": 23002
  },
  "23003": {
    "ID": 23003,
    "GotoType": 2,
    "ParamIntList": [
      2013201,
      1106
    ],
    "ParamStringList": [],
    "UnlockID": 23003
  },
  "23004": {
    "ID": 23004,
    "GotoType": 2,
    "ParamIntList": [
      2013201,
      1103
    ],
    "ParamStringList": [],
    "UnlockID": 23004
  },
  "23005": {
    "ID": 23005,
    "GotoType": 2,
    "ParamIntList": [
      2012201,
      1102
    ],
    "ParamStringList": [],
    "UnlockID": 23005
  },
  "23006": {
    "ID": 23006,
    "GotoType": 2,
    "ParamIntList": [
      2011101,
      1107
    ],
    "ParamStringList": [],
    "UnlockID": 23006
  },
  "23007": {
    "ID": 23007,
    "GotoType": 2,
    "ParamIntList": [
      2000101,
      1101
    ],
    "ParamStringList": [],
    "UnlockID": 23007
  },
  "23008": {
    "ID": 23008,
    "GotoType": 2,
    "ParamIntList": [
      2010101,
      1001
    ],
    "ParamStringList": [],
    "UnlockID": 23008
  },
  "23009": {
    "ID": 23009,
    "GotoType": 2,
    "ParamIntList": [
      2011101,
      1002
    ],
    "ParamStringList": [],
    "UnlockID": 23009
  },
  "23010": {
    "ID": 23010,
    "GotoType": 2,
    "ParamIntList": [
      2012101,
      1003
    ],
    "ParamStringList": [],
    "UnlockID": 23010
  },
  "23011": {
    "ID": 23011,
    "GotoType": 2,
    "ParamIntList": [
      2021101,
      1108
    ],
    "ParamStringList": [],
    "UnlockID": 23011
  },
  "23012": {
    "ID": 23012,
    "GotoType": 2,
    "ParamIntList": [
      2021201,
      1109
    ],
    "ParamStringList": [],
    "UnlockID": 23012
  },
  "23101": {
    "ID": 23101,
    "GotoType": 2,
    "ParamIntList": [
      2000201,
      1004
    ],
    "ParamStringList": [],
    "UnlockID": 23101
  },
  "23102": {
    "ID": 23102,
    "GotoType": 2,
    "ParamIntList": [
      2000301,
      1005
    ],
    "ParamStringList": [],
    "UnlockID": 23102
  },
  "23103": {
    "ID": 23103,
    "GotoType": 2,
    "ParamIntList": [
      2010101,
      1006
    ],
    "ParamStringList": [],
    "UnlockID": 23103
  },
  "23104": {
    "ID": 23104,
    "GotoType": 2,
    "ParamIntList": [
      2011101,
      1007
    ],
    "ParamStringList": [],
    "UnlockID": 23104
  },
  "23105": {
    "ID": 23105,
    "GotoType": 2,
    "ParamIntList": [
      2012201,
      1008
    ],
    "ParamStringList": [],
    "UnlockID": 23105
  },
  "23106": {
    "ID": 23106,
    "GotoType": 2,
    "ParamIntList": [
      2012301,
      1009
    ],
    "ParamStringList": [],
    "UnlockID": 23106
  },
  "23107": {
    "ID": 23107,
    "GotoType": 2,
    "ParamIntList": [
      2012101,
      1010
    ],
    "ParamStringList": [],
    "UnlockID": 23107
  },
  "23108": {
    "ID": 23108,
    "GotoType": 2,
    "ParamIntList": [
      2000201,
      1201
    ],
    "ParamStringList": [],
    "UnlockID": 23108
  },
  "23109": {
    "ID": 23109,
    "GotoType": 2,
    "ParamIntList": [
      2013101,
      1202
    ],
    "ParamStringList": [],
    "UnlockID": 23109
  },
  "23110": {
    "ID": 23110,
    "GotoType": 2,
    "ParamIntList": [
      2013201,
      1203
    ],
    "ParamStringList": [],
    "UnlockID": 23110
  },
  "23111": {
    "ID": 23111,
    "GotoType": 2,
    "ParamIntList": [
      2013401,
      1204
    ],
    "ParamStringList": [],
    "UnlockID": 23111
  },
  "23112": {
    "ID": 23112,
    "GotoType": 2,
    "ParamIntList": [
      2021101,
      1205
    ],
    "ParamStringList": [],
    "UnlockID": 23112
  },
  "23113": {
    "ID": 23113,
    "GotoType": 2,
    "ParamIntList": [
      2021201,
      1206
    ],
    "ParamStringList": [],
    "UnlockID": 23113
  },
  "23201": {
    "ID": 23201,
    "GotoType": 2,
    "ParamIntList": [
      2000201,
      1201
    ],
    "ParamStringList": [],
    "UnlockID": 23201
  },
  "23202": {
    "ID": 23202,
    "GotoType": 2,
    "ParamIntList": [
      2013101,
      1202
    ],
    "ParamStringList": [],
    "UnlockID": 23201
  },
  "23203": {
    "ID": 23203,
    "GotoType": 2,
    "ParamIntList": [
      2013201,
      1203
    ],
    "ParamStringList": [],
    "UnlockID": 23201
  },
  "23204": {
    "ID": 23204,
    "GotoType": 2,
    "ParamIntList": [
      2013401,
      1204
    ],
    "ParamStringList": [],
    "UnlockID": 23201
  },
  "23205": {
    "ID": 23205,
    "GotoType": 2,
    "ParamIntList": [
      2021101,
      1205
    ],
    "ParamStringList": [],
    "UnlockID": 23201
  },
  "23206": {
    "ID": 23206,
    "GotoType": 2,
    "ParamIntList": [
      2021201,
      1206
    ],
    "ParamStringList": [],
    "UnlockID": 23201
  },
  "23299": {
    "ID": 23299,
    "GotoType": 2,
    "ParamIntList": [
      1000101,
      2219
    ],
    "ParamStringList": [],
    "UnlockID": 23299
  },
  "23301": {
    "ID": 23301,
    "GotoType": 2,
    "ParamIntList": [
      2000201,
      1201
    ],
    "ParamStringList": [],
    "UnlockID": 23301
  },
  "23302": {
    "ID": 23302,
    "GotoType": 2,
    "ParamIntList": [
      2013101,
      1202
    ],
    "ParamStringList": [],
    "UnlockID": 23301
  },
  "23303": {
    "ID": 23303,
    "GotoType": 2,
    "ParamIntList": [
      2013201,
      1203
    ],
    "ParamStringList": [],
    "UnlockID": 23301
  },
  "23304": {
    "ID": 23304,
    "GotoType": 2,
    "ParamIntList": [
      2013401,
      1204
    ],
    "ParamStringList": [],
    "UnlockID": 23301
  },
  "23305": {
    "ID": 23305,
    "GotoType": 2,
    "ParamIntList": [
      2021101,
      1205
    ],
    "ParamStringList": [],
    "UnlockID": 23301
  },
  "23306": {
    "ID": 23306,
    "GotoType": 2,
    "ParamIntList": [
      2021201,
      1206
    ],
    "ParamStringList": [],
    "UnlockID": 23301
  },
  "23399": {
    "ID": 23399,
    "GotoType": 2,
    "ParamIntList": [
      1000101,
      2219
    ],
    "ParamStringList": [],
    "UnlockID": 23399
  },
  "24001": {
    "ID": 24001,
    "GotoType": 2,
    "ParamIntList": [
      2000301,
      1301
    ],
    "ParamStringList": [],
    "UnlockID": 24001
  },
  "24002": {
    "ID": 24002,
    "GotoType": 2,
    "ParamIntList": [
      2013401,
      1302
    ],
    "ParamStringList": [],
    "UnlockID": 24002
  },
  "40001": {
    "ID": 40001,
    "GotoType": 40,
    "ParamIntList": [
      10700
    ],
    "ParamStringList": []
  }
}