{
  "10000000": {
    "FloorID": 10000000,
    "FloorName": "FloorName_10000000",
    "BaseFloorID": 10000000,
    "BGMWorldState": "State_Spaceship",
    "FloorBGMGroupName": "StateGroup_Spaceship",
    "FloorBGMNormalStateName": "State_Spaceship_Default",
    "FloorDefaultEmotion": "State_Hollowing",
    "FloorBGMBusyStateName": "",
    "EnterAudioEvent": [
      "Ev_amb_city_starrail"
    ],
    "ExitAudioEvent": [],
    "FloorType": "Default",
    "WalkingEffectAdditiveScale": 0,
    "OptionalLoadBlocksConfig": "Config/ConfigOptionalLoadBlocks/Train.json",
    "MunicipalConfigPath": "",
    "MapLayerNameList": [
      {
        "Hash": 1279275398
      },
      {
        "Hash": 1279275401
      },
      {
        "Hash": 1279275400
      }
    ],
    "CombatBGMLow": "State_Belobog_Overworld_Combat_Low",
    "CombatBGMHigh": "State_Belobog_Overworld_Combat_High"
  },
  "10000002": {
    "FloorID": 10000002,
    "FloorName": "FloorName_10000002",
    "BaseFloorID": 10000000,
    "BGMWorldState": "State_Spaceship",
    "FloorBGMGroupName": "StateGroup_Spaceship",
    "FloorBGMNormalStateName": "State_Spaceship_Default",
    "FloorDefaultEmotion": "State_Hollowing",
    "FloorBGMBusyStateName": "",
    "EnterAudioEvent": [
      "Ev_amb_city_starrail"
    ],
    "ExitAudioEvent": [],
    "FloorType": "Default",
    "WalkingEffectAdditiveScale": 0,
    "OptionalLoadBlocksConfig": "Config/ConfigOptionalLoadBlocks/TrainCarriage.json",
    "MunicipalConfigPath": "",
    "MapLayerNameList": [
      {
        "Hash": 1279275398
      },
      {
        "Hash": 1279275401
      },
      {
        "Hash": 1279275400
      }
    ],
    "CombatBGMLow": "State_Belobog_Overworld_Combat_Low",
    "CombatBGMHigh": "State_Belobog_Overworld_Combat_High"
  },
  "10001001": {
    "FloorID": 10001001,
    "FloorName": "FloorName_10001001",
    "BaseFloorID": 10001001,
    "BGMWorldState": "State_Herta_Space_Station",
    "FloorBGMGroupName": "StateGroup_Herta_Space_Station",
    "FloorBGMNormalStateName": "State_Master_Control_Zone_Default",
    "FloorDefaultEmotion": "State_Bgm_E_D",
    "FloorBGMBusyStateName": "",
    "EnterAudioEvent": [
      "Ev_amb_city_spacestation"
    ],
    "ExitAudioEvent": [],
    "FloorType": "Default",
    "WalkingEffectAdditiveScale": 0,
    "OptionalLoadBlocksConfig": "",
    "MunicipalConfigPath": "Config/ConfigMunicipal/Chap00_SpaceStation_MunicipalConfig.json",
    "MapLayerNameList": [
      {
        "Hash": 1279275398
      },
      {
        "Hash": 1279275401
      },
      {
        "Hash": 1279275400
      }
    ],
    "CombatBGMLow": "State_Herta_Space_Station_Storage_Zone_Combat_Low",
    "CombatBGMHigh": "State_Herta_Space_Station_Storage_Zone_Combat_High"
  },
  "80112001": {
    "FloorID": 80112001,
    "FloorName": "FloorName_80112001",
    "BaseFloorID": 10001001,
    "BGMWorldState": "State_Herta_Space_Station",
    "FloorBGMGroupName": "StateGroup_Herta_Space_Station",
    "FloorBGMNormalStateName": "State_Roguelobby",
    "FloorDefaultEmotion": "State_Bgm_E_D",
    "FloorBGMBusyStateName": "",
    "EnterAudioEvent": [
      "Ev_amb_city_spacestation"
    ],
    "ExitAudioEvent": [],
    "FloorType": "Indoor",
    "OptionalLoadBlocksConfig": "",
    "MunicipalConfigPath": "",
    "MapLayerNameList": [
      {
        "Hash": 1279275398
      },
      {
        "Hash": 1279275401
      },
      {
        "Hash": 1279275400
      }
    ],
    "CombatBGMLow": "State_Herta_Space_Station_Storage_Zone_Combat_Low",
    "CombatBGMHigh": "State_Herta_Space_Station_Storage_Zone_Combat_High"
  },
  "10101001": {
    "FloorID": 10101001,
    "FloorName": "FloorName_10101001",
    "BaseFloorID": 10101001,
    "BGMWorldState": "State_City_Mbelobog",
    "FloorBGMGroupName": "StateGroup_MCity_Belobog",
    "FloorBGMNormalStateName": "State_MOverworld_Default",
    "FloorDefaultEmotion": "State_Hollowing_D",
    "FloorBGMBusyStateName": "",
    "EnterAudioEvent": [
      "Ev_sfx_amb_wind",
      "Ev_amb_city_belobog"
    ],
    "ExitAudioEvent": [
      "Ev_sfx_amb_wind_stop"
    ],
    "FloorType": "Default",
    "OptionalLoadBlocksConfig": "",
    "MunicipalConfigPath": "Config/ConfigMunicipal/Chap01_Square_MunicipalConfig.json",
    "MapLayerNameList": [
      {
        "Hash": 1326329648
      },
      {
        "Hash": 1279275398
      },
      {
        "Hash": 1279275401
      }
    ],
    "CombatBGMLow": "State_Belobog_Overworld_Combat_Low",
    "CombatBGMHigh": "State_Belobog_Overworld_Combat_High"
  },
  "10101002": {
    "FloorID": 10101002,
    "FloorName": "FloorName_10101002",
    "BaseFloorID": 10101001,
    "BGMWorldState": "State_City_Mbelobog",
    "FloorBGMGroupName": "StateGroup_MCity_Belobog",
    "FloorBGMNormalStateName": "State_MOverworld_Default",
    "FloorDefaultEmotion": "State_Hollowing_D",
    "FloorBGMBusyStateName": "",
    "EnterAudioEvent": [
      "Ev_amb_city_belobog"
    ],
    "ExitAudioEvent": [],
    "FloorType": "Indoor",
    "WalkingEffectAdditiveScale": 0,
    "OptionalLoadBlocksConfig": "",
    "MunicipalConfigPath": "",
    "MapLayerNameList": [
      {
        "Hash": 1279275398
      },
      {
        "Hash": 1279275401
      },
      {
        "Hash": 1279275400
      }
    ],
    "CombatBGMLow": "State_Belobog_Overworld_Combat_Low",
    "CombatBGMHigh": "State_Belobog_Overworld_Combat_High"
  },
  "10101003": {
    "FloorID": 10101003,
    "FloorName": "FloorName_10101003",
    "BaseFloorID": 10101001,
    "BGMWorldState": "State_City_Mbelobog",
    "FloorBGMGroupName": "StateGroup_MCity_Belobog",
    "FloorBGMNormalStateName": "State_MFlowershop",
    "FloorDefaultEmotion": "State_Hollowing_D",
    "FloorBGMBusyStateName": "",
    "EnterAudioEvent": [
      "Ev_amb_city_belobog"
    ],
    "ExitAudioEvent": [],
    "FloorType": "Indoor",
    "WalkingEffectAdditiveScale": 0,
    "OptionalLoadBlocksConfig": "",
    "MunicipalConfigPath": "",
    "MapLayerNameList": [
      {
        "Hash": 1279275398
      },
      {
        "Hash": 1279275401
      },
      {
        "Hash": 1279275400
      }
    ],
    "CombatBGMLow": "State_Belobog_Overworld_Combat_Low",
    "CombatBGMHigh": "State_Belobog_Overworld_Combat_High"
  },
  "10101004": {
    "FloorID": 10101004,
    "FloorName": "FloorName_10101004",
    "BaseFloorID": 10101001,
    "BGMWorldState": "State_City_Mbelobog",
    "FloorBGMGroupName": "StateGroup_MCity_Belobog",
    "FloorBGMNormalStateName": "State_Mgrandhotel",
    "FloorDefaultEmotion": "State_Hollowing_D",
    "FloorBGMBusyStateName": "",
    "EnterAudioEvent": [
      "Ev_amb_city_belobog"
    ],
    "ExitAudioEvent": [],
    "FloorType": "Indoor",
    "WalkingEffectAdditiveScale": 0,
    "OptionalLoadBlocksConfig": "",
    "MunicipalConfigPath": "",
    "MapLayerNameList": [
      {
        "Hash": 1279275398
      },
      {
        "Hash": 1279275401
      },
      {
        "Hash": 1279275400
      }
    ],
    "CombatBGMLow": "State_Belobog_Overworld_Combat_Low",
    "CombatBGMHigh": "State_Belobog_Overworld_Combat_High"
  },
  "10101005": {
    "FloorID": 10101005,
    "FloorName": "FloorName_10101005",
    "BaseFloorID": 10101001,
    "BGMWorldState": "State_City_Mbelobog",
    "FloorBGMGroupName": "StateGroup_MCity_Belobog",
    "FloorBGMNormalStateName": "State_Mgrandhotel",
    "FloorDefaultEmotion": "State_Hollowing_D",
    "FloorBGMBusyStateName": "",
    "EnterAudioEvent": [
      "Ev_amb_city_belobog"
    ],
    "ExitAudioEvent": [],
    "FloorType": "Indoor",
    "WalkingEffectAdditiveScale": 0,
    "OptionalLoadBlocksConfig": "",
    "MunicipalConfigPath": "",
    "MapLayerNameList": [
      {
        "Hash": 1279275398
      },
      {
        "Hash": 1279275401
      },
      {
        "Hash": 1279275400
      }
    ],
    "CombatBGMLow": "State_Belobog_Overworld_Combat_Low",
    "CombatBGMHigh": "State_Belobog_Overworld_Combat_High"
  },
  "10101006": {
    "FloorID": 10101006,
    "FloorName": "FloorName_10101006",
    "BaseFloorID": 10101001,
    "BGMWorldState": "State_City_Mbelobog",
    "FloorBGMGroupName": "StateGroup_MCity_Belobog",
    "FloorBGMNormalStateName": "State_Mgrandhotel",
    "FloorDefaultEmotion": "State_Hollowing_D",
    "FloorBGMBusyStateName": "",
    "EnterAudioEvent": [
      "Ev_amb_city_belobog"
    ],
    "ExitAudioEvent": [],
    "FloorType": "Indoor",
    "WalkingEffectAdditiveScale": 0,
    "OptionalLoadBlocksConfig": "",
    "MunicipalConfigPath": "",
    "MapLayerNameList": [
      {
        "Hash": 1279275398
      },
      {
        "Hash": 1279275401
      },
      {
        "Hash": 1279275400
      }
    ],
    "CombatBGMLow": "State_Belobog_Overworld_Combat_Low",
    "CombatBGMHigh": "State_Belobog_Overworld_Combat_High"
  },
  "10101007": {
    "FloorID": 10101007,
    "FloorName": "FloorName_10101007",
    "BaseFloorID": 10101001,
    "BGMWorldState": "State_City_Mbelobog",
    "FloorBGMGroupName": "StateGroup_MCity_Belobog",
    "FloorBGMNormalStateName": "State_MMachine",
    "FloorDefaultEmotion": "State_Hollowing_D",
    "FloorBGMBusyStateName": "",
    "EnterAudioEvent": [
      "Ev_amb_city_belobog"
    ],
    "ExitAudioEvent": [],
    "FloorType": "Indoor",
    "WalkingEffectAdditiveScale": 0,
    "OptionalLoadBlocksConfig": "",
    "MunicipalConfigPath": "",
    "MapLayerNameList": [
      {
        "Hash": 1279275398
      },
      {
        "Hash": 1279275401
      },
      {
        "Hash": 1279275400
      }
    ],
    "CombatBGMLow": "State_Belobog_Overworld_Combat_Low",
    "CombatBGMHigh": "State_Belobog_Overworld_Combat_High"
  },
  "10101008": {
    "FloorID": 10101008,
    "FloorName": "FloorName_10101008",
    "BaseFloorID": 10101001,
    "BGMWorldState": "State_City_Mbelobog",
    "FloorBGMGroupName": "StateGroup_MCity_Belobog",
    "FloorBGMNormalStateName": "State_MOverworld_Default",
    "FloorDefaultEmotion": "State_Hollowing_D",
    "FloorBGMBusyStateName": "",
    "EnterAudioEvent": [
      "Ev_amb_city_belobog"
    ],
    "ExitAudioEvent": [],
    "FloorType": "Indoor",
    "WalkingEffectAdditiveScale": 0,
    "OptionalLoadBlocksConfig": "",
    "MunicipalConfigPath": "",
    "MapLayerNameList": [
      {
        "Hash": 1279275398
      },
      {
        "Hash": 1279275401
      },
      {
        "Hash": 1279275400
      }
    ],
    "CombatBGMLow": "State_Belobog_Overworld_Combat_Low",
    "CombatBGMHigh": "State_Belobog_Overworld_Combat_High"
  },
  "10102001": {
    "FloorID": 10102001,
    "FloorName": "FloorName_10102001",
    "BaseFloorID": 10102001,
    "BGMWorldState": "State_City_Mbelobog",
    "FloorBGMGroupName": "StateGroup_MCity_Belobog",
    "FloorBGMNormalStateName": "State_MUnderworld_Default",
    "FloorDefaultEmotion": "State_Joyful_D",
    "FloorBGMBusyStateName": "",
    "EnterAudioEvent": [
      "Ev_sfx_amb_wind",
      "Ev_amb_city_belobog"
    ],
    "ExitAudioEvent": [
      "Ev_sfx_amb_wind_stop"
    ],
    "FloorType": "Default",
    "WalkingEffectAdditiveScale": 0,
    "OptionalLoadBlocksConfig": "",
    "MunicipalConfigPath": "Config/ConfigMunicipal/Chap01_DownTown_MunicipalConfig.json",
    "MapLayerNameList": [
      {
        "Hash": 1279275398
      },
      {
        "Hash": 1279275401
      },
      {
        "Hash": 1279275400
      }
    ],
    "CombatBGMLow": "State_Belobog_Underworld_Combat_Low",
    "CombatBGMHigh": "State_Belobog_Underworld_Combat_High"
  },
  "10102002": {
    "FloorID": 10102002,
    "FloorName": "FloorName_10102002",
    "BaseFloorID": 10102001,
    "BGMWorldState": "State_City_Mbelobog",
    "FloorBGMGroupName": "StateGroup_MCity_Belobog",
    "FloorBGMNormalStateName": "State_MRoom",
    "FloorDefaultEmotion": "State_Joyful_D",
    "FloorBGMBusyStateName": "",
    "EnterAudioEvent": [
      "Ev_amb_city_belobog"
    ],
    "ExitAudioEvent": [],
    "FloorType": "Indoor",
    "WalkingEffectAdditiveScale": 0,
    "OptionalLoadBlocksConfig": "",
    "MunicipalConfigPath": "",
    "MapLayerNameList": [
      {
        "Hash": 1279275398
      },
      {
        "Hash": 1279275401
      },
      {
        "Hash": 1279275400
      }
    ],
    "CombatBGMLow": "State_Belobog_Underworld_Combat_Low",
    "CombatBGMHigh": "State_Belobog_Underworld_Combat_High"
  },
  "10102003": {
    "FloorID": 10102003,
    "FloorName": "FloorName_10102003",
    "BaseFloorID": 10102001,
    "BGMWorldState": "State_City_Mbelobog",
    "FloorBGMGroupName": "StateGroup_MCity_Belobog",
    "FloorBGMNormalStateName": "State_MHospital",
    "FloorDefaultEmotion": "State_Joyful_D",
    "FloorBGMBusyStateName": "",
    "EnterAudioEvent": [
      "Ev_amb_city_belobog"
    ],
    "ExitAudioEvent": [],
    "FloorType": "Indoor",
    "WalkingEffectAdditiveScale": 0,
    "OptionalLoadBlocksConfig": "",
    "MunicipalConfigPath": "Config/ConfigMunicipal/Common_WhiteBox_MunicipalConfig.json",
    "MapLayerNameList": [
      {
        "Hash": 1279275398
      },
      {
        "Hash": 1279275401
      },
      {
        "Hash": 1279275400
      }
    ],
    "CombatBGMLow": "State_Belobog_Underworld_Combat_Low",
    "CombatBGMHigh": "State_Belobog_Underworld_Combat_High"
  },
  "10102004": {
    "FloorID": 10102004,
    "FloorName": "FloorName_10102004",
    "BaseFloorID": 10102001,
    "BGMWorldState": "State_City_Mbelobog",
    "FloorBGMGroupName": "StateGroup_MCity_Belobog",
    "FloorBGMNormalStateName": "State_MBoxing_Gym",
    "FloorDefaultEmotion": "State_Joyful_D",
    "FloorBGMBusyStateName": "",
    "EnterAudioEvent": [
      "Ev_amb_city_belobog"
    ],
    "ExitAudioEvent": [],
    "FloorType": "Indoor",
    "WalkingEffectAdditiveScale": 0,
    "OptionalLoadBlocksConfig": "",
    "MunicipalConfigPath": "Config/ConfigMunicipal/Common_WhiteBox_MunicipalConfig.json",
    "MapLayerNameList": [
      {
        "Hash": 1279275398
      },
      {
        "Hash": 1279275401
      },
      {
        "Hash": 1279275400
      }
    ],
    "CombatBGMLow": "State_Belobog_Underworld_Boxing_Combat",
    "CombatBGMHigh": "State_Belobog_Underworld_Boxing_Combat"
  },
  "10201001": {
    "FloorID": 10201001,
    "FloorName": "FloorName_10201001",
    "BaseFloorID": 10201001,
    "BGMWorldState": "State_City_MXianzhou_Alliance",
    "FloorBGMGroupName": "StateGroup_MCity_Xianzhou_Alliance",
    "FloorBGMNormalStateName": "State_Xianzhou_Starskiff_Haven",
    "FloorDefaultEmotion": "State_Hollowing",
    "FloorBGMBusyStateName": "",
    "EnterAudioEvent": [
      "Ev_sfx_amb_wind",
      "Ev_amb_city_xianzhou_xingchahai"
    ],
    "ExitAudioEvent": [
      "Ev_sfx_amb_wind_stop"
    ],
    "FloorType": "Default",
    "OptionalLoadBlocksConfig": "",
    "MunicipalConfigPath": "Config/ConfigMunicipal/Chap02_Town_MunicipalConfig.json",
    "MapLayerNameList": [
      {
        "Hash": 1279275398
      },
      {
        "Hash": 1279275401
      },
      {
        "Hash": 1279275400
      }
    ],
    "CombatBGMLow": "State_Xianzhou_Alliance_X1_1_Combat_Low",
    "CombatBGMHigh": "State_Xianzhou_Alliance_X1_1_Combat_High"
  },
  "10201002": {
    "FloorID": 10201002,
    "FloorName": "FloorName_10201002",
    "BaseFloorID": 10201001,
    "BGMWorldState": "State_City_MXianzhou_Alliance",
    "FloorBGMGroupName": "StateGroup_MCity_Xianzhou_Alliance",
    "FloorBGMNormalStateName": "State_Xianzhou_Alliance_Astrum",
    "FloorDefaultEmotion": "State_Hollowing",
    "FloorBGMBusyStateName": "",
    "EnterAudioEvent": [
      "Ev_amb_city_xianzhou_xingchahai"
    ],
    "ExitAudioEvent": [],
    "FloorType": "Indoor",
    "OptionalLoadBlocksConfig": "",
    "MunicipalConfigPath": "Config/ConfigMunicipal/Chap02_Town_MunicipalConfig.json",
    "MapLayerNameList": [
      {
        "Hash": 1279275398
      },
      {
        "Hash": 1279275401
      },
      {
        "Hash": 1279275400
      }
    ],
    "CombatBGMLow": "State_Xianzhou_Alliance_X1_1_Combat_Low",
    "CombatBGMHigh": "State_Xianzhou_Alliance_X1_1_Combat_High"
  },
  "10202001": {
    "FloorID": 10202001,
    "FloorName": "FloorName_10202001",
    "BaseFloorID": 10202001,
    "BGMWorldState": "State_City_MXianzhou_Alliance",
    "FloorBGMGroupName": "StateGroup_MCity_Xianzhou_Alliance",
    "FloorBGMNormalStateName": "State_Xianzhou_Exalting_Sanctum",
    "FloorDefaultEmotion": "State_Hollowing",
    "FloorBGMBusyStateName": "",
    "EnterAudioEvent": [
      "Ev_sfx_amb_wind",
      "Ev_amb_city_xianzhou_changletian"
    ],
    "ExitAudioEvent": [
      "Ev_sfx_amb_wind_stop"
    ],
    "FloorType": "Default",
    "OptionalLoadBlocksConfig": "",
    "MunicipalConfigPath": "Config/ConfigMunicipal/Chap02_Town_MunicipalConfig.json",
    "MapLayerNameList": [
      {
        "Hash": 1279275398
      },
      {
        "Hash": 1279275401
      },
      {
        "Hash": 1279275400
      }
    ],
    "CombatBGMLow": "State_Xianzhou_Maze_X2_1_Combat_Low",
    "CombatBGMHigh": "State_Xianzhou_Maze_X2_1_Combat_High"
  },
  "10202002": {
    "FloorID": 10202002,
    "FloorName": "FloorName_10202002",
    "BaseFloorID": 10202001,
    "BGMWorldState": "State_City_MXianzhou_Alliance",
    "FloorBGMGroupName": "StateGroup_MCity_Xianzhou_Alliance",
    "FloorBGMNormalStateName": "State_Xianzhou_Exalting_Sanctum",
    "FloorDefaultEmotion": "State_Hollowing",
    "FloorBGMBusyStateName": "",
    "EnterAudioEvent": [
      "Ev_amb_city_xianzhou_changletian"
    ],
    "ExitAudioEvent": [],
    "FloorType": "Indoor",
    "OptionalLoadBlocksConfig": "",
    "MunicipalConfigPath": "",
    "MapLayerNameList": [
      {
        "Hash": 1279275398
      },
      {
        "Hash": 1279275401
      },
      {
        "Hash": 1279275400
      }
    ],
    "CombatBGMLow": "State_Xianzhou_Maze_X2_1_Combat_Low",
    "CombatBGMHigh": "State_Xianzhou_Maze_X2_1_Combat_High"
  },
  "10202003": {
    "FloorID": 10202003,
    "FloorName": "FloorName_10202003",
    "BaseFloorID": 10202001,
    "BGMWorldState": "State_City_MXianzhou_Alliance",
    "FloorBGMGroupName": "StateGroup_MCity_Xianzhou_Alliance",
    "FloorBGMNormalStateName": "State_Xianzhou_Seat_of_Divine_Foresight",
    "FloorDefaultEmotion": "State_Hollowing",
    "FloorBGMBusyStateName": "",
    "EnterAudioEvent": [
      "Ev_amb_city_xianzhou_changletian"
    ],
    "ExitAudioEvent": [],
    "FloorType": "Indoor",
    "OptionalLoadBlocksConfig": "",
    "MunicipalConfigPath": "",
    "MapLayerNameList": [
      {
        "Hash": 1279275398
      },
      {
        "Hash": 1279275401
      },
      {
        "Hash": 1279275400
      }
    ],
    "CombatBGMLow": "State_Xianzhou_Maze_X2_1_Combat_Low",
    "CombatBGMHigh": "State_Xianzhou_Maze_X2_1_Combat_High"
  },
  "20001001": {
    "FloorID": 20001001,
    "FloorName": "FloorName_20001001",
    "BaseFloorID": 20001001,
    "BGMWorldState": "State_Herta_Space_Station",
    "FloorBGMGroupName": "StateGroup_Herta_Space_Station",
    "FloorBGMNormalStateName": "State_Base_Zone_Default",
    "FloorDefaultEmotion": "State_Bgm_E_D",
    "FloorBGMBusyStateName": "State_Maze_Busy",
    "EnterAudioEvent": [
      "Ev_amb_maze_spacestation_n1"
    ],
    "ExitAudioEvent": [],
    "FloorType": "Default",
    "OptionalLoadBlocksConfig": "",
    "MunicipalConfigPath": "",
    "MapLayerNameList": [
      {
        "Hash": 1279275398
      },
      {
        "Hash": 1279275401
      },
      {
        "Hash": 1279275400
      }
    ],
    "CombatBGMLow": "State_Herta_Space_Station_Base_Zone_Combat_Low",
    "CombatBGMHigh": "State_Herta_Space_Station_Base_Zone_Combat_High"
  },
  "20002001": {
    "FloorID": 20002001,
    "FloorName": "FloorName_20002001",
    "BaseFloorID": 20002001,
    "BGMWorldState": "State_Herta_Space_Station",
    "FloorBGMGroupName": "StateGroup_Herta_Space_Station",
    "FloorBGMNormalStateName": "State_Storage_Zone_Default",
    "FloorDefaultEmotion": "State_Bgm_E_D",
    "FloorBGMBusyStateName": "State_Maze_Busy",
    "EnterAudioEvent": [
      "Ev_amb_maze_spacestation_n2"
    ],
    "ExitAudioEvent": [],
    "FloorType": "Default",
    "OptionalLoadBlocksConfig": "",
    "MunicipalConfigPath": "",
    "MapLayerNameList": [
      {
        "Hash": 1326329648
      },
      {
        "Hash": 1279275398
      },
      {
        "Hash": 1279275401
      }
    ],
    "CombatBGMLow": "State_Herta_Space_Station_Storage_Zone_Combat_Low",
    "CombatBGMHigh": "State_Herta_Space_Station_Storage_Zone_Combat_High"
  },
  "20003001": {
    "FloorID": 20003001,
    "FloorName": "FloorName_20003001",
    "BaseFloorID": 20003001,
    "BGMWorldState": "State_Herta_Space_Station",
    "FloorBGMGroupName": "StateGroup_Herta_Space_Station",
    "FloorBGMNormalStateName": "State_Supply_Zone_Default",
    "FloorDefaultEmotion": "State_Bgm_E_D",
    "FloorBGMBusyStateName": "State_Maze_Busy",
    "EnterAudioEvent": [
      "Ev_amb_maze_spacestation_n3"
    ],
    "ExitAudioEvent": [],
    "FloorType": "Default",
    "OptionalLoadBlocksConfig": "",
    "MunicipalConfigPath": "",
    "MapLayerNameList": [
      {
        "Hash": 1279275398
      },
      {
        "Hash": 1279275401
      },
      {
        "Hash": 1279275400
      }
    ],
    "CombatBGMLow": "State_Herta_Space_Station_Suppy_Zone_Combat_Low",
    "CombatBGMHigh": "State_Herta_Space_Station_Suppy_Zone_Combat_High"
  },
  "20101001": {
    "FloorID": 20101001,
    "FloorName": "FloorName_20101001",
    "BaseFloorID": 20101001,
    "BGMWorldState": "State_City_Mbelobog",
    "FloorBGMGroupName": "StateGroup_MCity_Belobog",
    "FloorBGMNormalStateName": "State_MSnowland",
    "FloorDefaultEmotion": "State_Hollowing_D",
    "FloorBGMBusyStateName": "State_Maze_Busy",
    "EnterAudioEvent": [
      "Ev_sfx_amb_wind",
      "Ev_amb_maze_belobog_m0"
    ],
    "ExitAudioEvent": [
      "Ev_sfx_amb_wind_stop"
    ],
    "FloorType": "Default",
    "WalkingEffectAdditiveScale": 2,
    "OptionalLoadBlocksConfig": "",
    "MunicipalConfigPath": "",
    "MapLayerNameList": [
      {
        "Hash": 1279275398
      },
      {
        "Hash": 1279275401
      },
      {
        "Hash": 1279275400
      }
    ],
    "CombatBGMLow": "State_Belobog_Overworld_Combat_Low",
    "CombatBGMHigh": "State_Belobog_Overworld_Combat_High"
  },
  "20111001": {
    "FloorID": 20111001,
    "FloorName": "FloorName_20111001",
    "BaseFloorID": 20111001,
    "BGMWorldState": "State_City_Mbelobog",
    "FloorBGMGroupName": "StateGroup_MCity_Belobog",
    "FloorBGMNormalStateName": "State_Maze_M1",
    "FloorDefaultEmotion": "State_Hollowing_D",
    "FloorBGMBusyStateName": "State_Maze_Busy",
    "EnterAudioEvent": [
      "Ev_sfx_amb_wind",
      "Ev_amb_maze_belobog_m1_1"
    ],
    "ExitAudioEvent": [
      "Ev_sfx_amb_wind_stop"
    ],
    "FloorType": "Default",
    "WalkingEffectAdditiveScale": 0.5,
    "OptionalLoadBlocksConfig": "",
    "MunicipalConfigPath": "",
    "MapLayerNameList": [
      {
        "Hash": 1279275398
      },
      {
        "Hash": 1279275401
      },
      {
        "Hash": 1279275400
      }
    ],
    "CombatBGMLow": "State_Belobog_Overworld_Combat_Low",
    "CombatBGMHigh": "State_Belobog_Overworld_Combat_High"
  },
  "20121001": {
    "FloorID": 20121001,
    "FloorName": "FloorName_20121001",
    "BaseFloorID": 20121001,
    "BGMWorldState": "State_City_Mbelobog",
    "FloorBGMGroupName": "StateGroup_MCity_Belobog",
    "FloorBGMNormalStateName": "State_Maze_M2_1",
    "FloorDefaultEmotion": "State_Joyful_D",
    "FloorBGMBusyStateName": "State_Maze_Busy",
    "EnterAudioEvent": [
      "Ev_sfx_amb_wind",
      "Ev_amb_maze_belobog_m2_1"
    ],
    "ExitAudioEvent": [
      "Ev_sfx_amb_wind_stop"
    ],
    "FloorType": "Default",
    "OptionalLoadBlocksConfig": "",
    "MunicipalConfigPath": "",
    "MapLayerNameList": [
      {
        "Hash": 1279275398
      },
      {
        "Hash": 1279275401
      },
      {
        "Hash": 1279275400
      }
    ],
    "CombatBGMLow": "State_Belobog_Underworld_Combat_Low",
    "CombatBGMHigh": "State_Belobog_Underworld_Combat_High"
  },
  "20122001": {
    "FloorID": 20122001,
    "FloorName": "FloorName_20122001",
    "BaseFloorID": 20122001,
    "BGMWorldState": "State_City_Mbelobog",
    "FloorBGMGroupName": "StateGroup_MCity_Belobog",
    "FloorBGMNormalStateName": "State_Maze_M2_2",
    "FloorDefaultEmotion": "State_Joyful_D",
    "FloorBGMBusyStateName": "State_Maze_Busy",
    "EnterAudioEvent": [
      "Ev_sfx_amb_wind",
      "Ev_amb_maze_belobog_m2_2"
    ],
    "ExitAudioEvent": [
      "Ev_sfx_amb_wind_stop"
    ],
    "FloorType": "Default",
    "OptionalLoadBlocksConfig": "",
    "MunicipalConfigPath": "",
    "MapLayerNameList": [
      {
        "Hash": 1279275398
      },
      {
        "Hash": 1279275401
      },
      {
        "Hash": 1279275400
      }
    ],
    "CombatBGMLow": "State_Belobog_Underworld_Combat_Low",
    "CombatBGMHigh": "State_Belobog_Underworld_Combat_High"
  },
  "20123001": {
    "FloorID": 20123001,
    "FloorName": "FloorName_20123001",
    "BaseFloorID": 20123001,
    "BGMWorldState": "State_City_Mbelobog",
    "FloorBGMGroupName": "StateGroup_MCity_Belobog",
    "FloorBGMNormalStateName": "State_Maze_M2_1",
    "FloorDefaultEmotion": "State_Joyful_D",
    "FloorBGMBusyStateName": "State_Maze_Busy",
    "EnterAudioEvent": [
      "Ev_sfx_amb_wind",
      "Ev_amb_maze_belobog_m2_3"
    ],
    "ExitAudioEvent": [
      "Ev_sfx_amb_wind_stop"
    ],
    "FloorType": "Default",
    "OptionalLoadBlocksConfig": "",
    "MunicipalConfigPath": "",
    "MapLayerNameList": [
      {
        "Hash": 1279275398
      },
      {
        "Hash": 1279275401
      },
      {
        "Hash": 1279275400
      }
    ],
    "CombatBGMLow": "State_Belobog_Underworld_Combat_Low",
    "CombatBGMHigh": "State_Belobog_Underworld_Combat_High"
  },
  "20131001": {
    "FloorID": 20131001,
    "FloorName": "FloorName_20131001",
    "BaseFloorID": 20131001,
    "BGMWorldState": "State_City_Mbelobog",
    "FloorBGMGroupName": "StateGroup_MCity_Belobog",
    "FloorBGMNormalStateName": "State_Maze_M1",
    "FloorDefaultEmotion": "State_Hollowing_D",
    "FloorBGMBusyStateName": "State_Maze_Busy",
    "EnterAudioEvent": [
      "Ev_sfx_amb_wind",
      "Ev_amb_maze_belobog_m3_1"
    ],
    "ExitAudioEvent": [
      "Ev_sfx_amb_wind_stop"
    ],
    "FloorType": "Default",
    "WalkingEffectAdditiveScale": 0.5,
    "OptionalLoadBlocksConfig": "",
    "MunicipalConfigPath": "",
    "MapLayerNameList": [
      {
        "Hash": 1279275398
      },
      {
        "Hash": 1279275401
      },
      {
        "Hash": 1279275400
      }
    ],
    "CombatBGMLow": "State_Belobog_Overworld_Combat_Low",
    "CombatBGMHigh": "State_Belobog_Overworld_Combat_High"
  },
  "20132001": {
    "FloorID": 20132001,
    "FloorName": "FloorName_20132001",
    "BaseFloorID": 20132001,
    "BGMWorldState": "State_City_Mbelobog",
    "FloorBGMGroupName": "StateGroup_MCity_Belobog",
    "FloorBGMNormalStateName": "State_Maze_M3_2",
    "FloorDefaultEmotion": "State_Severe",
    "FloorBGMBusyStateName": "State_Maze_Busy",
    "EnterAudioEvent": [
      "Ev_sfx_amb_wind",
      "Ev_amb_maze_belobog_m3_2"
    ],
    "ExitAudioEvent": [
      "Ev_sfx_amb_wind_stop"
    ],
    "FloorType": "Default",
    "OptionalLoadBlocksConfig": "",
    "MunicipalConfigPath": "",
    "MapLayerNameList": [
      {
        "Hash": 1279275398
      },
      {
        "Hash": 1279275401
      },
      {
        "Hash": 1279275400
      }
    ],
    "CombatBGMLow": "State_Belobog_Overworld_Combat_Low",
    "CombatBGMHigh": "State_Belobog_Overworld_Combat_High"
  },
  "20133001": {
    "FloorID": 20133001,
    "FloorName": "FloorName_20133001",
    "BaseFloorID": 20132001,
    "BGMWorldState": "State_City_Mbelobog",
    "FloorBGMGroupName": "StateGroup_MCity_Belobog",
    "FloorBGMNormalStateName": "State_Maze_M3_3_EverwinterHill",
    "FloorDefaultEmotion": "State_Hollowing_D",
    "FloorBGMBusyStateName": "State_Maze_Busy",
    "EnterAudioEvent": [
      "Ev_sfx_amb_wind",
      "Ev_amb_maze_belobog_m3_3"
    ],
    "ExitAudioEvent": [
      "Ev_sfx_amb_wind_stop"
    ],
    "FloorType": "Default",
    "OptionalLoadBlocksConfig": "",
    "MunicipalConfigPath": "",
    "MapLayerNameList": [
      {
        "Hash": 1279275398
      },
      {
        "Hash": 1279275401
      },
      {
        "Hash": 1279275400
      }
    ],
    "CombatBGMLow": "State_Belobog_Overworld_Combat_Low",
    "CombatBGMHigh": "State_Belobog_Overworld_Combat_High"
  },
  "20133002": {
    "FloorID": 20133002,
    "FloorName": "FloorName_20133002",
    "BaseFloorID": 20133001,
    "BGMWorldState": "State_City_Mbelobog",
    "FloorBGMGroupName": "StateGroup_MCity_Belobog",
    "FloorBGMNormalStateName": "State_Maze_M3_3_PathSpace",
    "FloorDefaultEmotion": "State_Hollowing_D",
    "FloorBGMBusyStateName": "State_Maze_Busy",
    "EnterAudioEvent": [
      "Ev_amb_maze_belobog_m3_3"
    ],
    "ExitAudioEvent": [],
    "FloorType": "Default",
    "OptionalLoadBlocksConfig": "",
    "MunicipalConfigPath": "",
    "MapLayerNameList": [
      {
        "Hash": 1279275398
      },
      {
        "Hash": 1279275401
      },
      {
        "Hash": 1279275400
      }
    ],
    "CombatBGMLow": "State_Belobog_Overworld_Combat_Low",
    "CombatBGMHigh": "State_Belobog_Overworld_Combat_High"
  },
  "20134001": {
    "FloorID": 20134001,
    "FloorName": "FloorName_20134001",
    "BaseFloorID": 20134001,
    "BGMWorldState": "State_City_Mbelobog",
    "FloorBGMGroupName": "StateGroup_MCity_Belobog",
    "FloorBGMNormalStateName": "State_Maze_M3_3_EverwinterHill",
    "FloorDefaultEmotion": "State_Hollowing_D",
    "FloorBGMBusyStateName": "State_Maze_Busy",
    "EnterAudioEvent": [
      "Ev_sfx_amb_wind",
      "Ev_amb_maze_belobog_m3_3"
    ],
    "ExitAudioEvent": [
      "Ev_sfx_amb_wind_stop"
    ],
    "FloorType": "Default",
    "OptionalLoadBlocksConfig": "",
    "MunicipalConfigPath": "",
    "MapLayerNameList": [
      {
        "Hash": 1279275398
      },
      {
        "Hash": 1279275401
      },
      {
        "Hash": 1279275400
      }
    ],
    "CombatBGMLow": "State_Belobog_Overworld_Combat_Low",
    "CombatBGMHigh": "State_Belobog_Overworld_Combat_High"
  },
  "20100001": {
    "FloorID": 20100001,
    "FloorName": "FloorName_20100001",
    "BaseFloorID": 20133001,
    "BGMWorldState": "State_City_Mbelobog",
    "FloorBGMGroupName": "StateGroup_MCity_Belobog",
    "FloorBGMNormalStateName": "State_Maze_M3_3_PathSpace",
    "FloorDefaultEmotion": "State_Hollowing_D",
    "FloorBGMBusyStateName": "State_Maze_Busy",
    "EnterAudioEvent": [
      "Ev_amb_maze_belobog_m3_3"
    ],
    "ExitAudioEvent": [],
    "FloorType": "Default",
    "OptionalLoadBlocksConfig": "",
    "MunicipalConfigPath": "",
    "MapLayerNameList": [
      {
        "Hash": 1279275398
      },
      {
        "Hash": 1279275401
      },
      {
        "Hash": 1279275400
      }
    ],
    "CombatBGMLow": "State_Belobog_Overworld_Combat_Low",
    "CombatBGMHigh": "State_Belobog_Overworld_Combat_High"
  },
  "20211001": {
    "FloorID": 20211001,
    "FloorName": "FloorName_20211001",
    "BaseFloorID": 20211001,
    "BGMWorldState": "State_City_MXianzhou_Alliance",
    "FloorBGMGroupName": "StateGroup_MCity_Xianzhou_Alliance",
    "FloorBGMNormalStateName": "State_Xianzhou_Cloudford",
    "FloorDefaultEmotion": "State_Hollowing",
    "FloorBGMBusyStateName": "",
    "EnterAudioEvent": [
      "Ev_sfx_amb_wind",
      "Ev_amb_maze_xianzhou_x1_1"
    ],
    "ExitAudioEvent": [
      "Ev_sfx_amb_wind_stop"
    ],
    "FloorType": "Default",
    "OptionalLoadBlocksConfig": "",
    "MunicipalConfigPath": "",
    "MapLayerNameList": [
      {
        "Hash": 1279275398
      },
      {
        "Hash": 1279275401
      },
      {
        "Hash": 1279275400
      }
    ],
    "CombatBGMLow": "State_Xianzhou_Alliance_X1_1_Combat_Low",
    "CombatBGMHigh": "State_Xianzhou_Alliance_X1_1_Combat_High"
  },
  "20212001": {
    "FloorID": 20212001,
    "FloorName": "FloorName_20212001",
    "BaseFloorID": 20212001,
    "BGMWorldState": "State_City_MXianzhou_Alliance",
    "FloorBGMGroupName": "StateGroup_MCity_Xianzhou_Alliance",
    "FloorBGMNormalStateName": "State_Xianzhou_Alliance_Stargazer_Navalia",
    "FloorDefaultEmotion": "State_Hollowing",
    "FloorBGMBusyStateName": "",
    "EnterAudioEvent": [
      "Ev_sfx_amb_wind",
      "Ev_amb_maze_xianzhou_x1_2"
    ],
    "ExitAudioEvent": [
      "Ev_sfx_amb_wind_stop"
    ],
    "FloorType": "Default",
    "OptionalLoadBlocksConfig": "",
    "MunicipalConfigPath": "",
    "MapLayerNameList": [
      {
        "Hash": 1279275398
      },
      {
        "Hash": 1279275401
      },
      {
        "Hash": 1279275400
      }
    ],
    "CombatBGMLow": "State_Xianzhou_Alliance_X1_1_Combat_Low",
    "CombatBGMHigh": "State_Xianzhou_Alliance_X1_1_Combat_High"
  },
  "20213001": {
    "FloorID": 20213001,
    "FloorName": "FloorName_20213001",
    "BaseFloorID": 20211001,
    "BGMWorldState": "State_City_MXianzhou_Alliance",
    "FloorBGMGroupName": "StateGroup_MCity_Xianzhou_Alliance",
    "FloorBGMNormalStateName": "State_Xianzhou_Cloudford",
    "FloorDefaultEmotion": "State_Hollowing",
    "FloorBGMBusyStateName": "",
    "EnterAudioEvent": [
      "Ev_sfx_amb_wind",
      "Ev_amb_maze_xianzhou_x1_1"
    ],
    "ExitAudioEvent": [
      "Ev_sfx_amb_wind_stop"
    ],
    "FloorType": "Default",
    "OptionalLoadBlocksConfig": "",
    "MunicipalConfigPath": "",
    "MapLayerNameList": [
      {
        "Hash": 1279275398
      },
      {
        "Hash": 1279275401
      },
      {
        "Hash": 1279275400
      }
    ],
    "CombatBGMLow": "State_Xianzhou_Alliance_X1_1_Combat_Low",
    "CombatBGMHigh": "State_Xianzhou_Alliance_X1_1_Combat_High"
  },
  "20213002": {
    "FloorID": 20213002,
    "FloorName": "FloorName_20213002",
    "BaseFloorID": 10000000,
    "BGMWorldState": "State_Spaceship",
    "FloorBGMGroupName": "StateGroup_Spaceship",
    "FloorBGMNormalStateName": "State_Spaceship_Default",
    "FloorDefaultEmotion": "State_Hollowing",
    "FloorBGMBusyStateName": "",
    "EnterAudioEvent": [
      "Ev_amb_city_starrail"
    ],
    "ExitAudioEvent": [],
    "FloorType": "Default",
    "OptionalLoadBlocksConfig": "",
    "MunicipalConfigPath": "",
    "MapLayerNameList": [
      {
        "Hash": 1279275398
      },
      {
        "Hash": 1279275401
      },
      {
        "Hash": 1279275400
      }
    ],
    "CombatBGMLow": "State_Belobog_Overworld_Combat_Low",
    "CombatBGMHigh": "State_Belobog_Overworld_Combat_High"
  },
  "20214001": {
    "FloorID": 20214001,
    "FloorName": "FloorName_20214001",
    "BaseFloorID": 10000000,
    "BGMWorldState": "State_Spaceship",
    "FloorBGMGroupName": "StateGroup_Spaceship",
    "FloorBGMNormalStateName": "State_Spaceship_Default",
    "FloorDefaultEmotion": "State_Hollowing",
    "FloorBGMBusyStateName": "",
    "EnterAudioEvent": [
      "Ev_amb_city_starrail"
    ],
    "ExitAudioEvent": [],
    "FloorType": "Default",
    "OptionalLoadBlocksConfig": "",
    "MunicipalConfigPath": "",
    "MapLayerNameList": [
      {
        "Hash": 1279275398
      },
      {
        "Hash": 1279275401
      },
      {
        "Hash": 1279275400
      }
    ],
    "CombatBGMLow": "State_Belobog_Overworld_Combat_Low",
    "CombatBGMHigh": "State_Belobog_Overworld_Combat_High"
  },
  "20221001": {
    "FloorID": 20221001,
    "FloorName": "FloorName_20221001",
    "BaseFloorID": 20221001,
    "BGMWorldState": "State_City_MXianzhou_Alliance",
    "FloorBGMGroupName": "StateGroup_MCity_Xianzhou_Alliance",
    "FloorBGMNormalStateName": "State_Xianzhou_Maze_Divination_Commission",
    "FloorDefaultEmotion": "State_Hollowing",
    "FloorBGMBusyStateName": "",
    "EnterAudioEvent": [
      "Ev_sfx_amb_wind",
      "Ev_amb_maze_xianzhou_x2_1"
    ],
    "ExitAudioEvent": [
      "Ev_sfx_amb_wind_stop"
    ],
    "FloorType": "Default",
    "OptionalLoadBlocksConfig": "",
    "MunicipalConfigPath": "",
    "MapLayerNameList": [
      {
        "Hash": 1279275398
      },
      {
        "Hash": 1279275401
      },
      {
        "Hash": 1279275400
      }
    ],
    "CombatBGMLow": "State_Xianzhou_Maze_X2_1_Combat_Low",
    "CombatBGMHigh": "State_Xianzhou_Maze_X2_1_Combat_High"
  },
  "20222001": {
    "FloorID": 20222001,
    "FloorName": "FloorName_20222001",
    "BaseFloorID": 20222001,
    "BGMWorldState": "State_City_MXianzhou_Alliance",
    "FloorBGMGroupName": "StateGroup_MCity_Xianzhou_Alliance",
    "FloorBGMNormalStateName": "State_Xianzhou_Maze_Artisanship_Commission",
    "FloorDefaultEmotion": "State_Hollowing",
    "FloorBGMBusyStateName": "",
    "EnterAudioEvent": [
      "Ev_sfx_amb_wind",
      "Ev_amb_maze_xianzhou_x2_2"
    ],
    "ExitAudioEvent": [
      "Ev_sfx_amb_wind_stop"
    ],
    "FloorType": "Default",
    "OptionalLoadBlocksConfig": "",
    "MunicipalConfigPath": "",
    "MapLayerNameList": [
      {
        "Hash": 1279275398
      },
      {
        "Hash": 1279275401
      },
      {
        "Hash": 1279275400
      }
    ],
    "CombatBGMLow": "State_Xianzhou_Maze_X2_1_Combat_Low",
    "CombatBGMHigh": "State_Xianzhou_Maze_X2_1_Combat_High"
  },
  "30101001": {
    "FloorID": 30101001,
    "FloorName": "MazeText_Empty",
    "BaseFloorID": 10102001,
    "BGMWorldState": "State_City_Mbelobog",
    "FloorBGMGroupName": "StateGroup_MCity_Belobog",
    "FloorBGMNormalStateName": "State_Maze_M1",
    "FloorDefaultEmotion": "State_Hollowing_D",
    "FloorBGMBusyStateName": "State_Maze_Busy",
    "EnterAudioEvent": [
      "Ev_sfx_amb_wind",
      "Ev_amb_maze_belobog_m1_1"
    ],
    "ExitAudioEvent": [
      "Ev_sfx_amb_wind_stop"
    ],
    "FloorType": "Default",
    "OptionalLoadBlocksConfig": "",
    "MunicipalConfigPath": "",
    "MapLayerNameList": [
      {
        "Hash": 1279275398
      },
      {
        "Hash": 1279275401
      },
      {
        "Hash": 1279275400
      }
    ],
    "CombatBGMLow": "State_Belobog_Overworld_Combat_Low",
    "CombatBGMHigh": "State_Belobog_Overworld_Combat_High"
  },
  "30102001": {
    "FloorID": 30102001,
    "FloorName": "MazeText_Empty",
    "BaseFloorID": 10102001,
    "BGMWorldState": "State_City_Mbelobog",
    "FloorBGMGroupName": "StateGroup_MCity_Belobog",
    "FloorBGMNormalStateName": "State_Maze_M1",
    "FloorDefaultEmotion": "State_Hollowing_D",
    "FloorBGMBusyStateName": "State_Maze_Busy",
    "EnterAudioEvent": [
      "Ev_sfx_amb_wind",
      "Ev_amb_maze_belobog_m1_1"
    ],
    "ExitAudioEvent": [
      "Ev_sfx_amb_wind_stop"
    ],
    "FloorType": "Default",
    "OptionalLoadBlocksConfig": "",
    "MunicipalConfigPath": "",
    "MapLayerNameList": [
      {
        "Hash": 1279275398
      },
      {
        "Hash": 1279275401
      },
      {
        "Hash": 1279275400
      }
    ],
    "CombatBGMLow": "State_Belobog_Overworld_Combat_Low",
    "CombatBGMHigh": "State_Belobog_Overworld_Combat_High"
  },
  "30103001": {
    "FloorID": 30103001,
    "FloorName": "MazeText_Empty",
    "BaseFloorID": 10102001,
    "BGMWorldState": "State_City_Mbelobog",
    "FloorBGMGroupName": "StateGroup_MCity_Belobog",
    "FloorBGMNormalStateName": "State_Maze_M1",
    "FloorDefaultEmotion": "State_Hollowing_D",
    "FloorBGMBusyStateName": "State_Maze_Busy",
    "EnterAudioEvent": [
      "Ev_sfx_amb_wind",
      "Ev_amb_maze_belobog_m1_1"
    ],
    "ExitAudioEvent": [
      "Ev_sfx_amb_wind_stop"
    ],
    "FloorType": "Default",
    "OptionalLoadBlocksConfig": "",
    "MunicipalConfigPath": "",
    "MapLayerNameList": [
      {
        "Hash": 1279275398
      },
      {
        "Hash": 1279275401
      },
      {
        "Hash": 1279275400
      }
    ],
    "CombatBGMLow": "State_Belobog_Overworld_Combat_Low",
    "CombatBGMHigh": "State_Belobog_Overworld_Combat_High"
  },
  "30104001": {
    "FloorID": 30104001,
    "FloorName": "MazeText_Empty",
    "BaseFloorID": 10102001,
    "BGMWorldState": "State_City_Mbelobog",
    "FloorBGMGroupName": "StateGroup_MCity_Belobog",
    "FloorBGMNormalStateName": "State_Maze_M1",
    "FloorDefaultEmotion": "State_Hollowing_D",
    "FloorBGMBusyStateName": "State_Maze_Busy",
    "EnterAudioEvent": [
      "Ev_sfx_amb_wind",
      "Ev_amb_maze_belobog_m1_1"
    ],
    "ExitAudioEvent": [
      "Ev_sfx_amb_wind_stop"
    ],
    "FloorType": "Default",
    "OptionalLoadBlocksConfig": "",
    "MunicipalConfigPath": "",
    "MapLayerNameList": [
      {
        "Hash": 1279275398
      },
      {
        "Hash": 1279275401
      },
      {
        "Hash": 1279275400
      }
    ],
    "CombatBGMLow": "State_Belobog_Overworld_Combat_Low",
    "CombatBGMHigh": "State_Belobog_Overworld_Combat_High"
  },
  "30105001": {
    "FloorID": 30105001,
    "FloorName": "MazeText_Empty",
    "BaseFloorID": 10102001,
    "BGMWorldState": "State_City_Mbelobog",
    "FloorBGMGroupName": "StateGroup_MCity_Belobog",
    "FloorBGMNormalStateName": "State_Maze_M1",
    "FloorDefaultEmotion": "State_Hollowing_D",
    "FloorBGMBusyStateName": "State_Maze_Busy",
    "EnterAudioEvent": [
      "Ev_sfx_amb_wind",
      "Ev_amb_maze_belobog_m1_1"
    ],
    "ExitAudioEvent": [
      "Ev_sfx_amb_wind_stop"
    ],
    "FloorType": "Default",
    "OptionalLoadBlocksConfig": "",
    "MunicipalConfigPath": "",
    "MapLayerNameList": [
      {
        "Hash": 1279275398
      },
      {
        "Hash": 1279275401
      },
      {
        "Hash": 1279275400
      }
    ],
    "CombatBGMLow": "State_Belobog_Overworld_Combat_Low",
    "CombatBGMHigh": "State_Belobog_Overworld_Combat_High"
  },
  "30120001": {
    "FloorID": 30120001,
    "FloorName": "MazeText_Empty",
    "BaseFloorID": 10102001,
    "BGMWorldState": "State_City_Mbelobog",
    "FloorBGMGroupName": "StateGroup_MCity_Belobog",
    "FloorBGMNormalStateName": "State_Maze_M1",
    "FloorDefaultEmotion": "State_Hollowing_D",
    "FloorBGMBusyStateName": "State_Maze_Busy",
    "EnterAudioEvent": [
      "Ev_sfx_amb_wind",
      "Ev_amb_maze_belobog_m1_1"
    ],
    "ExitAudioEvent": [
      "Ev_sfx_amb_wind_stop"
    ],
    "FloorType": "Default",
    "OptionalLoadBlocksConfig": "",
    "MunicipalConfigPath": "",
    "MapLayerNameList": [
      {
        "Hash": 1279275398
      },
      {
        "Hash": 1279275401
      },
      {
        "Hash": 1279275400
      }
    ],
    "CombatBGMLow": "State_Belobog_Overworld_Combat_Low",
    "CombatBGMHigh": "State_Belobog_Overworld_Combat_High"
  },
  "30201001": {
    "FloorID": 30201001,
    "FloorName": "FloorName_30201001",
    "BaseFloorID": 10102001,
    "BGMWorldState": "State_Herta_Space_Station",
    "FloorBGMGroupName": "StateGroup_Herta_Space_Station",
    "FloorBGMNormalStateName": "State_Storage_Zone_Default",
    "FloorDefaultEmotion": "State_Bgm_E_D",
    "FloorBGMBusyStateName": "State_Maze_Busy",
    "EnterAudioEvent": [
      "Ev_amb_maze_spacestation_n2"
    ],
    "ExitAudioEvent": [],
    "FloorType": "Default",
    "OptionalLoadBlocksConfig": "",
    "MunicipalConfigPath": "",
    "MapLayerNameList": [
      {
        "Hash": 1279275398
      },
      {
        "Hash": 1279275401
      },
      {
        "Hash": 1279275400
      }
    ],
    "CombatBGMLow": "State_Herta_Space_Station_Storage_Zone_Combat_Low",
    "CombatBGMHigh": "State_Herta_Space_Station_Storage_Zone_Combat_High"
  },
  "30202001": {
    "FloorID": 30202001,
    "FloorName": "FloorName_30202001",
    "BaseFloorID": 10102001,
    "BGMWorldState": "State_City_Mbelobog",
    "FloorBGMGroupName": "StateGroup_MCity_Belobog",
    "FloorBGMNormalStateName": "State_Maze_M2_1",
    "FloorDefaultEmotion": "State_Joyful_D",
    "FloorBGMBusyStateName": "State_Maze_Busy",
    "EnterAudioEvent": [
      "Ev_sfx_amb_wind",
      "Ev_amb_maze_belobog_m2_1"
    ],
    "ExitAudioEvent": [
      "Ev_sfx_amb_wind_stop"
    ],
    "FloorType": "Default",
    "OptionalLoadBlocksConfig": "",
    "MunicipalConfigPath": "",
    "MapLayerNameList": [
      {
        "Hash": 1279275398
      },
      {
        "Hash": 1279275401
      },
      {
        "Hash": 1279275400
      }
    ],
    "CombatBGMLow": "State_Belobog_Underworld_Combat_Low",
    "CombatBGMHigh": "State_Belobog_Underworld_Combat_High"
  },
  "30203001": {
    "FloorID": 30203001,
    "FloorName": "FloorName_30203001",
    "BaseFloorID": 10102001,
    "BGMWorldState": "State_City_Mbelobog",
    "FloorBGMGroupName": "StateGroup_MCity_Belobog",
    "FloorBGMNormalStateName": "State_Maze_M2_2",
    "FloorDefaultEmotion": "State_Joyful_D",
    "FloorBGMBusyStateName": "State_Maze_Busy",
    "EnterAudioEvent": [
      "Ev_sfx_amb_wind",
      "Ev_amb_maze_belobog_m2_2"
    ],
    "ExitAudioEvent": [
      "Ev_sfx_amb_wind_stop"
    ],
    "FloorType": "Default",
    "OptionalLoadBlocksConfig": "",
    "MunicipalConfigPath": "",
    "MapLayerNameList": [
      {
        "Hash": 1279275398
      },
      {
        "Hash": 1279275401
      },
      {
        "Hash": 1279275400
      }
    ],
    "CombatBGMLow": "State_Belobog_Underworld_Combat_Low",
    "CombatBGMHigh": "State_Belobog_Underworld_Combat_High"
  },
  "30204001": {
    "FloorID": 30204001,
    "FloorName": "FloorName_30204001",
    "BaseFloorID": 10102001,
    "BGMWorldState": "State_City_Mbelobog",
    "FloorBGMGroupName": "StateGroup_MCity_Belobog",
    "FloorBGMNormalStateName": "State_Maze_M1",
    "FloorDefaultEmotion": "State_Hollowing_D",
    "FloorBGMBusyStateName": "State_Maze_Busy",
    "EnterAudioEvent": [
      "Ev_sfx_amb_wind",
      "Ev_amb_maze_belobog_m3_1"
    ],
    "ExitAudioEvent": [
      "Ev_sfx_amb_wind_stop"
    ],
    "FloorType": "Default",
    "OptionalLoadBlocksConfig": "",
    "MunicipalConfigPath": "",
    "MapLayerNameList": [
      {
        "Hash": 1279275398
      },
      {
        "Hash": 1279275401
      },
      {
        "Hash": 1279275400
      }
    ],
    "CombatBGMLow": "State_Belobog_Overworld_Combat_Low",
    "CombatBGMHigh": "State_Belobog_Overworld_Combat_High"
  },
  "30205001": {
    "FloorID": 30205001,
    "FloorName": "FloorName_30205001",
    "BaseFloorID": 10102001,
    "BGMWorldState": "State_City_Mbelobog",
    "FloorBGMGroupName": "StateGroup_MCity_Belobog",
    "FloorBGMNormalStateName": "State_Maze_M3_2",
    "FloorDefaultEmotion": "State_Severe",
    "FloorBGMBusyStateName": "State_Maze_Busy",
    "EnterAudioEvent": [
      "Ev_sfx_amb_wind",
      "Ev_amb_maze_belobog_m3_2"
    ],
    "ExitAudioEvent": [
      "Ev_sfx_amb_wind_stop"
    ],
    "FloorType": "Default",
    "OptionalLoadBlocksConfig": "",
    "MunicipalConfigPath": "",
    "MapLayerNameList": [
      {
        "Hash": 1279275398
      },
      {
        "Hash": 1279275401
      },
      {
        "Hash": 1279275400
      }
    ],
    "CombatBGMLow": "State_Belobog_Overworld_Combat_Low",
    "CombatBGMHigh": "State_Belobog_Overworld_Combat_High"
  },
  "30206001": {
    "FloorID": 30206001,
    "FloorName": "FloorName_30206001",
    "BaseFloorID": 10102001,
    "BGMWorldState": "State_City_Mbelobog",
    "FloorBGMGroupName": "StateGroup_MCity_Belobog",
    "FloorBGMNormalStateName": "State_Maze_M3_3_EverwinterHill",
    "FloorDefaultEmotion": "State_Hollowing_D",
    "FloorBGMBusyStateName": "State_Maze_Busy",
    "EnterAudioEvent": [
      "Ev_sfx_amb_wind",
      "Ev_amb_maze_belobog_m3_3"
    ],
    "ExitAudioEvent": [
      "Ev_sfx_amb_wind_stop"
    ],
    "FloorType": "Default",
    "OptionalLoadBlocksConfig": "",
    "MunicipalConfigPath": "",
    "MapLayerNameList": [
      {
        "Hash": 1279275398
      },
      {
        "Hash": 1279275401
      },
      {
        "Hash": 1279275400
      }
    ],
    "CombatBGMLow": "State_Belobog_Overworld_Combat_Low",
    "CombatBGMHigh": "State_Belobog_Overworld_Combat_High"
  },
  "30301001": {
    "FloorID": 30301001,
    "FloorName": "FloorName_30301001",
    "BaseFloorID": 20132001,
    "BGMWorldState": "State_City_Mbelobog",
    "FloorBGMGroupName": "StateGroup_MCity_Belobog",
    "FloorBGMNormalStateName": "State_Maze_M3_2",
    "FloorDefaultEmotion": "State_Severe",
    "FloorBGMBusyStateName": "State_Maze_Busy",
    "EnterAudioEvent": [
      "Ev_sfx_amb_wind",
      "Ev_amb_maze_belobog_m3_2"
    ],
    "ExitAudioEvent": [
      "Ev_sfx_amb_wind_stop"
    ],
    "FloorType": "Default",
    "OptionalLoadBlocksConfig": "",
    "MunicipalConfigPath": "",
    "MapLayerNameList": [
      {
        "Hash": 1279275398
      },
      {
        "Hash": 1279275401
      },
      {
        "Hash": 1279275400
      }
    ],
    "CombatBGMLow": "State_Belobog_Overworld_Combat_Low",
    "CombatBGMHigh": "State_Belobog_Overworld_Combat_High"
  },
  "30301002": {
    "FloorID": 30301002,
    "FloorName": "FloorName_30301002",
    "BaseFloorID": 20123001,
    "BGMWorldState": "State_City_Mbelobog",
    "FloorBGMGroupName": "StateGroup_MCity_Belobog",
    "FloorBGMNormalStateName": "State_Maze_M2_1",
    "FloorDefaultEmotion": "State_Joyful_D",
    "FloorBGMBusyStateName": "State_Maze_Busy",
    "EnterAudioEvent": [
      "Ev_sfx_amb_wind",
      "Ev_amb_maze_belobog_m2_3"
    ],
    "ExitAudioEvent": [
      "Ev_sfx_amb_wind_stop"
    ],
    "FloorType": "Default",
    "OptionalLoadBlocksConfig": "",
    "MunicipalConfigPath": "",
    "MapLayerNameList": [
      {
        "Hash": 1279275398
      },
      {
        "Hash": 1279275401
      },
      {
        "Hash": 1279275400
      }
    ],
    "CombatBGMLow": "State_Belobog_Underworld_Combat_Low",
    "CombatBGMHigh": "State_Belobog_Underworld_Combat_High"
  },
  "30301003": {
    "FloorID": 30301003,
    "FloorName": "FloorName_30301003",
    "BaseFloorID": 20121001,
    "BGMWorldState": "State_City_Mbelobog",
    "FloorBGMGroupName": "StateGroup_MCity_Belobog",
    "FloorBGMNormalStateName": "State_Maze_M2_1",
    "FloorDefaultEmotion": "State_Joyful_D",
    "FloorBGMBusyStateName": "State_Maze_Busy",
    "EnterAudioEvent": [
      "Ev_sfx_amb_wind",
      "Ev_amb_maze_belobog_m2_1"
    ],
    "ExitAudioEvent": [
      "Ev_sfx_amb_wind_stop"
    ],
    "FloorType": "Default",
    "OptionalLoadBlocksConfig": "",
    "MunicipalConfigPath": "",
    "MapLayerNameList": [
      {
        "Hash": 1279275398
      },
      {
        "Hash": 1279275401
      },
      {
        "Hash": 1279275400
      }
    ],
    "CombatBGMLow": "State_Belobog_Underworld_Combat_Low",
    "CombatBGMHigh": "State_Belobog_Underworld_Combat_High"
  },
  "30301004": {
    "FloorID": 30301004,
    "FloorName": "FloorName_30301004",
    "BaseFloorID": 20132001,
    "BGMWorldState": "State_City_Mbelobog",
    "FloorBGMGroupName": "StateGroup_MCity_Belobog",
    "FloorBGMNormalStateName": "State_Maze_M3_2",
    "FloorDefaultEmotion": "State_Severe",
    "FloorBGMBusyStateName": "State_Maze_Busy",
    "EnterAudioEvent": [
      "Ev_sfx_amb_wind",
      "Ev_amb_maze_belobog_m3_2"
    ],
    "ExitAudioEvent": [
      "Ev_sfx_amb_wind_stop"
    ],
    "FloorType": "Default",
    "OptionalLoadBlocksConfig": "",
    "MunicipalConfigPath": "",
    "MapLayerNameList": [
      {
        "Hash": 1279275398
      },
      {
        "Hash": 1279275401
      },
      {
        "Hash": 1279275400
      }
    ],
    "CombatBGMLow": "State_Belobog_Overworld_Combat_Low",
    "CombatBGMHigh": "State_Belobog_Overworld_Combat_High"
  },
  "30301005": {
    "FloorID": 30301005,
    "FloorName": "FloorName_30301005",
    "BaseFloorID": 20122001,
    "BGMWorldState": "State_City_Mbelobog",
    "FloorBGMGroupName": "StateGroup_MCity_Belobog",
    "FloorBGMNormalStateName": "State_Maze_M2_2",
    "FloorDefaultEmotion": "State_Joyful_D",
    "FloorBGMBusyStateName": "State_Maze_Busy",
    "EnterAudioEvent": [
      "Ev_sfx_amb_wind",
      "Ev_amb_maze_belobog_m2_2"
    ],
    "ExitAudioEvent": [
      "Ev_sfx_amb_wind_stop"
    ],
    "FloorType": "Default",
    "OptionalLoadBlocksConfig": "",
    "MunicipalConfigPath": "",
    "MapLayerNameList": [
      {
        "Hash": 1279275398
      },
      {
        "Hash": 1279275401
      },
      {
        "Hash": 1279275400
      }
    ],
    "CombatBGMLow": "State_Belobog_Underworld_Combat_Low",
    "CombatBGMHigh": "State_Belobog_Underworld_Combat_High"
  },
  "30301006": {
    "FloorID": 30301006,
    "FloorName": "FloorName_30301006",
    "BaseFloorID": 20131001,
    "BGMWorldState": "State_City_Mbelobog",
    "FloorBGMGroupName": "StateGroup_MCity_Belobog",
    "FloorBGMNormalStateName": "State_Maze_M1",
    "FloorDefaultEmotion": "State_Hollowing_D",
    "FloorBGMBusyStateName": "State_Maze_Busy",
    "EnterAudioEvent": [
      "Ev_sfx_amb_wind",
      "Ev_amb_maze_belobog_m3_1"
    ],
    "ExitAudioEvent": [
      "Ev_sfx_amb_wind_stop"
    ],
    "FloorType": "Default",
    "OptionalLoadBlocksConfig": "",
    "MunicipalConfigPath": "",
    "MapLayerNameList": [
      {
        "Hash": 1279275398
      },
      {
        "Hash": 1279275401
      },
      {
        "Hash": 1279275400
      }
    ],
    "CombatBGMLow": "State_Belobog_Overworld_Combat_Low",
    "CombatBGMHigh": "State_Belobog_Overworld_Combat_High"
  },
  "30301007": {
    "FloorID": 30301007,
    "FloorName": "FloorName_30301007",
    "BaseFloorID": 20121001,
    "BGMWorldState": "State_City_Mbelobog",
    "FloorBGMGroupName": "StateGroup_MCity_Belobog",
    "FloorBGMNormalStateName": "State_Maze_M2_1",
    "FloorDefaultEmotion": "State_Joyful_D",
    "FloorBGMBusyStateName": "State_Maze_Busy",
    "EnterAudioEvent": [
      "Ev_sfx_amb_wind",
      "Ev_amb_maze_belobog_m2_1"
    ],
    "ExitAudioEvent": [
      "Ev_sfx_amb_wind_stop"
    ],
    "FloorType": "Default",
    "OptionalLoadBlocksConfig": "",
    "MunicipalConfigPath": "",
    "MapLayerNameList": [
      {
        "Hash": 1279275398
      },
      {
        "Hash": 1279275401
      },
      {
        "Hash": 1279275400
      }
    ],
    "CombatBGMLow": "State_Belobog_Underworld_Combat_Low",
    "CombatBGMHigh": "State_Belobog_Underworld_Combat_High"
  },
  "40000001": {
    "FloorID": 40000001,
    "FloorName": "FloorName_40000001",
    "BaseFloorID": 20002001,
    "BGMWorldState": "State_Spaceship",
    "FloorBGMGroupName": "",
    "FloorBGMNormalStateName": "",
    "FloorDefaultEmotion": "",
    "FloorBGMBusyStateName": "",
    "EnterAudioEvent": [],
    "ExitAudioEvent": [],
    "FloorType": "Default",
    "OptionalLoadBlocksConfig": "",
    "MunicipalConfigPath": "",
    "MapLayerNameList": [
      {
        "Hash": 1279275398
      },
      {
        "Hash": 1279275401
      },
      {
        "Hash": 1279275400
      }
    ],
    "CombatBGMLow": "State_Herta_Space_Station_Storage_Zone_Combat_Low",
    "CombatBGMHigh": "State_Herta_Space_Station_Storage_Zone_Combat_High"
  },
  "40002001": {
    "FloorID": 40002001,
    "FloorName": "FloorName_40002001",
    "BaseFloorID": 20002001,
    "BGMWorldState": "State_Herta_Space_Station",
    "FloorBGMGroupName": "StateGroup_Herta_Space_Station",
    "FloorBGMNormalStateName": "State_Storage_Zone_Default",
    "FloorDefaultEmotion": "State_Bgm_E_D",
    "FloorBGMBusyStateName": "State_Maze_Busy",
    "EnterAudioEvent": [
      "Ev_amb_maze_spacestation_n2"
    ],
    "ExitAudioEvent": [],
    "FloorType": "Default",
    "OptionalLoadBlocksConfig": "",
    "MunicipalConfigPath": "",
    "MapLayerNameList": [
      {
        "Hash": 1279275398
      },
      {
        "Hash": 1279275401
      },
      {
        "Hash": 1279275400
      }
    ],
    "CombatBGMLow": "State_Herta_Space_Station_Storage_Zone_Combat_Low",
    "CombatBGMHigh": "State_Herta_Space_Station_Storage_Zone_Combat_High"
  },
  "40002002": {
    "FloorID": 40002002,
    "FloorName": "FloorName_40002002",
    "BaseFloorID": 20002001,
    "BGMWorldState": "State_Herta_Space_Station",
    "FloorBGMGroupName": "StateGroup_Herta_Space_Station",
    "FloorBGMNormalStateName": "State_Storage_Zone_Default",
    "FloorDefaultEmotion": "State_Bgm_E_D",
    "FloorBGMBusyStateName": "State_Maze_Busy",
    "EnterAudioEvent": [
      "Ev_amb_maze_spacestation_n2"
    ],
    "ExitAudioEvent": [],
    "FloorType": "Default",
    "OptionalLoadBlocksConfig": "",
    "MunicipalConfigPath": "",
    "MapLayerNameList": [
      {
        "Hash": 1279275398
      },
      {
        "Hash": 1279275401
      },
      {
        "Hash": 1279275400
      }
    ],
    "CombatBGMLow": "State_Herta_Space_Station_Storage_Zone_Combat_Low",
    "CombatBGMHigh": "State_Herta_Space_Station_Storage_Zone_Combat_High"
  },
  "40002003": {
    "FloorID": 40002003,
    "FloorName": "FloorName_40002003",
    "BaseFloorID": 20002001,
    "BGMWorldState": "State_Herta_Space_Station",
    "FloorBGMGroupName": "StateGroup_Herta_Space_Station",
    "FloorBGMNormalStateName": "State_Storage_Zone_Default",
    "FloorDefaultEmotion": "State_Bgm_E_D",
    "FloorBGMBusyStateName": "State_Maze_Busy",
    "EnterAudioEvent": [
      "Ev_amb_maze_spacestation_n2"
    ],
    "ExitAudioEvent": [],
    "FloorType": "Default",
    "OptionalLoadBlocksConfig": "",
    "MunicipalConfigPath": "",
    "MapLayerNameList": [
      {
        "Hash": 1279275398
      },
      {
        "Hash": 1279275401
      },
      {
        "Hash": 1279275400
      }
    ],
    "CombatBGMLow": "State_Herta_Space_Station_Storage_Zone_Combat_Low",
    "CombatBGMHigh": "State_Herta_Space_Station_Storage_Zone_Combat_High"
  },
  "40002004": {
    "FloorID": 40002004,
    "FloorName": "FloorName_40002004",
    "BaseFloorID": 20002001,
    "BGMWorldState": "State_Herta_Space_Station",
    "FloorBGMGroupName": "StateGroup_Herta_Space_Station",
    "FloorBGMNormalStateName": "State_Storage_Zone_Default",
    "FloorDefaultEmotion": "State_Bgm_E_D",
    "FloorBGMBusyStateName": "State_Maze_Busy",
    "EnterAudioEvent": [
      "Ev_amb_maze_spacestation_n2"
    ],
    "ExitAudioEvent": [],
    "FloorType": "Default",
    "OptionalLoadBlocksConfig": "",
    "MunicipalConfigPath": "",
    "MapLayerNameList": [
      {
        "Hash": 1279275398
      },
      {
        "Hash": 1279275401
      },
      {
        "Hash": 1279275400
      }
    ],
    "CombatBGMLow": "State_Herta_Space_Station_Storage_Zone_Combat_Low",
    "CombatBGMHigh": "State_Herta_Space_Station_Storage_Zone_Combat_High"
  },
  "40101001": {
    "FloorID": 40101001,
    "FloorName": "FloorName_40101001",
    "BaseFloorID": 10102001,
    "BGMWorldState": "State_City_Mbelobog",
    "FloorBGMGroupName": "StateGroup_MCity_Belobog",
    "FloorBGMNormalStateName": "State_Maze_M3_2",
    "FloorDefaultEmotion": "State_Severe",
    "FloorBGMBusyStateName": "State_Maze_Busy",
    "EnterAudioEvent": [
      "Ev_sfx_amb_wind",
      "Ev_amb_maze_belobog_m3_2"
    ],
    "ExitAudioEvent": [
      "Ev_sfx_amb_wind_stop"
    ],
    "FloorType": "Default",
    "OptionalLoadBlocksConfig": "",
    "MunicipalConfigPath": "",
    "MapLayerNameList": [
      {
        "Hash": 1279275398
      },
      {
        "Hash": 1279275401
      },
      {
        "Hash": 1279275400
      }
    ],
    "CombatBGMLow": "State_Belobog_Overworld_Combat_Low",
    "CombatBGMHigh": "State_Belobog_Overworld_Combat_High"
  },
  "40101002": {
    "FloorID": 40101002,
    "FloorName": "FloorName_40101002",
    "BaseFloorID": 40101002,
    "BGMWorldState": "State_City_Mbelobog",
    "FloorBGMGroupName": "StateGroup_MCity_Belobog",
    "FloorBGMNormalStateName": "State_Maze_M3_2",
    "FloorDefaultEmotion": "State_Severe",
    "FloorBGMBusyStateName": "State_Maze_Busy",
    "EnterAudioEvent": [
      "Ev_sfx_amb_wind",
      "Ev_amb_maze_belobog_m3_2"
    ],
    "ExitAudioEvent": [
      "Ev_sfx_amb_wind_stop"
    ],
    "FloorType": "Default",
    "OptionalLoadBlocksConfig": "",
    "MunicipalConfigPath": "",
    "MapLayerNameList": [
      {
        "Hash": 1279275398
      },
      {
        "Hash": 1279275401
      },
      {
        "Hash": 1279275400
      }
    ],
    "CombatBGMLow": "State_Belobog_Overworld_Combat_Low",
    "CombatBGMHigh": "State_Belobog_Overworld_Combat_High"
  },
  "40101003": {
    "FloorID": 40101003,
    "FloorName": "FloorName_40101003",
    "BaseFloorID": 40101003,
    "BGMWorldState": "State_City_Mbelobog",
    "FloorBGMGroupName": "StateGroup_MCity_Belobog",
    "FloorBGMNormalStateName": "State_Maze_M3_2",
    "FloorDefaultEmotion": "State_Severe",
    "FloorBGMBusyStateName": "State_Maze_Busy",
    "EnterAudioEvent": [
      "Ev_sfx_amb_wind",
      "Ev_amb_maze_belobog_m3_2"
    ],
    "ExitAudioEvent": [
      "Ev_sfx_amb_wind_stop"
    ],
    "FloorType": "Default",
    "OptionalLoadBlocksConfig": "",
    "MunicipalConfigPath": "",
    "MapLayerNameList": [
      {
        "Hash": 1279275398
      },
      {
        "Hash": 1279275401
      },
      {
        "Hash": 1279275400
      }
    ],
    "CombatBGMLow": "State_Belobog_Overworld_Combat_Low",
    "CombatBGMHigh": "State_Belobog_Overworld_Combat_High"
  },
  "40101004": {
    "FloorID": 40101004,
    "FloorName": "FloorName_40101004",
    "BaseFloorID": 40101004,
    "BGMWorldState": "State_City_Mbelobog",
    "FloorBGMGroupName": "StateGroup_MCity_Belobog",
    "FloorBGMNormalStateName": "State_Maze_M3_2",
    "FloorDefaultEmotion": "State_Severe",
    "FloorBGMBusyStateName": "State_Maze_Busy",
    "EnterAudioEvent": [
      "Ev_sfx_amb_wind",
      "Ev_amb_maze_belobog_m3_2"
    ],
    "ExitAudioEvent": [
      "Ev_sfx_amb_wind_stop"
    ],
    "FloorType": "Default",
    "OptionalLoadBlocksConfig": "",
    "MunicipalConfigPath": "",
    "MapLayerNameList": [
      {
        "Hash": 1279275398
      },
      {
        "Hash": 1279275401
      },
      {
        "Hash": 1279275400
      }
    ],
    "CombatBGMLow": "State_Belobog_Overworld_Combat_Low",
    "CombatBGMHigh": "State_Belobog_Overworld_Combat_High"
  },
  "40121001": {
    "FloorID": 40121001,
    "FloorName": "FloorName_40121001",
    "BaseFloorID": 40121001,
    "BGMWorldState": "State_City_Mbelobog",
    "FloorBGMGroupName": "StateGroup_MCity_Belobog",
    "FloorBGMNormalStateName": "State_Maze_M2_1",
    "FloorDefaultEmotion": "State_Joyful_D",
    "FloorBGMBusyStateName": "State_Maze_Busy",
    "EnterAudioEvent": [
      "Ev_sfx_amb_wind",
      "Ev_amb_maze_belobog_m2_1"
    ],
    "ExitAudioEvent": [
      "Ev_sfx_amb_wind_stop"
    ],
    "FloorType": "Default",
    "OptionalLoadBlocksConfig": "",
    "MunicipalConfigPath": "",
    "MapLayerNameList": [
      {
        "Hash": 1279275398
      },
      {
        "Hash": 1279275401
      },
      {
        "Hash": 1279275400
      }
    ],
    "CombatBGMLow": "State_Belobog_Underworld_Combat_Low",
    "CombatBGMHigh": "State_Belobog_Underworld_Combat_High"
  },
  "40121002": {
    "FloorID": 40121002,
    "FloorName": "FloorName_40121002",
    "BaseFloorID": 40121001,
    "BGMWorldState": "State_City_Mbelobog",
    "FloorBGMGroupName": "StateGroup_MCity_Belobog",
    "FloorBGMNormalStateName": "State_Maze_M2_1",
    "FloorDefaultEmotion": "State_Joyful_D",
    "FloorBGMBusyStateName": "State_Maze_Busy",
    "EnterAudioEvent": [
      "Ev_sfx_amb_wind",
      "Ev_amb_maze_belobog_m2_1"
    ],
    "ExitAudioEvent": [
      "Ev_sfx_amb_wind_stop"
    ],
    "FloorType": "Default",
    "OptionalLoadBlocksConfig": "",
    "MunicipalConfigPath": "",
    "MapLayerNameList": [
      {
        "Hash": 1279275398
      },
      {
        "Hash": 1279275401
      },
      {
        "Hash": 1279275400
      }
    ],
    "CombatBGMLow": "State_Belobog_Underworld_Combat_Low",
    "CombatBGMHigh": "State_Belobog_Underworld_Combat_High"
  },
  "40121003": {
    "FloorID": 40121003,
    "FloorName": "FloorName_40121003",
    "BaseFloorID": 40121001,
    "BGMWorldState": "State_City_Mbelobog",
    "FloorBGMGroupName": "StateGroup_MCity_Belobog",
    "FloorBGMNormalStateName": "State_Maze_M2_1",
    "FloorDefaultEmotion": "State_Joyful_D",
    "FloorBGMBusyStateName": "State_Maze_Busy",
    "EnterAudioEvent": [
      "Ev_sfx_amb_wind",
      "Ev_amb_maze_belobog_m2_1"
    ],
    "ExitAudioEvent": [
      "Ev_sfx_amb_wind_stop"
    ],
    "FloorType": "Default",
    "OptionalLoadBlocksConfig": "",
    "MunicipalConfigPath": "",
    "MapLayerNameList": [
      {
        "Hash": 1279275398
      },
      {
        "Hash": 1279275401
      },
      {
        "Hash": 1279275400
      }
    ],
    "CombatBGMLow": "State_Belobog_Underworld_Combat_Low",
    "CombatBGMHigh": "State_Belobog_Underworld_Combat_High"
  },
  "40121005": {
    "FloorID": 40121005,
    "FloorName": "FloorName_40121005",
    "BaseFloorID": 40121001,
    "BGMWorldState": "State_City_Mbelobog",
    "FloorBGMGroupName": "StateGroup_MCity_Belobog",
    "FloorBGMNormalStateName": "State_Maze_M2_1",
    "FloorDefaultEmotion": "State_Joyful_D",
    "FloorBGMBusyStateName": "State_Maze_Busy",
    "EnterAudioEvent": [
      "Ev_sfx_amb_wind",
      "Ev_amb_maze_belobog_m2_1"
    ],
    "ExitAudioEvent": [
      "Ev_sfx_amb_wind_stop"
    ],
    "FloorType": "Default",
    "OptionalLoadBlocksConfig": "",
    "MunicipalConfigPath": "",
    "MapLayerNameList": [
      {
        "Hash": 1279275398
      },
      {
        "Hash": 1279275401
      },
      {
        "Hash": 1279275400
      }
    ],
    "CombatBGMLow": "State_Belobog_Underworld_Combat_Low",
    "CombatBGMHigh": "State_Belobog_Underworld_Combat_High"
  },
  "40121006": {
    "FloorID": 40121006,
    "FloorName": "FloorName_40121006",
    "BaseFloorID": 40121001,
    "BGMWorldState": "State_City_Mbelobog",
    "FloorBGMGroupName": "StateGroup_MCity_Belobog",
    "FloorBGMNormalStateName": "State_Maze_M2_1",
    "FloorDefaultEmotion": "State_Joyful_D",
    "FloorBGMBusyStateName": "State_Maze_Busy",
    "EnterAudioEvent": [
      "Ev_sfx_amb_wind",
      "Ev_amb_maze_belobog_m2_1"
    ],
    "ExitAudioEvent": [
      "Ev_sfx_amb_wind_stop"
    ],
    "FloorType": "Default",
    "OptionalLoadBlocksConfig": "",
    "MunicipalConfigPath": "",
    "MapLayerNameList": [
      {
        "Hash": 1279275398
      },
      {
        "Hash": 1279275401
      },
      {
        "Hash": 1279275400
      }
    ],
    "CombatBGMLow": "State_Belobog_Underworld_Combat_Low",
    "CombatBGMHigh": "State_Belobog_Underworld_Combat_High"
  },
  "40131001": {
    "FloorID": 40131001,
    "FloorName": "FloorName_40131001",
    "BaseFloorID": 20131001,
    "BGMWorldState": "State_City_Mbelobog",
    "FloorBGMGroupName": "StateGroup_MCity_Belobog",
    "FloorBGMNormalStateName": "State_Maze_M1",
    "FloorDefaultEmotion": "State_Hollowing_D",
    "FloorBGMBusyStateName": "State_Maze_Busy",
    "EnterAudioEvent": [
      "Ev_sfx_amb_wind",
      "Ev_amb_maze_belobog_m3_1"
    ],
    "ExitAudioEvent": [
      "Ev_sfx_amb_wind_stop"
    ],
    "FloorType": "Default",
    "OptionalLoadBlocksConfig": "",
    "MunicipalConfigPath": "",
    "MapLayerNameList": [
      {
        "Hash": 1279275398
      },
      {
        "Hash": 1279275401
      },
      {
        "Hash": 1279275400
      }
    ],
    "CombatBGMLow": "State_Belobog_Overworld_Combat_Low",
    "CombatBGMHigh": "State_Belobog_Overworld_Combat_High"
  },
  "40131002": {
    "FloorID": 40131002,
    "FloorName": "FloorName_40131002",
    "BaseFloorID": 20131001,
    "BGMWorldState": "State_City_Mbelobog",
    "FloorBGMGroupName": "StateGroup_MCity_Belobog",
    "FloorBGMNormalStateName": "State_Maze_M1",
    "FloorDefaultEmotion": "State_Hollowing_D",
    "FloorBGMBusyStateName": "State_Maze_Busy",
    "EnterAudioEvent": [
      "Ev_sfx_amb_wind",
      "Ev_amb_maze_belobog_m3_1"
    ],
    "ExitAudioEvent": [
      "Ev_sfx_amb_wind_stop"
    ],
    "FloorType": "Default",
    "OptionalLoadBlocksConfig": "",
    "MunicipalConfigPath": "",
    "MapLayerNameList": [
      {
        "Hash": 1279275398
      },
      {
        "Hash": 1279275401
      },
      {
        "Hash": 1279275400
      }
    ],
    "CombatBGMLow": "State_Belobog_Overworld_Combat_Low",
    "CombatBGMHigh": "State_Belobog_Overworld_Combat_High"
  },
  "40131003": {
    "FloorID": 40131003,
    "FloorName": "FloorName_40131003",
    "BaseFloorID": 20131001,
    "BGMWorldState": "State_City_Mbelobog",
    "FloorBGMGroupName": "StateGroup_MCity_Belobog",
    "FloorBGMNormalStateName": "State_Maze_M1",
    "FloorDefaultEmotion": "State_Hollowing_D",
    "FloorBGMBusyStateName": "State_Maze_Busy",
    "EnterAudioEvent": [
      "Ev_sfx_amb_wind",
      "Ev_amb_maze_belobog_m3_1"
    ],
    "ExitAudioEvent": [
      "Ev_sfx_amb_wind_stop"
    ],
    "FloorType": "Default",
    "OptionalLoadBlocksConfig": "",
    "MunicipalConfigPath": "",
    "MapLayerNameList": [
      {
        "Hash": 1279275398
      },
      {
        "Hash": 1279275401
      },
      {
        "Hash": 1279275400
      }
    ],
    "CombatBGMLow": "State_Belobog_Overworld_Combat_Low",
    "CombatBGMHigh": "State_Belobog_Overworld_Combat_High"
  },
  "40211001": {
    "FloorID": 40211001,
    "FloorName": "FloorName_40211001",
    "BaseFloorID": 40211001,
    "BGMWorldState": "State_City_MXianzhou_Alliance",
    "FloorBGMGroupName": "StateGroup_MCity_Xianzhou_Alliance",
    "FloorBGMNormalStateName": "State_Xianzhou_Cloudford",
    "FloorDefaultEmotion": "State_Hollowing",
    "FloorBGMBusyStateName": "",
    "EnterAudioEvent": [
      "Ev_sfx_amb_wind",
      "Ev_amb_maze_xianzhou_x1_1"
    ],
    "ExitAudioEvent": [
      "Ev_sfx_amb_wind_stop"
    ],
    "FloorType": "Default",
    "OptionalLoadBlocksConfig": "",
    "MunicipalConfigPath": "",
    "MapLayerNameList": [
      {
        "Hash": 1279275398
      },
      {
        "Hash": 1279275401
      },
      {
        "Hash": 1279275400
      }
    ],
    "CombatBGMLow": "State_Xianzhou_Alliance_X1_1_Combat_Low",
    "CombatBGMHigh": "State_Xianzhou_Alliance_X1_1_Combat_High"
  },
  "40222001": {
    "FloorID": 40222001,
    "FloorName": "FloorName_40222001",
    "BaseFloorID": 40222001,
    "BGMWorldState": "State_City_MXianzhou_Alliance",
    "FloorBGMGroupName": "StateGroup_MCity_Xianzhou_Alliance",
    "FloorBGMNormalStateName": "State_Xianzhou_Maze_Artisanship_Commission",
    "FloorDefaultEmotion": "State_Hollowing",
    "FloorBGMBusyStateName": "",
    "EnterAudioEvent": [
      "Ev_sfx_amb_wind",
      "Ev_amb_maze_xianzhou_x2_2"
    ],
    "ExitAudioEvent": [
      "Ev_sfx_amb_wind_stop"
    ],
    "FloorType": "Default",
    "OptionalLoadBlocksConfig": "",
    "MunicipalConfigPath": "",
    "MapLayerNameList": [
      {
        "Hash": 1279275398
      },
      {
        "Hash": 1279275401
      },
      {
        "Hash": 1279275400
      }
    ],
    "CombatBGMLow": "State_Xianzhou_Maze_X2_1_Combat_Low",
    "CombatBGMHigh": "State_Xianzhou_Maze_X2_1_Combat_High"
  },
  "40222002": {
    "FloorID": 40222002,
    "FloorName": "FloorName_40222002",
    "BaseFloorID": 40222001,
    "BGMWorldState": "State_City_MXianzhou_Alliance",
    "FloorBGMGroupName": "StateGroup_MCity_Xianzhou_Alliance",
    "FloorBGMNormalStateName": "State_Xianzhou_Maze_Artisanship_Commission",
    "FloorDefaultEmotion": "State_Hollowing",
    "FloorBGMBusyStateName": "",
    "EnterAudioEvent": [
      "Ev_sfx_amb_wind",
      "Ev_amb_maze_xianzhou_x2_2"
    ],
    "ExitAudioEvent": [
      "Ev_sfx_amb_wind_stop"
    ],
    "FloorType": "Default",
    "OptionalLoadBlocksConfig": "",
    "MunicipalConfigPath": "",
    "MapLayerNameList": [
      {
        "Hash": 1279275398
      },
      {
        "Hash": 1279275401
      },
      {
        "Hash": 1279275400
      }
    ],
    "CombatBGMLow": "State_Xianzhou_Maze_X2_1_Combat_Low",
    "CombatBGMHigh": "State_Xianzhou_Maze_X2_1_Combat_High"
  },
  "40222003": {
    "FloorID": 40222003,
    "FloorName": "FloorName_40222003",
    "BaseFloorID": 40222001,
    "BGMWorldState": "State_City_MXianzhou_Alliance",
    "FloorBGMGroupName": "StateGroup_MCity_Xianzhou_Alliance",
    "FloorBGMNormalStateName": "State_Xianzhou_Maze_Artisanship_Commission",
    "FloorDefaultEmotion": "State_Hollowing",
    "FloorBGMBusyStateName": "",
    "EnterAudioEvent": [
      "Ev_sfx_amb_wind",
      "Ev_amb_maze_xianzhou_x2_2"
    ],
    "ExitAudioEvent": [
      "Ev_sfx_amb_wind_stop"
    ],
    "FloorType": "Default",
    "OptionalLoadBlocksConfig": "",
    "MunicipalConfigPath": "",
    "MapLayerNameList": [
      {
        "Hash": 1279275398
      },
      {
        "Hash": 1279275401
      },
      {
        "Hash": 1279275400
      }
    ],
    "CombatBGMLow": "State_Xianzhou_Maze_X2_1_Combat_Low",
    "CombatBGMHigh": "State_Xianzhou_Maze_X2_1_Combat_High"
  },
  "40222004": {
    "FloorID": 40222004,
    "FloorName": "FloorName_40222004",
    "BaseFloorID": 40222001,
    "BGMWorldState": "State_City_MXianzhou_Alliance",
    "FloorBGMGroupName": "StateGroup_MCity_Xianzhou_Alliance",
    "FloorBGMNormalStateName": "State_Xianzhou_Maze_Artisanship_Commission",
    "FloorDefaultEmotion": "State_Hollowing",
    "FloorBGMBusyStateName": "",
    "EnterAudioEvent": [
      "Ev_sfx_amb_wind",
      "Ev_amb_maze_xianzhou_x2_2"
    ],
    "ExitAudioEvent": [
      "Ev_sfx_amb_wind_stop"
    ],
    "FloorType": "Default",
    "OptionalLoadBlocksConfig": "",
    "MunicipalConfigPath": "",
    "MapLayerNameList": [
      {
        "Hash": 1279275398
      },
      {
        "Hash": 1279275401
      },
      {
        "Hash": 1279275400
      }
    ],
    "CombatBGMLow": "State_Xianzhou_Maze_X2_1_Combat_Low",
    "CombatBGMHigh": "State_Xianzhou_Maze_X2_1_Combat_High"
  },
  "40222005": {
    "FloorID": 40222005,
    "FloorName": "FloorName_40222005",
    "BaseFloorID": 40222001,
    "BGMWorldState": "State_City_MXianzhou_Alliance",
    "FloorBGMGroupName": "StateGroup_MCity_Xianzhou_Alliance",
    "FloorBGMNormalStateName": "State_Xianzhou_Maze_Artisanship_Commission",
    "FloorDefaultEmotion": "State_Hollowing",
    "FloorBGMBusyStateName": "",
    "EnterAudioEvent": [
      "Ev_sfx_amb_wind",
      "Ev_amb_maze_xianzhou_x2_2"
    ],
    "ExitAudioEvent": [
      "Ev_sfx_amb_wind_stop"
    ],
    "FloorType": "Default",
    "OptionalLoadBlocksConfig": "",
    "MunicipalConfigPath": "",
    "MapLayerNameList": [
      {
        "Hash": 1279275398
      },
      {
        "Hash": 1279275401
      },
      {
        "Hash": 1279275400
      }
    ],
    "CombatBGMLow": "State_Xianzhou_Maze_X2_1_Combat_Low",
    "CombatBGMHigh": "State_Xianzhou_Maze_X2_1_Combat_High"
  },
  "40222006": {
    "FloorID": 40222006,
    "FloorName": "FloorName_40222006",
    "BaseFloorID": 40222001,
    "BGMWorldState": "State_City_MXianzhou_Alliance",
    "FloorBGMGroupName": "StateGroup_MCity_Xianzhou_Alliance",
    "FloorBGMNormalStateName": "State_Xianzhou_Maze_Artisanship_Commission",
    "FloorDefaultEmotion": "State_Hollowing",
    "FloorBGMBusyStateName": "",
    "EnterAudioEvent": [
      "Ev_sfx_amb_wind",
      "Ev_amb_maze_xianzhou_x2_2"
    ],
    "ExitAudioEvent": [
      "Ev_sfx_amb_wind_stop"
    ],
    "FloorType": "Default",
    "OptionalLoadBlocksConfig": "",
    "MunicipalConfigPath": "",
    "MapLayerNameList": [
      {
        "Hash": 1279275398
      },
      {
        "Hash": 1279275401
      },
      {
        "Hash": 1279275400
      }
    ],
    "CombatBGMLow": "State_Xianzhou_Maze_X2_1_Combat_Low",
    "CombatBGMHigh": "State_Xianzhou_Maze_X2_1_Combat_High"
  },
  "41000001": {
    "FloorID": 41000001,
    "FloorName": "FloorName_41000001",
    "BaseFloorID": 41000001,
    "BGMWorldState": "State_City_Mbelobog",
    "FloorBGMGroupName": "StateGroup_MCity_Belobog",
    "FloorBGMNormalStateName": "State_Maze_M2_1",
    "FloorDefaultEmotion": "State_Joyful_D",
    "FloorBGMBusyStateName": "State_Maze_Busy",
    "EnterAudioEvent": [
      "Ev_sfx_amb_wind",
      "Ev_amb_maze_belobog_m2_3"
    ],
    "ExitAudioEvent": [
      "Ev_sfx_amb_wind_stop"
    ],
    "FloorType": "Default",
    "WalkingEffectAdditiveScale": 0,
    "OptionalLoadBlocksConfig": "",
    "MunicipalConfigPath": "",
    "MapLayerNameList": [
      {
        "Hash": 1279275398
      },
      {
        "Hash": 1279275401
      },
      {
        "Hash": 1279275400
      }
    ],
    "CombatBGMLow": "State_Belobog_Underworld_Combat_Low",
    "CombatBGMHigh": "State_Belobog_Underworld_Combat_High"
  },
  "41000002": {
    "FloorID": 41000002,
    "FloorName": "FloorName_41000002",
    "BaseFloorID": 41000002,
    "BGMWorldState": "State_City_MXianzhou_Alliance",
    "FloorBGMGroupName": "StateGroup_MCity_Xianzhou_Alliance",
    "FloorBGMNormalStateName": "State_Xianzhou_Cloudford",
    "FloorDefaultEmotion": "State_Hollowing",
    "FloorBGMBusyStateName": "",
    "EnterAudioEvent": [
      "Ev_sfx_amb_wind",
      "Ev_amb_maze_xianzhou_x1_1"
    ],
    "ExitAudioEvent": [
      "Ev_sfx_amb_wind_stop"
    ],
    "FloorType": "Default",
    "WalkingEffectAdditiveScale": 0,
    "OptionalLoadBlocksConfig": "",
    "MunicipalConfigPath": "",
    "MapLayerNameList": [
      {
        "Hash": 1279275398
      },
      {
        "Hash": 1279275401
      },
      {
        "Hash": 1279275400
      }
    ],
    "CombatBGMLow": "State_Xianzhou_Alliance_X1_1_Combat_Low",
    "CombatBGMHigh": "State_Xianzhou_Alliance_X1_1_Combat_High"
  },
  "41000003": {
    "FloorID": 41000003,
    "FloorName": "FloorName_41000003",
    "BaseFloorID": 41000003,
    "BGMWorldState": "State_City_Mbelobog",
    "FloorBGMGroupName": "StateGroup_MCity_Belobog",
    "FloorBGMNormalStateName": "State_Maze_M2_1",
    "FloorDefaultEmotion": "State_Joyful_D",
    "FloorBGMBusyStateName": "State_Maze_Busy",
    "EnterAudioEvent": [
      "Ev_sfx_amb_wind",
      "Ev_amb_maze_belobog_m2_1"
    ],
    "ExitAudioEvent": [
      "Ev_sfx_amb_wind_stop"
    ],
    "FloorType": "Default",
    "WalkingEffectAdditiveScale": 0,
    "OptionalLoadBlocksConfig": "",
    "MunicipalConfigPath": "",
    "MapLayerNameList": [
      {
        "Hash": 1279275398
      },
      {
        "Hash": 1279275401
      },
      {
        "Hash": 1279275400
      }
    ],
    "CombatBGMLow": "State_Belobog_Underworld_Combat_Low",
    "CombatBGMHigh": "State_Belobog_Underworld_Combat_High"
  },
  "41000004": {
    "FloorID": 41000004,
    "FloorName": "FloorName_41000004",
    "BaseFloorID": 41000004,
    "BGMWorldState": "State_Herta_Space_Station",
    "FloorBGMGroupName": "StateGroup_Herta_Space_Station",
    "FloorBGMNormalStateName": "State_Supply_Zone_Default",
    "FloorDefaultEmotion": "State_Bgm_E_D",
    "FloorBGMBusyStateName": "State_Maze_Busy",
    "EnterAudioEvent": [
      "Ev_amb_maze_spacestation_n3"
    ],
    "ExitAudioEvent": [],
    "FloorType": "Default",
    "WalkingEffectAdditiveScale": 0,
    "OptionalLoadBlocksConfig": "",
    "MunicipalConfigPath": "",
    "MapLayerNameList": [
      {
        "Hash": 1279275398
      },
      {
        "Hash": 1279275401
      },
      {
        "Hash": 1279275400
      }
    ],
    "CombatBGMLow": "State_Herta_Space_Station_Suppy_Zone_Combat_Low",
    "CombatBGMHigh": "State_Herta_Space_Station_Suppy_Zone_Combat_High"
  },
  "41000005": {
    "FloorID": 41000005,
    "FloorName": "FloorName_41000005",
    "BaseFloorID": 41000005,
    "BGMWorldState": "State_City_Mbelobog",
    "FloorBGMGroupName": "StateGroup_MCity_Belobog",
    "FloorBGMNormalStateName": "State_Maze_M1",
    "FloorDefaultEmotion": "State_Hollowing_D",
    "FloorBGMBusyStateName": "State_Maze_Busy",
    "EnterAudioEvent": [
      "Ev_sfx_amb_wind",
      "Ev_amb_maze_belobog_m1_1"
    ],
    "ExitAudioEvent": [
      "Ev_sfx_amb_wind_stop"
    ],
    "FloorType": "Default",
    "WalkingEffectAdditiveScale": 0,
    "OptionalLoadBlocksConfig": "",
    "MunicipalConfigPath": "",
    "MapLayerNameList": [
      {
        "Hash": 1279275398
      },
      {
        "Hash": 1279275401
      },
      {
        "Hash": 1279275400
      }
    ],
    "CombatBGMLow": "State_Belobog_Overworld_Combat_Low",
    "CombatBGMHigh": "State_Belobog_Overworld_Combat_High"
  },
  "41000006": {
    "FloorID": 41000006,
    "FloorName": "FloorName_41000006",
    "BaseFloorID": 41000006,
    "BGMWorldState": "State_City_MXianzhou_Alliance",
    "FloorBGMGroupName": "StateGroup_MCity_Xianzhou_Alliance",
    "FloorBGMNormalStateName": "State_Xianzhou_Cloudford",
    "FloorDefaultEmotion": "State_Hollowing",
    "FloorBGMBusyStateName": "",
    "EnterAudioEvent": [
      "Ev_sfx_amb_wind",
      "Ev_amb_maze_xianzhou_x1_1"
    ],
    "ExitAudioEvent": [
      "Ev_sfx_amb_wind_stop"
    ],
    "FloorType": "Default",
    "WalkingEffectAdditiveScale": 0,
    "OptionalLoadBlocksConfig": "",
    "MunicipalConfigPath": "",
    "MapLayerNameList": [
      {
        "Hash": 1279275398
      },
      {
        "Hash": 1279275401
      },
      {
        "Hash": 1279275400
      }
    ],
    "CombatBGMLow": "State_Xianzhou_Alliance_X1_1_Combat_Low",
    "CombatBGMHigh": "State_Xianzhou_Alliance_X1_1_Combat_High"
  },
  "41000007": {
    "FloorID": 41000007,
    "FloorName": "FloorName_41000007",
    "BaseFloorID": 20123001,
    "BGMWorldState": "State_City_Mbelobog",
    "FloorBGMGroupName": "StateGroup_MCity_Belobog",
    "FloorBGMNormalStateName": "State_Maze_M2_1",
    "FloorDefaultEmotion": "State_Joyful_D",
    "FloorBGMBusyStateName": "State_Maze_Busy",
    "EnterAudioEvent": [
      "Ev_sfx_amb_wind",
      "Ev_amb_maze_belobog_m2_3"
    ],
    "ExitAudioEvent": [
      "Ev_sfx_amb_wind_stop"
    ],
    "FloorType": "Default",
    "WalkingEffectAdditiveScale": 0,
    "OptionalLoadBlocksConfig": "",
    "MunicipalConfigPath": "",
    "MapLayerNameList": [
      {
        "Hash": 1279275398
      },
      {
        "Hash": 1279275401
      },
      {
        "Hash": 1279275400
      }
    ],
    "CombatBGMLow": "State_Belobog_Underworld_Combat_Low",
    "CombatBGMHigh": "State_Belobog_Underworld_Combat_High"
  },
  "41000008": {
    "FloorID": 41000008,
    "FloorName": "FloorName_41000008",
    "BaseFloorID": 20211001,
    "BGMWorldState": "State_City_MXianzhou_Alliance",
    "FloorBGMGroupName": "StateGroup_MCity_Xianzhou_Alliance",
    "FloorBGMNormalStateName": "State_Xianzhou_Cloudford",
    "FloorDefaultEmotion": "State_Hollowing",
    "FloorBGMBusyStateName": "",
    "EnterAudioEvent": [
      "Ev_sfx_amb_wind",
      "Ev_amb_maze_xianzhou_x1_1"
    ],
    "ExitAudioEvent": [
      "Ev_sfx_amb_wind_stop"
    ],
    "FloorType": "Default",
    "WalkingEffectAdditiveScale": 0,
    "OptionalLoadBlocksConfig": "",
    "MunicipalConfigPath": "",
    "MapLayerNameList": [
      {
        "Hash": 1279275398
      },
      {
        "Hash": 1279275401
      },
      {
        "Hash": 1279275400
      }
    ],
    "CombatBGMLow": "State_Xianzhou_Alliance_X1_1_Combat_Low",
    "CombatBGMHigh": "State_Xianzhou_Alliance_X1_1_Combat_High"
  },
  "41000009": {
    "FloorID": 41000009,
    "FloorName": "FloorName_41000009",
    "BaseFloorID": 20121001,
    "BGMWorldState": "State_City_Mbelobog",
    "FloorBGMGroupName": "StateGroup_MCity_Belobog",
    "FloorBGMNormalStateName": "State_Maze_M2_1",
    "FloorDefaultEmotion": "State_Joyful_D",
    "FloorBGMBusyStateName": "State_Maze_Busy",
    "EnterAudioEvent": [
      "Ev_sfx_amb_wind",
      "Ev_amb_maze_belobog_m2_1"
    ],
    "ExitAudioEvent": [
      "Ev_sfx_amb_wind_stop"
    ],
    "FloorType": "Default",
    "WalkingEffectAdditiveScale": 0,
    "OptionalLoadBlocksConfig": "",
    "MunicipalConfigPath": "",
    "MapLayerNameList": [
      {
        "Hash": 1279275398
      },
      {
        "Hash": 1279275401
      },
      {
        "Hash": 1279275400
      }
    ],
    "CombatBGMLow": "State_Belobog_Underworld_Combat_Low",
    "CombatBGMHigh": "State_Belobog_Underworld_Combat_High"
  },
  "41000010": {
    "FloorID": 41000010,
    "FloorName": "FloorName_41000010",
    "BaseFloorID": 20132001,
    "BGMWorldState": "State_City_Mbelobog",
    "FloorBGMGroupName": "StateGroup_MCity_Belobog",
    "FloorBGMNormalStateName": "State_Maze_M3_2",
    "FloorDefaultEmotion": "State_Severe",
    "FloorBGMBusyStateName": "State_Maze_Busy",
    "EnterAudioEvent": [
      "Ev_sfx_amb_wind",
      "Ev_amb_maze_belobog_m3_2"
    ],
    "ExitAudioEvent": [
      "Ev_sfx_amb_wind_stop"
    ],
    "FloorType": "Default",
    "WalkingEffectAdditiveScale": 0,
    "OptionalLoadBlocksConfig": "",
    "MunicipalConfigPath": "",
    "MapLayerNameList": [
      {
        "Hash": 1279275398
      },
      {
        "Hash": 1279275401
      },
      {
        "Hash": 1279275400
      }
    ],
    "CombatBGMLow": "State_Belobog_Overworld_Combat_Low",
    "CombatBGMHigh": "State_Belobog_Overworld_Combat_High"
  },
  "41000011": {
    "FloorID": 41000011,
    "FloorName": "FloorName_41000011",
    "BaseFloorID": 20131001,
    "BGMWorldState": "State_City_Mbelobog",
    "FloorBGMGroupName": "StateGroup_MCity_Belobog",
    "FloorBGMNormalStateName": "State_Maze_M1",
    "FloorDefaultEmotion": "State_Hollowing_D",
    "FloorBGMBusyStateName": "State_Maze_Busy",
    "EnterAudioEvent": [
      "Ev_sfx_amb_wind",
      "Ev_amb_maze_belobog_m3_1"
    ],
    "ExitAudioEvent": [
      "Ev_sfx_amb_wind_stop"
    ],
    "FloorType": "Default",
    "WalkingEffectAdditiveScale": 0,
    "OptionalLoadBlocksConfig": "",
    "MunicipalConfigPath": "",
    "MapLayerNameList": [
      {
        "Hash": 1279275398
      },
      {
        "Hash": 1279275401
      },
      {
        "Hash": 1279275400
      }
    ],
    "CombatBGMLow": "State_Belobog_Overworld_Combat_Low",
    "CombatBGMHigh": "State_Belobog_Overworld_Combat_High"
  },
  "41000012": {
    "FloorID": 41000012,
    "FloorName": "FloorName_41000012",
    "BaseFloorID": 20211001,
    "BGMWorldState": "State_City_MXianzhou_Alliance",
    "FloorBGMGroupName": "StateGroup_MCity_Xianzhou_Alliance",
    "FloorBGMNormalStateName": "State_Xianzhou_Cloudford",
    "FloorDefaultEmotion": "State_Hollowing",
    "FloorBGMBusyStateName": "",
    "EnterAudioEvent": [
      "Ev_sfx_amb_wind",
      "Ev_amb_maze_xianzhou_x1_1"
    ],
    "ExitAudioEvent": [
      "Ev_sfx_amb_wind_stop"
    ],
    "FloorType": "Default",
    "WalkingEffectAdditiveScale": 0,
    "OptionalLoadBlocksConfig": "",
    "MunicipalConfigPath": "",
    "MapLayerNameList": [
      {
        "Hash": 1279275398
      },
      {
        "Hash": 1279275401
      },
      {
        "Hash": 1279275400
      }
    ],
    "CombatBGMLow": "State_Xianzhou_Alliance_X1_1_Combat_Low",
    "CombatBGMHigh": "State_Xianzhou_Alliance_X1_1_Combat_High"
  },
  "80000001": {
    "FloorID": 80000001,
    "FloorName": "MazeText_Empty",
    "BaseFloorID": 10001001,
    "BGMWorldState": "State_City_Mbelobog",
    "FloorBGMGroupName": "StateGroup_MCity_Belobog",
    "FloorBGMNormalStateName": "State_Maze_M3_3_PathSpace",
    "FloorDefaultEmotion": "State_Hollowing_D",
    "FloorBGMBusyStateName": "State_Maze_Busy",
    "EnterAudioEvent": [
      "Ev_amb_maze_belobog_m3_3"
    ],
    "ExitAudioEvent": [],
    "FloorType": "Default",
    "OptionalLoadBlocksConfig": "",
    "MunicipalConfigPath": "",
    "MapLayerNameList": [
      {
        "Hash": 1279275398
      },
      {
        "Hash": 1279275401
      },
      {
        "Hash": 1279275400
      }
    ],
    "CombatBGMLow": "State_Belobog_Overworld_Combat_Low",
    "CombatBGMHigh": "State_Belobog_Overworld_Combat_High"
  },
  "80001001": {
    "FloorID": 80001001,
    "FloorName": "MazeText_Empty",
    "BaseFloorID": 10001001,
    "BGMWorldState": "State_Herta_Space_Station",
    "FloorBGMGroupName": "StateGroup_Herta_Space_Station",
    "FloorBGMNormalStateName": "State_Base_Zone_Default",
    "FloorDefaultEmotion": "State_Bgm_E_D",
    "FloorBGMBusyStateName": "State_Maze_Busy",
    "EnterAudioEvent": [
      "Ev_amb_maze_spacestation_n1"
    ],
    "ExitAudioEvent": [],
    "FloorType": "Default",
    "OptionalLoadBlocksConfig": "",
    "MunicipalConfigPath": "",
    "MapLayerNameList": [
      {
        "Hash": 1279275398
      },
      {
        "Hash": 1279275401
      },
      {
        "Hash": 1279275400
      }
    ],
    "CombatBGMLow": "State_Herta_Space_Station_Base_Zone_Combat_Low",
    "CombatBGMHigh": "State_Herta_Space_Station_Base_Zone_Combat_High"
  },
  "80001002": {
    "FloorID": 80001002,
    "FloorName": "MazeText_Empty",
    "BaseFloorID": 10001001,
    "BGMWorldState": "State_Herta_Space_Station",
    "FloorBGMGroupName": "StateGroup_Herta_Space_Station",
    "FloorBGMNormalStateName": "State_Storage_Zone_Default",
    "FloorDefaultEmotion": "State_Bgm_E_D",
    "FloorBGMBusyStateName": "State_Maze_Busy",
    "EnterAudioEvent": [
      "Ev_amb_maze_spacestation_n2"
    ],
    "ExitAudioEvent": [],
    "FloorType": "Default",
    "OptionalLoadBlocksConfig": "",
    "MunicipalConfigPath": "",
    "MapLayerNameList": [
      {
        "Hash": 1279275398
      },
      {
        "Hash": 1279275401
      },
      {
        "Hash": 1279275400
      }
    ],
    "CombatBGMLow": "State_Herta_Space_Station_Storage_Zone_Combat_Low",
    "CombatBGMHigh": "State_Herta_Space_Station_Storage_Zone_Combat_High"
  },
  "80001003": {
    "FloorID": 80001003,
    "FloorName": "MazeText_Empty",
    "BaseFloorID": 10001001,
    "BGMWorldState": "State_Herta_Space_Station",
    "FloorBGMGroupName": "StateGroup_Herta_Space_Station",
    "FloorBGMNormalStateName": "State_Supply_Zone_Default",
    "FloorDefaultEmotion": "State_Bgm_E_D",
    "FloorBGMBusyStateName": "State_Maze_Busy",
    "EnterAudioEvent": [
      "Ev_amb_maze_spacestation_n3"
    ],
    "ExitAudioEvent": [],
    "FloorType": "Default",
    "OptionalLoadBlocksConfig": "",
    "MunicipalConfigPath": "",
    "MapLayerNameList": [
      {
        "Hash": 1279275398
      },
      {
        "Hash": 1279275401
      },
      {
        "Hash": 1279275400
      }
    ],
    "CombatBGMLow": "State_Herta_Space_Station_Suppy_Zone_Combat_Low",
    "CombatBGMHigh": "State_Herta_Space_Station_Suppy_Zone_Combat_High"
  },
  "81001001": {
    "FloorID": 81001001,
    "FloorName": "MazeText_Empty",
    "BaseFloorID": 10001001,
    "BGMWorldState": "State_Herta_Space_Station",
    "FloorBGMGroupName": "StateGroup_Herta_Space_Station",
    "FloorBGMNormalStateName": "State_Base_Zone_Default",
    "FloorDefaultEmotion": "State_Bgm_E_D",
    "FloorBGMBusyStateName": "State_Maze_Busy",
    "EnterAudioEvent": [
      "Ev_amb_maze_spacestation_n1"
    ],
    "ExitAudioEvent": [],
    "FloorType": "Default",
    "OptionalLoadBlocksConfig": "",
    "MunicipalConfigPath": "",
    "MapLayerNameList": [
      {
        "Hash": 1279275398
      },
      {
        "Hash": 1279275401
      },
      {
        "Hash": 1279275400
      }
    ],
    "CombatBGMLow": "State_Herta_Space_Station_Base_Zone_Combat_Low",
    "CombatBGMHigh": "State_Herta_Space_Station_Base_Zone_Combat_High"
  },
  "81002001": {
    "FloorID": 81002001,
    "FloorName": "MazeText_Empty",
    "BaseFloorID": 10001001,
    "BGMWorldState": "State_Herta_Space_Station",
    "FloorBGMGroupName": "StateGroup_Herta_Space_Station",
    "FloorBGMNormalStateName": "State_Storage_Zone_Default",
    "FloorDefaultEmotion": "State_Bgm_E_D",
    "FloorBGMBusyStateName": "State_Maze_Busy",
    "EnterAudioEvent": [
      "Ev_amb_maze_spacestation_n2"
    ],
    "ExitAudioEvent": [],
    "FloorType": "Default",
    "OptionalLoadBlocksConfig": "",
    "MunicipalConfigPath": "",
    "MapLayerNameList": [
      {
        "Hash": 1279275398
      },
      {
        "Hash": 1279275401
      },
      {
        "Hash": 1279275400
      }
    ],
    "CombatBGMLow": "State_Herta_Space_Station_Storage_Zone_Combat_Low",
    "CombatBGMHigh": "State_Herta_Space_Station_Storage_Zone_Combat_High"
  },
  "81003001": {
    "FloorID": 81003001,
    "FloorName": "MazeText_Empty",
    "BaseFloorID": 10001001,
    "BGMWorldState": "State_Herta_Space_Station",
    "FloorBGMGroupName": "StateGroup_Herta_Space_Station",
    "FloorBGMNormalStateName": "State_Supply_Zone_Default",
    "FloorDefaultEmotion": "State_Bgm_E_D",
    "FloorBGMBusyStateName": "State_Maze_Busy",
    "EnterAudioEvent": [
      "Ev_amb_maze_spacestation_n3"
    ],
    "ExitAudioEvent": [],
    "FloorType": "Default",
    "OptionalLoadBlocksConfig": "",
    "MunicipalConfigPath": "",
    "MapLayerNameList": [
      {
        "Hash": 1279275398
      },
      {
        "Hash": 1279275401
      },
      {
        "Hash": 1279275400
      }
    ],
    "CombatBGMLow": "State_Herta_Space_Station_Suppy_Zone_Combat_Low",
    "CombatBGMHigh": "State_Herta_Space_Station_Suppy_Zone_Combat_High"
  },
  "81111001": {
    "FloorID": 81111001,
    "FloorName": "MazeText_Empty",
    "BaseFloorID": 10001001,
    "BGMWorldState": "State_City_Mbelobog",
    "FloorBGMGroupName": "StateGroup_MCity_Belobog",
    "FloorBGMNormalStateName": "State_Maze_M1",
    "FloorDefaultEmotion": "State_Hollowing_D",
    "FloorBGMBusyStateName": "State_Maze_Busy",
    "EnterAudioEvent": [
      "Ev_sfx_amb_wind",
      "Ev_amb_maze_belobog_m1_1"
    ],
    "ExitAudioEvent": [
      "Ev_sfx_amb_wind_stop"
    ],
    "FloorType": "Default",
    "OptionalLoadBlocksConfig": "",
    "MunicipalConfigPath": "",
    "MapLayerNameList": [
      {
        "Hash": 1279275398
      },
      {
        "Hash": 1279275401
      },
      {
        "Hash": 1279275400
      }
    ],
    "CombatBGMLow": "State_Belobog_Overworld_Combat_Low",
    "CombatBGMHigh": "State_Belobog_Overworld_Combat_High"
  },
  "81131001": {
    "FloorID": 81131001,
    "FloorName": "MazeText_Empty",
    "BaseFloorID": 10001001,
    "BGMWorldState": "State_City_Mbelobog",
    "FloorBGMGroupName": "StateGroup_MCity_Belobog",
    "FloorBGMNormalStateName": "State_Maze_M1",
    "FloorDefaultEmotion": "State_Hollowing_D",
    "FloorBGMBusyStateName": "State_Maze_Busy",
    "EnterAudioEvent": [
      "Ev_sfx_amb_wind",
      "Ev_amb_maze_belobog_m3_1"
    ],
    "ExitAudioEvent": [
      "Ev_sfx_amb_wind_stop"
    ],
    "FloorType": "Default",
    "OptionalLoadBlocksConfig": "",
    "MunicipalConfigPath": "",
    "MapLayerNameList": [
      {
        "Hash": 1279275398
      },
      {
        "Hash": 1279275401
      },
      {
        "Hash": 1279275400
      }
    ],
    "CombatBGMLow": "State_Belobog_Overworld_Combat_Low",
    "CombatBGMHigh": "State_Belobog_Overworld_Combat_High"
  },
  "81132001": {
    "FloorID": 81132001,
    "FloorName": "MazeText_Empty",
    "BaseFloorID": 10001001,
    "BGMWorldState": "State_City_Mbelobog",
    "FloorBGMGroupName": "StateGroup_MCity_Belobog",
    "FloorBGMNormalStateName": "State_Maze_M3_2",
    "FloorDefaultEmotion": "State_Severe",
    "FloorBGMBusyStateName": "State_Maze_Busy",
    "EnterAudioEvent": [
      "Ev_sfx_amb_wind",
      "Ev_amb_maze_belobog_m3_2"
    ],
    "ExitAudioEvent": [
      "Ev_sfx_amb_wind_stop"
    ],
    "FloorType": "Default",
    "OptionalLoadBlocksConfig": "",
    "MunicipalConfigPath": "",
    "MapLayerNameList": [
      {
        "Hash": 1279275398
      },
      {
        "Hash": 1279275401
      },
      {
        "Hash": 1279275400
      }
    ],
    "CombatBGMLow": "State_Belobog_Overworld_Combat_Low",
    "CombatBGMHigh": "State_Belobog_Overworld_Combat_High"
  },
  "81121001": {
    "FloorID": 81121001,
    "FloorName": "MazeText_Empty",
    "BaseFloorID": 10001001,
    "BGMWorldState": "State_City_Mbelobog",
    "FloorBGMGroupName": "StateGroup_MCity_Belobog",
    "FloorBGMNormalStateName": "State_Maze_M2_1",
    "FloorDefaultEmotion": "State_Joyful_D",
    "FloorBGMBusyStateName": "State_Maze_Busy",
    "EnterAudioEvent": [
      "Ev_sfx_amb_wind",
      "Ev_amb_maze_belobog_m2_1"
    ],
    "ExitAudioEvent": [
      "Ev_sfx_amb_wind_stop"
    ],
    "FloorType": "Default",
    "OptionalLoadBlocksConfig": "",
    "MunicipalConfigPath": "",
    "MapLayerNameList": [
      {
        "Hash": 1279275398
      },
      {
        "Hash": 1279275401
      },
      {
        "Hash": 1279275400
      }
    ],
    "CombatBGMLow": "State_Belobog_Underworld_Combat_Low",
    "CombatBGMHigh": "State_Belobog_Underworld_Combat_High"
  },
  "81122001": {
    "FloorID": 81122001,
    "FloorName": "MazeText_Empty",
    "BaseFloorID": 10001001,
    "BGMWorldState": "State_City_Mbelobog",
    "FloorBGMGroupName": "StateGroup_MCity_Belobog",
    "FloorBGMNormalStateName": "State_Maze_M2_2",
    "FloorDefaultEmotion": "State_Joyful_D",
    "FloorBGMBusyStateName": "State_Maze_Busy",
    "EnterAudioEvent": [
      "Ev_sfx_amb_wind",
      "Ev_amb_maze_belobog_m2_2"
    ],
    "ExitAudioEvent": [
      "Ev_sfx_amb_wind_stop"
    ],
    "FloorType": "Default",
    "OptionalLoadBlocksConfig": "",
    "MunicipalConfigPath": "",
    "MapLayerNameList": [
      {
        "Hash": 1279275398
      },
      {
        "Hash": 1279275401
      },
      {
        "Hash": 1279275400
      }
    ],
    "CombatBGMLow": "State_Belobog_Underworld_Combat_Low",
    "CombatBGMHigh": "State_Belobog_Underworld_Combat_High"
  },
  "81123001": {
    "FloorID": 81123001,
    "FloorName": "MazeText_Empty",
    "BaseFloorID": 10001001,
    "BGMWorldState": "State_City_Mbelobog",
    "FloorBGMGroupName": "StateGroup_MCity_Belobog",
    "FloorBGMNormalStateName": "State_Maze_M2_1",
    "FloorDefaultEmotion": "State_Joyful_D",
    "FloorBGMBusyStateName": "State_Maze_Busy",
    "EnterAudioEvent": [
      "Ev_sfx_amb_wind",
      "Ev_amb_maze_belobog_m2_3"
    ],
    "ExitAudioEvent": [
      "Ev_sfx_amb_wind_stop"
    ],
    "FloorType": "Default",
    "OptionalLoadBlocksConfig": "",
    "MunicipalConfigPath": "",
    "MapLayerNameList": [
      {
        "Hash": 1279275398
      },
      {
        "Hash": 1279275401
      },
      {
        "Hash": 1279275400
      }
    ],
    "CombatBGMLow": "State_Belobog_Underworld_Combat_Low",
    "CombatBGMHigh": "State_Belobog_Underworld_Combat_High"
  },
  "81211001": {
    "FloorID": 81211001,
    "FloorName": "MazeText_Empty",
    "BaseFloorID": 10001001,
    "BGMWorldState": "State_City_MXianzhou_Alliance",
    "FloorBGMGroupName": "StateGroup_MCity_Xianzhou_Alliance",
    "FloorBGMNormalStateName": "State_Xianzhou_Cloudford",
    "FloorDefaultEmotion": "State_Hollowing",
    "FloorBGMBusyStateName": "",
    "EnterAudioEvent": [
      "Ev_sfx_amb_wind",
      "Ev_amb_maze_xianzhou_x1_1"
    ],
    "ExitAudioEvent": [
      "Ev_sfx_amb_wind_stop"
    ],
    "FloorType": "Default",
    "OptionalLoadBlocksConfig": "",
    "MunicipalConfigPath": "",
    "MapLayerNameList": [
      {
        "Hash": 1279275398
      },
      {
        "Hash": 1279275401
      },
      {
        "Hash": 1279275400
      }
    ],
    "CombatBGMLow": "State_Xianzhou_Alliance_X1_1_Combat_Low",
    "CombatBGMHigh": "State_Xianzhou_Alliance_X1_1_Combat_High"
  },
  "81212001": {
    "FloorID": 81212001,
    "FloorName": "MazeText_Empty",
    "BaseFloorID": 10001001,
    "BGMWorldState": "State_City_MXianzhou_Alliance",
    "FloorBGMGroupName": "StateGroup_MCity_Xianzhou_Alliance",
    "FloorBGMNormalStateName": "State_Xianzhou_Alliance_Stargazer_Navalia",
    "FloorDefaultEmotion": "State_Hollowing",
    "FloorBGMBusyStateName": "",
    "EnterAudioEvent": [
      "Ev_sfx_amb_wind",
      "Ev_amb_maze_xianzhou_x1_2"
    ],
    "ExitAudioEvent": [
      "Ev_sfx_amb_wind_stop"
    ],
    "FloorType": "Default",
    "OptionalLoadBlocksConfig": "",
    "MunicipalConfigPath": "",
    "MapLayerNameList": [
      {
        "Hash": 1279275398
      },
      {
        "Hash": 1279275401
      },
      {
        "Hash": 1279275400
      }
    ],
    "CombatBGMLow": "State_Xianzhou_Alliance_X1_1_Combat_Low",
    "CombatBGMHigh": "State_Xianzhou_Alliance_X1_1_Combat_High"
  }
}