{
  "100101": {
    "MazeSkillId": 100101,
    "MazeSkillName": {
      "Hash": -409178268
    },
    "MazeSkilltype": 1,
    "MazeSkillDesc": {
      "Hash": 2095340966
    },
    "RelatedAvatarSkill": 100106,
    "SkillTriggerKey": "NormalAtk"
  },
  "100102": {
    "MazeSkillId": 100102,
    "MazeSkillName": {
      "Hash": -1975262209
    },
    "MazeSkilltype": 2,
    "MazeSkillDesc": {
      "Hash": 529257025
    },
    "RelatedAvatarSkill": 100107,
    "MPCost": 1,
    "SkillTriggerKey": "MazeSkill"
  },
  "100201": {
    "MazeSkillId": 100201,
    "MazeSkillName": {
      "Hash": -308421719
    },
    "MazeSkilltype": 1,
    "MazeSkillDesc": {
      "Hash": -2098869781
    },
    "RelatedAvatarSkill": 100206,
    "SkillTriggerKey": "NormalAtk"
  },
  "100202": {
    "MazeSkillId": 100202,
    "MazeSkillName": {
      "Hash": 1257662222
    },
    "MazeSkilltype": 2,
    "MazeSkillDesc": {
      "Hash": -532785840
    },
    "RelatedAvatarSkill": 100207,
    "MPCost": 1,
    "SkillTriggerKey": "MazeSkill"
  },
  "100301": {
    "MazeSkillId": 100301,
    "MazeSkillName": {
      "Hash": 1277865198
    },
    "MazeSkilltype": 1,
    "MazeSkillDesc": {
      "Hash": -512582864
    },
    "RelatedAvatarSkill": 100306,
    "SkillTriggerKey": "NormalAtk"
  },
  "100302": {
    "MazeSkillId": 100302,
    "MazeSkillName": {
      "Hash": -288218743
    },
    "MazeSkilltype": 2,
    "MazeSkillDesc": {
      "Hash": -2078666805
    },
    "RelatedAvatarSkill": 100307,
    "MPCost": 1,
    "SkillTriggerKey": "MazeSkill"
  },
  "100401": {
    "MazeSkillId": 100401,
    "MazeSkillName": {
      "Hash": 1378621747
    },
    "MazeSkilltype": 1,
    "MazeSkillDesc": {
      "Hash": 1429934413
    },
    "RelatedAvatarSkill": 100406,
    "SkillTriggerKey": "NormalAtk"
  },
  "100402": {
    "MazeSkillId": 100402,
    "MazeSkillName": {
      "Hash": -1350261608
    },
    "MazeSkilltype": 2,
    "MazeSkillDesc": {
      "Hash": -1298948942
    },
    "RelatedAvatarSkill": 100407,
    "MPCost": 1,
    "SkillTriggerKey": "MazeSkill"
  },
  "100501": {
    "MazeSkillId": 100501,
    "MazeSkillName": {
      "Hash": -1330058632
    },
    "MazeSkilltype": 1,
    "MazeSkillDesc": {
      "Hash": -1278745966
    },
    "RelatedAvatarSkill": 100506,
    "SkillTriggerKey": "NormalAtk"
  },
  "100502": {
    "MazeSkillId": 100502,
    "MazeSkillName": {
      "Hash": 1398824723
    },
    "MazeSkilltype": 2,
    "MazeSkillDesc": {
      "Hash": 1450137389
    },
    "RelatedAvatarSkill": 100507,
    "MPCost": 1,
    "SkillTriggerKey": "MazeSkill"
  },
  "100601": {
    "MazeSkillId": 100601,
    "MazeSkillName": {
      "Hash": -1229302083
    },
    "MazeSkilltype": 1,
    "MazeSkillDesc": {
      "Hash": -1177989417
    },
    "RelatedAvatarSkill": 100606,
    "SkillTriggerKey": "NormalAtk"
  },
  "100602": {
    "MazeSkillId": 100602,
    "MazeSkillName": {
      "Hash": 336781858
    },
    "MazeSkilltype": 2,
    "MazeSkillDesc": {
      "Hash": 388094524
    },
    "RelatedAvatarSkill": 100607,
    "MPCost": 1,
    "SkillTriggerKey": "MazeSkill"
  },
  "100801": {
    "MazeSkillId": 100801,
    "MazeSkillName": {
      "Hash": 1170202103
    },
    "MazeSkilltype": 1,
    "MazeSkillDesc": {
      "Hash": -620245959
    },
    "RelatedAvatarSkill": 100806,
    "SkillTriggerKey": "NormalAtk"
  },
  "100802": {
    "MazeSkillId": 100802,
    "MazeSkillName": {
      "Hash": -1558681252
    },
    "MazeSkilltype": 2,
    "MazeSkillDesc": {
      "Hash": 945837982
    },
    "RelatedAvatarSkill": 100807,
    "MPCost": 1,
    "SkillTriggerKey": "MazeSkill"
  },
  "100901": {
    "MazeSkillId": 100901,
    "MazeSkillName": {
      "Hash": -1538478276
    },
    "MazeSkilltype": 1,
    "MazeSkillDesc": {
      "Hash": 966040958
    },
    "RelatedAvatarSkill": 100906,
    "SkillTriggerKey": "NormalAtk"
  },
  "100902": {
    "MazeSkillId": 100902,
    "MazeSkillName": {
      "Hash": 1190405079
    },
    "MazeSkilltype": 2,
    "MazeSkillDesc": {
      "Hash": -600042983
    },
    "RelatedAvatarSkill": 100907,
    "MPCost": 1,
    "SkillTriggerKey": "MazeSkill"
  },
  "101301": {
    "MazeSkillId": 101301,
    "MazeSkillName": {
      "Hash": 1277865101
    },
    "MazeSkilltype": 1,
    "MazeSkillDesc": {
      "Hash": -512582961
    },
    "RelatedAvatarSkill": 101306,
    "SkillTriggerKey": "NormalAtk"
  },
  "101302": {
    "MazeSkillId": 101302,
    "MazeSkillName": {
      "Hash": -288218840
    },
    "MazeSkilltype": 2,
    "MazeSkillDesc": {
      "Hash": -2078666902
    },
    "RelatedAvatarSkill": 101307,
    "MPCost": 1,
    "SkillTriggerKey": "MazeSkill"
  },
  "110101": {
    "MazeSkillId": 110101,
    "MazeSkillName": {
      "Hash": -772573505
    },
    "MazeSkilltype": 1,
    "MazeSkillDesc": {
      "Hash": 1731945729
    },
    "RelatedAvatarSkill": 110106,
    "SkillTriggerKey": "NormalAtk"
  },
  "110102": {
    "MazeSkillId": 110102,
    "MazeSkillName": {
      "Hash": 793510436
    },
    "MazeSkilltype": 2,
    "MazeSkillDesc": {
      "Hash": -996937626
    },
    "RelatedAvatarSkill": 110107,
    "MPCost": 1,
    "SkillTriggerKey": "MazeSkill"
  },
  "110201": {
    "MazeSkillId": 110201,
    "MazeSkillName": {
      "Hash": -389491954
    },
    "MazeSkilltype": 1,
    "MazeSkillDesc": {
      "Hash": 2115027280
    },
    "RelatedAvatarSkill": 110206,
    "SkillTriggerKey": "NormalAtk"
  },
  "110202": {
    "MazeSkillId": 110202,
    "MazeSkillName": {
      "Hash": -1955575895
    },
    "MazeSkilltype": 2,
    "MazeSkillDesc": {
      "Hash": 548943339
    },
    "RelatedAvatarSkill": 110207,
    "MPCost": 1,
    "SkillTriggerKey": "MazeSkill"
  },
  "110301": {
    "MazeSkillId": 110301,
    "MazeSkillName": {
      "Hash": 914469961
    },
    "MazeSkilltype": 1,
    "MazeSkillDesc": {
      "Hash": -875978101
    },
    "RelatedAvatarSkill": 110306,
    "SkillTriggerKey": "NormalAtk"
  },
  "110302": {
    "MazeSkillId": 110302,
    "MazeSkillName": {
      "Hash": -1814413394
    },
    "MazeSkilltype": 2,
    "MazeSkillDesc": {
      "Hash": 690105840
    },
    "RelatedAvatarSkill": 110307,
    "MPCost": 1,
    "SkillTriggerKey": "MazeSkill"
  },
  "110401": {
    "MazeSkillId": 110401,
    "MazeSkillName": {
      "Hash": 1297551512
    },
    "MazeSkilltype": 1,
    "MazeSkillDesc": {
      "Hash": 1348864178
    },
    "RelatedAvatarSkill": 110406,
    "SkillTriggerKey": "NormalAtk"
  },
  "110402": {
    "MazeSkillId": 110402,
    "MazeSkillName": {
      "Hash": -268532429
    },
    "MazeSkilltype": 2,
    "MazeSkillDesc": {
      "Hash": -217219763
    },
    "RelatedAvatarSkill": 110407,
    "MPCost": 1,
    "SkillTriggerKey": "MazeSkill"
  },
  "110501": {
    "MazeSkillId": 110501,
    "MazeSkillName": {
      "Hash": -1693453869
    },
    "MazeSkilltype": 1,
    "MazeSkillDesc": {
      "Hash": -1642141203
    },
    "RelatedAvatarSkill": 110506,
    "SkillTriggerKey": "NormalAtk"
  },
  "110502": {
    "MazeSkillId": 110502,
    "MazeSkillName": {
      "Hash": -127369928
    },
    "MazeSkilltype": 2,
    "MazeSkillDesc": {
      "Hash": -76057262
    },
    "RelatedAvatarSkill": 110507,
    "MPCost": 1,
    "SkillTriggerKey": "MazeSkill"
  },
  "110601": {
    "MazeSkillId": 110601,
    "MazeSkillName": {
      "Hash": -1310372318
    },
    "MazeSkilltype": 1,
    "MazeSkillDesc": {
      "Hash": -1259059652
    },
    "RelatedAvatarSkill": 110606,
    "SkillTriggerKey": "NormalAtk"
  },
  "110602": {
    "MazeSkillId": 110602,
    "MazeSkillName": {
      "Hash": 1418511037
    },
    "MazeSkilltype": 2,
    "MazeSkillDesc": {
      "Hash": 1469823703
    },
    "RelatedAvatarSkill": 110607,
    "MPCost": 1,
    "SkillTriggerKey": "MazeSkill"
  },
  "110701": {
    "MazeSkillId": 110701,
    "MazeSkillName": {
      "Hash": -6410403
    },
    "MazeSkilltype": 1,
    "MazeSkillDesc": {
      "Hash": 44902263
    },
    "RelatedAvatarSkill": 110706,
    "SkillTriggerKey": "NormalAtk"
  },
  "110702": {
    "MazeSkillId": 110702,
    "MazeSkillName": {
      "Hash": 1559673538
    },
    "MazeSkilltype": 2,
    "MazeSkillDesc": {
      "Hash": 1610986204
    },
    "RelatedAvatarSkill": 110707,
    "MPCost": 1,
    "SkillTriggerKey": "MazeSkill"
  },
  "110801": {
    "MazeSkillId": 110801,
    "MazeSkillName": {
      "Hash": 1089131868
    },
    "MazeSkilltype": 1,
    "MazeSkillDesc": {
      "Hash": -701316194
    },
    "RelatedAvatarSkill": 110806,
    "SkillTriggerKey": "NormalAtk"
  },
  "110802": {
    "MazeSkillId": 110802,
    "MazeSkillName": {
      "Hash": -476952073
    },
    "MazeSkilltype": 2,
    "MazeSkillDesc": {
      "Hash": 2027567161
    },
    "RelatedAvatarSkill": 110807,
    "MPCost": 1,
    "SkillTriggerKey": "MazeSkill"
  },
  "110901": {
    "MazeSkillId": 110901,
    "MazeSkillName": {
      "Hash": -1901873513
    },
    "MazeSkilltype": 1,
    "MazeSkillDesc": {
      "Hash": 602645721
    },
    "RelatedAvatarSkill": 110906,
    "SkillTriggerKey": "NormalAtk"
  },
  "110902": {
    "MazeSkillId": 110902,
    "MazeSkillName": {
      "Hash": -335789572
    },
    "MazeSkilltype": 2,
    "MazeSkillDesc": {
      "Hash": -2126237634
    },
    "RelatedAvatarSkill": 110907,
    "MPCost": 1,
    "SkillTriggerKey": "MazeSkill"
  },
  "120101": {
    "MazeSkillId": 120101,
    "MazeSkillName": {
      "Hash": 833399726
    },
    "MazeSkilltype": 1,
    "MazeSkillDesc": {
      "Hash": -957048336
    },
    "RelatedAvatarSkill": 120106,
    "SkillTriggerKey": "NormalAtk"
  },
  "120102": {
    "MazeSkillId": 120102,
    "MazeSkillName": {
      "Hash": -732684215
    },
    "MazeSkilltype": 2,
    "MazeSkillDesc": {
      "Hash": 1771835019
    },
    "RelatedAvatarSkill": 120107,
    "MPCost": 1,
    "SkillTriggerKey": "MazeSkill"
  },
  "120201": {
    "MazeSkillId": 120201,
    "MazeSkillName": {
      "Hash": 1855036639
    },
    "MazeSkilltype": 1,
    "MazeSkillDesc": {
      "Hash": 64588577
    },
    "RelatedAvatarSkill": 120206,
    "SkillTriggerKey": "NormalAtk"
  },
  "120202": {
    "MazeSkillId": 120202,
    "MazeSkillName": {
      "Hash": -873846716
    },
    "MazeSkilltype": 2,
    "MazeSkillDesc": {
      "Hash": 1630672518
    },
    "RelatedAvatarSkill": 120207,
    "MPCost": 1,
    "SkillTriggerKey": "MazeSkill"
  },
  "120301": {
    "MazeSkillId": 120301,
    "MazeSkillName": {
      "Hash": -853643740
    },
    "MazeSkilltype": 1,
    "MazeSkillDesc": {
      "Hash": 1650875494
    },
    "RelatedAvatarSkill": 120306,
    "SkillTriggerKey": "NormalAtk"
  },
  "120302": {
    "MazeSkillId": 120302,
    "MazeSkillName": {
      "Hash": 1875239615
    },
    "MazeSkilltype": 2,
    "MazeSkillDesc": {
      "Hash": 84791553
    },
    "RelatedAvatarSkill": 120307,
    "MPCost": 1,
    "SkillTriggerKey": "MazeSkill"
  },
  "120401": {
    "MazeSkillId": 120401,
    "MazeSkillName": {
      "Hash": -1673767555
    },
    "MazeSkilltype": 1,
    "MazeSkillDesc": {
      "Hash": -1622454889
    },
    "RelatedAvatarSkill": 120406,
    "SkillTriggerKey": "NormalAtk"
  },
  "120402": {
    "MazeSkillId": 120402,
    "MazeSkillName": {
      "Hash": -107683614
    },
    "MazeSkilltype": 2,
    "MazeSkillDesc": {
      "Hash": -56370948
    },
    "RelatedAvatarSkill": 120407,
    "MPCost": 1,
    "SkillTriggerKey": "MazeSkill"
  },
  "120601": {
    "MazeSkillId": 120601,
    "MazeSkillName": {
      "Hash": 934156275
    },
    "MazeSkilltype": 1,
    "MazeSkillDesc": {
      "Hash": 985468941
    },
    "RelatedAvatarSkill": 120606,
    "SkillTriggerKey": "NormalAtk"
  },
  "120602": {
    "MazeSkillId": 120602,
    "MazeSkillName": {
      "Hash": -1794727080
    },
    "MazeSkilltype": 2,
    "MazeSkillDesc": {
      "Hash": -1743414414
    },
    "RelatedAvatarSkill": 120607,
    "MPCost": 1,
    "SkillTriggerKey": "MazeSkill"
  },
  "120901": {
    "MazeSkillId": 120901,
    "MazeSkillName": {
      "Hash": -295900282
    },
    "MazeSkilltype": 1,
    "MazeSkillDesc": {
      "Hash": -2086348344
    },
    "RelatedAvatarSkill": 120906,
    "SkillTriggerKey": "NormalAtk"
  },
  "120902": {
    "MazeSkillId": 120902,
    "MazeSkillName": {
      "Hash": -1861984223
    },
    "MazeSkilltype": 2,
    "MazeSkillDesc": {
      "Hash": 642535011
    },
    "RelatedAvatarSkill": 120907,
    "MPCost": 1,
    "SkillTriggerKey": "MazeSkill"
  },
  "121101": {
    "MazeSkillId": 121101,
    "MazeSkillName": {
      "Hash": 833399629
    },
    "MazeSkilltype": 1,
    "MazeSkillDesc": {
      "Hash": -957048433
    },
    "RelatedAvatarSkill": 121106,
    "SkillTriggerKey": "NormalAtk"
  },
  "121102": {
    "MazeSkillId": 121102,
    "MazeSkillName": {
      "Hash": -732684312
    },
    "MazeSkilltype": 2,
    "MazeSkillDesc": {
      "Hash": 1771834922
    },
    "RelatedAvatarSkill": 121107,
    "MPCost": 1,
    "SkillTriggerKey": "MazeSkill"
  },
  "800101": {
    "MazeSkillId": 800101,
    "MazeSkillName": {
      "Hash": -409172757
    },
    "MazeSkilltype": 1,
    "MazeSkillDesc": {
      "Hash": 2095346477
    },
    "RelatedAvatarSkill": 800106,
    "SkillTriggerKey": "NormalAtk"
  },
  "800102": {
    "MazeSkillId": 800102,
    "MazeSkillName": {
      "Hash": -1975256698
    },
    "MazeSkilltype": 2,
    "MazeSkillDesc": {
      "Hash": 529262536
    },
    "RelatedAvatarSkill": 800107,
    "MPCost": 1,
    "SkillTriggerKey": "MazeSkill"
  },
  "800201": {
    "MazeSkillId": 800201,
    "MazeSkillName": {
      "Hash": -308416208
    },
    "MazeSkilltype": 1,
    "MazeSkillDesc": {
      "Hash": -2098864270
    },
    "RelatedAvatarSkill": 800206,
    "SkillTriggerKey": "NormalAtk"
  },
  "800202": {
    "MazeSkillId": 800202,
    "MazeSkillName": {
      "Hash": 1257667733
    },
    "MazeSkilltype": 2,
    "MazeSkillDesc": {
      "Hash": -532780329
    },
    "RelatedAvatarSkill": 800207,
    "MPCost": 1,
    "SkillTriggerKey": "MazeSkill"
  },
  "800301": {
    "MazeSkillId": 800301,
    "MazeSkillName": {
      "Hash": 1277870709
    },
    "MazeSkilltype": 1,
    "MazeSkillDesc": {
      "Hash": -512577353
    },
    "RelatedAvatarSkill": 800306,
    "SkillTriggerKey": "NormalAtk"
  },
  "800302": {
    "MazeSkillId": 800302,
    "MazeSkillName": {
      "Hash": -288213232
    },
    "MazeSkilltype": 2,
    "MazeSkillDesc": {
      "Hash": -2078661294
    },
    "RelatedAvatarSkill": 800307,
    "MPCost": 1,
    "SkillTriggerKey": "MazeSkill"
  },
  "800401": {
    "MazeSkillId": 800401,
    "MazeSkillName": {
      "Hash": 1378627258
    },
    "MazeSkilltype": 1,
    "MazeSkillDesc": {
      "Hash": 1429939924
    },
    "RelatedAvatarSkill": 800406,
    "SkillTriggerKey": "NormalAtk"
  },
  "800402": {
    "MazeSkillId": 800402,
    "MazeSkillName": {
      "Hash": -1350256097
    },
    "MazeSkilltype": 2,
    "MazeSkillDesc": {
      "Hash": -1298943431
    },
    "RelatedAvatarSkill": 800407,
    "MPCost": 1,
    "SkillTriggerKey": "MazeSkill"
  },
  "909301": {
    "MazeSkillId": 909301,
    "MazeSkillName": {
      "Hash": 1277873549
    },
    "MazeSkilltype": 1,
    "MazeSkillDesc": {
      "Hash": -512574513
    },
    "RelatedAvatarSkill": 909306,
    "SkillTriggerKey": "NormalAtk"
  },
  "909302": {
    "MazeSkillId": 909302,
    "MazeSkillName": {
      "Hash": -288210392
    },
    "MazeSkilltype": 2,
    "MazeSkillDesc": {
      "Hash": -2078658454
    },
    "RelatedAvatarSkill": 909307,
    "MPCost": 1,
    "SkillTriggerKey": "MazeSkill"
  },
  "999801": {
    "MazeSkillId": 999801,
    "MazeSkillName": {
      "Hash": 440578339
    },
    "MazeSkilltype": 1,
    "MazeSkillDesc": {
      "Hash": -1349869723
    },
    "RelatedAvatarSkill": 999806,
    "SkillTriggerKey": "NormalAtk"
  },
  "999802": {
    "MazeSkillId": 999802,
    "MazeSkillName": {
      "Hash": -1125505602
    },
    "MazeSkilltype": 2,
    "MazeSkillDesc": {
      "Hash": 1379013632
    },
    "RelatedAvatarSkill": 999807,
    "MPCost": 1,
    "SkillTriggerKey": "MazeSkill"
  }
}