{
  "1150300": {
    "ID": 1150300,
    "StartMessageItemIDList": [
      115030004
    ],
    "IsPerformMessage": true
  },
  "1000000": {
    "ID": 1000000,
    "StartMessageItemIDList": [
      100000000
    ],
    "IsPerformMessage": true
  },
  "1000100": {
    "ID": 1000100,
    "StartMessageItemIDList": [
      100010000
    ],
    "IsPerformMessage": true
  },
  "1000200": {
    "ID": 1000200,
    "StartMessageItemIDList": [
      100020001
    ],
    "IsPerformMessage": true
  },
  "1010000": {
    "ID": 1010000,
    "StartMessageItemIDList": [
      101000000
    ],
    "MainMissionLink": 2000100
  },
  "1010100": {
    "ID": 1010100,
    "StartMessageItemIDList": [
      101010001
    ]
  },
  "1010200": {
    "ID": 1010200,
    "StartMessageItemIDList": [
      101020001
    ],
    "MainMissionLink": 2000102
  },
  "1010300": {
    "ID": 1010300,
    "StartMessageItemIDList": [
      101030001
    ],
    "IsPerformMessage": true
  },
  "1010400": {
    "ID": 1010400,
    "StartMessageItemIDList": [
      101040001
    ],
    "MainMissionLink": 2000110
  },
  "1010500": {
    "ID": 1010500,
    "StartMessageItemIDList": [
      101050001
    ],
    "MainMissionLink": 2000108
  },
  "1010600": {
    "ID": 1010600,
    "StartMessageItemIDList": [
      101060001
    ],
    "MainMissionLink": 2000301
  },
  "1010700": {
    "ID": 1010700,
    "StartMessageItemIDList": [
      101070001
    ],
    "MainMissionLink": 2000112
  },
  "1010800": {
    "ID": 1010800,
    "StartMessageItemIDList": [
      101080001
    ]
  },
  "1010900": {
    "ID": 1010900,
    "StartMessageItemIDList": [
      101090000
    ],
    "MainMissionLink": 2000201
  },
  "1011500": {
    "ID": 1011500,
    "StartMessageItemIDList": [
      101090100
    ],
    "IsPerformMessage": true
  },
  "1011600": {
    "ID": 1011600,
    "StartMessageItemIDList": [
      101090200
    ],
    "IsPerformMessage": true
  },
  "1011700": {
    "ID": 1011700,
    "StartMessageItemIDList": [
      101090300
    ],
    "IsPerformMessage": true
  },
  "1011800": {
    "ID": 1011800,
    "StartMessageItemIDList": [
      101090400
    ]
  },
  "1011000": {
    "ID": 1011000,
    "StartMessageItemIDList": [
      101100000
    ],
    "IsPerformMessage": true
  },
  "1011100": {
    "ID": 1011100,
    "StartMessageItemIDList": [
      101110000
    ]
  },
  "1011200": {
    "ID": 1011200,
    "StartMessageItemIDList": [
      101120000
    ]
  },
  "1011300": {
    "ID": 1011300,
    "StartMessageItemIDList": [
      101130000
    ],
    "MainMissionLink": 2000211
  },
  "1011400": {
    "ID": 1011400,
    "StartMessageItemIDList": [
      101140000
    ]
  },
  "1012000": {
    "ID": 1012000,
    "StartMessageItemIDList": [
      101200000
    ],
    "MainMissionLink": 2000116
  },
  "1012100": {
    "ID": 1012100,
    "StartMessageItemIDList": [
      101210000
    ]
  },
  "1070000": {
    "ID": 1070000,
    "StartMessageItemIDList": [
      107000000
    ]
  },
  "1070100": {
    "ID": 1070100,
    "StartMessageItemIDList": [
      107010000
    ]
  },
  "1070200": {
    "ID": 1070200,
    "StartMessageItemIDList": [
      107020000
    ]
  },
  "1150000": {
    "ID": 1150000,
    "StartMessageItemIDList": [
      115000000
    ]
  },
  "1150100": {
    "ID": 1150100,
    "StartMessageItemIDList": [
      115010000
    ]
  },
  "1150200": {
    "ID": 1150200,
    "StartMessageItemIDList": [
      115020000
    ]
  },
  "1150400": {
    "ID": 1150400,
    "StartMessageItemIDList": [
      115040000
    ]
  },
  "1150500": {
    "ID": 1150500,
    "StartMessageItemIDList": [
      115050000
    ]
  },
  "1150800": {
    "ID": 1150800,
    "StartMessageItemIDList": [
      115080000
    ]
  },
  "1150900": {
    "ID": 1150900,
    "StartMessageItemIDList": [
      115090000
    ],
    "MainMissionLink": 4010105
  },
  "1151000": {
    "ID": 1151000,
    "StartMessageItemIDList": [
      115100000
    ],
    "IsPerformMessage": true
  },
  "1151100": {
    "ID": 1151100,
    "StartMessageItemIDList": [
      115110000
    ],
    "IsPerformMessage": true
  },
  "1151200": {
    "ID": 1151200,
    "StartMessageItemIDList": [
      115120000
    ],
    "IsPerformMessage": true
  },
  "1151300": {
    "ID": 1151300,
    "StartMessageItemIDList": [
      115130000
    ]
  },
  "1151400": {
    "ID": 1151400,
    "StartMessageItemIDList": [
      115140000
    ]
  },
  "1151700": {
    "ID": 1151700,
    "StartMessageItemIDList": [
      115170000
    ]
  },
  "1151800": {
    "ID": 1151800,
    "StartMessageItemIDList": [
      115180000
    ]
  },
  "1151900": {
    "ID": 1151900,
    "StartMessageItemIDList": [
      115190000
    ]
  },
  "1110000": {
    "ID": 1110000,
    "StartMessageItemIDList": [
      111000000
    ],
    "MainMissionLink": 2010701
  },
  "1110100": {
    "ID": 1110100,
    "StartMessageItemIDList": [
      111010000
    ],
    "MainMissionLink": 2010901
  },
  "1110200": {
    "ID": 1110200,
    "StartMessageItemIDList": [
      111020000
    ],
    "MainMissionLink": 2010502
  },
  "1110300": {
    "ID": 1110300,
    "StartMessageItemIDList": [
      111030000
    ],
    "MainMissionLink": 2010705
  },
  "1110400": {
    "ID": 1110400,
    "StartMessageItemIDList": [
      111040000
    ],
    "MainMissionLink": 2011101
  },
  "1110500": {
    "ID": 1110500,
    "StartMessageItemIDList": [
      111050000
    ],
    "MainMissionLink": 2011301
  },
  "1110600": {
    "ID": 1110600,
    "StartMessageItemIDList": [
      111060000
    ],
    "MainMissionLink": 2010501
  },
  "1110700": {
    "ID": 1110700,
    "StartMessageItemIDList": [
      111070000
    ],
    "MainMissionLink": 2010703
  },
  "1110800": {
    "ID": 1110800,
    "StartMessageItemIDList": [
      111080000
    ],
    "MainMissionLink": 2011401
  },
  "1110900": {
    "ID": 1110900,
    "StartMessageItemIDList": [
      111090000
    ],
    "IsPerformMessage": true
  },
  "1111000": {
    "ID": 1111000,
    "StartMessageItemIDList": [
      111100000
    ],
    "IsPerformMessage": true
  },
  "1111100": {
    "ID": 1111100,
    "StartMessageItemIDList": [
      111110000
    ]
  },
  "1111200": {
    "ID": 1111200,
    "StartMessageItemIDList": [
      111120000
    ],
    "MainMissionLink": 2010905
  },
  "1111300": {
    "ID": 1111300,
    "StartMessageItemIDList": [
      111130000
    ],
    "MainMissionLink": 2010906
  },
  "1111400": {
    "ID": 1111400,
    "StartMessageItemIDList": [
      111140000
    ],
    "MainMissionLink": 2011403
  },
  "1111500": {
    "ID": 1111500,
    "StartMessageItemIDList": [
      111150000
    ],
    "MainMissionLink": 2011402
  },
  "1111600": {
    "ID": 1111600,
    "StartMessageItemIDList": [
      111160000
    ],
    "IsPerformMessage": true
  },
  "1111700": {
    "ID": 1111700,
    "StartMessageItemIDList": [
      111170000
    ],
    "IsPerformMessage": true
  },
  "1111800": {
    "ID": 1111800,
    "StartMessageItemIDList": [
      111180000
    ],
    "IsPerformMessage": true
  },
  "1111900": {
    "ID": 1111900,
    "StartMessageItemIDList": [
      111190000
    ]
  },
  "1112000": {
    "ID": 1112000,
    "StartMessageItemIDList": [
      111200000
    ]
  },
  "1112100": {
    "ID": 1112100,
    "StartMessageItemIDList": [
      111210000
    ]
  },
  "1112200": {
    "ID": 1112200,
    "StartMessageItemIDList": [
      111220000
    ]
  },
  "1112300": {
    "ID": 1112300,
    "StartMessageItemIDList": [
      111230000
    ],
    "MainMissionLink": 2011104
  },
  "1112400": {
    "ID": 1112400,
    "StartMessageItemIDList": [
      111240000
    ],
    "MainMissionLink": 2011501
  },
  "1112600": {
    "ID": 1112600,
    "StartMessageItemIDList": [
      111260000
    ],
    "IsPerformMessage": true
  },
  "1112700": {
    "ID": 1112700,
    "StartMessageItemIDList": [
      111270000
    ],
    "IsPerformMessage": true
  },
  "1112800": {
    "ID": 1112800,
    "StartMessageItemIDList": [
      111280000
    ],
    "IsPerformMessage": true
  },
  "1112900": {
    "ID": 1112900,
    "StartMessageItemIDList": [
      111290000
    ],
    "IsPerformMessage": true
  },
  "1113000": {
    "ID": 1113000,
    "StartMessageItemIDList": [
      111300000
    ],
    "IsPerformMessage": true
  },
  "1113100": {
    "ID": 1113100,
    "StartMessageItemIDList": [
      111310000,
      111310001,
      111310002
    ],
    "IsPerformMessage": true
  },
  "1113200": {
    "ID": 1113200,
    "StartMessageItemIDList": [
      111320000
    ],
    "MainMissionLink": 4081311
  },
  "1113300": {
    "ID": 1113300,
    "StartMessageItemIDList": [
      111330000
    ],
    "MainMissionLink": 4081315
  },
  "1200000": {
    "ID": 1200000,
    "StartMessageItemIDList": [
      120000000
    ],
    "IsPerformMessage": true
  },
  "1200100": {
    "ID": 1200100,
    "StartMessageItemIDList": [
      120010000
    ],
    "IsPerformMessage": true
  },
  "1200200": {
    "ID": 1200200,
    "StartMessageItemIDList": [
      120020000
    ],
    "IsPerformMessage": true
  },
  "1201000": {
    "ID": 1201000,
    "StartMessageItemIDList": [
      120100000
    ],
    "IsPerformMessage": true
  },
  "1201100": {
    "ID": 1201100,
    "StartMessageItemIDList": [
      120110000
    ]
  },
  "1205500": {
    "ID": 1205500,
    "StartMessageItemIDList": [
      120550000
    ],
    "IsPerformMessage": true
  },
  "1205600": {
    "ID": 1205600,
    "StartMessageItemIDList": [
      120560000
    ],
    "IsPerformMessage": true
  },
  "2000100": {
    "ID": 2000100,
    "StartMessageItemIDList": [
      200010000
    ]
  },
  "2000200": {
    "ID": 2000200,
    "StartMessageItemIDList": [
      200020000
    ]
  },
  "2000300": {
    "ID": 2000300,
    "StartMessageItemIDList": [
      200030000
    ]
  },
  "2000400": {
    "ID": 2000400,
    "StartMessageItemIDList": [
      200040000
    ]
  },
  "2000500": {
    "ID": 2000500,
    "StartMessageItemIDList": [
      200050000
    ]
  },
  "2000600": {
    "ID": 2000600,
    "StartMessageItemIDList": [
      200060000
    ]
  },
  "2000700": {
    "ID": 2000700,
    "StartMessageItemIDList": [
      200070000
    ]
  },
  "2000800": {
    "ID": 2000800,
    "StartMessageItemIDList": [
      200080000
    ]
  },
  "2000900": {
    "ID": 2000900,
    "StartMessageItemIDList": [
      200090000
    ]
  },
  "2001000": {
    "ID": 2001000,
    "StartMessageItemIDList": [
      200100000
    ]
  },
  "2001100": {
    "ID": 2001100,
    "StartMessageItemIDList": [
      200110000
    ]
  },
  "2001200": {
    "ID": 2001200,
    "StartMessageItemIDList": [
      200120000
    ]
  },
  "2001300": {
    "ID": 2001300,
    "StartMessageItemIDList": [
      200130000
    ]
  },
  "2001400": {
    "ID": 2001400,
    "StartMessageItemIDList": [
      200140000
    ]
  },
  "2001500": {
    "ID": 2001500,
    "StartMessageItemIDList": [
      200150000
    ]
  },
  "2001600": {
    "ID": 2001600,
    "StartMessageItemIDList": [
      200160000
    ]
  },
  "2001700": {
    "ID": 2001700,
    "StartMessageItemIDList": [
      200170000
    ]
  },
  "2001800": {
    "ID": 2001800,
    "StartMessageItemIDList": [
      200180000
    ]
  },
  "2001900": {
    "ID": 2001900,
    "StartMessageItemIDList": [
      200190000
    ]
  },
  "2002000": {
    "ID": 2002000,
    "StartMessageItemIDList": [
      200200000
    ]
  },
  "2002100": {
    "ID": 2002100,
    "StartMessageItemIDList": [
      200210000
    ]
  },
  "2002200": {
    "ID": 2002200,
    "StartMessageItemIDList": [
      200220000
    ]
  },
  "2002300": {
    "ID": 2002300,
    "StartMessageItemIDList": [
      200230000
    ]
  },
  "2002400": {
    "ID": 2002400,
    "StartMessageItemIDList": [
      200240000
    ]
  },
  "2002500": {
    "ID": 2002500,
    "StartMessageItemIDList": [
      200250000
    ]
  },
  "2002600": {
    "ID": 2002600,
    "StartMessageItemIDList": [
      200260000
    ]
  },
  "2002700": {
    "ID": 2002700,
    "StartMessageItemIDList": [
      200270000
    ]
  },
  "2002800": {
    "ID": 2002800,
    "StartMessageItemIDList": [
      200280000
    ]
  },
  "2002900": {
    "ID": 2002900,
    "StartMessageItemIDList": [
      200290000
    ]
  },
  "2003000": {
    "ID": 2003000,
    "StartMessageItemIDList": [
      200300000
    ]
  },
  "2003100": {
    "ID": 2003100,
    "StartMessageItemIDList": [
      200310000
    ]
  },
  "2003200": {
    "ID": 2003200,
    "StartMessageItemIDList": [
      200320000
    ]
  },
  "2003300": {
    "ID": 2003300,
    "StartMessageItemIDList": [
      200330000
    ]
  },
  "2003400": {
    "ID": 2003400,
    "StartMessageItemIDList": [
      200340000
    ]
  },
  "2003500": {
    "ID": 2003500,
    "StartMessageItemIDList": [
      200350000
    ]
  },
  "2003600": {
    "ID": 2003600,
    "StartMessageItemIDList": [
      200360000
    ]
  },
  "2003700": {
    "ID": 2003700,
    "StartMessageItemIDList": [
      200370000
    ]
  },
  "2003800": {
    "ID": 2003800,
    "StartMessageItemIDList": [
      200380000
    ]
  },
  "2003900": {
    "ID": 2003900,
    "StartMessageItemIDList": [
      200390000
    ]
  },
  "2004000": {
    "ID": 2004000,
    "StartMessageItemIDList": [
      200400000
    ]
  },
  "2004100": {
    "ID": 2004100,
    "StartMessageItemIDList": [
      200410000
    ]
  },
  "2004200": {
    "ID": 2004200,
    "StartMessageItemIDList": [
      200420000
    ]
  },
  "2004300": {
    "ID": 2004300,
    "StartMessageItemIDList": [
      200430000
    ]
  },
  "2004400": {
    "ID": 2004400,
    "StartMessageItemIDList": [
      200440000
    ]
  },
  "2004500": {
    "ID": 2004500,
    "StartMessageItemIDList": [
      200450000
    ]
  },
  "2004600": {
    "ID": 2004600,
    "StartMessageItemIDList": [
      200460000
    ]
  },
  "2004700": {
    "ID": 2004700,
    "StartMessageItemIDList": [
      200470000
    ]
  },
  "2004800": {
    "ID": 2004800,
    "StartMessageItemIDList": [
      200480000
    ]
  },
  "2004900": {
    "ID": 2004900,
    "StartMessageItemIDList": [
      200490000
    ]
  },
  "2005000": {
    "ID": 2005000,
    "StartMessageItemIDList": [
      200500000
    ]
  },
  "2005100": {
    "ID": 2005100,
    "StartMessageItemIDList": [
      200510000
    ]
  },
  "2005200": {
    "ID": 2005200,
    "StartMessageItemIDList": [
      200520000
    ]
  },
  "2005300": {
    "ID": 2005300,
    "StartMessageItemIDList": [
      200530000
    ]
  },
  "2005400": {
    "ID": 2005400,
    "StartMessageItemIDList": [
      200540000
    ]
  },
  "2005800": {
    "ID": 2005800,
    "StartMessageItemIDList": [
      200580000
    ]
  },
  "2005900": {
    "ID": 2005900,
    "StartMessageItemIDList": [
      200590000
    ]
  },
  "2006000": {
    "ID": 2006000,
    "StartMessageItemIDList": [
      200600000
    ]
  },
  "2006100": {
    "ID": 2006100,
    "StartMessageItemIDList": [
      200610000
    ]
  },
  "2006200": {
    "ID": 2006200,
    "StartMessageItemIDList": [
      200620000
    ]
  },
  "2006300": {
    "ID": 2006300,
    "StartMessageItemIDList": [
      200630000
    ]
  },
  "2006400": {
    "ID": 2006400,
    "StartMessageItemIDList": [
      200640000
    ]
  },
  "2006500": {
    "ID": 2006500,
    "StartMessageItemIDList": [
      200650000
    ]
  },
  "2006600": {
    "ID": 2006600,
    "StartMessageItemIDList": [
      200660000
    ]
  },
  "5000100": {
    "ID": 5000100,
    "StartMessageItemIDList": [
      500010000
    ],
    "MainMissionLink": 4030003
  },
  "5000200": {
    "ID": 5000200,
    "StartMessageItemIDList": [
      500020000
    ],
    "MainMissionLink": 4030002
  },
  "5000600": {
    "ID": 5000600,
    "StartMessageItemIDList": [
      115030000
    ],
    "IsPerformMessage": true
  },
  "5000800": {
    "ID": 5000800,
    "StartMessageItemIDList": [
      500080000
    ],
    "MainMissionLink": 4030009
  },
  "5000900": {
    "ID": 5000900,
    "StartMessageItemIDList": [
      500090000
    ],
    "MainMissionLink": 4050005
  },
  "5001000": {
    "ID": 5001000,
    "StartMessageItemIDList": [
      500100000
    ]
  },
  "5001100": {
    "ID": 5001100,
    "StartMessageItemIDList": [
      500110000
    ],
    "MainMissionLink": 4050007
  },
  "1210000": {
    "ID": 1210000,
    "StartMessageItemIDList": [
      121000000
    ],
    "MainMissionLink": 2020301
  },
  "1210100": {
    "ID": 1210100,
    "StartMessageItemIDList": [
      121010000
    ],
    "IsPerformMessage": true
  },
  "1210200": {
    "ID": 1210200,
    "StartMessageItemIDList": [
      121020000
    ],
    "IsPerformMessage": true
  },
  "1210300": {
    "ID": 1210300,
    "StartMessageItemIDList": [
      121030000
    ],
    "IsPerformMessage": true
  },
  "1210400": {
    "ID": 1210400,
    "StartMessageItemIDList": [
      121040000
    ],
    "IsPerformMessage": true
  },
  "1210401": {
    "ID": 1210401,
    "StartMessageItemIDList": [
      121040109
    ],
    "IsPerformMessage": true
  },
  "1210301": {
    "ID": 1210301,
    "StartMessageItemIDList": [
      121030100
    ],
    "IsPerformMessage": true
  },
  "1210302": {
    "ID": 1210302,
    "StartMessageItemIDList": [
      121030200
    ]
  },
  "1180100": {
    "ID": 1180100,
    "StartMessageItemIDList": [
      118010000
    ],
    "IsPerformMessage": true
  },
  "1200300": {
    "ID": 1200300,
    "StartMessageItemIDList": [
      120030000
    ],
    "MainMissionLink": 2020303
  },
  "1200400": {
    "ID": 1200400,
    "StartMessageItemIDList": [
      120040000
    ],
    "IsPerformMessage": true
  },
  "1200500": {
    "ID": 1200500,
    "StartMessageItemIDList": [
      120050000
    ],
    "IsPerformMessage": true
  },
  "1200501": {
    "ID": 1200501,
    "StartMessageItemIDList": [
      120050100
    ],
    "IsPerformMessage": true
  },
  "1200502": {
    "ID": 1200502,
    "StartMessageItemIDList": [
      120050200
    ],
    "IsPerformMessage": true
  },
  "1200600": {
    "ID": 1200600,
    "StartMessageItemIDList": [
      120060001
    ],
    "IsPerformMessage": true
  },
  "1200700": {
    "ID": 1200700,
    "StartMessageItemIDList": [
      120070000
    ],
    "IsPerformMessage": true
  },
  "1200800": {
    "ID": 1200800,
    "StartMessageItemIDList": [
      120080000
    ]
  },
  "1200900": {
    "ID": 1200900,
    "StartMessageItemIDList": [
      120090000
    ]
  },
  "1211400": {
    "ID": 1211400,
    "StartMessageItemIDList": [
      121140101
    ]
  },
  "1211401": {
    "ID": 1211401,
    "StartMessageItemIDList": [
      121140201
    ]
  },
  "1211402": {
    "ID": 1211402,
    "StartMessageItemIDList": [
      121140301
    ]
  },
  "1211600": {
    "ID": 1211600,
    "StartMessageItemIDList": [
      121160000
    ],
    "MainMissionLink": 2020401
  },
  "1211700": {
    "ID": 1211700,
    "StartMessageItemIDList": [
      121170000
    ]
  },
  "1270000": {
    "ID": 1270000,
    "StartMessageItemIDList": [
      127000001
    ]
  },
  "1270100": {
    "ID": 1270100,
    "StartMessageItemIDList": [
      127010001
    ]
  },
  "1270200": {
    "ID": 1270200,
    "StartMessageItemIDList": [
      127020001
    ],
    "IsPerformMessage": true
  },
  "1270300": {
    "ID": 1270300,
    "StartMessageItemIDList": [
      127030001
    ]
  },
  "1212000": {
    "ID": 1212000,
    "StartMessageItemIDList": [
      121200000
    ],
    "MainMissionLink": 2020402
  },
  "1212200": {
    "ID": 1212200,
    "StartMessageItemIDList": [
      121220000
    ],
    "MainMissionLink": 2020404
  },
  "1212300": {
    "ID": 1212300,
    "StartMessageItemIDList": [
      121230000
    ]
  },
  "1212400": {
    "ID": 1212400,
    "StartMessageItemIDList": [
      121240000
    ],
    "MainMissionLink": 2020403
  },
  "1212500": {
    "ID": 1212500,
    "StartMessageItemIDList": [
      121250000
    ],
    "IsPerformMessage": true
  },
  "1213101": {
    "ID": 1213101,
    "StartMessageItemIDList": [
      121310101
    ]
  },
  "1213102": {
    "ID": 1213102,
    "StartMessageItemIDList": [
      121310201
    ]
  },
  "1213103": {
    "ID": 1213103,
    "StartMessageItemIDList": [
      121310301
    ]
  },
  "1213104": {
    "ID": 1213104,
    "StartMessageItemIDList": [
      121310401
    ]
  },
  "1213105": {
    "ID": 1213105,
    "StartMessageItemIDList": [
      121310501
    ]
  },
  "1213106": {
    "ID": 1213106,
    "StartMessageItemIDList": [
      121310601
    ]
  },
  "1212601": {
    "ID": 1212601,
    "StartMessageItemIDList": [
      121260101
    ],
    "IsPerformMessage": true
  },
  "1212701": {
    "ID": 1212701,
    "StartMessageItemIDList": [
      121270101
    ],
    "IsPerformMessage": true
  },
  "1212801": {
    "ID": 1212801,
    "StartMessageItemIDList": [
      121280101
    ]
  },
  "1212901": {
    "ID": 1212901,
    "StartMessageItemIDList": [
      121290101
    ],
    "IsPerformMessage": true
  },
  "1213001": {
    "ID": 1213001,
    "StartMessageItemIDList": [
      121300101
    ],
    "IsPerformMessage": true
  },
  "1213201": {
    "ID": 1213201,
    "StartMessageItemIDList": [
      121320101
    ],
    "IsPerformMessage": true
  }
}