{
  "1001": {
    "ID": 1001,
    "DefaultColor": "#ffffffff",
    "WhiteBGColor": "#ffffffff"
  },
  "1002": {
    "ID": 1002,
    "DefaultColor": "#dbc291ff",
    "WhiteBGColor": "#9d8563ff"
  },
  "1003": {
    "ID": 1003,
    "DefaultColor": "#9d8563ff",
    "WhiteBGColor": "#9d8563ff"
  },
  "1004": {
    "ID": 1004,
    "DefaultColor": "#121212ff",
    "WhiteBGColor": "#121212ff"
  },
  "2001": {
    "ID": 2001,
    "DefaultColor": "#f29e38ff",
    "WhiteBGColor": "#dd7a00ff"
  },
  "2002": {
    "ID": 2002,
    "DefaultColor": "#eb4d3dff",
    "WhiteBGColor": "#e93b29ff"
  },
  "2003": {
    "ID": 2003,
    "DefaultColor": "#62cd54ff",
    "WhiteBGColor": "#18b004ff"
  },
  "2004": {
    "ID": 2004,
    "DefaultColor": "#77ede5ff",
    "WhiteBGColor": "#77ede5ff"
  },
  "3001": {
    "ID": 3001,
    "DefaultColor": "#f29e38ff",
    "WhiteBGColor": "#dd7a00ff"
  },
  "3002": {
    "ID": 3002,
    "DefaultColor": "#b9efffff",
    "WhiteBGColor": "#b9efffff"
  },
  "4001": {
    "ID": 4001,
    "DefaultColor": "#ec505fff",
    "WhiteBGColor": "#ec505fff"
  },
  "4002": {
    "ID": 4002,
    "DefaultColor": "#55c5ffff",
    "WhiteBGColor": "#55c5ffff"
  },
  "4003": {
    "ID": 4003,
    "DefaultColor": "#f3da75ff",
    "WhiteBGColor": "#f3da75ff"
  },
  "4004": {
    "ID": 4004,
    "DefaultColor": "#e1e1e1ff",
    "WhiteBGColor": "#e1e1e1ff"
  },
  "4005": {
    "ID": 4005,
    "DefaultColor": "#9c98ffff",
    "WhiteBGColor": "#9c98ffff"
  },
  "4006": {
    "ID": 4006,
    "DefaultColor": "#e471ffff",
    "WhiteBGColor": "#e471ffff"
  },
  "4007": {
    "ID": 4007,
    "DefaultColor": "#50ecb0ff",
    "WhiteBGColor": "#50ecb0ff"
  },
  "5001": {
    "ID": 5001,
    "DefaultColor": "#cdcdd8ff",
    "WhiteBGColor": "#cdcdd8ff"
  },
  "5002": {
    "ID": 5002,
    "DefaultColor": "#6ee0b6ff",
    "WhiteBGColor": "#6ee0b6ff"
  },
  "5003": {
    "ID": 5003,
    "DefaultColor": "#73b0f4ff",
    "WhiteBGColor": "#73b0f4ff"
  },
  "5004": {
    "ID": 5004,
    "DefaultColor": "#c197ffff",
    "WhiteBGColor": "#c197ffff"
  },
  "5005": {
    "ID": 5005,
    "DefaultColor": "#ffc870ff",
    "WhiteBGColor": "#ffc870ff"
  },
  "6001": {
    "ID": 6001,
    "DefaultColor": "#8790abff",
    "WhiteBGColor": "#8790abff"
  }
}