{
  "OnInitSequece": [],
  "OnStartSequece": [
    {
      "TaskList": [
        {
          "$type": "RPG.GameCore.LevelPerformanceInitialize",
          "PerformanceType": "E",
          "HideMunicipalCrowd": false,
          "HideMunicipalPedestrian": false
        },
        {
          "$type": "RPG.GameCore.AdvNpcFaceToPlayer",
          "FinishImmadiate": true
        },
        {
          "$type": "RPG.GameCore.PlaySimpleTalk",
          "SimpleTalkList": [
            {
              "TalkSentenceID": 501029201,
              "ProtectTime": 0.3
            }
          ]
        },
        {
          "$type": "RPG.GameCore.WaitSimpleTalkFinish"
        },
        {
          "$type": "RPG.GameCore.PlayOptionTalk",
          "OptionList": [
            {
              "TalkSentenceID": 501029202,
              "OptionIconType": "ChatContinueIcon",
              "TriggerCustomString": "TalkSentence_501029203"
            },
            {
              "TalkSentenceID": 501029204,
              "OptionIconType": "ChatContinueIcon",
              "TriggerCustomString": "TalkSentence_501029205"
            }
          ]
        }
      ]
    },
    {
      "TaskList": [
        {
          "$type": "RPG.GameCore.WaitCustomString",
          "CustomString": {
            "Value": "TalkSentence_501029203"
          }
        },
        {
          "$type": "RPG.GameCore.PlaySimpleTalk",
          "SimpleTalkList": [
            {
              "TalkSentenceID": 501029203,
              "ProtectTime": 0.3
            }
          ]
        },
        {
          "$type": "RPG.GameCore.WaitSimpleTalkFinish"
        },
        {
          "$type": "RPG.GameCore.TriggerCustomString",
          "CustomString": {
            "Value": "TalkSentence_501029206"
          }
        }
      ]
    },
    {
      "TaskList": [
        {
          "$type": "RPG.GameCore.WaitCustomString",
          "CustomString": {
            "Value": "TalkSentence_501029205"
          }
        },
        {
          "$type": "RPG.GameCore.PlaySimpleTalk",
          "SimpleTalkList": [
            {
              "TalkSentenceID": 501029205,
              "ProtectTime": 0.3
            }
          ]
        },
        {
          "$type": "RPG.GameCore.WaitSimpleTalkFinish"
        },
        {
          "$type": "RPG.GameCore.TriggerCustomString",
          "CustomString": {
            "Value": "TalkSentence_501029206"
          }
        }
      ]
    },
    {
      "TaskList": [
        {
          "$type": "RPG.GameCore.WaitCustomString",
          "CustomString": {
            "Value": "TalkSentence_501029206"
          }
        },
        {
          "$type": "RPG.GameCore.PlaySimpleTalk",
          "SimpleTalkList": [
            {
              "TalkSentenceID": 501029206,
              "ProtectTime": 0.3
            },
            {
              "TalkSentenceID": 501029207,
              "ProtectTime": 0.3
            }
          ]
        },
        {
          "$type": "RPG.GameCore.WaitSimpleTalkFinish"
        },
        {
          "$type": "RPG.GameCore.TriggerCustomString",
          "CustomString": {
            "Value": "Wait_Option_501029201_18"
          }
        }
      ]
    },
    {
      "TaskList": [
        {
          "$type": "RPG.GameCore.WaitCustomString",
          "CustomString": {
            "Value": "Wait_Option_501029201_18"
          }
        },
        {
          "$type": "RPG.GameCore.PlayOptionTalk",
          "OptionList": [
            {
              "TalkSentenceID": 501029208,
              "OptionIconType": "ChatContinueIcon",
              "TriggerCustomString": "TalkSentence_501029209"
            },
            {
              "TalkSentenceID": 501029235,
              "OptionIconType": "ChatOutIcon",
              "TriggerCustomString": "TalkSentence_501029236"
            }
          ]
        }
      ]
    },
    {
      "TaskList": [
        {
          "$type": "RPG.GameCore.WaitCustomString",
          "CustomString": {
            "Value": "TalkSentence_501029209"
          }
        },
        {
          "$type": "RPG.GameCore.PlaySimpleTalk",
          "SimpleTalkList": [
            {
              "TalkSentenceID": 501029209,
              "ProtectTime": 0.3
            }
          ]
        },
        {
          "$type": "RPG.GameCore.WaitSimpleTalkFinish"
        },
        {
          "$type": "RPG.GameCore.TriggerCustomString",
          "CustomString": {
            "Value": "Wait_Option_501029201_21"
          }
        }
      ]
    },
    {
      "IsLoop": true,
      "TaskList": [
        {
          "$type": "RPG.GameCore.WaitCustomString",
          "CustomString": {
            "Value": "Wait_Option_501029201_21"
          }
        },
        {
          "$type": "RPG.GameCore.PlayOptionTalk",
          "OptionList": [
            {
              "TalkSentenceID": 501029210,
              "OptionIconType": "ChatLoopIcon",
              "TriggerCustomString": "TalkSentence_501029211"
            },
            {
              "TalkSentenceID": 501029215,
              "OptionIconType": "ChatLoopIcon",
              "TriggerCustomString": "TalkSentence_501029216"
            },
            {
              "TalkSentenceID": 501029220,
              "OptionIconType": "ChatLoopIcon",
              "TriggerCustomString": "TalkSentence_501029221"
            },
            {
              "TalkSentenceID": 501029224,
              "OptionIconType": "ChatLoopIcon",
              "TriggerCustomString": "TalkSentence_501029225"
            },
            {
              "TalkSentenceID": 501029234,
              "OptionIconType": "ChatBackIcon",
              "TriggerCustomString": "Wait_Option_501029201_18"
            }
          ],
          "HideSelected": true
        }
      ]
    },
    {
      "IsLoop": true,
      "TaskList": [
        {
          "$type": "RPG.GameCore.WaitCustomString",
          "CustomString": {
            "Value": "TalkSentence_501029211"
          }
        },
        {
          "$type": "RPG.GameCore.PlaySimpleTalk",
          "SimpleTalkList": [
            {
              "TalkSentenceID": 501029211,
              "ProtectTime": 0.3
            },
            {
              "TalkSentenceID": 501029212,
              "ProtectTime": 0.3
            },
            {
              "TalkSentenceID": 501029213,
              "ProtectTime": 0.3
            },
            {
              "TalkSentenceID": 501029214,
              "ProtectTime": 0.3
            }
          ]
        },
        {
          "$type": "RPG.GameCore.WaitSimpleTalkFinish"
        },
        {
          "$type": "RPG.GameCore.TriggerCustomString",
          "CustomString": {
            "Value": "Wait_Option_501029201_21"
          }
        }
      ]
    },
    {
      "IsLoop": true,
      "TaskList": [
        {
          "$type": "RPG.GameCore.WaitCustomString",
          "CustomString": {
            "Value": "TalkSentence_501029216"
          }
        },
        {
          "$type": "RPG.GameCore.PlaySimpleTalk",
          "SimpleTalkList": [
            {
              "TalkSentenceID": 501029216,
              "ProtectTime": 0.3
            },
            {
              "TalkSentenceID": 501029217,
              "ProtectTime": 0.3
            },
            {
              "TalkSentenceID": 501029218,
              "ProtectTime": 0.3
            },
            {
              "TalkSentenceID": 501029219,
              "ProtectTime": 0.3
            }
          ]
        },
        {
          "$type": "RPG.GameCore.WaitSimpleTalkFinish"
        },
        {
          "$type": "RPG.GameCore.TriggerCustomString",
          "CustomString": {
            "Value": "Wait_Option_501029201_21"
          }
        }
      ]
    },
    {
      "IsLoop": true,
      "TaskList": [
        {
          "$type": "RPG.GameCore.WaitCustomString",
          "CustomString": {
            "Value": "TalkSentence_501029221"
          }
        },
        {
          "$type": "RPG.GameCore.PlaySimpleTalk",
          "SimpleTalkList": [
            {
              "TalkSentenceID": 501029221,
              "ProtectTime": 0.3
            },
            {
              "TalkSentenceID": 501029222,
              "ProtectTime": 0.3
            },
            {
              "TalkSentenceID": 501029223,
              "ProtectTime": 0.3
            }
          ]
        },
        {
          "$type": "RPG.GameCore.WaitSimpleTalkFinish"
        },
        {
          "$type": "RPG.GameCore.TriggerCustomString",
          "CustomString": {
            "Value": "Wait_Option_501029201_21"
          }
        }
      ]
    },
    {
      "IsLoop": true,
      "TaskList": [
        {
          "$type": "RPG.GameCore.WaitCustomString",
          "CustomString": {
            "Value": "TalkSentence_501029225"
          }
        },
        {
          "$type": "RPG.GameCore.PlaySimpleTalk",
          "SimpleTalkList": [
            {
              "TalkSentenceID": 501029225,
              "ProtectTime": 0.3
            },
            {
              "TalkSentenceID": 501029226,
              "ProtectTime": 0.3
            },
            {
              "TalkSentenceID": 501029227,
              "ProtectTime": 0.3
            }
          ]
        },
        {
          "$type": "RPG.GameCore.WaitSimpleTalkFinish"
        },
        {
          "$type": "RPG.GameCore.PlayOptionTalk",
          "OptionList": [
            {
              "TalkSentenceID": 501029228,
              "OptionIconType": "ChatContinueIcon",
              "TriggerCustomString": "TalkSentence_501029229"
            },
            {
              "TalkSentenceID": 501029231,
              "OptionIconType": "ChatContinueIcon",
              "TriggerCustomString": "TalkSentence_501029232"
            }
          ],
          "HideSelected": true
        }
      ]
    },
    {
      "IsLoop": true,
      "TaskList": [
        {
          "$type": "RPG.GameCore.WaitCustomString",
          "CustomString": {
            "Value": "TalkSentence_501029229"
          }
        },
        {
          "$type": "RPG.GameCore.PlaySimpleTalk",
          "SimpleTalkList": [
            {
              "TalkSentenceID": 501029229,
              "ProtectTime": 0.3
            },
            {
              "TalkSentenceID": 501029230,
              "ProtectTime": 0.3
            }
          ]
        },
        {
          "$type": "RPG.GameCore.WaitSimpleTalkFinish"
        },
        {
          "$type": "RPG.GameCore.TriggerCustomString",
          "CustomString": {
            "Value": "Wait_Option_501029201_21"
          }
        }
      ]
    },
    {
      "IsLoop": true,
      "TaskList": [
        {
          "$type": "RPG.GameCore.WaitCustomString",
          "CustomString": {
            "Value": "TalkSentence_501029232"
          }
        },
        {
          "$type": "RPG.GameCore.PlaySimpleTalk",
          "SimpleTalkList": [
            {
              "TalkSentenceID": 501029232,
              "ProtectTime": 0.3
            },
            {
              "TalkSentenceID": 501029233,
              "ProtectTime": 0.3
            }
          ]
        },
        {
          "$type": "RPG.GameCore.WaitSimpleTalkFinish"
        },
        {
          "$type": "RPG.GameCore.TriggerCustomString",
          "CustomString": {
            "Value": "Wait_Option_501029201_21"
          }
        }
      ]
    },
    {
      "TaskList": [
        {
          "$type": "RPG.GameCore.WaitCustomString",
          "CustomString": {
            "Value": "TalkSentence_501029236"
          }
        },
        {
          "$type": "RPG.GameCore.PlaySimpleTalk",
          "SimpleTalkList": [
            {
              "TalkSentenceID": 501029236,
              "ProtectTime": 0.3
            },
            {
              "TalkSentenceID": 501029237,
              "ProtectTime": 0.3
            },
            {
              "TalkSentenceID": 501029238,
              "ProtectTime": 0.3
            }
          ]
        },
        {
          "$type": "RPG.GameCore.WaitSimpleTalkFinish"
        },
        {
          "$type": "RPG.GameCore.EndPerformance"
        }
      ]
    },
    {
      "TaskList": [
        {
          "$type": "RPG.GameCore.WaitPerformanceEnd"
        },
        {
          "$type": "RPG.GameCore.FinishLevelGraph"
        }
      ]
    }
  ]
}