{
  "MainMissionID": 9999909,
  "StartSubMissionList": [
    999990901
  ],
  "FinishSubMissionList": [
    999990905
  ],
  "SubMissionList": [
    {
      "MainMissionID": 9999909,
      "MissionJsonPath": "Config/Level/Mission/9999909/Mission_999990901.json",
      "TakeType": "Auto",
      "ID": 999990901,
      "FinishType": "Talk",
      "ParamType": "Equal",
      "ParamStr1": "Mission_999990901",
      "ParamItemList": [],
      "Progress": 1
    },
    {
      "MainMissionID": 9999909,
      "MissionJsonPath": "Config/Level/Mission/9999909/Mission_999990902.json",
      "TakeType": "Auto",
      "ID": 999990902,
      "FinishType": "Talk",
      "ParamType": "Equal",
      "ParamStr1": "Mission_999990902",
      "ParamItemList": [],
      "Progress": 1
    },
    {
      "MainMissionID": 9999909,
      "TakeType": "AnySequence",
      "TakeParamIntList": [
        999990901,
        999990902
      ],
      "ID": 999990903,
      "FinishType": "SubMissionFinishCnt",
      "ParamType": "ListContain",
      "ParamIntList": [
        999990904
      ],
      "ParamItemList": [],
      "Progress": 1
    },
    {
      "MainMissionID": 9999909,
      "TakeType": "AnySequence",
      "TakeParamIntList": [
        999990901,
        999990902
      ],
      "ID": 999990904,
      "MazePlaneID": 90099,
      "MazeFloorID": 90099001,
      "FinishType": "PropState",
      "ParamType": "Equal",
      "ParamInt1": 1,
      "ParamInt2": 300009,
      "ParamInt3": 1,
      "ParamItemList": [],
      "Progress": 1
    },
    {
      "MainMissionID": 9999909,
      "TakeType": "AnySequence",
      "TakeParamIntList": [
        999990904
      ],
      "ID": 999990905,
      "MazePlaneID": 90099,
      "MazeFloorID": 90099001,
      "FinishType": "PropState",
      "ParamType": "Equal",
      "ParamInt1": 1,
      "ParamInt2": 300007,
      "ParamInt3": 13,
      "ParamItemList": [],
      "Progress": 1
    }
  ]
}