{
  "OnInitSequece": [],
  "OnStartSequece": [
    {
      "TaskList": [
        {
          "$type": "RPG.GameCore.CreateLevelAreas",
          "AssetPath": {
            "Value": "Level/Mission/2010703/Act201070315.prefab"
          }
        }
      ]
    },
    {
      "TaskList": [
        {
          "$type": "RPG.GameCore.LevelPerformanceInitialize",
          "PerformanceType": "D"
        },
        {
          "$type": "RPG.GameCore.PerformanceTransition",
          "SwitchInTime": 0,
          "SwitchOutTime": 0,
          "CreateNpcList": [
            {
              "GroupID": {
                "IsDynamic": false,
                "FixedValue": {
                  "Value": 18
                }
              },
              "GroupNpcID": {
                "IsDynamic": false,
                "FixedValue": {
                  "Value": 400001
                }
              }
            },
            {
              "GroupID": {
                "IsDynamic": false,
                "FixedValue": {
                  "Value": 18
                }
              },
              "GroupNpcID": {
                "IsDynamic": false,
                "FixedValue": {
                  "Value": 400002
                }
              }
            }
          ],
          "DestroyNpcList": [],
          "ActiveVirtualCamera": {
            "AreaName": "Act201070315",
            "AnchorName": "Camera01"
          },
          "SwitchCharacterAnchor": {
            "IsLocalPlayer": true,
            "AreaName": {
              "Value": "LevelArea_P10102_F10102003_G18"
            },
            "AnchorName": {
              "Value": "Anchor2"
            }
          }
        },
        {
          "$type": "RPG.GameCore.PlaySimpleTalk",
          "SimpleTalkList": [
            {
              "TalkSentenceID": 201072402,
              "ProtectTime": 0.3
            },
            {
              "TalkSentenceID": 201072403,
              "ProtectTime": 0.3
            },
            {
              "TalkSentenceID": 201072404,
              "ProtectTime": 0.3
            },
            {
              "TalkSentenceID": 201072405,
              "ProtectTime": 0.3
            },
            {
              "TalkSentenceID": 201072406,
              "ProtectTime": 0.3
            },
            {
              "TalkSentenceID": 201072407,
              "ProtectTime": 0.3
            },
            {
              "TalkSentenceID": 201072408,
              "ProtectTime": 0.3
            },
            {
              "TalkSentenceID": 201072409,
              "ProtectTime": 0.3
            },
            {
              "TalkSentenceID": 201072410,
              "ProtectTime": 0.3
            },
            {
              "TalkSentenceID": 201072411,
              "ProtectTime": 0.3
            },
            {
              "TalkSentenceID": 201072412,
              "ProtectTime": 0.3
            },
            {
              "TalkSentenceID": 201072413,
              "ProtectTime": 0.3
            },
            {
              "TalkSentenceID": 201072414,
              "ProtectTime": 0.3
            }
          ]
        },
        {
          "$type": "RPG.GameCore.WaitSimpleTalkFinish"
        },
        {
          "$type": "RPG.GameCore.TriggerCustomString",
          "CustomString": {
            "Value": "ALL_TALK_END"
          }
        }
      ]
    },
    {
      "TaskList": [
        {
          "$type": "RPG.GameCore.WaitCustomString",
          "CustomString": {
            "Value": "ALL_TALK_END"
          }
        },
        {
          "$type": "RPG.GameCore.PerformanceTransition",
          "SwitchInTime": 0,
          "SwitchOutTime": 0,
          "CreateNpcList": [],
          "DestroyNpcList": [
            {
              "GroupID": 18,
              "GroupNpcID": 400001
            },
            {
              "GroupID": 18,
              "GroupNpcID": 400002
            }
          ],
          "ActiveVirtualCamera": {
            "AreaName": "Act201070315",
            "AnchorName": "Camera01",
            "IsActive": false
          },
          "SwitchCharacterAnchor": {
            "TaskEnabled": false
          }
        },
        {
          "$type": "RPG.GameCore.RemoveLevelAreas",
          "AreaName": {
            "Value": "Act201070315"
          }
        },
        {
          "$type": "RPG.GameCore.EndPerformance"
        }
      ]
    },
    {
      "TaskList": [
        {
          "$type": "RPG.GameCore.WaitPerformanceEnd"
        },
        {
          "$type": "RPG.GameCore.FinishLevelGraph"
        }
      ]
    }
  ]
}