{
  "MainMissionID": 2010731,
  "StartSubMissionList": [
    201073101
  ],
  "FinishSubMissionList": [
    201073101
  ],
  "SubMissionList": [
    {
      "MainMissionID": 2010731,
      "MissionJsonPath": "Config/Level/Mission/2010731/Mission_201073101.json",
      "TakeParamIntList": [],
      "ID": 201073101,
      "FinishType": "BoxingClubAccomplish",
      "ParamType": "LessEqual",
      "ParamInt2": 1,
      "Progress": 1,
      "IsBackTrack": true
    }
  ]
}