{
  "MainMissionID": 4040225,
  "StartSubMissionList": [
    404022501
  ],
  "FinishSubMissionList": [
    404022501
  ],
  "SubMissionList": [
    {
      "MainMissionID": 4040225,
      "TakeType": "Auto",
      "ID": 404022501,
      "FinishType": "Talk",
      "ParamType": "Equal",
      "ParamStr1": "Mission_404022501",
      "ParamItemList": [],
      "Progress": 1
    }
  ]
}