{
  "OnInitSequece": [],
  "OnStartSequece": [
    {
      "TaskList": [
        {
          "$type": "RPG.GameCore.LevelPerformanceInitialize",
          "PerformanceType": "D",
          "LockCamera": false,
          "CreateCharacterList": [],
          "EntityVisiableList": [],
          "StreamingCentersInBlackMask": [],
          "StreamingCentersAfterBlackMask": []
        },
        {
          "$type": "RPG.GameCore.ActiveVirtualCamera",
          "AreaName": "MainMission_2000201",
          "AnchorName": "Camera_2000108_03",
          "WaitBlendFinish": true,
          "BlendConfig": {
            "ExportToJson": true,
            "BlendType": "EaseIn",
            "BlendTime": 2
          }
        },
        {
          "$type": "RPG.GameCore.PlaySimpleTalk",
          "SimpleTalkList": [
            {
              "TalkSentenceID": 100017110,
              "ProtectTime": 0.3
            }
          ]
        },
        {
          "$type": "RPG.GameCore.WaitSimpleTalkFinish"
        },
        {
          "$type": "RPG.GameCore.PlayOptionTalk",
          "OptionList": [
            {
              "TalkSentenceID": 100017111,
              "OptionIconType": "ChatIcon",
              "TriggerCustomString": "TalkSentence_100017111"
            },
            {
              "TalkSentenceID": 100017112,
              "OptionIconType": "ChatIcon",
              "TriggerCustomString": "TalkSentence_100017112"
            }
          ]
        }
      ]
    },
    {
      "TaskList": [
        {
          "$type": "RPG.GameCore.WaitCustomString",
          "CustomString": {
            "Value": "TalkSentence_100017111"
          }
        },
        {
          "$type": "RPG.GameCore.TriggerCustomString",
          "CustomString": {
            "Value": "Mission_200010806_1"
          }
        },
        {
          "$type": "RPG.GameCore.ActiveVirtualCamera",
          "AreaName": "MainMission_2000201",
          "AnchorName": "Camera_2000108_03",
          "IsActive": false,
          "WaitBlendFinish": true,
          "BlendConfig": {
            "ExportToJson": true,
            "BlendType": "EaseInOut",
            "BlendTime": 2
          }
        },
        {
          "$type": "RPG.GameCore.EndPerformance"
        }
      ]
    },
    {
      "TaskList": [
        {
          "$type": "RPG.GameCore.WaitCustomString",
          "CustomString": {
            "Value": "TalkSentence_100017112"
          }
        },
        {
          "$type": "RPG.GameCore.TriggerCustomString",
          "CustomString": {
            "Value": "Mission_200010806_2"
          }
        },
        {
          "$type": "RPG.GameCore.ActiveVirtualCamera",
          "AreaName": "MainMission_2000201",
          "AnchorName": "Camera_2000108_03",
          "IsActive": false,
          "WaitBlendFinish": true,
          "BlendConfig": {
            "ExportToJson": true,
            "BlendType": "EaseInOut",
            "BlendTime": 2
          }
        },
        {
          "$type": "RPG.GameCore.EndPerformance"
        }
      ]
    },
    {
      "TaskList": [
        {
          "$type": "RPG.GameCore.WaitPerformanceEnd"
        },
        {
          "$type": "RPG.GameCore.FinishLevelGraph"
        }
      ]
    }
  ]
}