{
  "OnInitSequece": [],
  "OnStartSequece": [
    {
      "TaskList": [
        {
          "$type": "RPG.GameCore.CaptureNPCToCharacter",
          "GroupID": {
            "IsDynamic": false,
            "FixedValue": {
              "Value": 23
            }
          },
          "GroupNpcID": {
            "IsDynamic": false,
            "FixedValue": {
              "Value": 400001
            }
          },
          "CharacterUniqueName": {
            "Value": "301101411_grn"
          }
        }
      ]
    },
    {
      "TaskList": [
        {
          "$type": "RPG.GameCore.LevelPerformanceInitialize",
          "PerformanceType": "E",
          "CreateCharacterList": [],
          "EntityVisiableList": [],
          "HideMunicipalCrowd": false,
          "HideMunicipalPedestrian": false,
          "PropVisiableList": [],
          "StreamingCentersInBlackMask": [],
          "StreamingCentersAfterBlackMask": [],
          "MarkStreamingItems": []
        },
        {
          "$type": "RPG.GameCore.CreateNPC",
          "GroupID": {
            "IsDynamic": false,
            "FixedValue": {
              "Value": 23
            }
          },
          "GroupNpcID": {
            "IsDynamic": false,
            "FixedValue": {
              "Value": 400002
            }
          }
        },
        {
          "$type": "RPG.GameCore.SwitchCharacterAnchor",
          "CharacterUniqueName": "LocalPlayer",
          "AreaName": {
            "Value": "LevelArea_P10102_F10102001_G23"
          },
          "AnchorName": {
            "Value": "Anchor1"
          },
          "ResetAnimation": false
        },
        {
          "$type": "RPG.GameCore.PlaySimpleTalk",
          "SimpleTalkList": [
            {
              "TalkSentenceID": 301101577,
              "ProtectTime": 0.3
            }
          ]
        },
        {
          "$type": "RPG.GameCore.WaitSimpleTalkFinish"
        },
        {
          "$type": "RPG.GameCore.TriggerCustomString",
          "CustomString": {
            "Value": "301101411_state"
          }
        },
        {
          "$type": "RPG.GameCore.PlayScreenTransfer",
          "Mode": "FullTransfer",
          "TransferFullDuration": {
            "KeepDuration": 1.5
          },
          "TextEnabled": true,
          "TalkSentenceID": 301101587
        },
        {
          "$type": "RPG.GameCore.PlaySimpleTalk",
          "SimpleTalkList": [
            {
              "TalkSentenceID": 301101578,
              "ProtectTime": 0.3
            },
            {
              "TalkSentenceID": 301101579,
              "ProtectTime": 0.3
            },
            {
              "TalkSentenceID": 301101580,
              "ProtectTime": 0.3
            },
            {
              "TalkSentenceID": 301101581
            },
            {
              "TalkSentenceID": 301101582
            },
            {
              "TalkSentenceID": 301101583
            }
          ]
        },
        {
          "$type": "RPG.GameCore.WaitSimpleTalkFinish"
        },
        {
          "$type": "RPG.GameCore.TriggerCustomString",
          "CustomString": {
            "Value": "301101411_start"
          }
        }
      ]
    },
    {
      "TaskList": [
        {
          "$type": "RPG.GameCore.WaitCustomString",
          "CustomString": {
            "Value": "301101411_state"
          }
        },
        {
          "$type": "RPG.GameCore.WaitSecond",
          "WaitTime": 0.7
        },
        {
          "$type": "RPG.GameCore.CharacterTriggerFreeStyle",
          "CharacterUniqueName": "301101411_grn",
          "StoryAvatarID": "NPC_Old",
          "StartMotion": "StandBy",
          "StoryMotionID": 100103000
        }
      ]
    },
    {
      "TaskList": [
        {
          "$type": "RPG.GameCore.WaitCustomString",
          "CustomString": {
            "Value": "301101411_start"
          }
        },
        {
          "$type": "RPG.GameCore.PerformanceTransition",
          "SwitchKeepTime": 0.8,
          "CreateNpcList": [
            {
              "GroupID": {
                "IsDynamic": false,
                "FixedValue": {
                  "Value": 23
                }
              },
              "GroupNpcID": {
                "IsDynamic": false,
                "FixedValue": {
                  "Value": 400004
                }
              }
            }
          ],
          "CaptureNpcList": [],
          "DestroyNpcList": [
            {
              "GroupID": 23,
              "GroupNpcID": 400002
            }
          ],
          "ActiveVirtualCamera": {
            "TaskEnabled": false
          },
          "SwitchCharacterAnchor": {
            "IsLocalPlayer": true,
            "CharacterUniqueName": "LocalPlayer",
            "AreaName": {
              "Value": "LevelArea_P10102_F10102003_G23"
            },
            "AnchorName": {
              "Value": "Anchor2"
            }
          }
        },
        {
          "$type": "RPG.GameCore.AdvNpcFaceToPlayer",
          "GroupID": 23,
          "GroupNpcID": 400004,
          "FinishImmadiate": true
        },
        {
          "$type": "RPG.GameCore.PlaySimpleTalk",
          "SimpleTalkList": [
            {
              "TalkSentenceID": 301101584,
              "ProtectTime": 0.3
            },
            {
              "TalkSentenceID": 301101585,
              "ProtectTime": 0.3
            },
            {
              "TalkSentenceID": 301101586,
              "ProtectTime": 0.3
            }
          ]
        },
        {
          "$type": "RPG.GameCore.WaitSimpleTalkFinish"
        },
        {
          "$type": "RPG.GameCore.PerformanceTransition",
          "CreateNpcList": [],
          "CaptureNpcList": [],
          "DestroyNpcList": [
            {
              "GroupID": 23,
              "GroupNpcID": 400004
            }
          ],
          "ActiveVirtualCamera": {
            "TaskEnabled": false
          },
          "SwitchCharacterAnchor": {
            "TaskEnabled": false
          }
        },
        {
          "$type": "RPG.GameCore.EndPerformance"
        }
      ]
    },
    {
      "TaskList": [
        {
          "$type": "RPG.GameCore.WaitPerformanceEnd"
        },
        {
          "$type": "RPG.GameCore.FinishLevelGraph"
        }
      ]
    }
  ]
}